{
  "Spase": {
    "xmlns:xsi": "http://www.w3.org/2001/XMLSchema-instance",
    "xmlns": "http://www.spase-group.org/data/schema",
    "xsi:schemaLocation": "http://www.spase-group.org/data/schema http://www.spase-group.org/data/schema/spase-2_3_2.xsd",
    "Version": "2.3.2",
    "NumericalData": {
      "ResourceID": "spase://NOAA/NumericalData/POES/8/SEM/MEPED/KeyParameter/PT1M",
      "ResourceHeader": {
        "ResourceName": "NOAA 08 Space Environment Monitor-1 (SEM-1) Medium Energy Proton and Electron Detector (MEPED) Re-processed Particle Count Rates, Fluxes, and Model Fields, 1 min Data",
        "ReleaseDate": "2021-04-27T17:52:57Z",
        "Description": "TIROS/NOAA SEM MEPED Reprocessed Data Archive.                      \n      This is the Reprocessed Version of the Medium Energy Proton Electron Detector, MEPED, Data Archive from the TIROS/NOAA Spacecraft. The raw Data from the NOAA Archive have been processed to 1 min Resolution. Magnetic Field Parameters including Geocentric Solar Magnetospheric, GSM, Bx, By, Bz, B/Bmin, and L Shell Values are derived by using four Magnetic Field Models:\n \n*  International Geomagnetic Reference Field, IGRF, \n*  Tsyganenko 1989, T89, \n*  Tsyganenko 1996, T96, and \n*  Tsyganenko 2001, T01.\n\nThe T89, T96, and T01 Magnetic Field Models have been driven with Solar Wind Input Parameters and Geomagnetic Indices obtained from the OMNI-2 Data Set. Detector Counts, Omnidirectional and Perpendicular Electron and Proton Fluxes are archived.  Processing was done by: S.F. Fung, L.C. Tan, and X. Shao, Space Physics Data Facility, Goddard Space Flight Center, NASA, Greenbelt, MD 20771, USA, e-mail: Shing.F.Fung@nasa.gov.",
        "Acknowledgement": "S.F. Fung, Please acknowledge NOAA/NGDC for providing the raw Data.",
        "Contact": [
          {
            "PersonID": "spase://SMWG/Person/Donald.J.Williams",
            "Role": "PrincipalInvestigator"
          },
          {
            "PersonID": "spase://SMWG/Person/Shing.F.Fung",
            "Role": "GeneralContact"
          },
          {
            "PersonID": "spase://SMWG/Person/Robert.E.McGuire",
            "Role": "MetadataContact"
          },
          {
            "PersonID": "spase://SMWG/Person/Lee.Frost.Bargatze",
            "Role": "MetadataContact"
          }
        ],
        "InformationURL": [
          {
            "Name": "NOAA/POES MEPED Data Reprocessing Documentation",
            "URL": "https://cdaweb.gsfc.nasa.gov/NOAA_POES_MEPED_GSFC_Data_Reprocessing.doc",
            "Description": "NOAA/POES MEPED Data Documentation: NOAA-5 to NOAA-14 Data Reprocessed at GSFC/SPDF, authored by Tan, L.C., Fung, S.F., and X. Shao, internal White Paper hosted by the CDAWeb at Goddard Space Flight Center, GSFC."
          },
          {
            "Name": "Polar Orbiting Environmental Satellites, POES, Web Page hosted by the NCEI at NOAA",
            "URL": "https://www.ngdc.noaa.gov/stp/satellite/poes/",
            "Description": "Polar Orbiting Environmental Satellites, POES, Web Page hosted by the National Center for Environmental Information, NCEI, at the National Oceanic and Atmospheric Administration, NOAA"
          }
        ],
        "PriorID": [
          "spase://NOAA/NumericalData/POES/8/SEM/MEPED/PT60S",
          "spase://VSPO/NumericalData/P_NOAA08_HDR_SEM_MEPED",
          "spase://VSPO/NumericalData/NOAA/8/SEM/PT60S"
        ]
      },
      "AccessInformation": [
        {
          "RepositoryID": "spase://SMWG/Repository/NASA/GSFC/SPDF",
          "Availability": "Online",
          "AccessRights": "Open",
          "AccessURL": [
            {
              "Name": "FTPS from SPDF (not with most browsers)",
              "URL": "ftps://spdf.gsfc.nasa.gov/pub/data/noaa/noaa08/",
              "Description": "Access to Data in CDF Format via ftp from SPDF"
            },
            {
              "Name": "HTTPS from SPDF",
              "URL": "https://spdf.gsfc.nasa.gov/pub/data/noaa/noaa08/",
              "Description": "Access to Data in CDF Format via http from SPDF"
            },
            {
              "Name": "CDAWeb",
              "URL": "https://cdaweb.gsfc.nasa.gov/cgi-bin/eval2.cgi?dataset=NOAA08_MEPED1MIN_SEM&index=sp_phys",
              "ProductKey": "NOAA08_MEPED1MIN_SEM",
              "Description": "Access to ASCII, CDF, and Plots via NASA/GSFC CDAWeb"
            }
          ],
          "Format": "CDF",
          "Encoding": "None",
          "Acknowledgement": "S.F. Fung, Please acknowledge NOAA/NGDC for providing the raw Data. Please acknowledge the Data Providers and CDAWeb when using these Data."
        },
        {
          "RepositoryID": "spase://SMWG/Repository/NASA/GSFC/SPDF",
          "Availability": "Online",
          "AccessRights": "Open",
          "AccessURL": {
            "Name": "CDAWeb HAPI Server",
            "URL": "https://cdaweb.gsfc.nasa.gov/hapi",
            "Style": "HAPI",
            "ProductKey": "NOAA08_MEPED1MIN_SEM",
            "Description": "Web Service to this product using the HAPI interface."
          },
          "Format": "CSV",
          "Acknowledgement": "S.F. Fung, Please acknowledge NOAA/NGDC for providing the raw Data. Please acknowledge the Data Providers and CDAWeb when using these Data."
        }
      ],
      "ProcessingLevel": "Calibrated",
      "InstrumentID": "spase://SMWG/Instrument/NOAA/8/SEM",
      "MeasurementType": [
        "EnergeticParticles",
        "Ephemeris",
        "InstrumentStatus",
        "MagneticField"
      ],
      "TemporalDescription": {
        "TimeSpan": {
          "StartDate": "1983-05-09T17:36:00.000",
          "StopDate": "1985-10-14T12:18:00.000"
        },
        "Cadence": "PT1M"
      },
      "Parameter": [
        {
          "Name": "Epoch Time Tags",
          "ParameterKey": "Epoch",
          "Description": "Epoch Time Tags",
          "Caveats": "This Parameter exhibits an increasing Monotonic Progression.",
          "Cadence": "PT1M",
          "RenderingHints": {
            "AxisLabel": "Epoch",
            "ScaleMin": "6.2419658619904e+13",
            "ScaleMax": "6.3745034619904e+13"
          },
          "ValidMin": "02-Nov-1978 00:00:00.000",
          "ValidMax": "01-Jan-2020 00:00:00.000",
          "FillValue": "-1.0e+31",
          "Support": {
            "SupportQuantity": "Temporal"
          }
        },
        {
          "Name": "Time PB5",
          "Set": "Time Series defined by using: EPOCH",
          "ParameterKey": "Time_PB5",
          "Description": "Time in PB5 Format: Year, Day, Milliseconds, Observation Time",
          "Cadence": "PT1M",
          "RenderingHints": {
            "AxisLabel": "Time",
            "ValueFormat": "I6",
            "ScaleMin": "1978",
            "ScaleMax": "2020"
          },
          "Structure": {
            "Size": "6"
          },
          "ValidMin": "1978",
          "ValidMax": "2020",
          "FillValue": "-2147483648",
          "Support": {
            "SupportQuantity": "Temporal"
          }
        },
        {
          "Name": "Day of Year, Fractional",
          "Set": "Time Series defined by using: EPOCH",
          "ParameterKey": "Doy",
          "Description": "Day of Year, DOY, Fractional",
          "Cadence": "PT1M",
          "RenderingHints": {
            "DisplayType": "TimeSeries",
            "AxisLabel": "DOY",
            "ValueFormat": "F6.2",
            "ScaleMin": "1.0",
            "ScaleMax": "400.0"
          },
          "ValidMin": "1.0",
          "ValidMax": "400.0",
          "FillValue": "-1.0e+31",
          "Support": {
            "SupportQuantity": "Temporal"
          }
        },
        {
          "Name": "Spacecraft Position, Altitude, Geographic Spherical Coordinates",
          "Set": "Time Series defined by using: EPOCH",
          "ParameterKey": "altitude",
          "Description": "Spacecraft Position, Altitude, Geographic, GEO, Spherical Coordinates",
          "Cadence": "PT1M",
          "Units": "km",
          "UnitsConversion": "1.0e3>m",
          "CoordinateSystem": {
            "CoordinateRepresentation": "Spherical",
            "CoordinateSystemName": "GEO"
          },
          "RenderingHints": {
            "DisplayType": "TimeSeries",
            "AxisLabel": "Altitude",
            "ValueFormat": "F7.2",
            "ScaleMin": "100.0",
            "ScaleMax": "1000.0"
          },
          "ValidMin": "100.0",
          "ValidMax": "1000.0",
          "FillValue": "-1.0e+31",
          "Support": {
            "Qualifier": "Scalar",
            "SupportQuantity": "Positional"
          }
        },
        {
          "Name": "Spacecraft Position, Latitude, Geographic Spherical Coordinates",
          "Set": "Time Series defined by using: EPOCH",
          "ParameterKey": "latitude",
          "Description": "Spacecraft Position, Latitude, Geographic, GEO, Spherical Coordinates",
          "Cadence": "PT1M",
          "Units": "°",
          "UnitsConversion": "0.0174532925>rad",
          "CoordinateSystem": {
            "CoordinateRepresentation": "Spherical",
            "CoordinateSystemName": "GEO"
          },
          "RenderingHints": {
            "DisplayType": "TimeSeries",
            "AxisLabel": "Latitude",
            "ValueFormat": "F6.2",
            "ScaleMin": "-90.0",
            "ScaleMax": "90.0"
          },
          "ValidMin": "-90.0",
          "ValidMax": "90.0",
          "FillValue": "-1.0e+31",
          "Support": {
            "Qualifier": [
              "DirectionAngle.ElevationAngle",
              "Scalar"
            ],
            "SupportQuantity": "Positional"
          }
        },
        {
          "Name": "Spacecraft Position, Longitude, Geographic Spherical Coordinates",
          "Set": "Time Series defined by using: EPOCH",
          "ParameterKey": "longitude",
          "Description": "Spacecraft Position, Longitude, Geographic, GEO, Spherical Coordinates",
          "Cadence": "PT1M",
          "Units": "°",
          "UnitsConversion": "0.0174532925>rad",
          "CoordinateSystem": {
            "CoordinateRepresentation": "Spherical",
            "CoordinateSystemName": "GEO"
          },
          "RenderingHints": {
            "DisplayType": "TimeSeries",
            "AxisLabel": "Longitude",
            "ValueFormat": "F6.2",
            "ScaleMin": "0.0",
            "ScaleMax": "360.0"
          },
          "ValidMin": "0.0",
          "ValidMax": "360.0",
          "FillValue": "-1.0e+31",
          "Support": {
            "Qualifier": [
              "DirectionAngle.AzimuthAngle",
              "Scalar"
            ],
            "SupportQuantity": "Positional"
          }
        },
        {
          "Name": "Spacecraft Position, Magnetic Local Time, Solar Magnetospheric Coordinates",
          "Set": "Time Series defined by using: EPOCH",
          "ParameterKey": "sm_mlt",
          "Description": "Spacecraft Position, Magnetic Local Time, Solar Magnetospheric, SM, Spherical Coordinates",
          "Cadence": "PT1M",
          "Units": "°",
          "UnitsConversion": "0.0174532925>rad",
          "CoordinateSystem": {
            "CoordinateRepresentation": "Spherical",
            "CoordinateSystemName": "SM"
          },
          "RenderingHints": {
            "DisplayType": "TimeSeries",
            "AxisLabel": "SM_MLT",
            "ValueFormat": "F6.2",
            "ScaleMin": "0.0",
            "ScaleMax": "360.0"
          },
          "ValidMin": "0.0",
          "ValidMax": "360.0",
          "FillValue": "-1.0e+31",
          "Support": {
            "Qualifier": [
              "DirectionAngle.AzimuthAngle",
              "Scalar"
            ],
            "SupportQuantity": "Positional"
          }
        },
        {
          "Name": "Pitch Angle for MEPED Proton and Electron 0° Telescopes",
          "Set": "Time Series defined by using: EPOCH",
          "ParameterKey": "pa0",
          "Description": "Pitch Angle for MEPED Proton and Electron 0° Telescopes",
          "Cadence": "PT1M",
          "Units": "°",
          "UnitsConversion": "0.0174532925>rad",
          "RenderingHints": {
            "DisplayType": "TimeSeries",
            "AxisLabel": "Pitch0",
            "ValueFormat": "F8.1",
            "ScaleMin": "0.0",
            "ScaleMax": "180.0"
          },
          "ValidMin": "0.0",
          "ValidMax": "180.0",
          "FillValue": "-1.0e+31",
          "Particle": {
            "ParticleType": [
              "Electron",
              "Proton"
            ],
            "Qualifier": [
              "DirectionAngle.PolarAngle",
              "Scalar"
            ],
            "ParticleQuantity": "ArrivalDirection",
            "AtomicNumber": [
              "1",
              "1"
            ]
          }
        },
        {
          "Name": "Pitch Angle for MEPED Proton 81° Telescope",
          "Set": "Time Series defined by using: EPOCH",
          "ParameterKey": "pa81",
          "Description": "Pitch Angle for MEPED Proton 81° Telescope",
          "Cadence": "PT1M",
          "Units": "°",
          "UnitsConversion": "0.0174532925>rad",
          "RenderingHints": {
            "DisplayType": "TimeSeries",
            "AxisLabel": "Pitch81",
            "ValueFormat": "F8.1",
            "ScaleMin": "0.0",
            "ScaleMax": "180.0"
          },
          "ValidMin": "0.0",
          "ValidMax": "180.0",
          "FillValue": "-1.0e+31",
          "Particle": {
            "ParticleType": "Proton",
            "Qualifier": [
              "DirectionAngle.PolarAngle",
              "Scalar"
            ],
            "ParticleQuantity": "ArrivalDirection",
            "AtomicNumber": "1"
          }
        },
        {
          "Name": "Pitch Angle for MEPED Electron 83° Telescope",
          "Set": "Time Series defined by using: EPOCH",
          "ParameterKey": "pa83",
          "Description": "Pitch Angle for MEPED Electron 83° Telescope",
          "Cadence": "PT1M",
          "Units": "°",
          "UnitsConversion": "0.0174532925>rad",
          "RenderingHints": {
            "DisplayType": "TimeSeries",
            "AxisLabel": "Pitch83",
            "ValueFormat": "F8.1",
            "ScaleMin": "0.0",
            "ScaleMax": "180.0"
          },
          "ValidMin": "0.0",
          "ValidMax": "180.0",
          "FillValue": "-1.0e+31",
          "Particle": {
            "ParticleType": "Electron",
            "Qualifier": [
              "DirectionAngle.PolarAngle",
              "Scalar"
            ],
            "ParticleQuantity": "ArrivalDirection"
          }
        },
        {
          "Name": "MEPED Detector, Data Quality Flag",
          "Set": "Time Series defined by using: EPOCH",
          "ParameterKey": "quality",
          "Description": "MEPED Detector, Data Quality Flag: 0=Good, -1=Bad",
          "Cadence": "PT1M",
          "RenderingHints": {
            "DisplayType": "TimeSeries",
            "AxisLabel": "QualFlag",
            "ValueFormat": "I2"
          },
          "ValidMin": "-1",
          "ValidMax": "0",
          "FillValue": "-32768",
          "Support": {
            "Qualifier": "Scalar",
            "SupportQuantity": "InstrumentMode"
          }
        },
        {
          "Name": "MEPED Count Rates 0° Telescopes",
          "Set": "Time Series defined by using: EPOCH",
          "ParameterKey": "counts_0dg",
          "Description": "MEPED Count Rates 0° Telescopes, five Proton and three Electron Energy Bands, counts_0dg",
          "Cadence": "PT1M",
          "Units": "s^-1",
          "RenderingHints": {
            "DisplayType": "TimeSeries",
            "ValueFormat": "E12.4",
            "ScaleType": "LogScale"
          },
          "Structure": {
            "Size": "8",
            "Element": [
              {
                "Name": "30-80kev_prtn(0_dg)",
                "Index": "1"
              },
              {
                "Name": "80-250kev_prtn(0_dg)",
                "Index": "2"
              },
              {
                "Name": "250-800kev_prtn(0_dg)",
                "Index": "3"
              },
              {
                "Name": "800-2500kev_prtn(0_dg)",
                "Index": "4"
              },
              {
                "Name": ">2500kev_prtn(0_dg)",
                "Index": "5"
              },
              {
                "Name": ">30kev_elec(0_dg)",
                "Index": "6"
              },
              {
                "Name": ">100kev_elec(0_dg)",
                "Index": "7"
              },
              {
                "Name": ">300kev_elec(0_dg)",
                "Index": "8"
              }
            ]
          },
          "ValidMin": "0.0001",
          "ValidMax": "1.0e+09",
          "FillValue": "-1.0e+31",
          "Particle": {
            "ParticleType": [
              "Electron",
              "Proton"
            ],
            "Qualifier": "Vector",
            "ParticleQuantity": "CountRate",
            "AtomicNumber": [
              "1",
              "1"
            ]
          }
        },
        {
          "Name": "MEPED Count Rates, 81° and 83° Telescopes",
          "Set": "Time Series defined by using: EPOCH",
          "ParameterKey": "counts_90dg",
          "Description": "MEPED Count Rates, 81° and 83° Telescopes, five Proton and three Electron Energy Bands",
          "Cadence": "PT1M",
          "Units": "s^-1",
          "RenderingHints": {
            "DisplayType": "TimeSeries",
            "ValueFormat": "E12.4",
            "ScaleType": "LogScale"
          },
          "Structure": {
            "Size": "8",
            "Element": [
              {
                "Name": "30-80kev_prtn(81_dg)",
                "Index": "1"
              },
              {
                "Name": "80-250kev_prtn(81_dg)",
                "Index": "2"
              },
              {
                "Name": "250-800kev_prtn(81_dg)",
                "Index": "3"
              },
              {
                "Name": "800-2500kev_prtn(81_dg)",
                "Index": "4"
              },
              {
                "Name": ">2500kev_prtn(81_dg)",
                "Index": "5"
              },
              {
                "Name": ">30kev_elec(83_dg)",
                "Index": "6"
              },
              {
                "Name": ">100kev_elec(83_dg)",
                "Index": "7"
              },
              {
                "Name": ">300kev_elec(83_dg)",
                "Index": "8"
              }
            ]
          },
          "ValidMin": "0.0001",
          "ValidMax": "1.0e+09",
          "FillValue": "-1.0e+31",
          "Particle": {
            "ParticleType": [
              "Electron",
              "Proton"
            ],
            "Qualifier": "Vector",
            "ParticleQuantity": "CountRate",
            "AtomicNumber": [
              "1",
              "1"
            ]
          }
        },
        {
          "Name": "MEPED Count Rates, Omnidirectional Telescope",
          "Set": "Time Series defined by using: EPOCH",
          "ParameterKey": "counts_omni",
          "Description": "MEPED Count Rates, Omnidirectional Telescope, three Proton Energy Bands",
          "Cadence": "PT1M",
          "Units": "s^-1",
          "RenderingHints": {
            "DisplayType": "TimeSeries",
            "ValueFormat": "E12.4",
            "ScaleType": "LogScale"
          },
          "Structure": {
            "Size": "3",
            "Element": [
              {
                "Name": ">16MeV_prtn(Omni)",
                "Index": "1"
              },
              {
                "Name": ">36MeV_prtn(Omni)",
                "Index": "2"
              },
              {
                "Name": ">80MeV_prtn(Omni)",
                "Index": "3"
              }
            ]
          },
          "ValidMin": "0.0001",
          "ValidMax": "1.0e+09",
          "FillValue": "-1.0e+31",
          "Particle": {
            "ParticleType": "Proton",
            "Qualifier": "Vector",
            "ParticleQuantity": "CountRate",
            "AtomicNumber": "1"
          }
        },
        {
          "Name": "MEPED calculated Perpendicular Proton Flux",
          "Set": "Time Series defined by using: EPOCH",
          "ParameterKey": "Jperp_p",
          "Description": "MEPED calculated Perpendicular Proton Flux, five Energy Bands",
          "Cadence": "PT1M",
          "Units": "(cm^2 s sr)^-1",
          "UnitsConversion": "1.0e4>(m^2 s sr)",
          "RenderingHints": {
            "DisplayType": "TimeSeries",
            "ValueFormat": "E12.4",
            "ScaleType": "LogScale"
          },
          "Structure": {
            "Size": "5",
            "Element": [
              {
                "Name": "Jperp_(30-80kev_prtn)",
                "Index": "1"
              },
              {
                "Name": "Jperp_(80-250kev_prtn)",
                "Index": "2"
              },
              {
                "Name": "Jperp_(250-800kev_prtn)",
                "Index": "3"
              },
              {
                "Name": "Jperp_(800-2500kev_prtn)",
                "Index": "4"
              },
              {
                "Name": "Jperp_(>2500kev_prtn)",
                "Index": "5"
              }
            ]
          },
          "ValidMin": "0.0001",
          "ValidMax": "1.0e+10",
          "FillValue": "-1.0e+31",
          "Particle": {
            "ParticleType": "Proton",
            "Qualifier": [
              "Perpendicular",
              "Vector"
            ],
            "ParticleQuantity": "NumberFlux",
            "AtomicNumber": "1"
          }
        },
        {
          "Name": "MEPED calculated Perpendicular Electron Flux",
          "Set": "Time Series defined by using: EPOCH",
          "ParameterKey": "Jperp_e",
          "Description": "MEPED calculated Perpendicular Electron Flux, three Energy Bands",
          "Cadence": "PT1M",
          "Units": "(cm^2 s sr q^-1)^-1",
          "UnitsConversion": "1.0e4>(m^2 s sr q^-1)^-1",
          "RenderingHints": {
            "DisplayType": "TimeSeries",
            "ValueFormat": "E12.4",
            "ScaleType": "LogScale"
          },
          "Structure": {
            "Size": "3",
            "Element": [
              {
                "Name": "Jperp_(>30kev_elec)",
                "Index": "1"
              },
              {
                "Name": "Jperp_(>100kev_elec)",
                "Index": "2"
              },
              {
                "Name": "Jperp_(>300kev_elec)",
                "Index": "3"
              }
            ]
          },
          "ValidMin": "0.0001",
          "ValidMax": "1.0e+10",
          "FillValue": "-1.0e+31",
          "Particle": {
            "ParticleType": "Electron",
            "Qualifier": [
              "Perpendicular",
              "Vector"
            ],
            "ParticleQuantity": "NumberFlux"
          }
        },
        {
          "Name": "MEPED calculated Omnidirectional Proton Flux",
          "Set": "Time Series defined by using: EPOCH",
          "ParameterKey": "Jomni_p",
          "Description": "MEPED calculated Omnidirectional Proton Flux, five Energy Bands from the 0° Telescope, the 81° Telescope, and three Omnidirectional Telescopes",
          "Cadence": "PT1M",
          "Units": "(cm^2 s sr)^-1",
          "UnitsConversion": "1.0e4>(m^2 s sr)",
          "RenderingHints": {
            "DisplayType": "TimeSeries",
            "ValueFormat": "E12.4",
            "ScaleType": "LogScale"
          },
          "Structure": {
            "Size": "8",
            "Element": [
              {
                "Name": "Jomni (30-80kev_prtn)",
                "Index": "1"
              },
              {
                "Name": "Jomni (80-250kev_prtn)",
                "Index": "2"
              },
              {
                "Name": "Jomni (250-800kev_prtn)",
                "Index": "3"
              },
              {
                "Name": "Jomni (800-2500kev_prtn)",
                "Index": "4"
              },
              {
                "Name": "Jomni (>2500kev_prtn)",
                "Index": "5"
              },
              {
                "Name": "Jomni (>16MeV_prtn)",
                "Index": "6"
              },
              {
                "Name": "Jomni (>36MeV_prtn)",
                "Index": "7"
              },
              {
                "Name": "Jomni (>80MeV_prtn)",
                "Index": "8"
              }
            ]
          },
          "ValidMin": "0.0001",
          "ValidMax": "1.0e+10",
          "FillValue": "-1.0e+31",
          "Particle": {
            "ParticleType": "Proton",
            "Qualifier": "Vector",
            "ParticleQuantity": "NumberFlux",
            "AtomicNumber": "1"
          }
        },
        {
          "Name": "MEPED calculated Omnidirectional Electron Flux",
          "Set": "Time Series defined by using: EPOCH",
          "ParameterKey": "Jomni_e",
          "Description": "MEPED calculated Omnidirectional Electron Flux, three Energy Bands from the 0° Telescope and the 83° Telescopes",
          "Cadence": "PT1M",
          "Units": "(cm^2 s sr q^-1)^-1",
          "UnitsConversion": "1.0e4>(m^2 s sr q^-1)^-1",
          "RenderingHints": {
            "DisplayType": "TimeSeries",
            "ValueFormat": "E12.4",
            "ScaleType": "LogScale"
          },
          "Structure": {
            "Size": "3",
            "Element": [
              {
                "Name": "Jomni (>30kev_elec)",
                "Index": "1"
              },
              {
                "Name": "Jomni (>100kev_elec)",
                "Index": "2"
              },
              {
                "Name": "Jomni (>300kev_elec)",
                "Index": "3"
              }
            ]
          },
          "ValidMin": "0.0001",
          "ValidMax": "1.0e+10",
          "FillValue": "-1.0e+31",
          "Particle": {
            "ParticleType": "Electron",
            "Qualifier": "Vector",
            "ParticleQuantity": "NumberFlux"
          }
        },
        {
          "Name": "Magnetic Field Vector, Geocentric Solar Magnetospheric Cartesian Coordinates, IGRF Model",
          "Set": "Time Series defined by using: EPOCH",
          "ParameterKey": "IGRF_gsmB",
          "Description": "Magnetic Field Vector, Geocentric Solar Magnetospheric, GSM, Cartesian Coordinates, calculated by using the International Geomagnetic Reference Field, IGRF, Model",
          "Cadence": "PT1M",
          "Units": "nT",
          "UnitsConversion": "1.0e-9>T",
          "CoordinateSystem": {
            "CoordinateRepresentation": "Cartesian",
            "CoordinateSystemName": "GSM"
          },
          "RenderingHints": {
            "DisplayType": "TimeSeries",
            "ValueFormat": "F8.1"
          },
          "Structure": {
            "Size": "3",
            "Element": [
              {
                "Name": "IGRF_GSM_Bx",
                "Index": "1"
              },
              {
                "Name": "IGRF_GSM_By",
                "Index": "2"
              },
              {
                "Name": "IGRF_GSM_Bz",
                "Index": "3"
              }
            ]
          },
          "ValidMin": "-100000.0",
          "ValidMax": "100000.0",
          "FillValue": "-1.0e+31",
          "Field": {
            "Qualifier": "Vector",
            "FieldQuantity": "Magnetic"
          }
        },
        {
          "Name": "Ratio of the Magnetic Field Magnitude divided by the Minimum Magnitude on the Field Line, B/Bmin, Geocentric Solar Magnetospheric Cartesian Coordinates, IGRF Model",
          "Set": "Time Series defined by using: EPOCH",
          "ParameterKey": "IGRF_B_Bmin",
          "Description": "Ratio of the Magnetic Field Magnitude divided by the Minimum Magnitude on the Field Line, B/Bmin, Geocentric Solar Magnetospheric, GSM, Cartesian Coordinates, calculated by using the International Geomagnetic Reference Field, IGRF, Model",
          "Cadence": "PT1M",
          "RenderingHints": {
            "DisplayType": "TimeSeries",
            "AxisLabel": "IGRF_B/Bmin",
            "ValueFormat": "F9.2",
            "ScaleMin": "0.0",
            "ScaleMax": "1.0e+06"
          },
          "ValidMin": "0.0",
          "ValidMax": "1.0e+06",
          "FillValue": "-1.0e+31",
          "Field": {
            "Qualifier": [
              "Magnitude",
              "Ratio",
              "Scalar"
            ],
            "FieldQuantity": "Magnetic"
          }
        },
        {
          "Name": "Spacecraft Position, McIlwain L Shell Value, Geocentric Solar Magnetospheric Cartesian Coordinates, IGRF Model",
          "Set": "Time Series defined by using: EPOCH",
          "ParameterKey": "IGRF_Lm",
          "Description": "Spacecraft Position, McIlwain L Shell Value, Geocentric Solar Magnetospheric, GSM, Cartesian Coordinates, calculated by using the International Geomagnetic Reference Field, IGRF, Model",
          "Cadence": "PT1M",
          "RenderingHints": {
            "DisplayType": "TimeSeries",
            "AxisLabel": "IGRF_Lm",
            "ValueFormat": "F8.4",
            "ScaleMin": "1.0",
            "ScaleMax": "15.0"
          },
          "ValidMin": "1.0",
          "ValidMax": "15.0",
          "FillValue": "-1.0e+31",
          "Support": {
            "Qualifier": [
              "Magnitude",
              "Scalar"
            ],
            "SupportQuantity": "Positional"
          }
        },
        {
          "Name": "Magnetic Field Vector, Geocentric Solar Magnetospheric Cartesian Coordinates, T89 Model",
          "Set": "Time Series defined by using: EPOCH",
          "ParameterKey": "T89_gsmB",
          "Description": "Magnetic Field Vector, Geocentric Solar Magnetospheric, GSM, Cartesian Coordinates, calculated by using the Tsyganenko 1989, T89, Model",
          "Cadence": "PT1M",
          "Units": "nT",
          "UnitsConversion": "1.0e-9>T",
          "CoordinateSystem": {
            "CoordinateRepresentation": "Cartesian",
            "CoordinateSystemName": "GSM"
          },
          "RenderingHints": {
            "DisplayType": "TimeSeries",
            "ValueFormat": "F8.1"
          },
          "Structure": {
            "Size": "3",
            "Element": [
              {
                "Name": "T89_GSM_Bx",
                "Index": "1"
              },
              {
                "Name": "T89_GSM_By",
                "Index": "2"
              },
              {
                "Name": "T89_GSM_Bz",
                "Index": "3"
              }
            ]
          },
          "ValidMin": "-100000.0",
          "ValidMax": "100000.0",
          "FillValue": "-1.0e+31",
          "Field": {
            "Qualifier": "Vector",
            "FieldQuantity": "Magnetic"
          }
        },
        {
          "Name": "Ratio of the Magnetic Field Magnitude divided by the Minimum Magnitude on the Field Line, B/Bmin, Geocentric Solar Magnetospheric Cartesian Coordinates, T89 Model",
          "Set": "Time Series defined by using: EPOCH",
          "ParameterKey": "T89_B_Bmin",
          "Description": "Ratio of the Magnetic Field Magnitude divided by the Minimum Magnitude on the Field Line, B/Bmin, Geocentric Solar Magnetospheric, GSM, Cartesian Coordinates, calculated by using the Tsyganenko 1989, T89, Model",
          "Cadence": "PT1M",
          "RenderingHints": {
            "DisplayType": "TimeSeries",
            "AxisLabel": "T89_B/Bmin",
            "ValueFormat": "F9.2",
            "ScaleMin": "0.0",
            "ScaleMax": "1.0e+06"
          },
          "ValidMin": "0.0",
          "ValidMax": "1.0e+06",
          "FillValue": "-1.0e+31",
          "Field": {
            "Qualifier": [
              "Magnitude",
              "Ratio",
              "Scalar"
            ],
            "FieldQuantity": "Magnetic"
          }
        },
        {
          "Name": "Spacecraft Position, McIlwain L Shell Value, Geocentric Solar Magnetospheric Cartesian Coordinates, T89 Model",
          "Set": "Time Series defined by using: EPOCH",
          "ParameterKey": "T89_Lm",
          "Description": "Spacecraft Position, McIlwain L Shell Value, Geocentric Solar Magnetospheric, GSM, Cartesian Coordinates, calculated by using the Tsyganenko 1989, T89, Model",
          "Cadence": "PT1M",
          "RenderingHints": {
            "DisplayType": "TimeSeries",
            "AxisLabel": "T89_Lm",
            "ValueFormat": "F8.4",
            "ScaleMin": "1.0",
            "ScaleMax": "15.0"
          },
          "ValidMin": "1.0",
          "ValidMax": "15.0",
          "FillValue": "-1.0e+31",
          "Support": {
            "Qualifier": [
              "Magnitude",
              "Scalar"
            ],
            "SupportQuantity": "Positional"
          }
        },
        {
          "Name": "Magnetic Field Vector, Geocentric Solar Magnetospheric Cartesian Coordinates, T96 Model",
          "Set": "Time Series defined by using: EPOCH",
          "ParameterKey": "T96_gsmB",
          "Description": "Magnetic Field Vector, Geocentric Solar Magnetospheric, GSM, Cartesian Coordinates, calculated by using the Tsyganenko 1996, T96, Model",
          "Cadence": "PT1M",
          "Units": "nT",
          "UnitsConversion": "1.0e-9>T",
          "CoordinateSystem": {
            "CoordinateRepresentation": "Cartesian",
            "CoordinateSystemName": "GSM"
          },
          "RenderingHints": {
            "DisplayType": "TimeSeries",
            "ValueFormat": "F8.1"
          },
          "Structure": {
            "Size": "3",
            "Element": [
              {
                "Name": "T96_GSM_Bx",
                "Index": "1"
              },
              {
                "Name": "T96_GSM_By",
                "Index": "2"
              },
              {
                "Name": "T96_GSM_Bz",
                "Index": "3"
              }
            ]
          },
          "ValidMin": "-100000.0",
          "ValidMax": "100000.0",
          "FillValue": "-1.0e+31",
          "Field": {
            "Qualifier": "Vector",
            "FieldQuantity": "Magnetic"
          }
        },
        {
          "Name": "Ratio of the Magnetic Field Magnitude divided by the Minimum Magnitude on the Field Line, B/Bmin, Geocentric Solar Magnetospheric Cartesian Coordinates, T96 Model",
          "Set": "Time Series defined by using: EPOCH",
          "ParameterKey": "T96_B_Bmin",
          "Description": "Ratio of the Magnetic Field Magnitude divided by the Minimum Magnitude on the Field Line, B/Bmin, Geocentric Solar Magnetospheric, GSM, Cartesian Coordinates, calculated by using the Tsyganenko 1996, T96, Model",
          "Cadence": "PT1M",
          "RenderingHints": {
            "DisplayType": "TimeSeries",
            "AxisLabel": "T96_B/Bmin",
            "ValueFormat": "F9.2",
            "ScaleMin": "0.0",
            "ScaleMax": "1.0e+06"
          },
          "ValidMin": "0.0",
          "ValidMax": "1.0e+06",
          "FillValue": "-1.0e+31",
          "Field": {
            "Qualifier": [
              "Magnitude",
              "Ratio",
              "Scalar"
            ],
            "FieldQuantity": "Magnetic"
          }
        },
        {
          "Name": "Spacecraft Position, McIlwain L Shell Value, Geocentric Solar Magnetospheric Cartesian Coordinates, T96 Model",
          "Set": "Time Series defined by using: EPOCH",
          "ParameterKey": "T96_Lm",
          "Description": "Spacecraft Position, McIlwain L Shell Value, Geocentric Solar Magnetospheric, GSM, Cartesian Coordinates, calculated by using the Tsyganenko 1996, T96, Model",
          "Cadence": "PT1M",
          "RenderingHints": {
            "DisplayType": "TimeSeries",
            "AxisLabel": "T96_Lm",
            "ValueFormat": "F8.4",
            "ScaleMin": "1.0",
            "ScaleMax": "15.0"
          },
          "ValidMin": "1.0",
          "ValidMax": "15.0",
          "FillValue": "-1.0e+31",
          "Support": {
            "Qualifier": [
              "Magnitude",
              "Scalar"
            ],
            "SupportQuantity": "Positional"
          }
        },
        {
          "Name": "Magnetic Field Vector, Geocentric Solar Magnetospheric Cartesian Coordinates, T01 Model",
          "Set": "Time Series defined by using: EPOCH",
          "ParameterKey": "T01_gsmB",
          "Description": "Magnetic Field Vector, Geocentric Solar Magnetospheric, GSM, Cartesian Coordinates, calculated by using the Tsyganenko 2001, T01, Model",
          "Cadence": "PT1M",
          "Units": "nT",
          "UnitsConversion": "1.0e-9>T",
          "CoordinateSystem": {
            "CoordinateRepresentation": "Cartesian",
            "CoordinateSystemName": "GSM"
          },
          "RenderingHints": {
            "DisplayType": "TimeSeries",
            "ValueFormat": "F8.1"
          },
          "Structure": {
            "Size": "3",
            "Element": [
              {
                "Name": "T01_GSM_Bx",
                "Index": "1"
              },
              {
                "Name": "T01_GSM_By",
                "Index": "2"
              },
              {
                "Name": "T01_GSM_Bz",
                "Index": "3"
              }
            ]
          },
          "ValidMin": "-100000.0",
          "ValidMax": "100000.0",
          "FillValue": "-1.0e+31",
          "Field": {
            "Qualifier": "Vector",
            "FieldQuantity": "Magnetic"
          }
        },
        {
          "Name": "Ratio of the Magnetic Field Magnitude divided by the Minimum Magnitude on the Field Line, B/Bmin, Geocentric Solar Magnetospheric Cartesian Coordinates, T01 Model",
          "Set": "Time Series defined by using: EPOCH",
          "ParameterKey": "T01_B_Bmin",
          "Description": "Ratio of the Magnetic Field Magnitude divided by the Minimum Magnitude on the Field Line, B/Bmin, Geocentric Solar Magnetospheric, GSM, Cartesian Coordinates, calculated by using the Tsyganenko 2001, T01, Model",
          "Cadence": "PT1M",
          "RenderingHints": {
            "DisplayType": "TimeSeries",
            "AxisLabel": "T01_B/Bmin",
            "ValueFormat": "F9.2",
            "ScaleMin": "0.0",
            "ScaleMax": "1.0e+06"
          },
          "ValidMin": "0.0",
          "ValidMax": "1.0e+06",
          "FillValue": "-1.0e+31",
          "Field": {
            "Qualifier": [
              "Magnitude",
              "Ratio",
              "Scalar"
            ],
            "FieldQuantity": "Magnetic"
          }
        },
        {
          "Name": "Spacecraft Position, McIlwain L Shell Value, Geocentric Solar Magnetospheric Cartesian Coordinates, T01 Model",
          "Set": "Time Series defined by using: EPOCH",
          "ParameterKey": "T01_Lm",
          "Description": "Spacecraft Position, McIlwain L Shell Value, Geocentric Solar Magnetospheric, GSM, Cartesian Coordinates, calculated by using the Tsyganenko 2001, T01, Model",
          "Cadence": "PT1M",
          "RenderingHints": {
            "DisplayType": "TimeSeries",
            "AxisLabel": "T01_Lm",
            "ValueFormat": "F8.4",
            "ScaleMin": "1.0",
            "ScaleMax": "15.0"
          },
          "ValidMin": "1.0",
          "ValidMax": "15.0",
          "FillValue": "-1.0e+31",
          "Support": {
            "Qualifier": [
              "Magnitude",
              "Scalar"
            ],
            "SupportQuantity": "Positional"
          }
        }
      ]
    }
  }
}