{
  "Spase": {
    "xmlns": "http://www.spase-group.org/data/schema",
    "xmlns:xsi": "http://www.w3.org/2001/XMLSchema-instance",
    "xsi:schemaLocation": "http://www.spase-group.org/data/schema  https://www.spase-group.org/data/schema/spase-2_3_2.xsd",
    "Version": "2.3.2",
    "NumericalData": {
      "ResourceID": "spase://NASA/NumericalData/STEREO-A/IMPACT/LET/L1/PT1M",
      "ResourceHeader": {
        "ResourceName": "STEREO-A IMPACT (In-Situ Measurements of Particles and CME Transients) Low Energy Telescope (LET) 1-min Level 1 Ion Fluxes",
        "ReleaseDate": "2021-04-27T15:38:11Z",
        "Description": "The IMPACT Low Energy Telescope (LET) data consist of 1-min \nresolution unsectored fluxes and counts for each of 15 single-Z ionic species\nat each of a species-dependent number of energy bins ranging between 9 and 16,\nplus 16-sectored fluxes and counts for 5 ionic species or Z groups in one (H)\nor two (He4, CNO, NiMgSi, Fe) energy ranges.  There is much fill data.\n(",
        "Acknowledgement": "Please acknowledge the IMPACT P.I., Janet Luhmann \nof UCB",
        "Contact": {
          "PersonID": "spase://SMWG/Person/Janet.G.Luhmann",
          "Role": "PrincipalInvestigator"
        },
        "InformationURL": [
          {
            "Name": "CDAWeb Skeleton Table",
            "URL": "https://cdaweb.gsfc.nasa.gov/pub/software/cdawlib/0SKELTABLES/sta_l1_let_00000000_v01.skt"
          },
          {
            "Name": "Caltech STEREO site",
            "URL": "http://www.srl.caltech.edu/STEREO/docs/LET_Level1.html"
          }
        ],
        "PriorID": [
          "spase://VEPO/NumericalData/STEREO-A/IMPACT/LET/L1/PT1M",
          "spase://VSPO/NumericalData/STEREO-A/IMPACT/LET/L1/PT1M"
        ]
      },
      "AccessInformation": [
        {
          "RepositoryID": "spase://SMWG/Repository/NASA/GSFC/SPDF",
          "Availability": "Online",
          "AccessRights": "Open",
          "AccessURL": [
            {
              "Name": "CDAWeb",
              "URL": "https://cdaweb.gsfc.nasa.gov/cgi-bin/eval2.cgi?dataset=STA_L1_LET&index=sp_phys",
              "ProductKey": "STA_L1_LET",
              "Description": "With subset, plot and ASCII list functions from CDAWeb"
            },
            {
              "Name": "FTPS from SPDF (not with most browsers)",
              "URL": "ftps://spdf.gsfc.nasa.gov/pub/data/stereo/ahead/l1/impact/let/"
            },
            {
              "Name": "HTTPS from SPDF",
              "URL": "https://spdf.gsfc.nasa.gov/pub/data/stereo/ahead/l1/impact/let/",
              "Description": "In CDF via HTTP from SPDF"
            }
          ],
          "Format": "CDF",
          "DataExtent": {
            "Quantity": "7947",
            "Units": "kB",
            "Per": "P1D"
          },
          "Acknowledgement": "Please acknowledge the P.I., Janet Luhmann of UCB, \nand CDAWeb at GSFC/SPDF"
        },
        {
          "RepositoryID": "spase://SMWG/Repository/NASA/GSFC/SPDF",
          "Availability": "Online",
          "AccessRights": "Open",
          "AccessURL": {
            "Name": "CDAWeb HAPI Server",
            "URL": "https://cdaweb.gsfc.nasa.gov/hapi",
            "Style": "HAPI",
            "ProductKey": "STA_L1_LET",
            "Description": "Web Service to this product using the HAPI interface."
          },
          "Format": "CSV",
          "Acknowledgement": "Please acknowledge the P.I., Janet Luhmann of UCB, \nand CDAWeb at GSFC/SPDF"
        }
      ],
      "InstrumentID": "spase://SMWG/Instrument/STEREO-A/IMPACT/LET",
      "MeasurementType": "EnergeticParticles",
      "TemporalDescription": {
        "TimeSpan": {
          "StartDate": "2006-11-14T00:00:00",
          "RelativeStopDate": "-P2M"
        },
        "Cadence": "PT1M"
      },
      "ObservedRegion": "Heliosphere.Remote1AU",
      "Parameter": [
        {
          "Name": "Proton unsectored fluxes",
          "ParameterKey": "H_unsec_flux",
          "Description": "Unsectored proton flux in each of 12 energy\nbands ranging from 1.8-2.2 MeV to 12-15 MeV, at 1-min resolution",
          "Cadence": "PT1M",
          "Units": "1/(sec sr cm^2 MeV)",
          "Structure": {
            "Size": "12",
            "Description": "Set of 12 proton fluxes"
          },
          "FillValue": "-1.0e+31",
          "Particle": {
            "ParticleType": "Proton",
            "ParticleQuantity": "NumberFlux",
            "AtomicNumber": "1",
            "EnergyRange": {
              "Low": "1.8",
              "High": "15",
              "Units": "MeV/n"
            }
          }
        },
        {
          "Name": "He3 ion unsectored fluxes",
          "ParameterKey": "He3_unsec_flux",
          "Description": "unsectored He3 ion flux in each \nof 11 energy bands ranging from 2.2-2.7 MeV to 12-15 MeV/n, at 1-min \nresolution",
          "Cadence": "PT1M",
          "Units": "1/(sec sr cm^2 MeV/n)",
          "Structure": {
            "Size": "11",
            "Description": "Set of 11 He3 fluxes"
          },
          "FillValue": "-1.0e+31",
          "Particle": {
            "ParticleType": "Ion",
            "ParticleQuantity": "NumberFlux",
            "AtomicNumber": "2",
            "EnergyRange": {
              "Low": "2.2",
              "High": "15",
              "Units": "MeV/n"
            }
          }
        },
        {
          "Name": "He4 ion unsectored fluxes",
          "ParameterKey": "He4_unsec_flux",
          "Description": "unsectored He4 ion (alpha particle) flux in each \nof 12 energy bands ranging from 1.8-2.2 MeV to 12-15 MeV/n, at 1-min \nresolution",
          "Cadence": "PT1M",
          "Units": "1/(sec sr cm^2 MeV/n)",
          "Structure": {
            "Size": "12",
            "Description": "Set of 12 He4 fluxes"
          },
          "FillValue": "-1.0e+31",
          "Particle": {
            "ParticleType": "AlphaParticle",
            "ParticleQuantity": "NumberFlux",
            "AtomicNumber": "2",
            "EnergyRange": {
              "Low": "1.8",
              "High": "15",
              "Units": "MeV/n"
            }
          }
        },
        {
          "Name": "Carbon ion unsectored fluxes",
          "ParameterKey": "C_unsec_flux",
          "Description": "unsectored carbon ion flux in each of 12 energy\nbands ranging from 3.2-3.6 MeV/n to 27-33 MeV/n, at 1-min resolution",
          "Cadence": "PT1M",
          "Units": "1/(sec sr cm^2 MeV/n)",
          "Structure": {
            "Size": "12",
            "Description": "Set of 12 carbon ion fluxes"
          },
          "FillValue": "-1.0e+31",
          "Particle": {
            "ParticleType": "Ion",
            "ParticleQuantity": "NumberFlux",
            "AtomicNumber": "6",
            "EnergyRange": {
              "Low": "3.2",
              "High": "33",
              "Units": "MeV/n"
            }
          }
        },
        {
          "Name": "Nitrogen ion unsectored fluxes",
          "ParameterKey": "N_unsec_flux",
          "Description": "unsectored nitrogen ion flux in each of 12 energy\nbands ranging from 3.2-3.6 MeV/n to 27-33 MeV/n, at 1-min resolution",
          "Cadence": "PT1M",
          "Units": "1/(sec sr cm^2 MeV/n)",
          "Structure": {
            "Size": "12",
            "Description": "Set of 12 nitrogen ion fluxes"
          },
          "FillValue": "-1.0e+31",
          "Particle": {
            "ParticleType": "Ion",
            "ParticleQuantity": "NumberFlux",
            "AtomicNumber": "7",
            "EnergyRange": {
              "Low": "3.2",
              "High": "33",
              "Units": "MeV/n"
            }
          }
        },
        {
          "Name": "Oxygen ion unsectored fluxes",
          "ParameterKey": "O_unsec_flux",
          "Description": "unsectored oxygen ion flux in each of 12 energy\nbands ranging from 3.2-3.6 MeV/n to 27-33 MeV/n, at 1-min resolution",
          "Cadence": "PT1M",
          "Units": "1/(sec sr cm^2 MeV/n)",
          "Structure": {
            "Size": "12",
            "Description": "Set of 12 oxygen ion fluxes"
          },
          "FillValue": "-1.0e+31",
          "Particle": {
            "ParticleType": "Ion",
            "ParticleQuantity": "NumberFlux",
            "AtomicNumber": "8",
            "EnergyRange": {
              "Low": "3.2",
              "High": "33",
              "Units": "MeV/n"
            }
          }
        },
        {
          "Name": "Neon ion unsectored fluxes",
          "ParameterKey": "Ne_unsec_flux",
          "Description": "unsectored neon ion flux in each of 13 energy\nbands ranging from 3.2-3.6 MeV/n to 33-40 MeV/n, at 1-min resolution",
          "Cadence": "PT1M",
          "Units": "1/(sec sr cm^2 MeV/n)",
          "Structure": {
            "Size": "13",
            "Description": "Set of 13 neon ion fluxes"
          },
          "FillValue": "-1.0e+31",
          "Particle": {
            "ParticleType": "Ion",
            "ParticleQuantity": "NumberFlux",
            "AtomicNumber": "10",
            "EnergyRange": {
              "Low": "3.2",
              "High": "40",
              "Units": "MeV/n"
            }
          }
        },
        {
          "Name": "Sodium ion unsectored fluxes",
          "ParameterKey": "Na_unsec_flux",
          "Description": "unsectored sodium ion flux in each of 8 energy\nbands ranging from 6-8 MeV/n to 33-40 MeV/n, at 1-min resolution",
          "Cadence": "PT1M",
          "Units": "1/(sec sr cm^2 MeV/n)",
          "Structure": {
            "Size": "8",
            "Description": "Set of 8 sodium ion fluxes"
          },
          "FillValue": "-1.0e+31",
          "Particle": {
            "ParticleType": "Ion",
            "ParticleQuantity": "NumberFlux",
            "AtomicNumber": "11",
            "EnergyRange": {
              "Low": "6",
              "High": "40",
              "Units": "MeV/n"
            }
          }
        },
        {
          "Name": "Magnesium ion unsectored fluxes",
          "ParameterKey": "Mg_unsec_flux",
          "Description": "unsectored magnesium ion flux in each of 14 energy\nbands ranging from 3.2-3.6 MeV/n to 40-52 MeV/n, at 1-min resolution",
          "Cadence": "PT1M",
          "Units": "1/(sec sr cm^2 MeV/n)",
          "Structure": {
            "Size": "14",
            "Description": "Set of 14 magnesium ion fluxes"
          },
          "FillValue": "-1.0e+31",
          "Particle": {
            "ParticleType": "Ion",
            "ParticleQuantity": "NumberFlux",
            "AtomicNumber": "12",
            "EnergyRange": {
              "Low": "3.2",
              "High": "52",
              "Units": "MeV/n"
            }
          }
        },
        {
          "Name": "Aluminium ion unsectored fluxes",
          "ParameterKey": "Al_unsec_flux",
          "Description": "unsectored aluminium ion flux in each of 9 energy\nbands ranging from 6-8 MeV/n to 40-52 MeV/n, at 1-min resolution",
          "Cadence": "PT1M",
          "Units": "1/(sec sr cm^2 MeV/n)",
          "Structure": {
            "Size": "9",
            "Description": "Set of 9 aluminium ion fluxes"
          },
          "FillValue": "-1.0e+31",
          "Particle": {
            "ParticleType": "Ion",
            "ParticleQuantity": "NumberFlux",
            "AtomicNumber": "13",
            "EnergyRange": {
              "Low": "6",
              "High": "52",
              "Units": "MeV/n"
            }
          }
        },
        {
          "Name": "Silicon ion unsectored fluxes",
          "ParameterKey": "Si_unsec_flux",
          "Description": "unsectored silicon ion flux in each of 14 energy\nbands ranging from 3.2-3.6 MeV/n to 40-52 MeV/n, at 1-min resolution",
          "Cadence": "PT1M",
          "Units": "1/(sec sr cm^2 MeV/n)",
          "Structure": {
            "Size": "14",
            "Description": "Set of 14 silicon ion fluxes"
          },
          "FillValue": "-1.0e+31",
          "Particle": {
            "ParticleType": "Ion",
            "ParticleQuantity": "NumberFlux",
            "AtomicNumber": "14",
            "EnergyRange": {
              "Low": "3.2",
              "High": "52",
              "Units": "MeV/n"
            }
          }
        },
        {
          "Name": "Sulfur ion unsectored fluxes",
          "ParameterKey": "S_unsec_flux",
          "Description": "unsectored sulfur ion flux in each of 13 energy\nbands ranging from 3.6-4 MeV/n to 40-52 MeV/n, at 1-min resolution",
          "Cadence": "PT1M",
          "Units": "1/(sec sr cm^2 MeV/n)",
          "Structure": {
            "Size": "13",
            "Description": "Set of 13 sulfur ion fluxes"
          },
          "FillValue": "-1.0e+31",
          "Particle": {
            "ParticleType": "Ion",
            "ParticleQuantity": "NumberFlux",
            "AtomicNumber": "16",
            "EnergyRange": {
              "Low": "3.6",
              "High": "52",
              "Units": "MeV/n"
            }
          }
        },
        {
          "Name": "Argon ion unsectored fluxes",
          "ParameterKey": "Ar_unsec_flux",
          "Description": "unsectored argon ion flux in each of 13 energy\nbands ranging from 3.6-4 MeV/n to 40-52 MeV/n, at 1-min resolution",
          "Cadence": "PT1M",
          "Units": "1/(sec sr cm^2 MeV/n)",
          "Structure": {
            "Size": "13",
            "Description": "Set of 13 argon ion fluxes"
          },
          "FillValue": "-1.0e+31",
          "Particle": {
            "ParticleType": "Ion",
            "ParticleQuantity": "NumberFlux",
            "AtomicNumber": "18",
            "EnergyRange": {
              "Low": "3.6",
              "High": "52",
              "Units": "MeV/n"
            }
          }
        },
        {
          "Name": "Calcium ion unsectored fluxes",
          "ParameterKey": "Ca_unsec_flux",
          "Description": "unsectored calcium ion flux in each of 13 energy\nbands ranging from 3.6-4 MeV/n to 40-52 MeV/n, at 1-min resolution",
          "Cadence": "PT1M",
          "Units": "1/(sec sr cm^2 MeV/n)",
          "Structure": {
            "Size": "13",
            "Description": "Set of 13 calcium ion fluxes"
          },
          "FillValue": "-1.0e+31",
          "Particle": {
            "ParticleType": "Ion",
            "ParticleQuantity": "NumberFlux",
            "AtomicNumber": "20",
            "EnergyRange": {
              "Low": "3.6",
              "High": "52",
              "Units": "MeV/n"
            }
          }
        },
        {
          "Name": "Iron ion unsectored fluxes",
          "ParameterKey": "Fe_unsec_flux",
          "Description": "unsectored iron ion flux in each of 16 energy\nbands ranging from 2.7-3.2 MeV/n to 52-70 MeV/n, at 1-min resolution",
          "Cadence": "PT1M",
          "Units": "1/(sec sr cm^2 MeV/n)",
          "Structure": {
            "Size": "16",
            "Description": "Set of 16 iron ion fluxes"
          },
          "FillValue": "-1.0e+31",
          "Particle": {
            "ParticleType": "Ion",
            "ParticleQuantity": "NumberFlux",
            "AtomicNumber": "26",
            "EnergyRange": {
              "Low": "2.7",
              "High": "70",
              "Units": "MeV/n"
            }
          }
        },
        {
          "Name": "Nickel ion unsectored fluxes",
          "ParameterKey": "Ni_unsec_flux",
          "Description": "unsectored nickel ion flux in each of 9 energy\nbands ranging from 8-10 MeV/n to 52-70 MeV/n, at 1-min resolution",
          "Cadence": "PT1M",
          "Units": "1/(sec sr cm^2 MeV/n)",
          "Structure": {
            "Size": "9",
            "Description": "Set of 9 nickel ion fluxes"
          },
          "FillValue": "-1.0e+31",
          "Particle": {
            "ParticleType": "Ion",
            "ParticleQuantity": "NumberFlux",
            "AtomicNumber": "28",
            "EnergyRange": {
              "Low": "8",
              "High": "70",
              "Units": "MeV/n"
            }
          }
        },
        {
          "Name": "Proton unsectored counts",
          "ParameterKey": "H_unsec_cnts",
          "Description": "unsectored proton counts in each of 12 energy\nbands ranging from 1.8-2.2 MeV to 12-15 MeV, at 1-min resolution",
          "Cadence": "PT1M",
          "Units": "counts",
          "Structure": {
            "Size": "12",
            "Description": "Set of 12 proton counts"
          },
          "FillValue": "-1.0e+31",
          "Particle": {
            "ParticleType": "Proton",
            "ParticleQuantity": "Counts",
            "AtomicNumber": "1",
            "EnergyRange": {
              "Low": "1.8",
              "High": "15",
              "Units": "MeV/n"
            }
          }
        },
        {
          "Name": "He3 ion unsectored counts",
          "ParameterKey": "He3_unsec_cnts",
          "Description": "unsectored He3 ion counts in each \nof 11 energy bands ranging from 2.2-2.7 MeV to 12-15 MeV/n, at 1-min \nresolution",
          "Cadence": "PT1M",
          "Units": "counts",
          "Structure": {
            "Size": "11",
            "Description": "Set of 11 He3 counts"
          },
          "FillValue": "-1.0e+31",
          "Particle": {
            "ParticleType": "Ion",
            "ParticleQuantity": "Counts",
            "AtomicNumber": "2",
            "EnergyRange": {
              "Low": "2.2",
              "High": "15",
              "Units": "MeV/n"
            }
          }
        },
        {
          "Name": "He4 ion unsectored counts",
          "ParameterKey": "He4_unsec_cnts",
          "Description": "unsectored He4 ion (alpha particle) counts \nin each of 12 energy bands ranging from 1.8-2.2 MeV to 12-15 MeV/n, \nat 1-min resolution",
          "Cadence": "PT1M",
          "Units": "counts",
          "Structure": {
            "Size": "12",
            "Description": "Set of 12 He4 counts"
          },
          "FillValue": "-1.0e+31",
          "Particle": {
            "ParticleType": "AlphaParticle",
            "ParticleQuantity": "Counts",
            "AtomicNumber": "2",
            "EnergyRange": {
              "Low": "1.8",
              "High": "15",
              "Units": "MeV/n"
            }
          }
        },
        {
          "Name": "Carbon ion unsectored counts",
          "ParameterKey": "C_unsec_cnts",
          "Description": "unsectored carbon ion counts in each of 12 energy\nbands ranging from 3.2-3.6 MeV/n to 27-33 MeV/n, at 1-min resolution",
          "Cadence": "PT1M",
          "Units": "counts",
          "Structure": {
            "Size": "12",
            "Description": "Set of 12 carbon ion counts"
          },
          "FillValue": "-1.0e+31",
          "Particle": {
            "ParticleType": "Ion",
            "ParticleQuantity": "Counts",
            "AtomicNumber": "6",
            "EnergyRange": {
              "Low": "3.2",
              "High": "33",
              "Units": "MeV/n"
            }
          }
        },
        {
          "Name": "Nitrogen ion unsectored counts",
          "ParameterKey": "N_unsec_cnts",
          "Description": "unsectored nitrogen ion counts in each of 12 energy\nbands ranging from 3.2-3.6 MeV/n to 27-33 MeV/n, at 1-min resolution",
          "Cadence": "PT1M",
          "Units": "counts",
          "Structure": {
            "Size": "12",
            "Description": "Set of 12 nitrogen ion counts"
          },
          "FillValue": "-1.0e+31",
          "Particle": {
            "ParticleType": "Ion",
            "ParticleQuantity": "Counts",
            "AtomicNumber": "7",
            "EnergyRange": {
              "Low": "3.2",
              "High": "33",
              "Units": "MeV/n"
            }
          }
        },
        {
          "Name": "Oxygen ion unsectored counts",
          "ParameterKey": "O_unsec_cnts",
          "Description": "unsectored oxygen ion counts in each of 12 energy\nbands ranging from 3.2-3.6 MeV/n to 27-33 MeV/n, at 1-min resolution",
          "Cadence": "PT1M",
          "Units": "counts",
          "Structure": {
            "Size": "12",
            "Description": "Set of 12 oxygen ion counts"
          },
          "FillValue": "-1.0e+31",
          "Particle": {
            "ParticleType": "Ion",
            "ParticleQuantity": "Counts",
            "AtomicNumber": "8",
            "EnergyRange": {
              "Low": "3.2",
              "High": "33",
              "Units": "MeV/n"
            }
          }
        },
        {
          "Name": "Neon ion unsectored counts",
          "ParameterKey": "Ne_unsec_cnts",
          "Description": "unsectored neon ion counts in each of 13 energy\nbands ranging from 3.2-3.6 MeV/n to 33-40 MeV/n, at 1-min resolution",
          "Cadence": "PT1M",
          "Units": "counts",
          "Structure": {
            "Size": "13",
            "Description": "Set of 13 neon ion counts"
          },
          "FillValue": "-1.0e+31",
          "Particle": {
            "ParticleType": "Ion",
            "ParticleQuantity": "Counts",
            "AtomicNumber": "10",
            "EnergyRange": {
              "Low": "3.2",
              "High": "40",
              "Units": "MeV/n"
            }
          }
        },
        {
          "Name": "Sodium ion unsectored counts",
          "ParameterKey": "Na_unsec_cnts",
          "Description": "unsectored sodium ion counts in each of 8 energy\nbands ranging from 6-8 MeV/n to 33-40 MeV/n, at 1-min resolution",
          "Cadence": "PT1M",
          "Units": "counts",
          "Structure": {
            "Size": "8",
            "Description": "Set of 8 sodium ion counts"
          },
          "FillValue": "-1.0e+31",
          "Particle": {
            "ParticleType": "Ion",
            "ParticleQuantity": "Counts",
            "AtomicNumber": "11",
            "EnergyRange": {
              "Low": "6",
              "High": "40",
              "Units": "MeV/n"
            }
          }
        },
        {
          "Name": "Magnesium ion unsectored counts",
          "ParameterKey": "Mg_unsec_cnts",
          "Description": "unsectored magnesium ion counts in each of 14 energy\nbands ranging from 3.2-3.6 MeV/n to 40-52 MeV/n, at 1-min resolution",
          "Cadence": "PT1M",
          "Units": "counts",
          "Structure": {
            "Size": "14",
            "Description": "Set of 14 magnesium ion counts"
          },
          "FillValue": "-1.0e+31",
          "Particle": {
            "ParticleType": "Ion",
            "ParticleQuantity": "Counts",
            "AtomicNumber": "12",
            "EnergyRange": {
              "Low": "3.2",
              "High": "52",
              "Units": "MeV/n"
            }
          }
        },
        {
          "Name": "Aluminium ion unsectored counts",
          "ParameterKey": "Al_unsec_cnts",
          "Description": "unsectored aluminium ion counts in each of 9 energy\nbands ranging from 6-8 MeV/n to 40-52 MeV/n, at 1-min resolution",
          "Cadence": "PT1M",
          "Units": "counts",
          "Structure": {
            "Size": "9",
            "Description": "Set of 9 aluminium ion counts"
          },
          "FillValue": "-1.0e+31",
          "Particle": {
            "ParticleType": "Ion",
            "ParticleQuantity": "Counts",
            "AtomicNumber": "13",
            "EnergyRange": {
              "Low": "6",
              "High": "52",
              "Units": "MeV/n"
            }
          }
        },
        {
          "Name": "Silicon ion unsectored counts",
          "ParameterKey": "Si_unsec_cnts",
          "Description": "unsectored silicon ion counts in each of 14 energy\nbands ranging from 3.2-3.6 MeV/n to 40-52 MeV/n, at 1-min resolution",
          "Cadence": "PT1M",
          "Units": "counts",
          "Structure": {
            "Size": "14",
            "Description": "Set of 14 silicon ion counts"
          },
          "FillValue": "-1.0e+31",
          "Particle": {
            "ParticleType": "Ion",
            "ParticleQuantity": "Counts",
            "AtomicNumber": "14",
            "EnergyRange": {
              "Low": "3.2",
              "High": "52",
              "Units": "MeV/n"
            }
          }
        },
        {
          "Name": "Sulfur ion unsectored counts",
          "ParameterKey": "S_unsec_cnts",
          "Description": "unsectored sulfur ion counts in each of 13 energy\nbands ranging from 3.6-4 MeV/n to 40-52 MeV/n, at 1-min resolution",
          "Cadence": "PT1M",
          "Units": "counts",
          "Structure": {
            "Size": "13",
            "Description": "Set of 13 sulfur ion counts"
          },
          "FillValue": "-1.0e+31",
          "Particle": {
            "ParticleType": "Ion",
            "ParticleQuantity": "Counts",
            "AtomicNumber": "16",
            "EnergyRange": {
              "Low": "3.6",
              "High": "52",
              "Units": "MeV/n"
            }
          }
        },
        {
          "Name": "Argon ion unsectored counts",
          "ParameterKey": "Ar_unsec_cnts",
          "Description": "unsectored argon ion counts in each of 13 energy\nbands ranging from 3.6-4 MeV/n to 40-52 MeV/n, at 1-min resolution",
          "Cadence": "PT1M",
          "Units": "counts",
          "Structure": {
            "Size": "13",
            "Description": "Set of 13 argon ion counts"
          },
          "FillValue": "-1.0e+31",
          "Particle": {
            "ParticleType": "Ion",
            "ParticleQuantity": "Counts",
            "AtomicNumber": "18",
            "EnergyRange": {
              "Low": "3.6",
              "High": "52",
              "Units": "MeV/n"
            }
          }
        },
        {
          "Name": "Calcium ion unsectored counts",
          "ParameterKey": "Ca_unsec_cnts",
          "Description": "unsectored calcium ion counts in each of 13 energy\nbands ranging from 3.6-4 MeV/n to 40-52 MeV/n, at 1-min resolution",
          "Cadence": "PT1M",
          "Units": "counts",
          "Structure": {
            "Size": "13",
            "Description": "Set of 13 calcium ion counts"
          },
          "FillValue": "-1.0e+31",
          "Particle": {
            "ParticleType": "Ion",
            "ParticleQuantity": "Counts",
            "AtomicNumber": "20",
            "EnergyRange": {
              "Low": "3.6",
              "High": "52",
              "Units": "MeV/n"
            }
          }
        },
        {
          "Name": "Iron ion unsectored counts",
          "ParameterKey": "Fe_unsec_cnts",
          "Description": "unsectored iron ion counts in each of 16 energy\nbands ranging from 2.7-3.2 MeV/n to 52-70 MeV/n, at 1-min resolution",
          "Cadence": "PT1M",
          "Units": "counts",
          "Structure": {
            "Size": "16",
            "Description": "Set of 16 iron ion counts"
          },
          "FillValue": "-1.0e+31",
          "Particle": {
            "ParticleType": "Ion",
            "ParticleQuantity": "Counts",
            "AtomicNumber": "26",
            "EnergyRange": {
              "Low": "2.7",
              "High": "70",
              "Units": "MeV/n"
            }
          }
        },
        {
          "Name": "Nickel ion unsectored counts",
          "ParameterKey": "Ni_unsec_cnts",
          "Description": "unsectored nickel ion counts in each of 9 energy\nbands ranging from 8-10 MeV/n to 52-70 MeV/n, at 1-min resolution",
          "Cadence": "PT1M",
          "Units": "Counts",
          "Structure": {
            "Size": "9",
            "Description": "Set of 9 nickel ion counts"
          },
          "FillValue": "-1.0e+31",
          "Particle": {
            "ParticleType": "Ion",
            "ParticleQuantity": "Counts",
            "AtomicNumber": "28",
            "EnergyRange": {
              "Low": "8",
              "High": "70",
              "Units": "MeV/n"
            }
          }
        },
        {
          "Name": "Sectored 4-6 MeV proton fluxes",
          "ParameterKey": "H_Lo_sec_flux",
          "Description": "Flux of 4-6 MeV protons in each of 16 22.5deg\nangular bins, at 1-min resolution",
          "Cadence": "PT1M",
          "Units": "1/(sec sr cm^2 MeV)",
          "Structure": {
            "Size": "16",
            "Description": "Set of 16 proton fluxes"
          },
          "FillValue": "-1.0e+31",
          "Particle": {
            "ParticleType": "Proton",
            "ParticleQuantity": "NumberFlux",
            "AtomicNumber": "1",
            "EnergyRange": {
              "Low": "4",
              "High": "6",
              "Units": "MeV/n"
            }
          }
        },
        {
          "Name": "Sectored 4-6 MeV/n He4 fluxes",
          "ParameterKey": "He4_Lo_sec_flux",
          "Description": "Flux of 4-6 MeV/n He4 ions in each of 16 22.5deg\nangular bins, at 1-min resolution",
          "Cadence": "PT1M",
          "Units": "1/(sec sr cm^2 MeV)",
          "Structure": {
            "Size": "16",
            "Description": "Set of 16 He4 fluxes"
          },
          "FillValue": "-1.0e+31",
          "Particle": {
            "ParticleType": "AlphaParticle",
            "ParticleQuantity": "NumberFlux",
            "AtomicNumber": "2",
            "EnergyRange": {
              "Low": "4",
              "High": "6",
              "Units": "MeV/n"
            }
          }
        },
        {
          "Name": "Sectored 6-12 MeV/n He4 fluxes",
          "ParameterKey": "He4_Hi_sec_flux",
          "Description": "Flux of 6-12 MeV/n He4 ions in each of 16 22.5deg\nangular bins, at 1-min resolution",
          "Cadence": "PT1M",
          "Units": "1/(sec sr cm^2 MeV)",
          "Structure": {
            "Size": "16",
            "Description": "Set of 16 He4 fluxes"
          },
          "FillValue": "-1.0e+31",
          "Particle": {
            "ParticleType": "AlphaParticle",
            "ParticleQuantity": "NumberFlux",
            "AtomicNumber": "2",
            "EnergyRange": {
              "Low": "6",
              "High": "12",
              "Units": "MeV/n"
            }
          }
        },
        {
          "Name": "Sectored 4-6 MeV/n CNO fluxes",
          "ParameterKey": "CNO_Lo_sec_flux",
          "Description": "Flux of 4-6 MeV/n CNO ions in each of 16 22.5deg\nangular bins, at 1-min resolution",
          "Cadence": "PT1M",
          "Units": "1/(sec sr cm^2 MeV)",
          "Structure": {
            "Size": "16",
            "Description": "Set of 16 CNO fluxes"
          },
          "FillValue": "-1.0e+31",
          "Particle": {
            "ParticleType": "Ion",
            "ParticleQuantity": "NumberFlux",
            "AtomicNumber": "6",
            "EnergyRange": {
              "Low": "4",
              "High": "6",
              "Units": "MeV/n"
            }
          }
        },
        {
          "Name": "Sectored 6-12 MeV/n CNO fluxes",
          "ParameterKey": "CNO_Hi_sec_flux",
          "Description": "Flux of 6-12 MeV/n CNO ions in each of 16 22.5deg\nangular bins, at 1-min resolution",
          "Cadence": "PT1M",
          "Units": "1/(sec sr cm^2 MeV)",
          "Structure": {
            "Size": "16",
            "Description": "Set of 16 CNO fluxes"
          },
          "FillValue": "-1.0e+31",
          "Particle": {
            "ParticleType": "Ion",
            "ParticleQuantity": "NumberFlux",
            "AtomicNumber": "6",
            "EnergyRange": {
              "Low": "6",
              "High": "12",
              "Units": "MeV/n"
            }
          }
        },
        {
          "Name": "Sectored 4-6 MeV/n NeMgSi fluxes",
          "ParameterKey": "NeMgSi_Lo_sec_flux",
          "Description": "Flux of 4-6 MeV/n NeMgSi ions in each of 16 22.5deg\nangular bins, at 1-min resolution",
          "Cadence": "PT1M",
          "Units": "1/(sec sr cm^2 MeV)",
          "Structure": {
            "Size": "16",
            "Description": "Set of 16 NeMgSi fluxes"
          },
          "FillValue": "-1.0e+31",
          "Particle": {
            "ParticleType": "Ion",
            "ParticleQuantity": "NumberFlux",
            "AtomicNumber": "10",
            "EnergyRange": {
              "Low": "4",
              "High": "6",
              "Units": "MeV/n"
            }
          }
        },
        {
          "Name": "Sectored 6-12 MeV/n NeMgSi fluxes",
          "ParameterKey": "NeMgSi_Hi_sec_flux",
          "Description": "Flux of 6-12 MeV/n NeMgSi ions in each of 16 22.5deg\nangular bins, at 1-min resolution",
          "Cadence": "PT1M",
          "Units": "1/(sec sr cm^2 MeV)",
          "Structure": {
            "Size": "16",
            "Description": "Set of 16 NeMgSi fluxes"
          },
          "FillValue": "-1.0e+31",
          "Particle": {
            "ParticleType": "Ion",
            "ParticleQuantity": "NumberFlux",
            "AtomicNumber": "10",
            "EnergyRange": {
              "Low": "6",
              "High": "12",
              "Units": "MeV/n"
            }
          }
        },
        {
          "Name": "Sectored 4-6 MeV/n Iron fluxes",
          "ParameterKey": "Fe_Lo_sec_flux",
          "Description": "Flux of 4-6 MeV/n iron ions in each of 16 22.5deg\nangular bins, at 1-min resolution",
          "Cadence": "PT1M",
          "Units": "1/(sec sr cm^2 MeV)",
          "Structure": {
            "Size": "16",
            "Description": "Set of 16 iron fluxes"
          },
          "FillValue": "-1.0e+31",
          "Particle": {
            "ParticleType": "Ion",
            "ParticleQuantity": "NumberFlux",
            "AtomicNumber": "26",
            "EnergyRange": {
              "Low": "4",
              "High": "6",
              "Units": "MeV/n"
            }
          }
        },
        {
          "Name": "Sectored 6-12 MeV/n Iron fluxes",
          "ParameterKey": "Fe_Hi_sec_flux",
          "Description": "Flux of 6-12 MeV/n iron ions in each of 16 22.5deg\nangular bins, at 1-min resolution",
          "Cadence": "PT1M",
          "Units": "1/(sec sr cm^2 MeV)",
          "Structure": {
            "Size": "16",
            "Description": "Set of 16 iron fluxes"
          },
          "FillValue": "-1.0e+31",
          "Particle": {
            "ParticleType": "Ion",
            "ParticleQuantity": "NumberFlux",
            "AtomicNumber": "26",
            "EnergyRange": {
              "Low": "6",
              "High": "12",
              "Units": "MeV/n"
            }
          }
        },
        {
          "Name": "Sectored 4-6 MeV proton counts",
          "ParameterKey": "H_Lo_sec_cnts",
          "Description": "Counts of 4-6 MeV protons in each of 16 22.5deg\nangular bins, at 1-min resolution",
          "Cadence": "PT1M",
          "Units": "counts",
          "Structure": {
            "Size": "16",
            "Description": "Set of 16 proton counts"
          },
          "FillValue": "-1.0e+31",
          "Particle": {
            "ParticleType": "Proton",
            "ParticleQuantity": "Counts",
            "AtomicNumber": "1",
            "EnergyRange": {
              "Low": "4",
              "High": "6",
              "Units": "MeV/n"
            }
          }
        },
        {
          "Name": "Sectored 4-6 MeV/n He4 counts",
          "ParameterKey": "He4_Lo_sec_cnts",
          "Description": "Counts of 4-6 MeV/n He4 ions in each of 16 22.5deg\nangular bins, at 1-min resolution",
          "Cadence": "PT1M",
          "Units": "counts",
          "Structure": {
            "Size": "16",
            "Description": "Set of 16 He4 counts"
          },
          "FillValue": "-1.0e+31",
          "Particle": {
            "ParticleType": "AlphaParticle",
            "ParticleQuantity": "Counts",
            "AtomicNumber": "2",
            "EnergyRange": {
              "Low": "4",
              "High": "6",
              "Units": "MeV/n"
            }
          }
        },
        {
          "Name": "Sectored 6-12 MeV/n He4 counts",
          "ParameterKey": "He4_Hi_sec_cnts",
          "Description": "Counts of 6-12 MeV/n He4 ions in each of 16 22.5deg\nangular bins, at 1-min resolution",
          "Cadence": "PT1M",
          "Units": "counts",
          "Structure": {
            "Size": "16",
            "Description": "Set of 16 He4 counts"
          },
          "FillValue": "-1.0e+31",
          "Particle": {
            "ParticleType": "AlphaParticle",
            "ParticleQuantity": "Counts",
            "AtomicNumber": "2",
            "EnergyRange": {
              "Low": "6",
              "High": "12",
              "Units": "MeV/n"
            }
          }
        },
        {
          "Name": "Sectored 4-6 MeV/n CNO counts",
          "ParameterKey": "CNO_Lo_sec_cnts",
          "Description": "Counts of 4-6 MeV/n CNO ions in each of 16 22.5deg\nangular bins, at 1-min resolution",
          "Cadence": "PT1M",
          "Units": "Counts",
          "Structure": {
            "Size": "16",
            "Description": "Set of 16 CNO counts"
          },
          "FillValue": "-1.0e+31",
          "Particle": {
            "ParticleType": "Ion",
            "ParticleQuantity": "Counts",
            "AtomicNumber": "6",
            "EnergyRange": {
              "Low": "4",
              "High": "6",
              "Units": "MeV/n"
            }
          }
        },
        {
          "Name": "Sectored 6-12 MeV/n CNO counts",
          "ParameterKey": "CNO_Hi_sec_cnts",
          "Description": "Counts of 6-12 MeV/n CNO ions in each of 16 22.5deg\nangular bins, at 1-min resolution",
          "Cadence": "PT1M",
          "Units": "counts",
          "Structure": {
            "Size": "16",
            "Description": "Set of 16 CNO counts"
          },
          "FillValue": "-1.0e+31",
          "Particle": {
            "ParticleType": "Ion",
            "ParticleQuantity": "Counts",
            "AtomicNumber": "6",
            "EnergyRange": {
              "Low": "6",
              "High": "12",
              "Units": "MeV/n"
            }
          }
        },
        {
          "Name": "Sectored 4-6 MeV/n NeMgSi counts",
          "ParameterKey": "NeMgSi_Lo_sec_cnts",
          "Description": "Counts of 4-6 MeV/n NeMgSi ions in each of 16 22.5deg\nangular bins, at 1-min resolution",
          "Cadence": "PT1M",
          "Units": "counts",
          "Structure": {
            "Size": "16",
            "Description": "Set of 16 NeMgSi counts"
          },
          "FillValue": "-1.0e+31",
          "Particle": {
            "ParticleType": "Ion",
            "ParticleQuantity": "Counts",
            "AtomicNumber": "10",
            "EnergyRange": {
              "Low": "4",
              "High": "6",
              "Units": "MeV/n"
            }
          }
        },
        {
          "Name": "Sectored 6-12 MeV/n NeMgSi counts",
          "ParameterKey": "NeMgSi_Hi_sec_cnts",
          "Description": "Counts of 6-12 MeV/n NeMgSi ions in each of 16 22.5deg\nangular bins, at 1-min resolution",
          "Cadence": "PT1M",
          "Units": "counts",
          "Structure": {
            "Size": "16",
            "Description": "Set of 16 NeMgSi counts"
          },
          "FillValue": "-1.0e+31",
          "Particle": {
            "ParticleType": "Ion",
            "ParticleQuantity": "Counts",
            "AtomicNumber": "10",
            "EnergyRange": {
              "Low": "6",
              "High": "12",
              "Units": "MeV/n"
            }
          }
        },
        {
          "Name": "Sectored 4-6 MeV/n iron counts",
          "ParameterKey": "Fe_Lo_sec_cnts",
          "Description": "Counts of 4-6 MeV/n iron ions in each of 16 22.5deg\nangular bins, at 1-min resolution",
          "Cadence": "PT1M",
          "Units": "counts",
          "Structure": {
            "Size": "16",
            "Description": "Set of 16 iron counts"
          },
          "FillValue": "-1.0e+31",
          "Particle": {
            "ParticleType": "Ion",
            "ParticleQuantity": "Counts",
            "AtomicNumber": "26",
            "EnergyRange": {
              "Low": "4",
              "High": "6",
              "Units": "MeV/n"
            }
          }
        },
        {
          "Name": "Sectored 6-12 MeV/n iron counts",
          "ParameterKey": "Fe_Hi_sec_cnts",
          "Description": "Counts of 6-12 MeV/n iron ions in each of 16 22.5deg\nangular bins, at 1-min resolution",
          "Cadence": "PT1M",
          "Units": "counts",
          "Structure": {
            "Size": "16",
            "Description": "Set of 16 iron counts"
          },
          "FillValue": "-1.0e+31",
          "Particle": {
            "ParticleType": "Ion",
            "ParticleQuantity": "Counts",
            "AtomicNumber": "26",
            "EnergyRange": {
              "Low": "6",
              "High": "12",
              "Units": "MeV/n"
            }
          }
        }
      ]
    }
  }
}