{
  "Spase": {
    "xmlns": "http://www.spase-group.org/data/schema",
    "xmlns:xsi": "http://www.w3.org/2001/XMLSchema-instance",
    "xsi:schemaLocation": "http://www.spase-group.org/data/schema  https://www.spase-group.org/data/schema/spase-2_4_0.xsd",
    "Version": "2.4.0",
    "NumericalData": {
      "ResourceID": "spase://CSA/NumericalData/GO-ABOVE/VLF/L1/Camrose/PT0.000006S",
      "ResourceHeader": {
        "ResourceName": "ABOVE VLF Level-1 time series uncalibrated CDF - Camrose (cmrs)",
        "ReleaseDate": "2021-10-05T17:04:35",
        "Description": "ABOVE Full resolution timeseries, 0.2-75kHz magnetic\r\n   field. These Level-1 uncalibrated CDF files are created for each of the\r\n   stations in the GO-ABOVE (Geospace Observatory - Array for\r\n   Broadband Observations of VLF/ELF Emissions) array. The filenames\r\n   contain the date and time as well as an abbreviation for the\r\n   station.\r\n\r\n   GO-ABOVE is a ground‐based array of VLF radio receivers located across Canada and run as a\r\n   part of the Canadian Space Agency's Geospace Observatory\r\n   (GO). The ABOVE instruments are situated in two north‐south chains\r\n   in Alberta and Manitoba, through the region roughly from L = 3\r\n   through L = 8.  The ABOVE instruments monitor electromagnetic waves in a\r\n   frequency range from 100 Hz to 75 kHz, covering chorus and hiss\r\n   emissions as well as U.S. Navy transmitters near 25 kHz. The\r\n   absolute timing accuracy is 10 ns, from GPS.    \r\n\r\n",
        "Acknowledgement": "Please include the following in any publications using this data: Infrastructure funding for ABOVE is provided by the Canada Foundation for Innovation and the province of Alberta. ABOVE data used in this work was collected with the support of the Canadian Space Agency Geospace Observatory (GO Canada) contribution initiative.",
        "Contact": [
          {
            "PersonID": "spase://SMWG/Person/C.M.Cully",
            "Role": "PrincipalInvestigator"
          },
          {
            "PersonID": "spase://SMWG/Person/Leonard.N.Garcia",
            "Role": "MetadataContact"
          }
        ]
      },
      "AccessInformation": {
        "RepositoryID": "spase://SMWG/Repository/UCalgary",
        "AccessURL": {
          "URL": "https://data.phys.ucalgary.ca/sort_by_instrument/vlf/GO-Canada_ABOVE/CDF/",
          "Description": "Directory tree to access Level-1 and Level-2 CDF data."
        },
        "Format": "CDF"
      },
      "InstrumentID": "spase://SMWG/Instrument/Camrose/VLF ",
      "MeasurementType": "Waves.Passive",
      "TemporalDescription": {
        "TimeSpan": {
          "StartDate": "2014-06-25T16:49:00",
          "StopDate": "2019-10-01T05:47:00"
        },
        "Cadence": "PT0.000006S"
      },
      "Parameter": [
        {
          "Name": "abv_raw",
          "Description": "Uncalibrated timeseries of ELF/VLF (300 Hz-75 kHz) magnetic field. Antennas are aligned to magnetic North-South and magnetic East-West. Both components are included in the file.",
          "Wave": {
            "WaveType": "Electromagnetic",
            "WaveQuantity": "MagneticField",
            "FrequencyRange": {
              "Low": ".3",
              "High": "75",
              "Units": "kHz"
            }
          }
        },
        {
          "Name": "abv_raw_epoch",
          "Description": "CDF Epoch Time",
          "Support": {
            "SupportQuantity": "Temporal"
          }
        }
      ]
    }
  }
}