{
  "Spase": {
    "xmlns": "http://www.spase-group.org/data/schema",
    "xmlns:xsi": "http://www.w3.org/2001/XMLSchema-instance",
    "xsi:schemaLocation": "http://www.spase-group.org/data/schema  https://www.spase-group.org/data/schema/spase-2_3_2.xsd",
    "Version": "2.3.2",
    "NumericalData": {
      "ResourceID": "spase://NASA/NumericalData/SAMPEX/PT30.00S",
      "ResourceHeader": {
        "ResourceName": "SAMPEX Fluxes, all instruments",
        "ReleaseDate": "2021-04-27T15:38:11Z",
        "Description": "This set of 30-s averaged fluxes are derived from measurements made by all 4 instruments (HILT, LICA, MAST and PET) onboard the Solar Anomalous and Magnetospheric Particle Explorer (SAMPEX).  Each file covers one full day of 30-s averaged fluxes of cosmic rays from selected channels from all experiments. There are 156 variables per record, and the file size is about 4 MB. After an extensive list of ancillary data, the particle fluxes follow. (1) LICA provides fluxes of electrons and protons in the energy range of about >0.7 Mev, of (mainly) helium in the range 0.49-8.3 MeV/nucleon. (2) HILT provides fluxes of helium from two channels, 4-9 and 9-38, of Z > 5 from two channels, 8.2-42 and 41-220 MeV/n. (3) MAST provides fluxes protons (mainly) in 5-12 MeV range, of helium in 8-15, and of Z > 5 in 19.3-22.8, 22.8-31.0, 31.0-51.7, 51.7-76.2, 76.2-113, 113-156 MeV/n. (4) PET provides fluxes of electrons in the ranges 1.5-6, and 2.5-14 MeV, and of (mainly) protons in 19-27 MeV/n. All flux values are accompanied by their standard deviations and quality flags. The fluxes available in this file are from a subset of (30-s resolution) rate channels. Energy spectra are assembled by pick-and-choose across instrument boundaries; an example is the eight-element array of Z>3 fluxes that have contributions from all four instruments",
        "Contact": [
          {
            "PersonID": "spase://SMWG/Person/Glenn.M.Mason",
            "Role": "PrincipalInvestigator"
          },
          {
            "PersonID": "spase://SMWG/Person/R.Parthasarathy",
            "Role": "GeneralContact"
          }
        ],
        "PriorID": [
          "spase://VSPO/NumericalData/P_SAMPEX_HDR_CDAWEB",
          "spase://VSPO/NumericalData/SAMPEX/PT30.00S"
        ]
      },
      "AccessInformation": [
        {
          "RepositoryID": "spase://SMWG/Repository/NASA/GSFC/SPDF",
          "Availability": "Online",
          "AccessRights": "Open",
          "AccessURL": [
            {
              "Name": "FTPS from SPDF (not with most browsers)",
              "URL": "ftps://spdf.gsfc.nasa.gov/pub/data/sampex/combined_cdaweb/30f/"
            },
            {
              "Name": "HTTPS from SPDF",
              "URL": "https://spdf.gsfc.nasa.gov/pub/data/sampex/combined_cdaweb/30f/",
              "Description": "In CDF via HTTP from CDAWeb"
            }
          ],
          "Format": "CDF"
        },
        {
          "RepositoryID": "spase://SMWG/Repository/NASA/GSFC/SPDF",
          "Availability": "Online",
          "AccessRights": "Open",
          "AccessURL": {
            "Name": "CDAWeb",
            "URL": "https://cdaweb.gsfc.nasa.gov/cgi-bin/eval2.cgi?dataset=SX_K0_30F&index=sp_phys",
            "ProductKey": "SX_K0_30F",
            "Description": "Plots, lists and files from CDAWeb.Name of the data resource:SX_K0_30F"
          },
          "Format": "Text"
        },
        {
          "RepositoryID": "spase://SMWG/Repository/NASA/GSFC/SPDF",
          "Availability": "Online",
          "AccessRights": "Open",
          "AccessURL": {
            "Name": "CDAWeb HAPI Server",
            "URL": "https://cdaweb.gsfc.nasa.gov/hapi",
            "Style": "HAPI",
            "ProductKey": "SX_K0_30F",
            "Description": "Web Service to this product using the HAPI interface."
          },
          "Format": "CSV"
        },
        {
          "RepositoryID": "spase://SMWG/Repository/NASA/GSFC/SPDF",
          "Availability": "Online",
          "AccessRights": "Open",
          "AccessURL": {
            "Name": "FTPS from SPDF (not with most browsers)",
            "URL": "ftps://spdf.gsfc.nasa.gov/pub/data/sampex/"
          },
          "Format": "Text"
        }
      ],
      "ProviderProcessingLevel": "CALIBRATED",
      "InstrumentID": [
        "spase://SMWG/Instrument/SAMPEX/MAST",
        "spase://SMWG/Instrument/SAMPEX/HILT",
        "spase://SMWG/Instrument/SAMPEX/PET",
        "spase://SMWG/Instrument/SAMPEX/LICA"
      ],
      "MeasurementType": [
        "EnergeticParticles",
        "IonComposition"
      ],
      "TemporalDescription": {
        "TimeSpan": {
          "StartDate": "1992-07-06T00:00:00",
          "StopDate": "2004-06-30T23:59:59"
        },
        "Cadence": "PT30.00S"
      },
      "ObservedRegion": "Earth.Magnetosphere"
    }
  }
}