{
  "Spase": {
    "xmlns": "http://www.spase-group.org/data/schema",
    "xmlns:xsi": "http://www.w3.org/2001/XMLSchema-instance",
    "xsi:schemaLocation": "http://www.spase-group.org/data/schema  https://www.spase-group.org/data/schema/spase-2_3_2.xsd",
    "Version": "2.3.2",
    "NumericalData": {
      "ResourceID": "spase://NASA/NumericalData/CNOFS/VEFI/EField/PT1S",
      "ResourceHeader": {
        "ResourceName": "CNOFS VEFI 1-sec Electric Field preliminary data",
        "ReleaseDate": "2021-04-27T15:38:11Z",
        "Description": "This C/NOFS Vector Electric Field Instrument (VEFI) data set contains measurements of (magnetic) meridional and zonal components of electric \nfields and ExB drift velocities.  Data are at 1-sec resolution. ",
        "Contact": {
          "PersonID": "spase://SMWG/Person/Robert.F.Pfaff",
          "Role": "GeneralContact"
        },
        "InformationURL": {
          "Name": "VEFI Data Products",
          "URL": "https://vefi.gsfc.nasa.gov/vefi/dataproducts.html"
        },
        "PriorID": [
          "spase://VSPO/NumericalData/CNOFS_VEFI_EFIELD_1SEC",
          "spase://VSPO/NumericalData/CNOFS/VEFI/EField/PT1S"
        ]
      },
      "AccessInformation": [
        {
          "RepositoryID": "spase://SMWG/Repository/NASA/GSFC/SPDF",
          "Availability": "Online",
          "AccessRights": "Open",
          "AccessURL": {
            "Name": "CDAWeb",
            "URL": "https://cdaweb.gsfc.nasa.gov/cgi-bin/eval2.cgi?dataset=CNOFS_VEFI_EFIELD_1SEC&index=sp_phys",
            "ProductKey": "CNOFS_VEFI_EFIELD_1SEC",
            "Description": "Plots, lists and files from CDAWeb."
          },
          "Format": "Text",
          "Acknowledgement": "the GSFC SPDF Team"
        },
        {
          "RepositoryID": "spase://SMWG/Repository/NASA/GSFC/SPDF",
          "Availability": "Online",
          "AccessRights": "Open",
          "AccessURL": {
            "Name": "CDAWeb HAPI Server",
            "URL": "https://cdaweb.gsfc.nasa.gov/hapi",
            "Style": "HAPI",
            "ProductKey": "CNOFS_VEFI_EFIELD_1SEC",
            "Description": "Web Service to this product using the HAPI interface."
          },
          "Format": "CSV",
          "Acknowledgement": "the GSFC SPDF Team"
        },
        {
          "RepositoryID": "spase://SMWG/Repository/NASA/GSFC/SPDF",
          "Availability": "Online",
          "AccessRights": "Open",
          "AccessURL": [
            {
              "Name": "FTPS from SPDF (not with most browsers)",
              "URL": "ftps://spdf.gsfc.nasa.gov/pub/data/cnofs/vefi/efield_1sec/",
              "Description": "In CDF via FTP from SPDF"
            },
            {
              "Name": "HTTPS from SPDF",
              "URL": "https://spdf.gsfc.nasa.gov/pub/data/cnofs/vefi/efield_1sec/",
              "Description": "In CDF via HTTP from SPDF"
            }
          ],
          "Format": "CDF"
        }
      ],
      "ProviderProcessingLevel": "Preliminary Calibrated",
      "InstrumentID": "spase://SMWG/Instrument/CNOFS/VEFI",
      "MeasurementType": "ElectricField",
      "TemporalDescription": {
        "TimeSpan": {
          "StartDate": "2008-05-09T00:00:00.000Z",
          "StopDate": "2008-09-14T18:34:58.000Z"
        },
        "Cadence": "PT1S"
      },
      "ObservedRegion": "Earth.NearSurface.Ionosphere",
      "Caveats": "The data are PRELIMINARY, and as such, are intended for BROWSE PURPOSES ONLY. Continuous coverage not guaranteed; check the inventory graph for coverage."
    }
  }
}