{
  "Spase": {
    "xmlns": "http://www.spase-group.org/data/schema",
    "xmlns:xsi": "http://www.w3.org/2001/XMLSchema-instance",
    "xsi:schemaLocation": "http://www.spase-group.org/data/schema  https://www.spase-group.org/data/schema/spase-2_3_2.xsd",
    "Version": "2.3.2",
    "NumericalData": {
      "ResourceID": "spase://NASA/NumericalData/IMAGE/RPI/PT24H",
      "ResourceHeader": {
        "ResourceName": "IMAGE RPI Plasmagram/Echogram Key Parameters",
        "ReleaseDate": "2021-04-27T15:38:11Z",
        "Description": "This set of daily plasmagrams/echograms comes from the IMAGE Radio Plasma Imager that studies the Earth's magnetophere in the 3 kHz to 3 MHz frequency range.  RPI plasmagrams are visualized by plotting images in which received signal strength (color scale) is a function of echo delay (range in vertical scale) and radio-sounder frequency (horizontal scale) of the sounder pulses. Echoes that can be used to derive remote, long-range, magnetospheric electron-density profiles, appear as discrete traces on plasmagrams. These plasmagram traces are intermixed with vertical signatures with greater intensity at shorter ranges, corresponding to locally excited plasma resonances, and other vertical signatures that cover the entire listening period, i.e., the entire virtual-range scale, corresponding to various natural and/or man-made emissions propagating in space and/or local interference.",
        "Acknowledgement": "Please acknowledge the instrument PI and NASA's Space Physics Data Facility.",
        "Contact": [
          {
            "PersonID": "spase://SMWG/Person/Bodo.W.Reinisch",
            "Role": "PrincipalInvestigator"
          },
          {
            "PersonID": "spase://SMWG/Person/Ivan.A.Galkin",
            "Role": [
              "DataProducer",
              "TechnicalContact"
            ]
          }
        ],
        "InformationURL": [
          {
            "Name": "IMAGE RPI Instrument Page",
            "URL": "https://image.gsfc.nasa.gov/rpi/",
            "Description": "IMAGE RPI Instrument page maintained by NASA GSFC with RPI facts, description, team, data, documents, discoveries, and related links sections",
            "Language": "en"
          },
          {
            "Name": "IMAGE RPI Instrument Page at UML",
            "URL": "https://ulcar.uml.edu/rpi.html",
            "Description": "IMAGE RPI Instrument page maintained by University of Massachusetts Lowell with RPI description, team, software downloads, software user guides, access to CORPRAL automated prospecting results, mission planning tools and commanding guide, data model descriptions for Level 0 and 1, sonification files of 2003 Halloween storm, and useful links",
            "Language": "en"
          },
          {
            "Name": "IMAGE RPI Anywhere Download Page",
            "URL": "https://ulcar.uml.edu/Installation/BinBrowser/install.htm",
            "Description": "RPIAnywhere software download page, including BinBrowser (RPI data analysis tool) and EdRPI (RPI mission planning tool)",
            "Language": "en"
          }
        ],
        "PriorID": [
          "spase://VSPO/NumericalData/P_IMAGE_HDR_RPI_K0",
          "spase://VSPO/NumericalData/IMAGE/RPI/PT24H"
        ]
      },
      "AccessInformation": [
        {
          "RepositoryID": "spase://SMWG/Repository/NASA/GSFC/SPDF",
          "Availability": "Online",
          "AccessRights": "Open",
          "AccessURL": [
            {
              "Name": "FTPS from SPDF (not with most browsers)",
              "URL": "ftps://spdf.gsfc.nasa.gov/pub/data/image/rpi/rpi_k0/",
              "Description": "FTP access to IM_K0_RPI file."
            },
            {
              "Name": "HTTPS from SPDF",
              "URL": "https://spdf.gsfc.nasa.gov/pub/data/image/rpi/rpi_k0/",
              "Description": "In CDF via HTTP from CDAWeb"
            }
          ],
          "Format": "CDF"
        },
        {
          "RepositoryID": "spase://SMWG/Repository/NASA/GSFC/SPDF",
          "Availability": "Online",
          "AccessRights": "Open",
          "AccessURL": {
            "Name": "CDAWeb",
            "URL": "https://cdaweb.gsfc.nasa.gov/cgi-bin/eval2.cgi?dataset=IM_K0_RPI&index=sp_phys",
            "ProductKey": "IM_K0_RPI",
            "Description": "Plots, lists and files from CDAWeb"
          },
          "Format": "Text"
        },
        {
          "RepositoryID": "spase://SMWG/Repository/NASA/GSFC/SPDF",
          "Availability": "Online",
          "AccessRights": "Open",
          "AccessURL": {
            "Name": "CDAWeb HAPI Server",
            "URL": "https://cdaweb.gsfc.nasa.gov/hapi",
            "Style": "HAPI",
            "ProductKey": "IM_K0_RPI",
            "Description": "Web Service to this product using the HAPI interface."
          },
          "Format": "CSV"
        }
      ],
      "InstrumentID": "spase://SMWG/Instrument/IMAGE/RPI",
      "MeasurementType": "Waves.Active",
      "TemporalDescription": {
        "TimeSpan": {
          "StartDate": "2000-03-26T00:00:00.000Z",
          "StopDate": "2005-12-18T00:00:00.000Z"
        },
        "Cadence": "PT24H"
      },
      "ObservedRegion": [
        "Heliosphere.Inner",
        "Earth.Magnetosphere",
        "Earth.NearSurface.Plasmasphere",
        "Earth.NearSurface.AuroralRegion",
        "Earth.NearSurface.PolarCap"
      ]
    }
  }
}