{
  "Spase": {
    "xmlns:xsi": "http://www.w3.org/2001/XMLSchema-instance",
    "xmlns": "http://www.spase-group.org/data/schema",
    "xsi:schemaLocation": "http://www.spase-group.org/data/schema http://www.spase-group.org/data/schema/spase-2_3_0.xsd",
    "Version": "2.3.2",
    "NumericalData": {
      "ResourceID": "spase://NASA/NumericalData/RBSP/A/ECT/REPT/L3/Sectors/Release03/PT4.2S",
      "ResourceHeader": {
        "ResourceName": "Van Allen Probe A Energetic Particle, Composition, and Thermal Plasma Suite (ECT) Relativistic Electron Proton Telescope (REPT) Pitch Angle-Resolved Electron Fluxes, 2 to 59.45 MeV, Proton Fluxes, 21.25 to 120 MeV Flux Data, Level 3, Release #3 (L3), 4.2 s Data",
        "ReleaseDate": "2021-04-27T15:38:11Z",
        "Description": "Van Allen Probe A, Energetic Particle, Composition, and Thermal Plasma Suite, ECT, Relativistic Electron Proton Telescope, REPT, Science Data. Pitch Angle resolved Electron Fluxes, 2 MeV to 59.45 MeV, and Proton Fluxes, 21.25 MeV to 120 MeV.",
        "Acknowledgement": "D.N. Baker. This Work was supported by Van Allen Probes/RBSP-ECT Funding provided by JHU/APL Contract 967399 under NASA Prime Contract NAS5-01072. See Usage Guidelines at http://www.rbsp-ect.lanl.gov/DataProductsUsage.php.",
        "Contact": [
          {
            "PersonID": "spase://SMWG/Person/Daniel.N.Baker",
            "Role": "PrincipalInvestigator"
          },
          {
            "PersonID": "spase://SMWG/Person/Robert.E.McGuire",
            "Role": "MetadataContact"
          },
          {
            "PersonID": "spase://SMWG/Person/Lee.Frost.Bargatze",
            "Role": "MetadataContact"
          }
        ],
        "InformationURL": [
          {
            "Name": "Van Allen Probes Home Page, JHU/APL",
            "URL": "http://vanallenprobes.jhuapl.edu",
            "Description": "Van Allen Probes Home Page, Exploring Earth's Radiation Belts and the Extremes of Space Weather, Applied Physics Laboratory, Johns Hopkins University"
          },
          {
            "Name": "Van Allen Probes Science Gateway for access to Data, Models, Software and Tools for Researchers, Students and the General Public, JHU/APL",
            "URL": "http://rbspgway.jhuapl.edu/",
            "Description": "Van Allen Probes Science Gateway for access to Data, Models, Software and Tools for Researchers, Students and the General Public at the Applied Physics Laboratory, Johns Hopkins University"
          },
          {
            "Name": "Van Allen Probes Science Gateway, Mission Rules of the Road for Data Usage, JHU/APL",
            "URL": "http://rbspgway.jhuapl.edu/data_policy",
            "Description": "Van Allen Probes Science Gateway, Mission Rules of the Road for Data Usage, Applied Physics Laboratory at the Applied Physics Laboratory, Johns Hopkins University"
          },
          {
            "Name": "Van Allen Probes ECT Home Page, UNH",
            "URL": "http://rbsp-ect.sr.unh.edu",
            "Description": "Van Allen Probes Energetic Particle, Composition, and Thermal Plasma Suite, ECT, Home Page at the University of New Hampshire"
          },
          {
            "Name": "Van Allen Probes ECT SOC, and Data Services Web Page, LANL",
            "URL": "https://www.rbsp-ect.lanl.gov/",
            "Description": "Van Allen Probes Energetic Particle, Composition, and Thermal Plasma Suite, ECT, Science Operations Center, SOC, and Data Services Web Page at the Los Alamos National Laboratory"
          },
          {
            "Name": "Van Allen Probes ECT SOC, Data Access Links to REPT Particle Data, LANL",
            "URL": "https://www.rbsp-ect.lanl.gov/science/DataDirectories.php",
            "Description": "Van Allen Probes Energetic Particle, Composition, and Thermal Plasma Suite, ECT, Science Operations Center, SOC, Data Access Links to Pitch Angle resolved Relativistic Electron Proton Telescope, REPT, Particle Web Site for access to Magnetic Field Data the Los Alamos National Laboratory"
          }
        ],
        "PriorID": [
          "spase://VSPO/NumericalData/RBSP/A/ECT/REPT/L3/Sectors/Release03/PT24S",
          "spase://VSPO/NumericalData/RBSP/A/ECT/REPT/SCI_L3/PT24S",
          "spase://ViRBO/NumericalData/RBSP/A/ECT/PRE/REPT-SCI-L3/PT.001S",
          "spase://ViRBO/NumericalData/RBSP/A/ECT/REPT-SCI-L3/PT.001S",
          "spase://VSPO/NumericalData/RBSP/A/ECT/REPT/L3/Sectors/Release03/PT4.2S"
        ]
      },
      "AccessInformation": [
        {
          "RepositoryID": "spase://SMWG/Repository/NASA/GSFC/SPDF",
          "Availability": "Online",
          "AccessRights": "Open",
          "AccessURL": [
            {
              "Name": "FTPS from SPDF (not with most browsers)",
              "URL": "ftps://spdf.gsfc.nasa.gov/pub/data/rbsp/rbspa/l3/ect/rept/sectors/rel03/",
              "Description": "Access to Data in CDF Format via ftp from SPDF"
            },
            {
              "Name": "HTTPS from SPDF",
              "URL": "https://spdf.gsfc.nasa.gov/pub/data/rbsp/rbspa/l3/ect/rept/sectors/rel03/",
              "Description": "Access to Data in CDF Format via http from SPDF"
            },
            {
              "Name": "CDAWeb",
              "URL": "https://cdaweb.gsfc.nasa.gov/cgi-bin/eval2.cgi?dataset=RBSPA_REL03_ECT-REPT-SCI-L3&index=sp_phys",
              "ProductKey": "RBSPA_REL03_ECT-REPT-SCI-L3",
              "Description": "Access to ASCII, CDF, and Plots via NASA/GSFC CDAWeb"
            }
          ],
          "Format": "CDF",
          "Encoding": "None",
          "Acknowledgement": "D.N. Baker. This Work was supported by Van Allen Probes/RBSP-ECT Funding provided by JHU/APL Contract 967399 under NASA Prime Contract NAS5-01072. See Usage Guidelines at http://www.rbsp-ect.lanl.gov/DataProductsUsage.php. Please acknowledge the Data Providers and CDAWeb when using these Data."
        },
        {
          "RepositoryID": "spase://SMWG/Repository/NASA/GSFC/SPDF",
          "Availability": "Online",
          "AccessRights": "Open",
          "AccessURL": {
            "Name": "CDAWeb HAPI Server",
            "URL": "https://cdaweb.gsfc.nasa.gov/hapi",
            "Style": "HAPI",
            "ProductKey": [
              "RBSPA_REL03_ECT-REPT-SCI-L3@0",
              "RBSPA_REL03_ECT-REPT-SCI-L3@1"
            ],
            "Description": "Web Service to this product using the HAPI interface."
          },
          "Format": "CSV",
          "Acknowledgement": "D.N. Baker. This Work was supported by Van Allen Probes/RBSP-ECT Funding provided by JHU/APL Contract 967399 under NASA Prime Contract NAS5-01072. See Usage Guidelines at http://www.rbsp-ect.lanl.gov/DataProductsUsage.php. Please acknowledge the Data Providers and CDAWeb when using these Data."
        }
      ],
      "ProcessingLevel": "Calibrated",
      "InstrumentID": [
        "spase://SMWG/Instrument/RBSP/A/ECT",
        "spase://SMWG/Instrument/RBSP/A/Ephemeris"
      ],
      "MeasurementType": [
        "EnergeticParticles",
        "MagneticField"
      ],
      "TemporalDescription": {
        "TimeSpan": {
          "StartDate": "2012-09-01T11:38:18.000",
          "StopDate": "2019-10-18T16:30:00Z"
        },
        "Cadence": "PT4.2S"
      },
      "ObservedRegion": [
        "Earth.Magnetosphere",
        "Earth.Magnetosphere.Main",
        "Earth.Magnetosphere.RadiationBelt",
        "Earth.NearSurface.EquatorialRegion"
      ],
      "Parameter": [
        {
          "Name": "Epoch Time, UTC, Sample Time, Midpoint",
          "ParameterKey": "Epoch",
          "Description": "Epoch Time, Coordinated Universal Time, UTC, Midpoint of the Sample Time",
          "Caveats": "This Parameter exhibits an increasing Monotonic Progression.",
          "Cadence": "PT4.2S",
          "RenderingHints": {
            "ScaleType": "LinearScale"
          },
          "ValidMin": "01-Jan-1990 00:00:00.000",
          "ValidMax": "31-Dec-2059 23:59:59.999",
          "FillValue": "31-Dec-9999 23:59:59.999",
          "Support": {
            "Qualifier": "Scalar",
            "SupportQuantity": "Temporal"
          }
        },
        {
          "Name": "Epoch Time, UTC, Sample Time, Midpoint, Proton Data",
          "ParameterKey": "Epoch_prot",
          "Description": "Epoch Time, Coordinated Universal Time, UTC, Midpoint of the Sample Time, Proton Data",
          "Caveats": "This Parameter exhibits an increasing Monotonic Progression.",
          "Cadence": "PT4.2S",
          "RenderingHints": {
            "ScaleType": "LinearScale"
          },
          "ValidMin": "01-Jan-1990 00:00:00.000",
          "ValidMax": "31-Dec-2059 23:59:59.999",
          "FillValue": "31-Dec-9999 23:59:59.999",
          "Support": {
            "Qualifier": "Scalar",
            "SupportQuantity": "Temporal"
          }
        },
        {
          "Name": "Delta Pitch Angle, Alpha, Electron Differential Flux Intensity, Unidirectional",
          "ParameterKey": "FEDU_Alpha_DELTA",
          "Description": "Delta Pitch Angle, Alpha, Electron Differential Flux Intensity, Unidirectional",
          "Cadence": "PT4.2S",
          "Units": "°",
          "UnitsConversion": "0.0174532925>rad",
          "Structure": {
            "Size": "17"
          },
          "Particle": {
            "ParticleType": "Electron",
            "Qualifier": "Array",
            "ParticleQuantity": "ArrivalDirection"
          }
        },
        {
          "Name": "Pitch Angle, Alpha, Electron Differential Flux Intensity, Unidirectional",
          "ParameterKey": "FEDU_Alpha",
          "Description": "Pitch Angle, Alpha, Electron Differential Flux Intensity, Unidirectional",
          "Caveats": "There are 17 Pitch Angle Bins defined for Electrons. The Value is the Center of each Pitch Angle Bin. These Pitch Angles range from 0° to 180°. FEDU stands for Flux, Electron, Differential, Unidirectional.",
          "Cadence": "PT4.2S",
          "Units": "°",
          "UnitsConversion": "0.0174532925>rad",
          "RenderingHints": {
            "AxisLabel": "Pitch Angle",
            "ValueFormat": "E10.3",
            "ScaleType": "LinearScale"
          },
          "Structure": {
            "Size": "17"
          },
          "ValidMin": "0.0",
          "ValidMax": "180.0",
          "FillValue": "-1.0e+31",
          "Particle": {
            "ParticleType": "Electron",
            "Qualifier": "Array",
            "ParticleQuantity": "ArrivalDirection"
          }
        },
        {
          "Name": "Pitch Angle, Alpha, Electron Differential Flux Intensity, Unidirectional",
          "ParameterKey": "FEDU_0to180_Alpha",
          "Description": "Pitch Angle, Alpha, Electron Differential Flux Intensity, Unidirectional, Pitch Angles from 0° to 180°",
          "Caveats": "There are 17 Pitch Angle Bins defined for Electrons. The Value is the Center of each Pitch Angle Bin. These Pitch Angles range from 0° to 180°. FEDU stands for Flux, Electron, Differential, Unidirectional.",
          "Cadence": "PT4.2S",
          "Units": "°",
          "UnitsConversion": "0.0174532925>rad",
          "RenderingHints": {
            "AxisLabel": "Pitch Angle",
            "ValueFormat": "E10.3",
            "ScaleType": "LinearScale"
          },
          "Structure": {
            "Size": "17"
          },
          "ValidMin": "0.0",
          "ValidMax": "180.0",
          "FillValue": "-1.0e+31",
          "Particle": {
            "ParticleType": "Electron",
            "Qualifier": "Array",
            "ParticleQuantity": "ArrivalDirection"
          }
        },
        {
          "Name": "Pitch Angle, Alpha, Electron Differential Flux Intensity, Unidirectional",
          "ParameterKey": "FEDU_180to360_Alpha",
          "Description": "Pitch Angle, Alpha, Electron Differential Flux Intensity, Unidirectional, Pitch Angles from 180° to 360°",
          "Caveats": "There are 17 Pitch Angle Bins defined for Electrons. The Value is the Center of each Pitch Angle Bin. These Pitch Angles range from 180° to 360°. FEDU stands for Flux, Electron, Differential, Unidirectional.",
          "Cadence": "PT4.2S",
          "Units": "°",
          "UnitsConversion": "0.0174532925>rad",
          "RenderingHints": {
            "AxisLabel": "Pitch Angle",
            "ValueFormat": "E10.3",
            "ScaleType": "LinearScale"
          },
          "Structure": {
            "Size": "17"
          },
          "ValidMin": "180.0",
          "ValidMax": "360.0",
          "FillValue": "-1.0e+31",
          "Particle": {
            "ParticleType": "Electron",
            "Qualifier": "Array",
            "ParticleQuantity": "ArrivalDirection"
          }
        },
        {
          "Name": "Pitch Angle, Alpha, Proton Differential Flux Intensity, Unidirectional",
          "ParameterKey": "FPDU_Alpha",
          "Description": "Pitch Angle, Alpha, Proton Differential Flux Intensity, Unidirectional",
          "Caveats": "There are 17 Pitch Angle Bins defined for Protons. The Value is the Center of each Pitch Angle Bin. These Pitch Angles range from 0° to 180°. FPDU stands for Flux, Proton, Differential, Unidirectional.",
          "Cadence": "PT4.2S",
          "Units": "°",
          "UnitsConversion": "0.0174532925>rad",
          "RenderingHints": {
            "AxisLabel": "Pitch Angle",
            "ValueFormat": "E10.3",
            "ScaleType": "LinearScale"
          },
          "Structure": {
            "Size": "17"
          },
          "ValidMin": "0.0",
          "ValidMax": "180.0",
          "FillValue": "-1.0e+31",
          "Particle": {
            "ParticleType": "Proton",
            "Qualifier": "Array",
            "ParticleQuantity": "ArrivalDirection",
            "AtomicNumber": "1"
          }
        },
        {
          "Name": "Pitch Angle, Alpha, Proton Differential Flux Intensity, Unidirectional",
          "ParameterKey": "FPDU_0to180_Alpha",
          "Description": "Pitch Angle, Alpha, Proton Differential Flux Intensity, Unidirectional, Pitch Angles from 0° to 180°",
          "Caveats": "There are 17 Pitch Angle Bins defined for Protons. The Value is the Center of each Pitch Angle Bin. These Pitch Angles range from 0° to 180°. FPDU stands for Flux, Proton, Differential, Unidirectional.",
          "Cadence": "PT4.2S",
          "Units": "°",
          "UnitsConversion": "0.0174532925>rad",
          "RenderingHints": {
            "AxisLabel": "Pitch Angle",
            "ValueFormat": "E10.3",
            "ScaleType": "LinearScale"
          },
          "Structure": {
            "Size": "17"
          },
          "ValidMin": "0.0",
          "ValidMax": "180.0",
          "FillValue": "-1.0e+31",
          "Particle": {
            "ParticleType": "Proton",
            "Qualifier": "Array",
            "ParticleQuantity": "ArrivalDirection",
            "AtomicNumber": "1"
          }
        },
        {
          "Name": "Pitch Angle, Alpha, Proton Differential Flux Intensity, Unidirectional",
          "ParameterKey": "FPDU_180to360_Alpha",
          "Description": "Pitch Angle, Alpha, Proton Differential Flux Intensity, Unidirectional, Pitch Angles from 180° to 360°",
          "Caveats": "There are 17 Pitch Angle Bins defined for Protons. The Value is the Center of each Pitch Angle Bin. These Pitch Angles range from 180° to 360°. FPDU stands for Flux, Proton, Differential, Unidirectional.",
          "Cadence": "PT4.2S",
          "Units": "°",
          "UnitsConversion": "0.0174532925>rad",
          "RenderingHints": {
            "AxisLabel": "Pitch Angle",
            "ValueFormat": "E10.3",
            "ScaleType": "LinearScale"
          },
          "Structure": {
            "Size": "17"
          },
          "ValidMin": "180.0",
          "ValidMax": "360.0",
          "FillValue": "-1.0e+31",
          "Particle": {
            "ParticleType": "Proton",
            "Qualifier": "Array",
            "ParticleQuantity": "ArrivalDirection",
            "AtomicNumber": "1"
          }
        },
        {
          "Name": "Sector Angles for Electron Differential Flux Intensity, Unidirectional, Unbinned, Empty",
          "Set": "Time Series defined by using: EPOCH",
          "ParameterKey": "FEDU_Unbinned_Sector_Angle",
          "Description": "Sector Angles for Electron Differential Flux Intensity, Unidirectional, Unbinned, Empty",
          "Cadence": "PT4.2S",
          "Units": "°",
          "UnitsConversion": "0.0174532925>rad",
          "RenderingHints": {
            "AxisLabel": "FEDU_Unbinned_Sector_Angle",
            "ScaleType": "LinearScale"
          },
          "Structure": {
            "Size": "36"
          },
          "ValidMin": "0.0",
          "ValidMax": "180.0",
          "FillValue": "-1.0e+31",
          "Particle": {
            "ParticleType": "Electron",
            "Qualifier": "Array",
            "ParticleQuantity": "ArrivalDirection"
          }
        },
        {
          "Name": "Delta Pitch Angles, Alpha, for Electron Differential Flux Intensity, Unidirectional, Unbinned",
          "Set": "Time Series defined by using: EPOCH",
          "ParameterKey": "FEDU_Unbinned_Alpha_DELTA",
          "Description": "Delta Pitch Angles, Alpha, for Electron Differential Flux Intensity, Unidirectional, Unbinned",
          "Cadence": "PT4.2S",
          "Units": "°",
          "UnitsConversion": "0.0174532925>rad",
          "RenderingHints": {
            "AxisLabel": "Delta Alpha",
            "ScaleType": "LinearScale"
          },
          "Structure": {
            "Size": "36"
          },
          "ValidMin": "0.0",
          "ValidMax": "180.0",
          "FillValue": "-1.0e+31",
          "Particle": {
            "ParticleType": "Electron",
            "Qualifier": "Array",
            "ParticleQuantity": "ArrivalDirection"
          }
        },
        {
          "Name": "Pitch Angles, Alpha, for Electron Differential Flux Intensity, Unidirectional, Unbinned",
          "Set": "Time Series defined by using: EPOCH",
          "ParameterKey": "FEDU_Unbinned_Alpha",
          "Description": "Pitch Angles, Alpha, for Electron Differential Flux Intensity, Unidirectional, Unbinned, Pitch Angles from 0° to 180°",
          "Caveats": "This Array provides for Pitch Angle Tagging of the Raw Sector versus Time Arrays. The Values are in the Range 0° to 180°. There are 36 Sectors defined.",
          "Cadence": "PT4.2S",
          "Units": "°",
          "UnitsConversion": "0.0174532925>rad",
          "RenderingHints": {
            "AxisLabel": "Alpha",
            "ValueFormat": "E10.3",
            "ScaleType": "LinearScale"
          },
          "Structure": {
            "Size": "36"
          },
          "ValidMin": "0.0",
          "ValidMax": "180.0",
          "FillValue": "-1.0e+31",
          "Particle": {
            "ParticleType": "Electron",
            "Qualifier": "Array",
            "ParticleQuantity": "ArrivalDirection"
          }
        },
        {
          "Name": "Pitch Angles, Alpha, for Electron Differential Flux Intensity, Unidirectional, Unbinned",
          "Set": "Time Series defined by using: EPOCH",
          "ParameterKey": "FEDU_Unbinned_Alpha360",
          "Description": "Pitch Angles, Alpha, for Electron Differential Flux Intensity, Unidirectional, Unbinned, Pitch Angles from 0° to 360°",
          "Caveats": "This Array provides for Pitch Angle Tagging of the Raw Sector versus Time Arrays. The Values are in the Range 0° to 360°. There are 36 Sectors defined.",
          "Cadence": "PT4.2S",
          "Units": "°",
          "UnitsConversion": "0.0174532925>rad",
          "RenderingHints": {
            "AxisLabel": "FEDU_Unbinned PitchAngle 0-360",
            "ValueFormat": "E10.3",
            "ScaleType": "LinearScale"
          },
          "Structure": {
            "Size": "36"
          },
          "ValidMin": "0.0",
          "ValidMax": "360.0",
          "FillValue": "-1.0e+31",
          "Particle": {
            "ParticleType": "Electron",
            "Qualifier": "Array",
            "ParticleQuantity": "ArrivalDirection"
          }
        },
        {
          "Name": "Sector Angles for Proton Differential Flux Intensity, Unidirectional, Unbinned, Empty",
          "Set": "Time Series defined by using: EPOCH_PROT",
          "ParameterKey": "FPDU_Unbinned_Sector_Angle",
          "Description": "Sector Angles for Proton Differential Flux Intensity, Unidirectional, Unbinned, Empty",
          "Cadence": "PT4.2S",
          "Units": "°",
          "UnitsConversion": "0.0174532925>rad",
          "RenderingHints": {
            "AxisLabel": "FPDU_Unbinned_Sector_Angle",
            "ScaleType": "LinearScale"
          },
          "Structure": {
            "Size": "36"
          },
          "ValidMin": "0.0",
          "ValidMax": "180.0",
          "FillValue": "-1.0e+31",
          "Particle": {
            "ParticleType": "Proton",
            "Qualifier": "Array",
            "ParticleQuantity": "ArrivalDirection",
            "AtomicNumber": "1"
          }
        },
        {
          "Name": "Delta Pitch Angles, Alpha, for Proton Differential Flux Intensity, Unidirectional, Unbinned",
          "Set": "Time Series defined by using: EPOCH_PROT",
          "ParameterKey": "FPDU_Unbinned_Alpha_DELTA",
          "Description": "Delta Pitch Angles, Alpha, for Proton Differential Flux Intensity, Unidirectional, Unbinned",
          "Cadence": "PT4.2S",
          "Units": "°",
          "UnitsConversion": "0.0174532925>rad",
          "RenderingHints": {
            "AxisLabel": "Delta Alpha",
            "ScaleType": "LinearScale"
          },
          "Structure": {
            "Size": "36"
          },
          "ValidMin": "0.0",
          "ValidMax": "180.0",
          "FillValue": "-1.0e+31",
          "Particle": {
            "ParticleType": "Proton",
            "Qualifier": "Array",
            "ParticleQuantity": "ArrivalDirection",
            "AtomicNumber": "1"
          }
        },
        {
          "Name": "Pitch Angles, Alpha, for Proton Differential Flux Intensity, Unidirectional, Unbinned",
          "Set": "Time Series defined by using: EPOCH_PROT",
          "ParameterKey": "FPDU_Unbinned_Alpha",
          "Description": "Pitch Angles, Alpha, for Proton Differential Flux Intensity, Unidirectional, Unbinned, Pitch Angles from 0° to 180°",
          "Caveats": "This Array provides for Pitch Angle Tagging of the Raw Sector versus Time Arrays. The Values are in the Range 0° to 180°. There are 36 Sectors defined.",
          "Cadence": "PT4.2S",
          "Units": "°",
          "UnitsConversion": "0.0174532925>rad",
          "RenderingHints": {
            "AxisLabel": "Alpha",
            "ValueFormat": "E10.3",
            "ScaleType": "LinearScale"
          },
          "Structure": {
            "Size": "36"
          },
          "ValidMin": "0.0",
          "ValidMax": "180.0",
          "FillValue": "-1.0e+31",
          "Particle": {
            "ParticleType": "Proton",
            "Qualifier": "Array",
            "ParticleQuantity": "ArrivalDirection",
            "AtomicNumber": "1"
          }
        },
        {
          "Name": "Pitch Angles, Alpha, for Proton Differential Flux Intensity, Unidirectional, Unbinned",
          "Set": "Time Series defined by using: EPOCH_PROT",
          "ParameterKey": "FPDU_Unbinned_Alpha360",
          "Description": "Pitch Angles, Alpha, for Proton Differential Flux Intensity, Unidirectional, Unbinned, Pitch Angles from 0° to 360°",
          "Caveats": "This Array provides for Pitch Angle Tagging of the Raw Sector versus Time Arrays. The Values are in the Range 0° to 360°. There are 36 Sectors defined.",
          "Cadence": "PT4.2S",
          "Units": "°",
          "UnitsConversion": "0.0174532925>rad",
          "RenderingHints": {
            "AxisLabel": "FPDU_Unbinned PitchAngle 0-360",
            "ValueFormat": "E10.3",
            "ScaleType": "LinearScale"
          },
          "Structure": {
            "Size": "36"
          },
          "ValidMin": "0.0",
          "ValidMax": "360.0",
          "FillValue": "-1.0e+31",
          "Particle": {
            "ParticleType": "Proton",
            "Qualifier": "Array",
            "ParticleQuantity": "ArrivalDirection",
            "AtomicNumber": "1"
          }
        },
        {
          "Name": "Energy Delta Minus, Electron Differential Flux Intensity, Unidirectional",
          "Set": "Time Series defined by using: EPOCH",
          "ParameterKey": "FEDU_Energy_DELTA_minus",
          "Description": "Energy Delta Minus, Electron Differential Flux Intensity, Unidirectional",
          "Cadence": "PT4.2S",
          "Units": "MeV",
          "UnitsConversion": "1.602176565e-13>J",
          "RenderingHints": {
            "AxisLabel": "FEDU_Energy_DELTA_minus",
            "ValueFormat": "E12.2",
            "ScaleType": "LinearScale"
          },
          "Structure": {
            "Size": "12"
          },
          "ValidMin": "0.0",
          "ValidMax": "5000.0",
          "FillValue": "-1.0e+31",
          "Particle": {
            "ParticleType": "Electron",
            "Qualifier": "Array",
            "ParticleQuantity": "Energy"
          }
        },
        {
          "Name": "Energy Delta Plus, Electron Differential Flux Intensity, Unidirectional",
          "Set": "Time Series defined by using: EPOCH",
          "ParameterKey": "FEDU_Energy_DELTA_plus",
          "Description": "Energy Delta Plus, Electron Differential Flux Intensity, Unidirectional",
          "Cadence": "PT4.2S",
          "Units": "MeV",
          "UnitsConversion": "1.602176565e-13>J",
          "RenderingHints": {
            "AxisLabel": "FEDU_Energy_DELTA_plus",
            "ValueFormat": "E12.2",
            "ScaleType": "LinearScale"
          },
          "Structure": {
            "Size": "12"
          },
          "ValidMin": "0.0",
          "ValidMax": "5000.0",
          "FillValue": "-1.0e+31",
          "Particle": {
            "ParticleType": "Electron",
            "Qualifier": "Array",
            "ParticleQuantity": "Energy"
          }
        },
        {
          "Name": "Electron Differential Flux Intensity, Unidirectional, Plasmagrams",
          "Set": "Time Series defined by using: EPOCH",
          "ParameterKey": "FEDU",
          "Description": "Electron Differential Flux Intensity, Unidirectional, Plasmagrams, Energies from 2 MeV to 59.45 MeV.\n                      Column 1 Labels from FEDU_ALPHA: [ 5.29400, 15.8800, 26.4700, 37.0600, 47.6500, 58.2400, 68.8200, 79.4100, 90.0000, 100.600, 111.200, 121.800, 132.400, 142.900, 153.500, 164.100, 174.700].\n                      Column 2 Labels from FEDU_ENERGY: [ 2.00000, 2.25000, 2.85000, 3.60000, 4.50000, 5.60000, 7.15000, 8.80000, 11.6500, 15.3500, 22.5500, 59.4500].",
          "Caveats": "Dimension 0 holds 7910 Time Bins. Dimension 1 holds 17 Pitch Angle Bins. Dimension 2 holds 8 Electron Energy Bins. FEDU stands for Flux, Electron, Differential, Unidirectional.",
          "Cadence": "PT4.2S",
          "Units": "(cm^2 s sr MeV)^-1",
          "UnitsConversion": "6.24161e-19>(m^2 s sr J)^-1",
          "RenderingHints": {
            "AxisLabel": "FEDU: Electron Flux",
            "ValueFormat": "E10.3",
            "ScaleType": "LogScale"
          },
          "Structure": {
            "Size": "17 12"
          },
          "FillValue": "-1.0e+31",
          "Particle": {
            "ParticleType": "Electron",
            "Qualifier": "Array",
            "ParticleQuantity": "NumberFlux"
          }
        },
        {
          "Name": "Electron Differential Flux Intensity, Unidirectional, Spectrograms by Energy at Sample Pitch Angles",
          "Set": "Time Series defined by using: EPOCH",
          "ParameterKey": "FEDU_byE_atA",
          "Description": "Electron Differential Flux Intensity, Unidirectional, Spectrograms by Energy at Sample Pitch Angles, Energies from 2 MeV to 59.45 MeV.\n                      Column 1 Labels from FEDU_ALPHA: [\"FEDU_Flux_5degPA\",\"FEDU_Flux_16degPA\",\"FEDU_Flux_26degPA\",\"FEDU_Flux_37degPA\",\"FEDU_Flux_48degPA\",\"FEDU_Flux_58degPA\",\"FEDU_Flux_69degPA\",\"FEDU_Flux_79degPA\",\"FEDU_Flux_90degPA\",\"FEDU_Flux_106degPA\",\"FEDU_Flux_111degPA\",\"FEDU_Flux_122degPA\",\"FEDU_Flux_132degPA\",\"FEDU_Flux_143degPA\",\"FEDU_Flux_154degPA\",\"FEDU_Flux_164degPA\",\"FEDU_Flux_175degPA\"].\n                      Column 2 Labels from FEDU_ENERGY: [\"FEDU_Flux_2.00Mev\",\"FEDU_Flux_2.25MeV\",\"FEDU_Flux_2.85MeV\",\"FEDU_Flux_3.60MeV\",\"FEDU_Flux_4.50MeV\",\"FEDU_Flux_5.60MeV\",\"FEDU_Flux_7.15MeV\",\"FEDU_Flux_8.80MeV\",\"FEDU_Flux_11.65MeV\",\"FEDU_Flux_15.35MeV\",\"FEDU_Flux_22.55MeV\",\"FEDU_Flux_59.45MeV\"].",
          "Caveats": "FEDU stands for Flux, Electron, Differential, Unidirectional This parameter is virtual. It is calculated by calling the function ALTERNATE_VIEW with the following input parameters: FEDU.",
          "Cadence": "PT4.2S",
          "Units": "(cm^2 s sr MeV)^-1",
          "UnitsConversion": "6.24161e-19>(m^2 s sr J)^-1",
          "RenderingHints": {
            "DisplayType": "Spectrogram",
            "ValueFormat": "E10.3",
            "ScaleType": "LogScale"
          },
          "Structure": {
            "Size": "17 12"
          },
          "FillValue": "-1.0e+31",
          "Particle": {
            "ParticleType": "Electron",
            "Qualifier": "Array",
            "ParticleQuantity": "NumberFlux"
          }
        },
        {
          "Name": "Electron Differential Flux Intensity, Unidirectional, Spectrograms by Pitch Angle at Sample Energies",
          "Set": "Time Series defined by using: EPOCH",
          "ParameterKey": "FEDU_byA_atE",
          "Description": "Electron Differential Flux Intensity, Unidirectional, Spectrograms by Pitch Angle at Sample Energies, Energies from 2 MeV to 59.45 MeV.\n                      Column 1 Labels from FEDU_ALPHA: [\"FEDU_Flux_5degPA\",\"FEDU_Flux_16degPA\",\"FEDU_Flux_26degPA\",\"FEDU_Flux_37degPA\",\"FEDU_Flux_48degPA\",\"FEDU_Flux_58degPA\",\"FEDU_Flux_69degPA\",\"FEDU_Flux_79degPA\",\"FEDU_Flux_90degPA\",\"FEDU_Flux_106degPA\",\"FEDU_Flux_111degPA\",\"FEDU_Flux_122degPA\",\"FEDU_Flux_132degPA\",\"FEDU_Flux_143degPA\",\"FEDU_Flux_154degPA\",\"FEDU_Flux_164degPA\",\"FEDU_Flux_175degPA\"].\n                      Column 2 Labels from FEDU_ENERGY: [\"FEDU_Flux_2.00Mev\",\"FEDU_Flux_2.25MeV\",\"FEDU_Flux_2.85MeV\",\"FEDU_Flux_3.60MeV\",\"FEDU_Flux_4.50MeV\",\"FEDU_Flux_5.60MeV\",\"FEDU_Flux_7.15MeV\",\"FEDU_Flux_8.80MeV\",\"FEDU_Flux_11.65MeV\",\"FEDU_Flux_15.35MeV\",\"FEDU_Flux_22.55MeV\",\"FEDU_Flux_59.45MeV\"].",
          "Caveats": "FEDU stands for Flux, Electron, Differential, Unidirectional This parameter is virtual. It is calculated by calling the function ALTERNATE_VIEW with the following input parameters: FEDU.",
          "Cadence": "PT4.2S",
          "Units": "(cm^2 s sr MeV)^-1",
          "UnitsConversion": "6.24161e-19>(m^2 s sr J)^-1",
          "RenderingHints": {
            "DisplayType": "Spectrogram",
            "ValueFormat": "E10.3",
            "ScaleType": "LogScale"
          },
          "Structure": {
            "Size": "17 12"
          },
          "FillValue": "-1.0e+31",
          "Particle": {
            "ParticleType": "Electron",
            "Qualifier": "Array",
            "ParticleQuantity": "NumberFlux"
          }
        },
        {
          "Name": "Energy Channel Centroids, Electron Differential Flux Intensity, Unidirectional",
          "ParameterKey": "FEDU_Energy",
          "Description": "Energy Channel Centroids, Electron Differential Flux Intensity, Unidirectional",
          "Caveats": "These Channels are the 12 Main Rate Channels. Centers of the Electron Energy Bins. The Value Uncertainty contains the ±Range for each Bin. FEDU stands for Flux, Electron, Differential, Unidirectional.",
          "Cadence": "PT4.2S",
          "Units": "MeV",
          "UnitsConversion": "1.602176565e-13>J",
          "RenderingHints": {
            "AxisLabel": "Energy",
            "ValueFormat": "E10.3",
            "ScaleType": "LogScale"
          },
          "Structure": {
            "Size": "12"
          },
          "ValidMin": "1.0",
          "ValidMax": "80.0",
          "FillValue": "-1.0e+31",
          "Particle": {
            "ParticleType": "Electron",
            "Qualifier": "Array",
            "ParticleQuantity": "Energy"
          }
        },
        {
          "Name": "Proton Differential Flux Intensity, Unidirectional, Plasmagrams",
          "Set": "Time Series defined by using: EPOCH_PROT",
          "ParameterKey": "FPDU",
          "Description": "Proton Differential Flux Intensity, Unidirectional, Plasmagrams, Energies from 21.25 MeV to 120 MeV.\n                      Column 1 Labels from FPDU_ALPHA: [ 5.29400, 15.8800, 26.4700, 37.0600, 47.6500, 58.2400, 68.8200, 79.4100, 90.0000, 100.600, 111.200, 121.800, 132.400, 142.900, 153.500, 164.100, 174.700].\n                      Column 2 Labels from FPDU_ENERGY_FIXED: [ 21.2500, 27.6000, 35.9000, 46.7000, 60.7000, 78.9000, 102.600, 208.000].",
          "Caveats": "Dimension 0 holds 7910 Time Bins. Dimension 1 holds 17 Pitch Angle Bins. Dimension 2 holds 8 Proton Energy Bins. FPDU stands for Flux, Proton, Differential, Unidirectional.",
          "Cadence": "PT4.2S",
          "Units": "(cm^2 s sr MeV)^-1",
          "UnitsConversion": "6.24161e-19>(m^2 s sr J)^-1",
          "RenderingHints": {
            "AxisLabel": "FPDU: Proton Flux",
            "ValueFormat": "E10.3",
            "ScaleType": "LogScale"
          },
          "Structure": {
            "Size": "17 8"
          },
          "FillValue": "-1.0e+31",
          "Particle": {
            "ParticleType": "Proton",
            "Qualifier": "Array",
            "ParticleQuantity": "NumberFlux",
            "AtomicNumber": "1"
          }
        },
        {
          "Name": "Proton Differential Flux Intensity, Unidirectional, Spectrograms by Energy at Sample Pitch Angles",
          "Set": "Time Series defined by using: EPOCH_PROT",
          "ParameterKey": "FPDU_byE_atA",
          "Description": "Proton Differential Flux Intensity, Unidirectional, Spectrograms by Energy at Sample Pitch Angles, Energies from 21.25 MeV to 120 MeV.\n                      Column 1 Labels from FPDU_ALPHA: [\"FPDU_Flux_5degPA\",\"FPDU_Flux_16degPA\",\"FPDU_Flux_26degPA\",\"FPDU_Flux_37degPA\",\"FPDU_Flux_48degPA\",\"FPDU_Flux_58degPA\",\"FPDU_Flux_69degPA\",\"FPDU_Flux_79degPA\",\"FPDU_Flux_90degPA\",\"FPDU_Flux_106degPA\",\"FPDU_Flux_111degPA\",\"FPDU_Flux_122degPA\",\"FPDU_Flux_132degPA\",\"FPDU_Flux_143degPA\",\"FPDU_Flux_154degPA\",\"FPDU_Flux_164degPA\",\"FPDU_Flux_175degPA\"].\n                      Column 2 Labels from FPDU_ENERGY_FIXED: [\"FPDU_Flux_21.25MeV\",\"FPDU_Flux_27.60MeV\",\"FPDU_Flux_35.90MeV\",\"FPDU_Flux_46.70MeV\",\"FPDU_Flux_60.70MeV\",\"FPDU_Flux_78.90MeV\",\"FPDU_Flux_102.6MeV\",\"FPDU_Flux_208MeV\"].",
          "Caveats": "FPDU stands for Flux, Proton, Differential, Unidirectional This parameter is virtual. It is calculated by calling the function ALTERNATE_VIEW with the following input parameters: FPDU.",
          "Cadence": "PT4.2S",
          "Units": "(cm^2 s sr MeV)^-1",
          "UnitsConversion": "6.24161e-19>(m^2 s sr J)^-1",
          "RenderingHints": {
            "DisplayType": "Spectrogram",
            "ValueFormat": "E10.3",
            "ScaleType": "LogScale"
          },
          "Structure": {
            "Size": "17 8"
          },
          "FillValue": "-1.0e+31",
          "Particle": {
            "ParticleType": "Proton",
            "Qualifier": "Array",
            "ParticleQuantity": "NumberFlux",
            "AtomicNumber": "1"
          }
        },
        {
          "Name": "Proton Differential Flux Intensity, Unidirectional, Spectrograms by Pitch Angle at Sample Energies",
          "Set": "Time Series defined by using: EPOCH_PROT",
          "ParameterKey": "FPDU_byA_atE",
          "Description": "Proton Differential Flux Intensity, Unidirectional, Spectrograms by Pitch Angle at Sample Energies, Energies from 21.25 MeV to 120 MeV.\n                      Column 1 Labels from FPDU_ALPHA: [\"FPDU_Flux_5degPA\",\"FPDU_Flux_16degPA\",\"FPDU_Flux_26degPA\",\"FPDU_Flux_37degPA\",\"FPDU_Flux_48degPA\",\"FPDU_Flux_58degPA\",\"FPDU_Flux_69degPA\",\"FPDU_Flux_79degPA\",\"FPDU_Flux_90degPA\",\"FPDU_Flux_106degPA\",\"FPDU_Flux_111degPA\",\"FPDU_Flux_122degPA\",\"FPDU_Flux_132degPA\",\"FPDU_Flux_143degPA\",\"FPDU_Flux_154degPA\",\"FPDU_Flux_164degPA\",\"FPDU_Flux_175degPA\"].\n                      Column 2 Labels from FPDU_ENERGY_FIXED: [\"FPDU_Flux_21.25MeV\",\"FPDU_Flux_27.60MeV\",\"FPDU_Flux_35.90MeV\",\"FPDU_Flux_46.70MeV\",\"FPDU_Flux_60.70MeV\",\"FPDU_Flux_78.90MeV\",\"FPDU_Flux_102.6MeV\",\"FPDU_Flux_208MeV\"].",
          "Caveats": "FPDU stands for Flux, Proton, Differential, Unidirectional This parameter is virtual. It is calculated by calling the function ALTERNATE_VIEW with the following input parameters: FPDU.",
          "Cadence": "PT4.2S",
          "Units": "(cm^2 s sr MeV)^-1",
          "UnitsConversion": "6.24161e-19>(m^2 s sr J)^-1",
          "RenderingHints": {
            "DisplayType": "Spectrogram",
            "ValueFormat": "E10.3",
            "ScaleType": "LogScale"
          },
          "Structure": {
            "Size": "17 8"
          },
          "FillValue": "-1.0e+31",
          "Particle": {
            "ParticleType": "Proton",
            "Qualifier": "Array",
            "ParticleQuantity": "NumberFlux",
            "AtomicNumber": "1"
          }
        },
        {
          "Name": "Energy Channel Centroids, Proton Differential Flux Intensity, Unidirectional",
          "Set": "Time Series defined by using: EPOCH_PROT",
          "ParameterKey": "FPDU_Energy",
          "Description": "Energy Channel Centroids, Proton Differential Flux Intensity, Unidirectional",
          "Caveats": "These Channels are the 12 Main Rate Channels. Centers of the Proton Energy Bins. The Value Uncertainty contains the ±Range for each Bin. FPDU stands for Flux, Proton, Differential, Unidirectional.",
          "Cadence": "PT4.2S",
          "Units": "MeV",
          "UnitsConversion": "1.602176565e-13>J",
          "RenderingHints": {
            "AxisLabel": "Energy",
            "ValueFormat": "E10.3",
            "ScaleType": "LogScale"
          },
          "Structure": {
            "Size": "8"
          },
          "ValidMin": "30.0",
          "ValidMax": "2500.0",
          "FillValue": "-1.0e+31",
          "Particle": {
            "ParticleType": "Proton",
            "Qualifier": "Array",
            "ParticleQuantity": "Energy",
            "AtomicNumber": "1"
          }
        },
        {
          "Name": "Energy Channel Centroids, Fixed, Proton Differential Flux Intensity, Unidirectional",
          "ParameterKey": "FPDU_Energy_FIXED",
          "Description": "Energy Channel Centroids, Fixed, Proton Differential Flux Intensity, Unidirectional",
          "Caveats": "These Channels are the 8 Main Rate Channels. Centers of the Proton Energy Bins. The Value Uncertainty contains the ±Range for each Bin. FPDU stands for Flux, Proton, Differential, Unidirectional.",
          "Cadence": "PT4.2S",
          "Units": "MeV",
          "UnitsConversion": "1.602176565e-13>J",
          "RenderingHints": {
            "AxisLabel": "Energy",
            "ValueFormat": "E10.3",
            "ScaleType": "LogScale"
          },
          "Structure": {
            "Size": "8"
          },
          "ValidMin": "30.0",
          "ValidMax": "2500.0",
          "FillValue": "-1.0e+31",
          "Particle": {
            "ParticleType": "Proton",
            "Qualifier": "Array",
            "ParticleQuantity": "Energy",
            "AtomicNumber": "1"
          }
        },
        {
          "Name": "Electron Differential Flux Intensity, Unidirectional, Plasmagrams, Pitch Angles, Alpha, from 0° to 180°",
          "Set": "Time Series defined by using: EPOCH",
          "ParameterKey": "FEDU_0to180",
          "Description": "Electron Differential Flux Intensity, Unidirectional, Plasmagrams, Pitch Angles, Alpha, from 0° to 180°, Energies from 2 MeV to 59.45 MeV.\n                      Column 1 Labels from FEDU_0TO180_ALPHA: [ 5.29400, 15.8800, 26.4700, 37.0600, 47.6500, 58.2400, 68.8200, 79.4100, 90.0000, 100.600, 111.200, 121.800, 132.400, 142.900, 153.500, 164.100, 174.700].\n                      Column 2 Labels from FEDU_ENERGY: [ 2.00000, 2.25000, 2.85000, 3.60000, 4.50000, 5.60000, 7.15000, 8.80000, 11.6500, 15.3500, 22.5500, 59.4500].",
          "Caveats": "Dimension 0 holds 7910 Time Bins. Dimension 1 holds 17 Pitch Angle Bins. Dimension 2 holds 8 Electron Energy Bins. FEDU stands for Flux, Electron, Differential, Unidirectional.",
          "Cadence": "PT4.2S",
          "Units": "(cm^2 s sr MeV)^-1",
          "UnitsConversion": "6.24161e-19>(m^2 s sr J)^-1",
          "RenderingHints": {
            "AxisLabel": "FEDU 0to180: Electron Flux",
            "ValueFormat": "E10.3",
            "ScaleType": "LogScale"
          },
          "Structure": {
            "Size": "17 12"
          },
          "FillValue": "-1.0e+31",
          "Particle": {
            "ParticleType": "Electron",
            "Qualifier": "Array",
            "ParticleQuantity": "NumberFlux"
          }
        },
        {
          "Name": "Electron Differential Flux Intensity, Unidirectional, Spectrograms by Energy at Sample Pitch Angles, Pitch Angles, Alpha, from 0° to 180°",
          "Set": "Time Series defined by using: EPOCH",
          "ParameterKey": "FEDU_0to180_byE_atA",
          "Description": "Electron Differential Flux Intensity, Unidirectional, Spectrograms by Energy at Sample Pitch Angles, Pitch Angles, Alpha, from 0° to 180°, Energies from 2 MeV to 59.45 MeV.\n                      Column 1 Labels from FEDU_0TO180_ALPHA: [\"FEDU_Flux_0to180_5degPA\",\"FEDU_Flux_0to180_16degPA\",\"FEDU_Flux_0to180_26degPA\",\"FEDU_Flux_0to180_37degPA\",\"FEDU_Flux_0to180_48degPA\",\"FEDU_Flux_0to180_58degPA\",\"FEDU_Flux_0to180_69degPA\",\"FEDU_Flux_0to180_79degPA\",\"FEDU_Flux_0to180_90degPA\",\"FEDU_Flux_0to180_106degPA\",\"FEDU_Flux_0to180_111degPA\",\"FEDU_Flux_0to180_122degPA\",\"FEDU_Flux_0to180_132degPA\",\"FEDU_Flux_0to180_143degPA\",\"FEDU_Flux_0to180_154degPA\",\"FEDU_Flux_0to180_164degPA\",\"FEDU_Flux_0to180_175degPA\"].\n                      Column 2 Labels from FEDU_ENERGY: [\"FEDU_Flux_0to180_2.00Mev\",\"FEDU_Flux_0to180_2.25MeV\",\"FEDU_Flux_0to180_2.85MeV\",\"FEDU_Flux_0to180_3.60MeV\",\"FEDU_Flux_0to180_4.50MeV\",\"FEDU_Flux_0to180_5.60MeV\",\"FEDU_Flux_0to180_7.15MeV\",\"FEDU_Flux_0to180_8.80MeV\",\"FEDU_Flux_0to180_11.65MeV\",\"FEDU_Flux_0to180_15.35MeV\",\"FEDU_Flux_0to180_22.55MeV\",\"FEDU_Flux_0to180_59.45MeV\"].",
          "Caveats": "Dimension 0 holds 7910 Time Bins. Dimension 1 holds 17 Pitch Angle Bins. Dimension 2 holds 8 Electron Energy Bins. FEDU stands for Flux, Electron, Differential, Unidirectional. This parameter is virtual. It is calculated by calling the function ALTERNATE_VIEW with the following input parameters: FEDU_0to180.",
          "Cadence": "PT4.2S",
          "Units": "(cm^2 s sr MeV)^-1",
          "UnitsConversion": "6.24161e-19>(m^2 s sr J)^-1",
          "RenderingHints": {
            "DisplayType": "Spectrogram",
            "ValueFormat": "E10.3",
            "ScaleType": "LogScale"
          },
          "Structure": {
            "Size": "17 12"
          },
          "FillValue": "-1.0e+31",
          "Particle": {
            "ParticleType": "Electron",
            "Qualifier": "Array",
            "ParticleQuantity": "NumberFlux"
          }
        },
        {
          "Name": "Electron Differential Flux Intensity, Unidirectional, Spectrograms by Pitch Angle at Sample Energies, Pitch Angles, Alpha, from 0° to 180°",
          "Set": "Time Series defined by using: EPOCH",
          "ParameterKey": "FEDU_0to180_byA_atE",
          "Description": "Electron Differential Flux Intensity, Unidirectional, Spectrograms by Pitch Angle at Sample Energies, Pitch Angles, Alpha, from 0° to 180°, Energies from 2 MeV to 59.45 MeV.\n                      Column 1 Labels from FEDU_0TO180_ALPHA: [\"FEDU_Flux_0to180_5degPA\",\"FEDU_Flux_0to180_16degPA\",\"FEDU_Flux_0to180_26degPA\",\"FEDU_Flux_0to180_37degPA\",\"FEDU_Flux_0to180_48degPA\",\"FEDU_Flux_0to180_58degPA\",\"FEDU_Flux_0to180_69degPA\",\"FEDU_Flux_0to180_79degPA\",\"FEDU_Flux_0to180_90degPA\",\"FEDU_Flux_0to180_106degPA\",\"FEDU_Flux_0to180_111degPA\",\"FEDU_Flux_0to180_122degPA\",\"FEDU_Flux_0to180_132degPA\",\"FEDU_Flux_0to180_143degPA\",\"FEDU_Flux_0to180_154degPA\",\"FEDU_Flux_0to180_164degPA\",\"FEDU_Flux_0to180_175degPA\"].\n                      Column 2 Labels from FEDU_ENERGY: [\"FEDU_Flux_0to180_2.00Mev\",\"FEDU_Flux_0to180_2.25MeV\",\"FEDU_Flux_0to180_2.85MeV\",\"FEDU_Flux_0to180_3.60MeV\",\"FEDU_Flux_0to180_4.50MeV\",\"FEDU_Flux_0to180_5.60MeV\",\"FEDU_Flux_0to180_7.15MeV\",\"FEDU_Flux_0to180_8.80MeV\",\"FEDU_Flux_0to180_11.65MeV\",\"FEDU_Flux_0to180_15.35MeV\",\"FEDU_Flux_0to180_22.55MeV\",\"FEDU_Flux_0to180_59.45MeV\"].",
          "Caveats": "Dimension 0 holds 7910 Time Bins. Dimension 1 holds 17 Pitch Angle Bins. Dimension 2 holds 8 Electron Energy Bins. FEDU stands for Flux, Electron, Differential, Unidirectional. This parameter is virtual. It is calculated by calling the function ALTERNATE_VIEW with the following input parameters: FEDU_0to180.",
          "Cadence": "PT4.2S",
          "Units": "(cm^2 s sr MeV)^-1",
          "UnitsConversion": "6.24161e-19>(m^2 s sr J)^-1",
          "RenderingHints": {
            "DisplayType": "Spectrogram",
            "ValueFormat": "E10.3",
            "ScaleType": "LogScale"
          },
          "Structure": {
            "Size": "17 12"
          },
          "FillValue": "-1.0e+31",
          "Particle": {
            "ParticleType": "Electron",
            "Qualifier": "Array",
            "ParticleQuantity": "NumberFlux"
          }
        },
        {
          "Name": "Electron Differential Flux Intensity, Unidirectional, Plasmagrams, Pitch Angles, Alpha, from 180° to 360°",
          "Set": "Time Series defined by using: EPOCH",
          "ParameterKey": "FEDU_180to360",
          "Description": "Electron Differential Flux Intensity, Unidirectional, Plasmagrams, Pitch Angles, Alpha, from 180° to 360°, Energies from 2 MeV to 59.45 MeV.\n                      Column 1 Labels from FEDU_180TO360_ALPHA: [ 185.300, 195.900, 206.500, 217.100, 227.600, 238.200, 248.800, 259.400, 270.000, 280.600, 291.200, 301.800, 312.400, 322.900, 333.500, 344.100, 354.700].\n                      Column 2 Labels from FEDU_ENERGY: [ 2.00000, 2.25000, 2.85000, 3.60000, 4.50000, 5.60000, 7.15000, 8.80000, 11.6500, 15.3500, 22.5500, 59.4500].",
          "Caveats": "Dimension 0 holds 7910 Time Bins. Dimension 1 holds 17 Pitch Angle Bins. Dimension 2 holds 8 Electron Energy Bins. FEDU stands for Flux, Electron, Differential, Unidirectional.",
          "Cadence": "PT4.2S",
          "Units": "(cm^2 s sr MeV)^-1",
          "UnitsConversion": "6.24161e-19>(m^2 s sr J)^-1",
          "RenderingHints": {
            "AxisLabel": "FEDU 180to360: Electron Flux",
            "ValueFormat": "E10.3",
            "ScaleType": "LogScale"
          },
          "Structure": {
            "Size": "17 12"
          },
          "FillValue": "-1.0e+31",
          "Particle": {
            "ParticleType": "Electron",
            "Qualifier": "Array",
            "ParticleQuantity": "NumberFlux"
          }
        },
        {
          "Name": "Electron Differential Flux Intensity, Unidirectional, Spectrograms by Energy at Sample Pitch Angles, Pitch Angles, Alpha, from 180° to 360°",
          "Set": "Time Series defined by using: EPOCH",
          "ParameterKey": "FEDU_180to360_byE_atA",
          "Description": "Electron Differential Flux Intensity, Unidirectional, Spectrograms by Energy at Sample Pitch Angles, Pitch Angles, Alpha, from 180° to 360°, Energies from 2 MeV to 59.45 MeV.\n                      Column 1 Labels from FEDU_180TO360_ALPHA: [\"FEDU_Flux_180to360_185degPA\",\"FEDU_Flux_180to360_196degPA\",\"FEDU_Flux_180to360_206degPA\",\"FEDU_Flux_180to360_217degPA\",\"FEDU_Flux_180to360_228degPA\",\"FEDU_Flux_180to360_238degPA\",\"FEDU_Flux_180to360_249degPA\",\"FEDU_Flux_180to360_259degPA\",\"FEDU_Flux_180to360_270degPA\",\"FEDU_Flux_180to360_281degPA\",\"FEDU_Flux_180to360_291degPA\",\"FEDU_Flux_180to360_302degPA\",\"FEDU_Flux_180to360_312degPA\",\"FEDU_Flux_180to360_323degPA\",\"FEDU_Flux_180to360_334degPA\",\"FEDU_Flux_180to360_344degPA\",\"FEDU_Flux_180to360_355degPA\"].\n                      Column 2 Labels from FEDU_ENERGY: [\"FEDU_Flux_2.00Mev\",\"FEDU_Flux_2.25MeV\",\"FEDU_Flux_2.85MeV\",\"FEDU_Flux_3.60MeV\",\"FEDU_Flux_4.50MeV\",\"FEDU_Flux_5.60MeV\",\"FEDU_Flux_7.15MeV\",\"FEDU_Flux_8.80MeV\",\"FEDU_Flux_11.65MeV\",\"FEDU_Flux_15.35MeV\",\"FEDU_Flux_22.55MeV\",\"FEDU_Flux_59.45MeV\"].",
          "Caveats": "Dimension 0 holds 7910 Time Bins. Dimension 1 holds 17 Pitch Angle Bins. Dimension 2 holds 8 Electron Energy Bins. FEDU stands for Flux, Electron, Differential, Unidirectional. This parameter is virtual. It is calculated by calling the function ALTERNATE_VIEW with the following input parameters: FEDU_180to360.",
          "Cadence": "PT4.2S",
          "Units": "(cm^2 s sr MeV)^-1",
          "UnitsConversion": "6.24161e-19>(m^2 s sr J)^-1",
          "RenderingHints": {
            "DisplayType": "Spectrogram",
            "AxisLabel": "FEDU 180to360: Electron Flux",
            "ValueFormat": "E10.3",
            "ScaleType": "LogScale"
          },
          "Structure": {
            "Size": "17 12"
          },
          "FillValue": "-1.0e+31",
          "Particle": {
            "ParticleType": "Electron",
            "Qualifier": "Array",
            "ParticleQuantity": "NumberFlux"
          }
        },
        {
          "Name": "Electron Differential Flux Intensity, Unidirectional, Spectrograms by Pitch Angle at Sample Energies, Pitch Angles, Alpha, from 180° to 360°",
          "Set": "Time Series defined by using: EPOCH",
          "ParameterKey": "FEDU_180to360_byA_atE",
          "Description": "Electron Differential Flux Intensity, Unidirectional, Spectrograms by Pitch Angle at Sample Energies, Pitch Angles, Alpha, from 180° to 360°, Energies from 2 MeV to 59.45 MeV.\n                      Column 1 Labels from FEDU_180TO360_ALPHA: [\"FEDU_Flux_180to360_185degPA\",\"FEDU_Flux_180to360_196degPA\",\"FEDU_Flux_180to360_206degPA\",\"FEDU_Flux_180to360_217degPA\",\"FEDU_Flux_180to360_228degPA\",\"FEDU_Flux_180to360_238degPA\",\"FEDU_Flux_180to360_249degPA\",\"FEDU_Flux_180to360_259degPA\",\"FEDU_Flux_180to360_270degPA\",\"FEDU_Flux_180to360_281degPA\",\"FEDU_Flux_180to360_291degPA\",\"FEDU_Flux_180to360_302degPA\",\"FEDU_Flux_180to360_312degPA\",\"FEDU_Flux_180to360_323degPA\",\"FEDU_Flux_180to360_334degPA\",\"FEDU_Flux_180to360_344degPA\",\"FEDU_Flux_180to360_355degPA\"].\n                      Column 2 Labels from FEDU_ENERGY: [\"FEDU_Flux_2.00Mev\",\"FEDU_Flux_2.25MeV\",\"FEDU_Flux_2.85MeV\",\"FEDU_Flux_3.60MeV\",\"FEDU_Flux_4.50MeV\",\"FEDU_Flux_5.60MeV\",\"FEDU_Flux_7.15MeV\",\"FEDU_Flux_8.80MeV\",\"FEDU_Flux_11.65MeV\",\"FEDU_Flux_15.35MeV\",\"FEDU_Flux_22.55MeV\",\"FEDU_Flux_59.45MeV\"].",
          "Caveats": "Dimension 0 holds 7910 Time Bins. Dimension 1 holds 17 Pitch Angle Bins. Dimension 2 holds 8 Electron Energy Bins. FEDU stands for Flux, Electron, Differential, Unidirectional. This parameter is virtual. It is calculated by calling the function ALTERNATE_VIEW with the following input parameters: FEDU_180to360.",
          "Cadence": "PT4.2S",
          "Units": "(cm^2 s sr MeV)^-1",
          "UnitsConversion": "6.24161e-19>(m^2 s sr J)^-1",
          "RenderingHints": {
            "DisplayType": "Spectrogram",
            "AxisLabel": "FEDU 180to360: Electron Flux",
            "ValueFormat": "E10.3",
            "ScaleType": "LogScale"
          },
          "Structure": {
            "Size": "17 12"
          },
          "FillValue": "-1.0e+31",
          "Particle": {
            "ParticleType": "Electron",
            "Qualifier": "Array",
            "ParticleQuantity": "NumberFlux"
          }
        },
        {
          "Name": "Proton Differential Flux Intensity, Unidirectional, Plasmagrams, Pitch Angles, Alpha, from 0° to 180°",
          "Set": "Time Series defined by using: EPOCH_PROT",
          "ParameterKey": "FPDU_0to180",
          "Description": "Proton Differential Flux Intensity, Unidirectional, Plasmagrams, Pitch Angles, Alpha, from 0° to 180°, Energies from 21.25 MeV to 120 MeV.\n                      Column 1 Labels from FPDU_0TO180_ALPHA: [ 5.29400, 15.8800, 26.4700, 37.0600, 47.6500, 58.2400, 68.8200, 79.4100, 90.0000, 100.600, 111.200, 121.800, 132.400, 142.900, 153.500, 164.100, 174.700].\n                      Column 2 Labels from FPDU_ENERGY_FIXED: [ 21.2500, 27.6000, 35.9000, 46.7000, 60.7000, 78.9000, 102.600, 208.000].",
          "Caveats": "Dimension 0 holds 7910 Time Bins. Dimension 1 holds 17 Pitch Angle Bins. Dimension 2 holds 8 Proton Energy Bins. FPDU stands for Flux, Proton, Differential, Unidirectional.",
          "Cadence": "PT4.2S",
          "Units": "(cm^2 s sr MeV)^-1",
          "UnitsConversion": "6.24161e-19>(m^2 s sr J)^-1",
          "RenderingHints": {
            "AxisLabel": "FPDU 0to180: Proton Flux",
            "ValueFormat": "E10.3",
            "ScaleType": "LogScale"
          },
          "Structure": {
            "Size": "17 8"
          },
          "FillValue": "-1.0e+31",
          "Particle": {
            "ParticleType": "Proton",
            "Qualifier": "Array",
            "ParticleQuantity": "NumberFlux",
            "AtomicNumber": "1"
          }
        },
        {
          "Name": "Proton Differential Flux Intensity, Unidirectional, Spectrograms by Energy at Sample Pitch Angles, Pitch Angles, Alpha, from 0° to 180°",
          "Set": "Time Series defined by using: EPOCH_PROT",
          "ParameterKey": "FPDU_0to180_byE_atA",
          "Description": "Proton Differential Flux Intensity, Unidirectional, Spectrograms by Energy at Sample Pitch Angles, Pitch Angles, Alpha, from 0° to 180°, Energies from 21.25 MeV to 120 MeV.\n                      Column 1 Labels from FPDU_0TO180_ALPHA: [\"FPDU_Flux_0to180_5degPA\",\"FPDU_Flux_0to180_16degPA\",\"FPDU_Flux_0to180_26degPA\",\"FPDU_Flux_0to180_37degPA\",\"FPDU_Flux_0to180_48degPA\",\"FPDU_Flux_0to180_58degPA\",\"FPDU_Flux_0to180_69degPA\",\"FPDU_Flux_0to180_79degPA\",\"FPDU_Flux_0to180_90degPA\",\"FPDU_Flux_0to180_106degPA\",\"FPDU_Flux_0to180_111degPA\",\"FPDU_Flux_0to180_122degPA\",\"FPDU_Flux_0to180_132degPA\",\"FPDU_Flux_0to180_143degPA\",\"FPDU_Flux_0to180_154degPA\",\"FPDU_Flux_0to180_164degPA\",\"FPDU_Flux_0to180_175degPA\"].\n                      Column 2 Labels from FPDU_ENERGY_FIXED: [\"FPDU_Flux_0to180_21.25MeV\",\"FPDU_Flux_0to180_27.60MeV\",\"FPDU_Flux_0to180_35.90MeV\",\"FPDU_Flux_0to180_46.70MeV\",\"FPDU_Flux_0to180_60.70MeV\",\"FPDU_Flux_0to180_78.90MeV\",\"FPDU_Flux_0to180_102.6MeV\",\"FPDU_Flux_0to180_208MeV\"].",
          "Caveats": "Dimension 0 holds 7910 Time Bins. Dimension 1 holds 17 Pitch Angle Bins. Dimension 2 holds 8 Proton Energy Bins. FPDU stands for Flux, Proton, Differential, Unidirectional. This parameter is virtual. It is calculated by calling the function ALTERNATE_VIEW with the following input parameters: FPDU_0to180.",
          "Cadence": "PT4.2S",
          "Units": "(cm^2 s sr MeV)^-1",
          "UnitsConversion": "6.24161e-19>(m^2 s sr J)^-1",
          "RenderingHints": {
            "DisplayType": "Spectrogram",
            "ValueFormat": "E10.3",
            "ScaleType": "LogScale"
          },
          "Structure": {
            "Size": "17 8"
          },
          "FillValue": "-1.0e+31",
          "Particle": {
            "ParticleType": "Proton",
            "Qualifier": "Array",
            "ParticleQuantity": "NumberFlux",
            "AtomicNumber": "1"
          }
        },
        {
          "Name": "Proton Differential Flux Intensity, Unidirectional, Spectrograms by Pitch Angle at Sample Energies, Pitch Angles, Alpha, from 0° to 180°",
          "Set": "Time Series defined by using: EPOCH_PROT",
          "ParameterKey": "FPDU_0to180_byA_atE",
          "Description": "Proton Differential Flux Intensity, Unidirectional, Spectrograms by Pitch Angle at Sample Energies, Pitch Angles, Alpha, from 0° to 180°, Energies from 21.25 MeV to 120 MeV.\n                      Column 1 Labels from FPDU_0TO180_ALPHA: [\"FPDU_Flux_0to180_5degPA\",\"FPDU_Flux_0to180_16degPA\",\"FPDU_Flux_0to180_26degPA\",\"FPDU_Flux_0to180_37degPA\",\"FPDU_Flux_0to180_48degPA\",\"FPDU_Flux_0to180_58degPA\",\"FPDU_Flux_0to180_69degPA\",\"FPDU_Flux_0to180_79degPA\",\"FPDU_Flux_0to180_90degPA\",\"FPDU_Flux_0to180_106degPA\",\"FPDU_Flux_0to180_111degPA\",\"FPDU_Flux_0to180_122degPA\",\"FPDU_Flux_0to180_132degPA\",\"FPDU_Flux_0to180_143degPA\",\"FPDU_Flux_0to180_154degPA\",\"FPDU_Flux_0to180_164degPA\",\"FPDU_Flux_0to180_175degPA\"].\n                      Column 2 Labels from FPDU_ENERGY_FIXED: [\"FPDU_Flux_0to180_21.25MeV\",\"FPDU_Flux_0to180_27.60MeV\",\"FPDU_Flux_0to180_35.90MeV\",\"FPDU_Flux_0to180_46.70MeV\",\"FPDU_Flux_0to180_60.70MeV\",\"FPDU_Flux_0to180_78.90MeV\",\"FPDU_Flux_0to180_102.6MeV\",\"FPDU_Flux_0to180_208MeV\"].",
          "Caveats": "Dimension 0 holds 7910 Time Bins. Dimension 1 holds 17 Pitch Angle Bins. Dimension 2 holds 8 Proton Energy Bins. FPDU stands for Flux, Proton, Differential, Unidirectional. This parameter is virtual. It is calculated by calling the function ALTERNATE_VIEW with the following input parameters: FPDU_0to180.",
          "Cadence": "PT4.2S",
          "Units": "(cm^2 s sr MeV)^-1",
          "UnitsConversion": "6.24161e-19>(m^2 s sr J)^-1",
          "RenderingHints": {
            "DisplayType": "Spectrogram",
            "ValueFormat": "E10.3",
            "ScaleType": "LogScale"
          },
          "Structure": {
            "Size": "17 8"
          },
          "FillValue": "-1.0e+31",
          "Particle": {
            "ParticleType": "Proton",
            "Qualifier": "Array",
            "ParticleQuantity": "NumberFlux",
            "AtomicNumber": "1"
          }
        },
        {
          "Name": "Proton Differential Flux Intensity, Unidirectional, Plasmagrams, Pitch Angles, Alpha, from 180° to 360°",
          "Set": "Time Series defined by using: EPOCH_PROT",
          "ParameterKey": "FPDU_180to360",
          "Description": "Proton Differential Flux Intensity, Unidirectional, Plasmagrams, Pitch Angles, Alpha, from 180° to 360°, Energies from 21.25 MeV to 120 MeV.\n                      Column 1 Labels from FPDU_180TO360_ALPHA: [ 185.300, 195.900, 206.500, 217.100, 227.600, 238.200, 248.800, 259.400, 270.000, 280.600, 291.200, 301.800, 312.400, 322.900, 333.500, 344.100, 354.700].\n                      Column 2 Labels from FPDU_ENERGY_FIXED: [ 21.2500, 27.6000, 35.9000, 46.7000, 60.7000, 78.9000, 102.600, 208.000].",
          "Caveats": "Dimension 0 holds 7910 Time Bins. Dimension 1 holds 17 Pitch Angle Bins. Dimension 2 holds 8 Proton Energy Bins. FPDU stands for Flux, Proton, Differential, Unidirectional.",
          "Cadence": "PT4.2S",
          "Units": "(cm^2 s sr MeV)^-1",
          "UnitsConversion": "6.24161e-19>(m^2 s sr J)^-1",
          "RenderingHints": {
            "ValueFormat": "E10.3",
            "ScaleType": "LogScale"
          },
          "Structure": {
            "Size": "17 8"
          },
          "FillValue": "-1.0e+31",
          "Particle": {
            "ParticleType": "Proton",
            "Qualifier": "Array",
            "ParticleQuantity": "NumberFlux",
            "AtomicNumber": "1"
          }
        },
        {
          "Name": "Proton Differential Flux Intensity, Unidirectional, Spectrograms by Energy at Sample Pitch Angles, Pitch Angles, Alpha, from 180° to 360°",
          "Set": "Time Series defined by using: EPOCH_PROT",
          "ParameterKey": "FPDU_180to360_byE_atA",
          "Description": "Proton Differential Flux Intensity, Unidirectional, Spectrograms by Energy at Sample Pitch Angles, Pitch Angles, Alpha, from 180° to 360°, Energies from 21.25 MeV to 120 MeV.\n                      Column 1 Labels from FPDU_180TO360_ALPHA: [\"FPDU_Flux_180to360_185degPA\",\"FPDU_Flux_180to360_196degPA\",\"FPDU_Flux_180to360_206degPA\",\"FPDU_Flux_180to360_217degPA\",\"FPDU_Flux_180to360_228degPA\",\"FPDU_Flux_180to360_238degPA\",\"FPDU_Flux_180to360_249degPA\",\"FPDU_Flux_180to360_259degPA\",\"FPDU_Flux_180to360_270degPA\",\"FPDU_Flux_180to360_281degPA\",\"FPDU_Flux_180to360_291degPA\",\"FPDU_Flux_180to360_302degPA\",\"FPDU_Flux_180to360_312degPA\",\"FPDU_Flux_180to360_323degPA\",\"FPDU_Flux_180to360_334degPA\",\"FPDU_Flux_180to360_344degPA\",\"FPDU_Flux_180to360_355degPA\"].\n                      Column 2 Labels from FPDU_ENERGY_FIXED: [\"FPDU_Flux_180to360_21.25MeV\",\"FPDU_Flux_180to360_27.60MeV\",\"FPDU_Flux_180to360_35.90MeV\",\"FPDU_Flux_180to360_46.70MeV\",\"FPDU_Flux_180to360_60.70MeV\",\"FPDU_Flux_180to360_78.90MeV\",\"FPDU_Flux_180to360_102.6MeV\",\"FPDU_Flux_180to360_208MeV\"].",
          "Caveats": "Dimension 0 holds 7910 Time Bins. Dimension 1 holds 17 Pitch Angle Bins. Dimension 2 holds 8 Proton Energy Bins. FPDU stands for Flux, Proton, Differential, Unidirectional. This parameter is virtual. It is calculated by calling the function ALTERNATE_VIEW with the following input parameters: FPDU_180to360.",
          "Cadence": "PT4.2S",
          "Units": "(cm^2 s sr MeV)^-1",
          "UnitsConversion": "6.24161e-19>(m^2 s sr J)^-1",
          "RenderingHints": {
            "DisplayType": "Spectrogram",
            "AxisLabel": "FPDU 180to360: Proton Flux",
            "ValueFormat": "E10.3",
            "ScaleType": "LogScale"
          },
          "Structure": {
            "Size": "17 8"
          },
          "FillValue": "-1.0e+31",
          "Particle": {
            "ParticleType": "Proton",
            "Qualifier": "Array",
            "ParticleQuantity": "NumberFlux",
            "AtomicNumber": "1"
          }
        },
        {
          "Name": "Proton Differential Flux Intensity, Unidirectional, Spectrograms by Pitch Angle at Sample Energies, Pitch Angles, Alpha, from 180° to 360°",
          "Set": "Time Series defined by using: EPOCH_PROT",
          "ParameterKey": "FPDU_180to360_byA_atE",
          "Description": "Proton Differential Flux Intensity, Unidirectional, Spectrograms by Pitch Angle at Sample Energies, Pitch Angles, Alpha, from 180° to 360°, Energies from 21.25 MeV to 120 MeV.\n                      Column 1 Labels from FPDU_180TO360_ALPHA: [\"FPDU_Flux_180to360_185degPA\",\"FPDU_Flux_180to360_196degPA\",\"FPDU_Flux_180to360_206degPA\",\"FPDU_Flux_180to360_217degPA\",\"FPDU_Flux_180to360_228degPA\",\"FPDU_Flux_180to360_238degPA\",\"FPDU_Flux_180to360_249degPA\",\"FPDU_Flux_180to360_259degPA\",\"FPDU_Flux_180to360_270degPA\",\"FPDU_Flux_180to360_281degPA\",\"FPDU_Flux_180to360_291degPA\",\"FPDU_Flux_180to360_302degPA\",\"FPDU_Flux_180to360_312degPA\",\"FPDU_Flux_180to360_323degPA\",\"FPDU_Flux_180to360_334degPA\",\"FPDU_Flux_180to360_344degPA\",\"FPDU_Flux_180to360_355degPA\"].\n                      Column 2 Labels from FPDU_ENERGY_FIXED: [\"FPDU_Flux_180to360_21.25MeV\",\"FPDU_Flux_180to360_27.60MeV\",\"FPDU_Flux_180to360_35.90MeV\",\"FPDU_Flux_180to360_46.70MeV\",\"FPDU_Flux_180to360_60.70MeV\",\"FPDU_Flux_180to360_78.90MeV\",\"FPDU_Flux_180to360_102.6MeV\",\"FPDU_Flux_180to360_208MeV\"].",
          "Caveats": "Dimension 0 holds 7910 Time Bins. Dimension 1 holds 17 Pitch Angle Bins. Dimension 2 holds 8 Proton Energy Bins. FPDU stands for Flux, Proton, Differential, Unidirectional. This parameter is virtual. It is calculated by calling the function ALTERNATE_VIEW with the following input parameters: FPDU_180to360.",
          "Cadence": "PT4.2S",
          "Units": "(cm^2 s sr MeV)^-1",
          "UnitsConversion": "6.24161e-19>(m^2 s sr J)^-1",
          "RenderingHints": {
            "DisplayType": "Spectrogram",
            "AxisLabel": "FPDU 180to360: Proton Flux",
            "ValueFormat": "E10.3",
            "ScaleType": "LogScale"
          },
          "Structure": {
            "Size": "17 8"
          },
          "FillValue": "-1.0e+31",
          "Particle": {
            "ParticleType": "Proton",
            "Qualifier": "Array",
            "ParticleQuantity": "NumberFlux",
            "AtomicNumber": "1"
          }
        },
        {
          "Name": "Electron Differential Flux Intensity, Unidirectional, Spectrograms, Unbinned, Raw Sector Data, Pitch Angles, Alpha, from 0° to 180°",
          "Set": "Time Series defined by using: EPOCH",
          "ParameterKey": "FEDU_Unbinned_0to180",
          "Description": "Electron Differential Flux Intensity, Unidirectional, Spectrograms, Unbinned, Raw Sector Data, Pitch Angles, Alpha, from 0° to 180°, Energies from 2 MeV to 59.45 MeV.\n                      Column 2 Labels from FEDU_ENERGY: [ 2.00000, 2.25000, 2.85000, 3.60000, 4.50000, 5.60000, 7.15000, 8.80000, 11.6500, 15.3500, 22.5500, 59.4500].",
          "Caveats": "Dimension 0 holds 7910 Time Bins. Dimension 1 holds 17 Pitch Angle Bins. Dimension 2 holds 12 Electron Energy Bins. FEDU stands for Flux, Electron, Differential, Unidirectional.",
          "Cadence": "PT4.2S",
          "Units": "(cm^2 s sr MeV)^-1",
          "UnitsConversion": "6.24161e-19>(m^2 s sr J)^-1",
          "RenderingHints": {
            "DisplayType": "Spectrogram",
            "AxisLabel": "FEDU_UnBin_0to180",
            "ValueFormat": "E12.2",
            "ScaleType": "LogScale"
          },
          "Structure": {
            "Size": "36 12"
          },
          "FillValue": "-1.0e+31",
          "Particle": {
            "ParticleType": "Electron",
            "Qualifier": "Array",
            "ParticleQuantity": "NumberFlux"
          }
        },
        {
          "Name": "Electron Differential Flux Intensity, Unidirectional, Spectrograms, Unbinned, Raw Sector Data, Pitch Angles, Alpha, from 0° to 360°",
          "Set": "Time Series defined by using: EPOCH",
          "ParameterKey": "FEDU_Unbinned_0to360",
          "Description": "Electron Differential Flux Intensity, Unidirectional, Spectrograms, Unbinned, Raw Sector Data, Pitch Angles, Alpha, from 0° to 360°, Energies from 2 MeV to 59.45 MeV.\n                      Column 2 Labels from FEDU_ENERGY: [ 2.00000, 2.25000, 2.85000, 3.60000, 4.50000, 5.60000, 7.15000, 8.80000, 11.6500, 15.3500, 22.5500, 59.4500].",
          "Caveats": "Dimension 0 holds 7910 Time Bins. Dimension 1 holds 17 Pitch Angle Bins. Dimension 2 holds 12 Electron Energy Bins. FEDU stands for Flux, Electron, Differential, Unidirectional.",
          "Cadence": "PT4.2S",
          "Units": "(cm^2 s sr MeV)^-1",
          "UnitsConversion": "6.24161e-19>(m^2 s sr J)^-1",
          "RenderingHints": {
            "DisplayType": "Spectrogram",
            "AxisLabel": "FEDU_UnBin_0to360",
            "ValueFormat": "E12.2",
            "ScaleType": "LogScale"
          },
          "Structure": {
            "Size": "36 12"
          },
          "FillValue": "-1.0e+31",
          "Particle": {
            "ParticleType": "Electron",
            "Qualifier": "Array",
            "ParticleQuantity": "NumberFlux"
          }
        },
        {
          "Name": "Proton Differential Flux Intensity, Unidirectional, Spectrograms, Unbinned, Raw Sector Data, Pitch Angles, Alpha, from 0° to 180°",
          "Set": "Time Series defined by using: EPOCH_PROT",
          "ParameterKey": "FPDU_Unbinned_0to180",
          "Description": "Proton Differential Flux Intensity, Unidirectional, Spectrograms, Unbinned, Raw Sector Data, Pitch Angles, Alpha, from 0° to 180°, Energies from 21.25 MeV to 120 MeV.\n                      Column 2 Labels from FPDU_ENERGY_FIXED: [ 21.2500, 27.6000, 35.9000, 46.7000, 60.7000, 78.9000, 102.600, 208.000].",
          "Caveats": "Dimension 0 holds 7910 Time Bins. Dimension 1 holds 17 Pitch Angle Bins. Dimension 2 holds 8 Proton Energy Bins. FPDU stands for Flux, Proton, Differential, Unidirectional.",
          "Cadence": "PT4.2S",
          "Units": "(cm^2 s sr MeV)^-1",
          "UnitsConversion": "6.24161e-19>(m^2 s sr J)^-1",
          "RenderingHints": {
            "DisplayType": "Spectrogram",
            "AxisLabel": "FPDU_UnBin_0to180",
            "ValueFormat": "E12.2",
            "ScaleType": "LogScale"
          },
          "Structure": {
            "Size": "36 8"
          },
          "FillValue": "-1.0e+31",
          "Particle": {
            "ParticleType": "Proton",
            "Qualifier": "Array",
            "ParticleQuantity": "NumberFlux",
            "AtomicNumber": "1"
          }
        },
        {
          "Name": "Proton Differential Flux Intensity, Unidirectional, Spectrograms, Unbinned, Raw Sector Data, Pitch Angles, Alpha, from 0° to 360°",
          "Set": "Time Series defined by using: EPOCH_PROT",
          "ParameterKey": "FPDU_Unbinned_0to360",
          "Description": "Proton Differential Flux Intensity, Unidirectional, Spectrograms, Unbinned, Raw Sector Data, Pitch Angles, Alpha, from 0° to 360°, Energies from 21.25 MeV to 120 MeV.\n                      Column 2 Labels from FPDU_ENERGY_FIXED: [ 21.2500, 27.6000, 35.9000, 46.7000, 60.7000, 78.9000, 102.600, 208.000].",
          "Caveats": "Dimension 0 holds 7910 Time Bins. Dimension 1 holds 17 Pitch Angle Bins. Dimension 2 holds 8 Proton Energy Bins. FPDU stands for Flux, Proton, Differential, Unidirectional.",
          "Cadence": "PT4.2S",
          "Units": "(cm^2 s sr MeV)^-1",
          "UnitsConversion": "6.24161e-19>(m^2 s sr J)^-1",
          "RenderingHints": {
            "DisplayType": "Spectrogram",
            "AxisLabel": "FPDU_UnBin_0to360",
            "ValueFormat": "E12.2",
            "ScaleType": "LogScale"
          },
          "Structure": {
            "Size": "36 8"
          },
          "FillValue": "-1.0e+31",
          "Particle": {
            "ParticleType": "Proton",
            "Qualifier": "Array",
            "ParticleQuantity": "NumberFlux",
            "AtomicNumber": "1"
          }
        },
        {
          "Name": "Light Mask for Proton Differential Flux Intensity, Unidirectional, Unbinned, Raw Data, Pitch Angles, Alpha, from 0° to 360°",
          "Set": "Time Series defined by using: EPOCH_PROT",
          "ParameterKey": "FPDU_Unbinned_LightMask_0to360",
          "Description": "Light Mask for Proton Differential Flux Intensity, Unidirectional, Energies from 21.25 MeV to 120 MeV, Unbinned, Raw Sector Data, Pitch Angles, Alpha, from 0° to 360°, not fot Plotting",
          "Caveats": "Dimension 0 holds 7910 Time Bins. Dimension 1 holds 17 Pitch Angle Bins. Dimension 2 holds 8 Proton Energy Bins. FPDU stands for Flux, Proton, Differential, Unidirectional.",
          "Cadence": "PT4.2S",
          "RenderingHints": {
            "DisplayType": "Spectrogram",
            "AxisLabel": "FPDU_UnBin_LM_0to360",
            "ScaleType": "LinearScale"
          },
          "Structure": {
            "Size": "36"
          },
          "ValidMin": "0",
          "ValidMax": "3",
          "FillValue": "0.0",
          "Particle": {
            "ParticleType": "Proton",
            "Qualifier": "Array",
            "ParticleQuantity": "NumberFlux",
            "AtomicNumber": "1"
          }
        },
        {
          "Name": "Light Flag for Proton Differential Flux Intensity, Unidirectional, Unbinned, Raw Data, Pitch Angles, Alpha, from 0° to 360°",
          "Set": "Time Series defined by using: EPOCH_PROT",
          "ParameterKey": "FPDU_Unbinned_Light_Flag",
          "Description": "Light Flag for Proton Differential Flux Intensity, Unidirectional, Energies from 21.25 MeV to 120 MeV, Unbinned, Raw Sector Data, Pitch Angles, Alpha, from 0° to 360°, not fot Plotting",
          "Caveats": "Dimension 0 holds 7910 Time Bins. FPDU stands for Flux, Proton, Differential, Unidirectional.",
          "Cadence": "PT4.2S",
          "RenderingHints": {
            "AxisLabel": "FPDU_UnBin_LightFlag",
            "ScaleType": "LinearScale"
          },
          "ValidMin": "0",
          "ValidMax": "1",
          "FillValue": "0.0",
          "Particle": {
            "ParticleType": "Proton",
            "Qualifier": "Scalar",
            "ParticleQuantity": "NumberFlux",
            "AtomicNumber": "1"
          }
        },
        {
          "Name": "Roederer L* generalized L Shell Parameter, 90° Particle",
          "Set": "Time Series defined by using: EPOCH",
          "ParameterKey": "L_star",
          "Description": "Roederer L* generalized L Shell Parameter for a 90° Pitch Angle Particle",
          "Caveats": "L Shell Parameters are dimensionless. Calculated by using the LANLGeoMag Software Library. Internal Magnetic Field Model: International Geomagnetic Reference Field, IGRF. External Magnetic Field Model: Olson-Pfitzer 1977 Quiet, OP77Q.",
          "Cadence": "PT4.2S",
          "RenderingHints": {
            "DisplayType": "TimeSeries",
            "AxisLabel": "L!u*!n",
            "ValueFormat": "E10.3",
            "ScaleType": "LinearScale"
          },
          "ValidMin": "0.0",
          "ValidMax": "10.0",
          "FillValue": "-1.0e+31",
          "Support": {
            "Qualifier": "Scalar",
            "SupportQuantity": "Other"
          }
        },
        {
          "Name": "McIlwain L Shell Parameter",
          "Set": "Time Series defined by using: EPOCH",
          "ParameterKey": "L",
          "Description": "McIlwain L Shell Parameter",
          "Caveats": "L Shell Parameters are dimensionless. Calculated by using the LANLGeoMag Software Library. Internal Magnetic Field Model: International Geomagnetic Reference Field, IGRF. External Magnetic Field Model: Olson-Pfitzer 1977 Quiet, OP77Q.",
          "Cadence": "PT4.2S",
          "RenderingHints": {
            "DisplayType": "TimeSeries",
            "AxisLabel": "L",
            "ValueFormat": "E10.3",
            "ScaleType": "LinearScale"
          },
          "ValidMin": "0.0",
          "ValidMax": "10.0",
          "FillValue": "-1.0e+31",
          "Support": {
            "Qualifier": "Scalar",
            "SupportQuantity": "Other"
          }
        },
        {
          "Name": "Second Adiabatic Invariant, Bounce",
          "Set": "Time Series defined by using: EPOCH",
          "ParameterKey": "I",
          "Description": "Second Adiabatic Invariant, Bounce",
          "Caveats": "Calculated by using the LANLGeoMag Software Library. Internal Magnetic Field Model: International Geomagnetic Reference Field, IGRF. External Magnetic Field Model: Olson-Pfitzer 1977 Quiet, OP77Q.",
          "Cadence": "PT4.2S",
          "Units": "Re",
          "UnitsConversion": "6.3712e6>m",
          "RenderingHints": {
            "DisplayType": "TimeSeries",
            "AxisLabel": "I",
            "ValueFormat": "E10.3",
            "ScaleType": "LinearScale"
          },
          "ValidMin": "0.0",
          "ValidMax": "10.0",
          "FillValue": "-1.0e+31",
          "Support": {
            "Qualifier": "Scalar",
            "SupportQuantity": "Other"
          }
        },
        {
          "Name": "Model Spacecraft Magnetic Field Magnitude, Geographic Cartesian Coordinates",
          "Set": "Time Series defined by using: EPOCH",
          "ParameterKey": "B_Calc",
          "Description": "Model Spacecraft Magnetic Field Magnitude, Geographic, GEO, Cartesian Coordinates",
          "Caveats": "Calculated by using the LANLGeoMag Software Library. Internal Magnetic Field Model: International Geomagnetic Reference Field, IGRF. External Magnetic Field Model: Olson-Pfitzer 1977 Quiet, OP77Q.",
          "Cadence": "PT4.2S",
          "Units": "nT",
          "UnitsConversion": "1.0e-9>T",
          "RenderingHints": {
            "DisplayType": "TimeSeries",
            "AxisLabel": "B_Calc",
            "ValueFormat": "E10.3",
            "ScaleType": "LogScale"
          },
          "ValidMin": "0.0",
          "ValidMax": "100000.0",
          "FillValue": "-1.0e+31",
          "Field": {
            "Qualifier": [
              "Magnitude",
              "Scalar"
            ],
            "FieldQuantity": "Magnetic"
          }
        },
        {
          "Name": "Model Magnetic Field Magnitude, Field Line Local Minimum",
          "Set": "Time Series defined by using: EPOCH",
          "ParameterKey": "B_Eq",
          "Description": "Model Magnetic Field Magnitude, Field Line Local Minimum",
          "Caveats": "Calculated by using the LANLGeoMag Software Library. Internal Magnetic Field Model: International Geomagnetic Reference Field, IGRF. External Magnetic Field Model: Olson-Pfitzer 1977 Quiet, OP77Q.",
          "Cadence": "PT4.2S",
          "Units": "nT",
          "UnitsConversion": "1.0e-9>T",
          "RenderingHints": {
            "DisplayType": "TimeSeries",
            "AxisLabel": "B_Eq",
            "ValueFormat": "E10.3",
            "ScaleType": "LogScale"
          },
          "ValidMin": "0.0",
          "ValidMax": "100000.0",
          "FillValue": "-1.0e+31",
          "Field": {
            "Qualifier": [
              "Magnitude",
              "Scalar"
            ],
            "FieldQuantity": "Magnetic"
          }
        },
        {
          "Name": "Spacecraft Position, Magnetic Local Time",
          "Set": "Time Series defined by using: EPOCH",
          "ParameterKey": "MLT",
          "Description": "Spacecraft Position, Magnetic Local Time, MLT, in Hours",
          "Caveats": "Calculated by using the LANLGeoMag Software Library. Internal Magnetic Field Model: International Geomagnetic Reference Field, IGRF. External Magnetic Field Model: Olson-Pfitzer 1977 Quiet, OP77Q.",
          "Cadence": "PT4.2S",
          "Units": "h",
          "UnitsConversion": "3600>s",
          "CoordinateSystem": {
            "CoordinateRepresentation": "Spherical",
            "CoordinateSystemName": "MAG"
          },
          "RenderingHints": {
            "DisplayType": "TimeSeries",
            "AxisLabel": "MLT",
            "ValueFormat": "E10.3",
            "ScaleType": "LinearScale"
          },
          "ValidMin": "0.0",
          "ValidMax": "24.0",
          "FillValue": "-1.0e+31",
          "Support": {
            "Qualifier": [
              "DirectionAngle.ElevationAngle",
              "Scalar"
            ],
            "SupportQuantity": "Positional"
          }
        },
        {
          "Name": "Spacecraft Position, Magnetic Latitude",
          "Set": "Time Series defined by using: EPOCH",
          "ParameterKey": "MLAT",
          "Description": "Spacecraft Position, Magnetic Latitude, MLAT",
          "Caveats": "Calculated by using the LANLGeoMag Software Library. Internal Magnetic Field Model: International Geomagnetic Reference Field, IGRF. External Magnetic Field Model: Olson-Pfitzer 1977 Quiet, OP77Q.",
          "Cadence": "PT4.2S",
          "Units": "°",
          "UnitsConversion": "0.0174532925>rad",
          "RenderingHints": {
            "DisplayType": "TimeSeries",
            "AxisLabel": "MLAT",
            "ValueFormat": "E10.3",
            "ScaleType": "LinearScale"
          },
          "ValidMin": "-90.0",
          "ValidMax": "90.0",
          "FillValue": "-1.0e+31",
          "Support": {
            "Qualifier": "Scalar",
            "SupportQuantity": "Positional"
          }
        },
        {
          "Name": "Spacecraft Position Vector, Geographic Cartesian Coordinates",
          "Set": "Time Series defined by using: EPOCH",
          "ParameterKey": "Position",
          "Description": "Spacecraft Position Vector, Geographic, GEO, Cartesian Coordinates",
          "Caveats": "The Origin is the Center of Mass of the Earth. The X-Axis points to the Intersection of the Greenwich Meridian and Geographic Equator. The Z Axis points to the Geographic North Pole. The Y Axis completes the Right-Handed Cartesian Triad with Y = -X × Z.",
          "Cadence": "PT4.2S",
          "Units": "km",
          "UnitsConversion": "1.0e3>m",
          "CoordinateSystem": {
            "CoordinateRepresentation": "Cartesian",
            "CoordinateSystemName": "GEO"
          },
          "RenderingHints": {
            "DisplayType": "TimeSeries",
            "ValueFormat": "E12.2",
            "ScaleType": "LinearScale"
          },
          "Structure": {
            "Size": "3",
            "Element": [
              {
                "Name": "Xgeo",
                "Index": "1"
              },
              {
                "Name": "Ygeo",
                "Index": "2"
              },
              {
                "Name": "Zgeo",
                "Index": "3"
              }
            ]
          },
          "ValidMin": "-210000.0",
          "ValidMax": "210000.0",
          "FillValue": "-1.0e+31",
          "Support": {
            "Qualifier": [
              "Vector",
              "Array"
            ],
            "SupportQuantity": "Positional"
          }
        }
      ]
    }
  }
}