{
  "Spase": {
    "xmlns": "http://www.spase-group.org/data/schema",
    "xmlns:xsi": "http://www.w3.org/2001/XMLSchema-instance",
    "xsi:schemaLocation": "http://www.spase-group.org/data/schema  https://www.spase-group.org/data/schema/spase-2_3_2.xsd",
    "Version": "2.3.2",
    "NumericalData": {
      "ResourceID": "spase://NASA/NumericalData/RBSP/A/RBSPICE/L3/ESRHELT",
      "ResourceHeader": {
        "ResourceName": "Van Allen Probe A RBSPICE High Energy Resolution Electron Rates converted Level-3 data",
        "ReleaseDate": "2021-04-27T15:38:11Z",
        "Description": "This data set contains Van Allen Probe A RBSPICE (Radiation Belt Storm Probes Ion Composition Experiment) high-energy resolution electron rates that are measured at low-time resolution.  Unidirectional Differential Electron Flux (FEDU) measured by 6 telescopes in 64 channels from ~0.02-1.0 MeV are available in physical units (counts/(s*sr*cm^2*MeV) by telescope in sector order (T0= ~110 PA, T3= ~all PAs, T5= FEDU background).  Also available are percentage error of measurement, quality flag, current sector number where each spin is dividied into 36 sectors, duration of the accumulation, current spin number of the spacecraft, orbit number, dipole L using the SM reference frame, and position of the spacecraft in SM coordinates.  Level 3 data include all level 2 data plus spacecraft positions, pitch angles of the six telecopses, and derived magnetic field values. The processing is done in a series of algorithmic steps in which the EMFISIS (Electric and Magnetic Field Instrument Suite and Integrated Science) magnetic field data is loaded, the ECT (Energetic Particle, Composition and Thermal Plasma Suite) magnetic ephemeris data is loaded, the Level 2 intensity data file is copied, and the pitch angles are calculated and placed into the copied Level 2 file, creating a Level 3 file.",
        "Acknowledgement": "NASA Space Physics Data Facility (SPDF) CDAWeb.",
        "Contact": [
          {
            "PersonID": "spase://SMWG/Person/Louis.J.Lanzerotti",
            "Role": "PrincipalInvestigator"
          },
          {
            "PersonID": "spase://SMWG/Person/Robert.E.McGuire",
            "Role": "GeneralContact"
          }
        ],
        "InformationURL": [
          {
            "Name": "Current QuickLook & Summary Plots, Instrument Information and All Data",
            "URL": "http://rbspice.ftecs.com/Data.html",
            "Description": "at the RBSPICE Instrument Site"
          },
          {
            "Name": "Interactive Analysis for RBSPICE Data",
            "URL": "http://sd-www.jhuapl.edu/rbspice/MIDL/",
            "Description": "using RBSPICE MIDL"
          },
          {
            "Name": "The Van Allen Probes Home Page",
            "URL": "http://vanallenprobes.jhuapl.edu",
            "Description": "Science Gateway (including Mission Rules of the Road for Data Usage)"
          }
        ],
        "PriorID": [
          "spase://ViRBO/NumericalData/RBSP/A/RBSPICE/LEV-3/ESRHELT/sub spin resolution",
          "spase://VSPO/NumericalData/RBSP/A/RBSPICE/L3/ESRHELT"
        ]
      },
      "AccessInformation": [
        {
          "RepositoryID": "spase://SMWG/Repository/NASA/GSFC/SPDF",
          "Availability": "Online",
          "AccessRights": "Open",
          "AccessURL": [
            {
              "Name": "FTPS from SPDF (not with most browsers)",
              "URL": "ftps://spdf.gsfc.nasa.gov/pub/data/rbsp/rbspa/l3/rbspice/esrhelt/",
              "Description": "In CDF via ftp from CDAWeb"
            },
            {
              "Name": "HTTPS from SPDF",
              "URL": "https://spdf.gsfc.nasa.gov/pub/data/rbsp/rbspa/l3/rbspice/esrhelt/",
              "Description": "In CDF via HTTP from SPDF"
            }
          ],
          "Format": "CDF",
          "Acknowledgement": "Please acknowledge the CDAWeb team at GSFC/SPDF."
        },
        {
          "RepositoryID": "spase://SMWG/Repository/NASA/GSFC/SPDF",
          "Availability": "Online",
          "AccessRights": "Open",
          "AccessURL": {
            "Name": "CDAWeb",
            "URL": "https://cdaweb.gsfc.nasa.gov/cgi-bin/eval2.cgi?dataset=RBSP-A-RBSPICE_LEV-3_ESRHELT&index=sp_phys",
            "ProductKey": "RBSP-A-RBSPICE_LEV-3_ESRHELT"
          },
          "Format": "Text"
        },
        {
          "RepositoryID": "spase://SMWG/Repository/NASA/GSFC/SPDF",
          "Availability": "Online",
          "AccessRights": "Open",
          "AccessURL": {
            "Name": "CDAWeb HAPI Server",
            "URL": "https://cdaweb.gsfc.nasa.gov/hapi",
            "Style": "HAPI",
            "ProductKey": "RBSP-A-RBSPICE_LEV-3_ESRHELT",
            "Description": "Web Service to this product using the HAPI interface."
          },
          "Format": "CSV"
        }
      ],
      "InstrumentID": "spase://SMWG/Instrument/RBSP/A/RBSPICE",
      "MeasurementType": "EnergeticParticles",
      "TemporalDescription": {
        "TimeSpan": {
          "StartDate": "2012-11-13T22:06:46.000Z",
          "StopDate": "2019-10-18T16:30:00Z"
        }
      },
      "Parameter": [
        {
          "Name": "Epoch ",
          "ParameterKey": "Epoch",
          "Description": "Ephemeris Time of the start  of the accumulation for this measurement. ",
          "Caveats": "This is the Ephemeris Time saved as a TT2000 CDF Variable.  The difference between the ET value and the TT value is less than a millisecond.  The ET time values have an accuracy of no greater than 3 milliseconds hence it was determined that there was no reason to convert the ET values into TT. ",
          "Units": "ns ",
          "Mixed": {
            "MixedQuantity": "Other"
          }
        },
        {
          "Name": "UTC ",
          "ParameterKey": "UTC",
          "Description": "UTC ",
          "Mixed": {
            "MixedQuantity": "Other"
          }
        },
        {
          "Name": "SCLOCK_Full ",
          "ParameterKey": "SCLOCK_Full",
          "Description": "SCLOCK_Full ",
          "Mixed": {
            "MixedQuantity": "Other"
          }
        },
        {
          "Name": "ET ",
          "ParameterKey": "ET",
          "Description": "The ephemeris time at the start of the measurement. ",
          "Units": "seconds ",
          "Mixed": {
            "MixedQuantity": "Other"
          }
        },
        {
          "Name": "MidET ",
          "ParameterKey": "MidET",
          "Description": "The ephemeris time at the mid-point of the measurement. For multi-spin measurements the midET is centered so that it properly represents the time to be used to calculate the look direction of the instrument. ",
          "Units": "seconds ",
          "Mixed": {
            "MixedQuantity": "Other"
          }
        },
        {
          "Name": "StopET ",
          "ParameterKey": "StopET",
          "Description": "The ephemeris time at the end of the accumulation of the measurement ",
          "Units": "seconds ",
          "Mixed": {
            "MixedQuantity": "Other"
          }
        },
        {
          "Name": "Telescope No. ",
          "ParameterKey": "Telescope",
          "Description": "Identifies the telescope used to collect the measurement ",
          "Structure": {
            "Size": "6"
          },
          "Mixed": {
            "MixedQuantity": "Other"
          }
        },
        {
          "Name": "Channel ",
          "ParameterKey": "Channel",
          "Description": "Identifies the channel used to collect the measurement ",
          "Structure": {
            "Size": "64"
          },
          "Mixed": {
            "MixedQuantity": "Other"
          }
        },
        {
          "Name": "FEDU_Energy ",
          "ParameterKey": "FEDU_Energy_Fixed",
          "Description": "Midpoint energy of the measurement channel. A value of -1 indicates that an energy definition for this channel is not applicable ",
          "Caveats": "Added by SPDF ",
          "Units": "MeV ",
          "Structure": {
            "Size": "64"
          },
          "Mixed": {
            "MixedQuantity": "Other"
          }
        },
        {
          "Name": "FEDU ",
          "ParameterKey": "FEDU",
          "Description": "FEDU: Electron flux spectrograms in energy, by telescope in sector order (multi-spin accums plotted at end of accum; T0= ~110 PA, T3= ~all PAs, T5= FEDU background) ",
          "Units": "1/(MeV-cm^2-s-sr) ",
          "Structure": {
            "Size": "6 64"
          },
          "Mixed": {
            "MixedQuantity": "Other"
          }
        },
        {
          "Name": "FEDU ",
          "ParameterKey": "FEDU_I",
          "Description": "Telescope-energy images ",
          "Units": "1/(MeV-cm^2-s-sr) ",
          "Structure": {
            "Size": "6 64"
          },
          "Mixed": {
            "MixedQuantity": "Other"
          }
        },
        {
          "Name": "FEDU_Error ",
          "ParameterKey": "FEDU_Error",
          "Description": "The percentage error of the measurement. ",
          "Structure": {
            "Size": "6 64"
          },
          "Mixed": {
            "MixedQuantity": "Other"
          }
        },
        {
          "Name": "FIDU_Crosscalib_RMSE ",
          "ParameterKey": "FEDU_Crosscalib_RMSE",
          "Description": "RMS Error of the natural log of the flux for each channel. ",
          "Caveats": "This error value includes all errors associated with the measurement including cross calibration errors ",
          "Structure": {
            "Size": "6 64"
          },
          "Mixed": {
            "MixedQuantity": "Other"
          }
        },
        {
          "Name": "FEDU_Quality ",
          "ParameterKey": "FEDU_Quality",
          "Description": "Quality flag for the measurement for each telescope/channel/timestep. .see PREBM standards for definition ",
          "Units": "(10=OK) ",
          "Structure": {
            "Size": "6 64"
          },
          "Mixed": {
            "MixedQuantity": "Other"
          }
        },
        {
          "Name": "Sector ",
          "ParameterKey": "Sector",
          "Description": "The current sector number where each spin is divided into 36 sectors. ",
          "Mixed": {
            "MixedQuantity": "Other"
          }
        },
        {
          "Name": "Duration ",
          "ParameterKey": "Duration",
          "Description": "Duration of the accumulation. ",
          "Units": "Seconds ",
          "Mixed": {
            "MixedQuantity": "Other"
          }
        },
        {
          "Name": "Spin ",
          "ParameterKey": "Spin",
          "Description": "The current spin number of the spacecraft ",
          "Mixed": {
            "MixedQuantity": "Other"
          }
        },
        {
          "Name": "FIDU_Energy ",
          "ParameterKey": "FEDU_Energy",
          "Description": "Midpoint energy of the measurement channel. A value of -1 indicates that an energy definition for this channel is not applicable ",
          "Units": "MeV ",
          "Structure": {
            "Size": "6 64"
          },
          "Mixed": {
            "MixedQuantity": "Other"
          }
        },
        {
          "Name": "FIDU_EnergyRange ",
          "ParameterKey": "FEDU_EnergyRange",
          "Description": "Minimum and Maximum energy of the measurement channel. A value of -1 indicates that either an energy definition for this channel is not applicable or that the upper end of the channel is undefined - i.e. the channel becomes integral. ",
          "Units": "MeV ",
          "Structure": {
            "Size": "6 2 64"
          },
          "Mixed": {
            "MixedQuantity": "Other"
          }
        },
        {
          "Name": "Position_SM ",
          "ParameterKey": "Position_SM",
          "Description": "Position of the spacecraft in SM coordinates ",
          "Units": "EarthRadii ",
          "Structure": {
            "Size": "3"
          },
          "Mixed": {
            "MixedQuantity": "Other"
          }
        },
        {
          "Name": "Position_GEO ",
          "ParameterKey": "Position",
          "Description": "Position of the SC in the GEO Reference Frame. ",
          "Units": "EarthRadii ",
          "Structure": {
            "Size": "3"
          },
          "Mixed": {
            "MixedQuantity": "Other"
          }
        },
        {
          "Name": "Position_GSM ",
          "ParameterKey": "Position_GSM",
          "Description": "Position of the SC in the GSM Reference Frame. ",
          "Units": "EarthRadii ",
          "Structure": {
            "Size": "3"
          },
          "Mixed": {
            "MixedQuantity": "Other"
          }
        },
        {
          "Name": "Position_Quality ",
          "ParameterKey": "Position_Quality",
          "Description": "The position quality flag, 0=good, 1=bad. ",
          "Units": "(0=good) ",
          "Mixed": {
            "MixedQuantity": "Other"
          }
        },
        {
          "Name": "OrbitNumber ",
          "ParameterKey": "OrbitNumber",
          "Description": "Orbit Number at the time of the measurement ",
          "Mixed": {
            "MixedQuantity": "Other"
          }
        },
        {
          "Name": "L ",
          "ParameterKey": "L",
          "Description": "Dipole L value calculated using the SM Reference Frame ",
          "Units": "EarthRadii ",
          "Mixed": {
            "MixedQuantity": "Other"
          }
        },
        {
          "Name": "L_Eq ",
          "ParameterKey": "L_Eq",
          "Description": "McElqain L value calculated at the Equator (derived from ECT MagEphem data). ",
          "Units": "EarthRadii ",
          "Mixed": {
            "MixedQuantity": "Other"
          }
        },
        {
          "Name": "L_Star ",
          "ParameterKey": "L_Star",
          "Description": "Roeder's L* value (derived from ECT MagEphem data) for the average pitch angle. ",
          "Units": "EarthRadii ",
          "Mixed": {
            "MixedQuantity": "Other"
          }
        },
        {
          "Name": "I ",
          "ParameterKey": "I",
          "Description": "Integral invariant for the average pitch angle derived from ECT MagEphem data. ",
          "Units": "EarthRadii ",
          "Mixed": {
            "MixedQuantity": "Other"
          }
        },
        {
          "Name": "K ",
          "ParameterKey": "K",
          "Description": "The Second Invariant ( I*sqrt(Bm) ) for the average pitch angle derived from ECT MagEphem data. ",
          "Units": "EarthRadii_G ",
          "Mixed": {
            "MixedQuantity": "Other"
          }
        },
        {
          "Name": "MLT ",
          "ParameterKey": "MLT",
          "Description": "Magnetic Local Time of S/C in Centerted Dipole Coordinates derived from ECT MagEphem data. ",
          "Units": "Degrees ",
          "Mixed": {
            "MixedQuantity": "Other"
          }
        },
        {
          "Name": "FEDU_AlphaValue ",
          "ParameterKey": "FEDU_Alpha",
          "Description": "The pitch angle based upon the look direction of each telescope, alpha=cos-1(B*(-look)) ",
          "Caveats": "Identical to Alpha ",
          "Units": "Degrees ",
          "Structure": {
            "Size": "6"
          },
          "Mixed": {
            "MixedQuantity": "Other"
          }
        },
        {
          "Name": "FEDU_AlphaRangeValue ",
          "ParameterKey": "FEDU_AlphaRange",
          "Description": "The range of the pitch angle (min, max) for each of the pitch angles, Alpha. ",
          "Units": "Degrees ",
          "Structure": {
            "Size": "6 2"
          },
          "Mixed": {
            "MixedQuantity": "Other"
          }
        },
        {
          "Name": "AlphaValue ",
          "ParameterKey": "Alpha",
          "Description": "The pitch angle based upon the look direction of each telescope, alpha=cos-1(B*(-look)). ",
          "Units": "Degrees ",
          "Structure": {
            "Size": "6"
          },
          "Mixed": {
            "MixedQuantity": "Other"
          }
        },
        {
          "Name": "Alpha_Quality ",
          "ParameterKey": "Alpha_Quality",
          "Description": "A flag describing the Quality of the Pitch Angle as calculated, 0=good, 1=bad. ",
          "Units": "(0=good) ",
          "Mixed": {
            "MixedQuantity": "Other"
          }
        },
        {
          "Name": "LStarValue ",
          "ParameterKey": "L_StarArr",
          "Description": "Roeder's L* value (derived from ECT MagEphem data) for each of the telescopes based upon the telescope pitch angle. ",
          "Units": "EarthRadii ",
          "Structure": {
            "Size": "6"
          },
          "Mixed": {
            "MixedQuantity": "Other"
          }
        },
        {
          "Name": "I_InvValue ",
          "ParameterKey": "IArr",
          "Description": "The Integral invariant for the pitch angle of each telescope derived from ECT MagEphem data. ",
          "Units": "EarthRadii ",
          "Structure": {
            "Size": "6"
          },
          "Mixed": {
            "MixedQuantity": "Other"
          }
        },
        {
          "Name": "K_InvValue ",
          "ParameterKey": "KArr",
          "Description": "Second Invariant ( I*sqrt(Bm) ) for the pitch angle of each telescope derived from ECT MagEphem data. ",
          "Units": "EarthRadii_G ",
          "Structure": {
            "Size": "6"
          },
          "Mixed": {
            "MixedQuantity": "Other"
          }
        },
        {
          "Name": "MinMax ",
          "ParameterKey": "MinMax",
          "Description": "Range variable for the minimum/maximum values of the PitchAngle Range ",
          "Mixed": {
            "MixedQuantity": "Other"
          }
        },
        {
          "Name": "Position_SM ",
          "ParameterKey": "Position_SM_TT",
          "Description": "[Labels on plots] Position of the spacecraft in SM coordinates ",
          "Units": "EarthRadii ",
          "Structure": {
            "Size": "3"
          },
          "Mixed": {
            "MixedQuantity": "Other"
          }
        },
        {
          "Name": "Position_GEO ",
          "ParameterKey": "Position_TT",
          "Description": "[Labels on plots] Position of the SC in the GEO Reference Frame. ",
          "Units": "EarthRadii ",
          "Structure": {
            "Size": "3"
          },
          "Mixed": {
            "MixedQuantity": "Other"
          }
        },
        {
          "Name": "Position_GSM ",
          "ParameterKey": "Position_GSM_TT",
          "Description": "[Labels on plots] Position of the SC in the GSM Reference Frame. ",
          "Units": "EarthRadii ",
          "Structure": {
            "Size": "3"
          },
          "Mixed": {
            "MixedQuantity": "Other"
          }
        },
        {
          "Name": "OrbitNumber ",
          "ParameterKey": "OrbitNumber_TT",
          "Description": "[Labels on plots] Orbit Number at the time of the measurement ",
          "Mixed": {
            "MixedQuantity": "Other"
          }
        },
        {
          "Name": "L ",
          "ParameterKey": "L_TT",
          "Description": "[Labels on plots] Dipole L value calculated using the SM Reference Frame ",
          "Units": "EarthRadii ",
          "Mixed": {
            "MixedQuantity": "Other"
          }
        },
        {
          "Name": "L_Eq ",
          "ParameterKey": "L_Eq_TT",
          "Description": "[Labels on plots] McElqain L value calculated at the Equator (derived from ECT MagEphem data). ",
          "Units": "EarthRadii ",
          "Mixed": {
            "MixedQuantity": "Other"
          }
        },
        {
          "Name": "L_Star ",
          "ParameterKey": "L_Star_TT",
          "Description": "[Labels on plots] Roeder's L* value(derived from ECT MagEphem data) for the average pitch angle. ",
          "Units": "EarthRadii ",
          "Mixed": {
            "MixedQuantity": "Other"
          }
        },
        {
          "Name": "I ",
          "ParameterKey": "I_TT",
          "Description": "[Labels on plots] Integral invariant for the average pitch angle derived from ECT MagEphem data. ",
          "Units": "EarthRadii ",
          "Mixed": {
            "MixedQuantity": "Other"
          }
        },
        {
          "Name": "K ",
          "ParameterKey": "K_TT",
          "Description": "[Labels on plots] The Second Invariant ( I*sqrt(Bm) ) for the average pitch angle derived from ECT MagEphem data. ",
          "Units": "EarthRadii_G ",
          "Mixed": {
            "MixedQuantity": "Other"
          }
        },
        {
          "Name": "MLT ",
          "ParameterKey": "MLT_TT",
          "Description": "[Labels on plots] Magnetic Local Time of S/C in Centerted Dipole Coordinates derived from ECT MagEphem data. ",
          "Units": "Degrees ",
          "Mixed": {
            "MixedQuantity": "Other"
          }
        }
      ]
    }
  }
}