{
  "Spase": {
    "xmlns": "http://www.spase-group.org/data/schema",
    "xmlns:xsi": "http://www.w3.org/2001/XMLSchema-instance",
    "xsi:schemaLocation": "http://www.spase-group.org/data/schema  https://www.spase-group.org/data/schema/spase-2_3_2.xsd",
    "Version": "2.3.2",
    "NumericalData": {
      "ResourceID": "spase://NASA/NumericalData/THEMIS/Ground/Brorfelde/Magnetometer/PT1M",
      "ResourceHeader": {
        "ResourceName": "Brorfelde (BFE) Ground-based Vector Magnetic Field (L2) 1.0 min Data",
        "ReleaseDate": "2021-04-27T15:38:11Z",
        "Description": "Brorfelde, Denmark, Ground-based Vector Magnetic Field Level 2 Data, 1.0 min Time Resolution, Station Code: (BFE), Station Location: (GEO Latitude 55.6, Longitude 11.7), DTU Network",
        "Acknowledgement": "Please acknowledge C. Stolle, J. Matzka, (DTU Space, Denmark)",
        "Contact": [
          {
            "PersonID": "spase://SMWG/Person/Claudia.Stolle",
            "Role": "PrincipalInvestigator"
          },
          {
            "PersonID": "spase://SMWG/Person/Juergen.Matzka",
            "Role": "PrincipalInvestigator"
          },
          {
            "PersonID": "spase://SMWG/Person/Robert.E.McGuire",
            "Role": "MetadataContact"
          },
          {
            "PersonID": "spase://SMWG/Person/Lee.Frost.Bargatze",
            "Role": "MetadataContact"
          }
        ],
        "InformationURL": {
          "Name": "Technical University of Denmark Web Site",
          "URL": "https://www.space.dtu.dk/English/Research/Scientific_data_and_models/Magnetic_Ground_Stations.aspx",
          "Description": "Main menu for access to magnetic field data"
        },
        "PriorID": [
          "spase://VMO/NumericalData/THEMIS/Ground/Brorfelde/Magnetometer/PT1M",
          "spase://VSPO/NumericalData/THEMIS/Ground/Brorfelde/Magnetometer/PT1M"
        ]
      },
      "AccessInformation": [
        {
          "RepositoryID": "spase://SMWG/Repository/NASA/GSFC/SPDF",
          "Availability": "Online",
          "AccessRights": "Open",
          "AccessURL": [
            {
              "Name": "FTPS from SPDF (not with most browsers)",
              "URL": "ftps://spdf.gsfc.nasa.gov/pub/data/themis/thg/greenland_gmag/l2/bfe/",
              "Description": "In CDF via ftp from SPDF."
            },
            {
              "Name": "HTTPS from SPDF",
              "URL": "https://spdf.gsfc.nasa.gov/pub/data/themis/thg/greenland_gmag/l2/bfe/",
              "Description": "In CDF via http from SPDF."
            },
            {
              "Name": "CDAWeb",
              "URL": "https://cdaweb.gsfc.nasa.gov/index.html/",
              "ProductKey": "THG_L2_MAG_BFE",
              "Description": "Access to ASCII, CDF, and plots via NASA/GSFC CDAWeb"
            }
          ],
          "Format": "CDF",
          "Encoding": "None",
          "Acknowledgement": "Please acknowledge C. Stolle, J. Matzka, (DTU Space, Denmark). Please acknowledge the data providers and CDAWeb when using these data."
        },
        {
          "RepositoryID": "spase://SMWG/Repository/NASA/GSFC/SPDF",
          "Availability": "Online",
          "AccessRights": "Open",
          "AccessURL": {
            "Name": "CDAWeb HAPI Server",
            "URL": "https://cdaweb.gsfc.nasa.gov/hapi",
            "Style": "HAPI",
            "ProductKey": "THG_L2_MAG_BFE",
            "Description": "Web Service to this product using the HAPI interface."
          },
          "Format": "CSV",
          "Acknowledgement": "Please acknowledge C. Stolle, J. Matzka, (DTU Space, Denmark). Please acknowledge the data providers and CDAWeb when using these data."
        }
      ],
      "ProcessingLevel": "Calibrated",
      "InstrumentID": "spase://SMWG/Instrument/Ground/Brorfelde/Magnetometer",
      "MeasurementType": "MagneticField",
      "TemporalDescription": {
        "TimeSpan": {
          "StartDate": "2008-09-01T00:00:00.000",
          "RelativeStopDate": "-P2M"
        },
        "Cadence": "PT1M"
      },
      "Parameter": [
        {
          "Name": "B in HEZ Components",
          "Set": "Time series defined by using: thg_mag_bfe_epoch",
          "ParameterKey": "thg_mag_bfe",
          "Description": "Magnetic field B in HEZ vector components",
          "Cadence": "PT1M",
          "Units": "nT",
          "UnitsConversion": "1e-9>T",
          "CoordinateSystem": {
            "CoordinateRepresentation": "Cartesian",
            "CoordinateSystemName": "LGM"
          },
          "RenderingHints": {
            "DisplayType": "TimeSeries",
            "AxisLabel": "B in HEZ Components",
            "ValueFormat": "f9.2",
            "ScaleType": "LinearScale"
          },
          "Structure": {
            "Size": "3",
            "Element": [
              {
                "Name": "Magnetic North - H",
                "Qualifier": "Component.I",
                "Index": "1",
                "RenderingHints": {
                  "AxisLabel": "1"
                }
              },
              {
                "Name": "Magnetic East - E",
                "Qualifier": "Component.J",
                "Index": "2",
                "RenderingHints": {
                  "AxisLabel": "2"
                }
              },
              {
                "Name": "Vertical Down - Z",
                "Qualifier": "Component.K",
                "Index": "3",
                "RenderingHints": {
                  "AxisLabel": "3"
                }
              }
            ]
          },
          "ValidMin": "-60000.0",
          "ValidMax": "60000.0",
          "FillValue": "NaN",
          "Field": {
            "Qualifier": "Vector",
            "FieldQuantity": "Magnetic"
          }
        },
        {
          "Name": "H component of B",
          "Set": "Time series defined by using: thg_mag_bfe_epoch",
          "ParameterKey": "thg_magh_bfe",
          "Description": "---> H - Local magnetic North component of B",
          "Caveats": "This parameter is virtual.  It is calculated by calling the function ALTERNATE_VIEW with the following input parameters:  thg_mag_bfe.",
          "Cadence": "PT1M",
          "Units": "nT",
          "UnitsConversion": "1e-9>T",
          "RenderingHints": {
            "DisplayType": "TimeSeries",
            "AxisLabel": "Magnetic North - H",
            "ValueFormat": "f9.2",
            "ScaleType": "LinearScale"
          },
          "ValidMin": "-60000.0",
          "ValidMax": "60000.0",
          "FillValue": "NaN",
          "Field": {
            "Qualifier": "Component.I",
            "FieldQuantity": "Magnetic"
          }
        },
        {
          "Name": "E component of B",
          "Set": "Time series defined by using: thg_mag_bfe_epoch",
          "ParameterKey": "thg_magd_bfe",
          "Description": "---> E - Local magnetic East component of B",
          "Caveats": "This parameter is virtual.  It is calculated by calling the function ALTERNATE_VIEW with the following input parameters:  thg_mag_bfe.",
          "Cadence": "PT1M",
          "Units": "nT",
          "UnitsConversion": "1e-9>T",
          "RenderingHints": {
            "DisplayType": "TimeSeries",
            "AxisLabel": "Magnetic East - E",
            "ValueFormat": "f9.2",
            "ScaleType": "LinearScale"
          },
          "ValidMin": "-60000.0",
          "ValidMax": "60000.0",
          "FillValue": "NaN",
          "Field": {
            "Qualifier": "Component.J",
            "FieldQuantity": "Magnetic"
          }
        },
        {
          "Name": "Z component of B",
          "Set": "Time series defined by using: thg_mag_bfe_epoch",
          "ParameterKey": "thg_magz_bfe",
          "Description": "---> Z - Local vertical down component of B",
          "Caveats": "This parameter is virtual.  It is calculated by calling the function ALTERNATE_VIEW with the following input parameters:  thg_mag_bfe.",
          "Cadence": "PT1M",
          "Units": "nT",
          "UnitsConversion": "1e-9>T",
          "RenderingHints": {
            "DisplayType": "TimeSeries",
            "AxisLabel": "Vertical Down - Z",
            "ValueFormat": "f9.2",
            "ScaleType": "LinearScale"
          },
          "ValidMin": "-60000.0",
          "ValidMax": "60000.0",
          "FillValue": "NaN",
          "Field": {
            "Qualifier": "Component.K",
            "FieldQuantity": "Magnetic"
          }
        },
        {
          "Name": "HEZ Component Number",
          "ParameterKey": "thg_mag_bfe_compno",
          "Description": "HEZ Component Number",
          "Cadence": "PT1M",
          "CoordinateSystem": {
            "CoordinateRepresentation": "Cartesian",
            "CoordinateSystemName": "LGM"
          },
          "RenderingHints": {
            "AxisLabel": "HEZ Component Number",
            "ValueFormat": "i2",
            "ScaleType": "LinearScale"
          },
          "Structure": {
            "Size": "3",
            "Element": [
              {
                "Name": "Element 1",
                "Qualifier": "Component.I",
                "Index": "1"
              },
              {
                "Name": "Element 2",
                "Qualifier": "Component.J",
                "Index": "2"
              },
              {
                "Name": "Element 3",
                "Qualifier": "Component.K",
                "Index": "3"
              }
            ]
          },
          "ValidMin": "1",
          "ValidMax": "3",
          "FillValue": "-2147483648",
          "Support": {
            "SupportQuantity": "Other"
          }
        },
        {
          "Name": "thg_mag_bfe_time",
          "Set": "Time series defined by using: thg_mag_bfe_epoch",
          "ParameterKey": "thg_mag_bfe_time",
          "Description": "thg_mag_bfe_time, UTC, in seconds since 01-Jan-1970 00:00:00",
          "Caveats": "Unleaped seconds",
          "Cadence": "PT1M",
          "Units": "s",
          "RenderingHints": {
            "AxisLabel": "UT",
            "ValueFormat": "e13.6"
          },
          "ValidMin": "0.0",
          "ValidMax": "5.0e+09",
          "FillValue": "NaN",
          "Support": {
            "SupportQuantity": "Temporal"
          }
        },
        {
          "Name": "thg_mag_bfe_epoch",
          "ParameterKey": "thg_mag_bfe_epoch",
          "Description": "thg_mag_bfe_epoch",
          "Caveats": "This parameter is virtual.  It is calculated by calling the function COMP_THEMIS_EPOCH with the following input parameters:  thg_mag_bfe_epoch0, thg_mag_bfe_time.",
          "Cadence": "PT1M",
          "RenderingHints": {
            "AxisLabel": "UT"
          },
          "ValidMin": "6.31455e+13",
          "ValidMax": "6.63012e+13",
          "FillValue": "-1.0e+31",
          "Support": {
            "SupportQuantity": "Temporal"
          }
        },
        {
          "Name": "thg_mag_bfe_epoch0",
          "ParameterKey": "thg_mag_bfe_epoch0",
          "Description": "EPOCH0 of THEMIS TIME BASE",
          "Caveats": "EPOCH of 01-Jan-1970 00:00:00",
          "Cadence": "PT1M",
          "Units": "ms",
          "UnitsConversion": "1e-3>s",
          "RenderingHints": {
            "AxisLabel": "timebase"
          },
          "ValidMin": "5.99582e+13",
          "ValidMax": "6.40607e+13",
          "FillValue": "-1.0e+31",
          "Support": {
            "SupportQuantity": "Other"
          }
        },
        {
          "Name": "range_epoch",
          "ParameterKey": "range_epoch",
          "Description": "range_epoch",
          "Cadence": "PT1M",
          "Units": "ms",
          "UnitsConversion": "1e-3>s",
          "RenderingHints": {
            "AxisLabel": "UT"
          },
          "ValidMin": "6.31455e+13",
          "ValidMax": "6.63012e+13",
          "FillValue": "-1.0e+31",
          "Support": {
            "SupportQuantity": "Temporal"
          }
        }
      ]
    }
  }
}