{
  "Spase": {
    "xmlns": "http://www.spase-group.org/data/schema",
    "xmlns:xsi": "http://www.w3.org/2001/XMLSchema-instance",
    "xsi:schemaLocation": "http://www.spase-group.org/data/schema  https://www.spase-group.org/data/schema/spase-2_3_2.xsd",
    "Version": "2.3.2",
    "NumericalData": {
      "ResourceID": "spase://NASA/NumericalData/TIMED/SABER/L1B/V20/PT42S",
      "ResourceHeader": {
        "ResourceName": "TIMED Sounding of the Atmosphere using Broadband Emission Radiometry (SABER)IR Radiances in 10 channels (1.27 to 17ym) from 0 to 150 km, Version 1.07, Level 1B (L1B), 42 s Data",
        "ReleaseDate": "2021-04-27T15:38:11Z",
        "Description": "Contains the SABER Level 1B calibrated radiance profiles converted to radiance units with instrument effects removed, geolocated and gridded to uniform angle spacing.",
        "Acknowledgement": "NASA, James M. Russell III",
        "Contact": {
          "PersonID": "spase://SMWG/Person/James.M.Russell.III",
          "Role": "PrincipalInvestigator"
        },
        "InformationURL": {
          "Name": "SABER L1B netCDF file contents",
          "URL": "http://saber.gats-inc.com/saber_doc/SABER_level1B_NCDUMP.pdf"
        },
        "PriorID": [
          "spase://VITMO/NumericalData/TIMED/SABER/L1B",
          "spase://VSPO/NumericalData/TIMED/SABER/L1B",
          "spase://VSPO/NumericalData/TIMED/SABER/L1B/V20/PT42S"
        ]
      },
      "AccessInformation": [
        {
          "RepositoryID": "spase://SMWG/Repository/TIMED/SABER_POC",
          "Availability": "Online",
          "AccessRights": "Open",
          "AccessURL": {
            "Name": "SABER POC website",
            "URL": "http://saber.gats-inc.com/",
            "Description": "This SABER home page provides access to download data files for this product. To request data: click \"Data Servides\", click \"Browse Data\", click \"Level 1B\", click year, month and day of interest, then select the desired file."
          },
          "Format": "NetCDF",
          "Encoding": "None",
          "Acknowledgement": "NASA, James M. Russell III"
        },
        {
          "RepositoryID": "spase://SMWG/Repository/NASA/GSFC/SPDF",
          "Availability": "Online",
          "AccessRights": "Open",
          "AccessURL": [
            {
              "Name": "FTPS from SPDF (not with most browsers)",
              "URL": "ftps://spdf.gsfc.nasa.gov/pub/data/timed/saber/level1b_v2_00_cdf/",
              "Description": "FTP repository of TIMED SABER Level 1B version 1.07 data in CDF format at CDAWeb"
            },
            {
              "Name": "HTTPS from SPDF",
              "URL": "https://spdf.gsfc.nasa.gov/pub/data/timed/saber/level1b_v2_00_cdf/",
              "Description": "In CDF via HTTP from SPDF"
            }
          ],
          "Format": "CDF",
          "Acknowledgement": "Please acknowledge the support from CDAWeb team at GSFC/SPDF."
        },
        {
          "RepositoryID": "spase://SMWG/Repository/NASA/GSFC/SPDF",
          "Availability": "Online",
          "AccessRights": "Open",
          "AccessURL": {
            "Name": "CDAWeb",
            "URL": "https://cdaweb.gsfc.nasa.gov/cgi-bin/eval2.cgi?dataset=TIMED_L1BV20_SABER&index=sp_phys",
            "ProductKey": "TIMED_L1BV20_SABER",
            "Description": "TIMED SABER L1B version 1.07 data with subset, plot, list from CDAWeb"
          },
          "Format": "Text",
          "Acknowledgement": "Please acknowledge the support from the CDAWeb team at GSFC/SPDF."
        },
        {
          "RepositoryID": "spase://SMWG/Repository/NASA/GSFC/SPDF",
          "Availability": "Online",
          "AccessRights": "Open",
          "AccessURL": {
            "Name": "CDAWeb HAPI Server",
            "URL": "https://cdaweb.gsfc.nasa.gov/hapi",
            "Style": "HAPI",
            "ProductKey": "TIMED_L1BV20_SABER",
            "Description": "Web Service to this product using the HAPI interface."
          },
          "Format": "CSV",
          "Acknowledgement": "Please acknowledge the support from the CDAWeb team at GSFC/SPDF."
        }
      ],
      "ProcessingLevel": "Calibrated",
      "ProviderResourceName": "SABER Level1B",
      "ProviderProcessingLevel": "Level 1B",
      "ProviderVersion": "01.07",
      "InstrumentID": "spase://SMWG/Instrument/TIMED/SABER",
      "MeasurementType": [
        "Radiance",
        "Profile"
      ],
      "TemporalDescription": {
        "TimeSpan": {
          "StartDate": "2002-01-25T00:00:00.000",
          "RelativeStopDate": "P30D"
        },
        "Cadence": "PT42S"
      },
      "ObservedRegion": [
        "Earth.NearSurface.Mesosphere",
        "Earth.NearSurface.Thermosphere"
      ],
      "Keyword": [
        "TIMED",
        "SABER",
        "mesosphere",
        "lower thermosphere",
        "MLTI"
      ],
      "Parameter": {
        "Name": "Calibrated radiance",
        "ParameterKey": "Rad",
        "Description": "Ten channels (CO2-N, CO2-W, CO2-W, O3, H2O, NO, CO2-B, OH-A, OH-B, O2) of calibrated radiance (watts/m2/sr)",
        "Units": "watts/m2/sr",
        "FillValue": "-999.",
        "Wave": {
          "WaveType": "Electromagnetic",
          "WaveQuantity": "Wavelength",
          "WavelengthRange": {
            "Low": "4.3",
            "High": "15.2",
            "Units": "?m"
          }
        }
      }
    }
  }
}