{
  "Spase": {
    "xmlns": "http://www.spase-group.org/data/schema",
    "xmlns:xsi": "http://www.w3.org/2001/XMLSchema-instance",
    "xsi:schemaLocation": "http://www.spase-group.org/data/schema  http://www.spase-group.org/data/schema/spase-2_2_9.xsd'",
    "Version": "2.2.9",
    "NumericalData": {
      "ResourceID": "spase://NASA/NumericalData/POLAR/TIMAS/H2/PT12S",
      "ResourceHeader": {
        "ResourceName": "Polar TIMAS H2 Level 1 Ion Upflowing Fluxes Data",
        "ReleaseDate": "2021-03-29T17:14:50Z",
        "Description": "H+, O+, He+ and He++ upflowing fluxes and statistical uncertainties processed by the TIMAS science team.These data were used in preparing several papers, see Information URLs.\n            Includes also non-TIMAS Data:\n            UT,\n            altitude,\n            invariant latitude,\n            L shell,\n            magnetic local time,\n            geomagnetic latitude (signed - n/s hemisphere),\n            average magnetic field vector in GSM coordinates at Polar (uses KH's co-ord conversion code),\n            spacecraft potential from EFI data base,\n            solar zenith angles at each end of the field line,\n            time delayed solar wind parameters from WIND (Using KH's database) interpolated across data gaps of less than 10 minutes,\n            IMF in GSM,\n            solar wind dynamic pressure (nPa),\n            solar wind density (/cc),\n            solar wind velocity (km/sec).\n            This is a summary data base.It does not contain detailed energy step and pitch angle information for each data point. Extends over all altitudes, invariant latitudes and MLT. Below altitude of 4.0 Re 2 spin resolution (12s), above altitude of 4.0 Re 4 spin resolution (24s).\n            Reference:E.G. Shelley et al., The Toroidal Imaging Mass-Angle Spectrograph (TIMAS) for the Polar Mission, Sp. Sci. Rev, Vol 71, pp 497-530, 1995.",
        "Contact": {
          "PersonID": "spase://SMWG/Person/W.K.Peterson",
          "Role": "PrincipalInvestigator"
        },
        "InformationURL": [
          {
            "Name": "TIMAS Home Page",
            "URL": "http://lasp.colorado.edu/home/timas/full/"
          },
          {
            "Name": "H1 and H2 High Resolution Data Products",
            "URL": "http://lasp.colorado.edu/timas/info/h12-data/h12-data.html"
          },
          {
            "Name": "Description of H1/H2 database",
            "URL": "http://lasp.colorado.edu/timas/info/h12-data/1-flow_db_spec.html",
            "Description": "Description of the data base included in this data set"
          },
          {
            "Name": "IDL code to read the po_h2_v01 data files and display them",
            "URL": "http://lasp.colorado.edu/timas/info/h12-data/read_h2.pro"
          },
          {
            "Name": "Peterson et al., JGR 2008",
            "URL": "http://lasp.colorado.edu/home/timas/resources/principal-investigator/petersons-publications/",
            "Description": "Solar-minimum quiet-time ion energization and outflow in dynamic boundary related coordinates, W.K. Peterson, L. Andersson, B.C. Callahan, H.L. Collin, J.D. Scudder, and A.W. Yau, To appear in J. Geophys. Res., 2008."
          },
          {
            "Name": "Peterson et al., JGR 2006",
            "URL": "http://lasp.colorado.edu/home/timas/resources/principal-investigator/petersons-publications/",
            "Description": "Quiet time solar illumination effects on the fluxes and characteristic energies of ionospheric outflow, W.K. Peterson, H.L. Collin, O.W. Lennartsson and A.W. Yau, J. Geophys. Res., 111, A11S05, doi:10.1029/2005JA011596, 2006."
          },
          {
            "Name": "Lennartson et al. JGR, 2004",
            "URL": "http://lasp.colorado.edu/home/timas/resources/principal-investigator/petersons-publications/",
            "Description": "Solar wind control of Earth's H+ and O+ outflow rates in the 15-eV to 33-keV energy range, O.W Lennartsson, W.K. Peterson, and H.L. Collin, J. Geophys. Res., Vol. 109, No. A12, A12212 10.1029/2004JA010690, 15 December 2004."
          },
          {
            "Name": "Peterson et al., JGR, 2001",
            "URL": "https://agupubs.onlinelibrary.wiley.com/doi/abs/10.1029/2000JA003006",
            "Description": "Polar/TIMAS Observations of Suprathermal Ion Outflow During Solar Minimum Conditions, W.K. Peterson, H.L. Collin, A.W. Yau, and O.W. Lennartsson, J. Geophys. Res., 106, 6059, 2001."
          },
          {
            "Name": "Collin et al., GRL, 1998",
            "URL": "https://agupubs.onlinelibrary.wiley.com/doi/abs/10.1029/1998GL900090",
            "Description": "The Seasonal Variation of Auroral Ion Beams, H.L. Collin, W.K. Peterson, O.W. Lennartsson, and J.F. Drake, Geophysical Research Letters, 25, 4071, 1998."
          }
        ],
        "PriorID": [
          "spase://VMO/NumericalData/POLAR/TIMAS/H2_PT12S",
          "spase://VSPO/NumericalData/POLAR/TIMAS/H2/PT12S"
        ]
      },
      "AccessInformation": {
        "RepositoryID": "spase://SMWG/Repository/UCOLO/LASP/TIMAS_H2",
        "Availability": "Online",
        "AccessRights": "Open",
        "AccessURL": [
          {
            "Name": "FTPS from SPDF (not with most browsers)",
            "URL": "ftps://spdf.gsfc.nasa.gov/pub/data/polar/timas/timas_h2/"
          },
          {
            "Name": "HTTPS from SPDF",
            "URL": "https://spdf.gsfc.nasa.gov/pub/data/polar/timas/timas_h2/",
            "Description": "In CDF via HTTP from SPDF"
          },
          {
            "Name": "CDAWeb",
            "URL": "https://cdaweb.gsfc.nasa.gov/cgi-bin/eval2.cgi?dataset=PO_H2_TIM&index=sp_phys",
            "ProductKey": "PO_H2_TIM",
            "Description": "PO_H2_TIM"
          },
          {
            "Name": "Polat TIMAS H2 data repository",
            "URL": "http://lasp.colorado.edu/timas/data/h2-data/",
            "Description": "Repository of Polar TIMAS key parameter data in CDF format at LASP"
          }
        ],
        "Format": "CDF"
      },
      "ProcessingLevel": "Calibrated",
      "ProviderProcessingLevel": "Level 1",
      "ProviderVersion": "v_01",
      "InstrumentID": "spase://SMWG/Instrument/POLAR/TIMAS",
      "MeasurementType": [
        "EnergeticParticles",
        "IonComposition",
        "Spectrum",
        "ThermalPlasma"
      ],
      "TemporalDescription": {
        "TimeSpan": {
          "StartDate": "1996-03-17T00:03:25",
          "StopDate": "1998-12-08T22:55:45"
        },
        "Cadence": "PT12S"
      },
      "ObservedRegion": [
        "Earth.Magnetosphere",
        "Earth.Magnetosphere.Polar",
        "Earth.Magnetosphere.RadiationBelt"
      ],
      "Caveats": "Several compromises were made in assembling the data base. In particular background subtraction, short averaging intervals and the normally low count rates for minor ions (O+, He+, and He++) lead to many data intervals where the data values reported are not statistically significant. The data files therefore contain many diagnostic parameters and data quality flags.",
      "Keyword": [
        "Energetic Ion Mass-Energy Spectra",
        "Net outflowing number flux"
      ],
      "InputResourceID": [
        "spase://NASA/NumericalData/POLAR/TIMAS/H0/PT12S",
        "spase://NASA/NumericalData/Wind/MFI/PT03S",
        "spase://NASA/NumericalData/POLAR/MFE/PT55S"
      ],
      "Parameter": [
        {
          "Name": "Center Epoch for H_Fluence",
          "ParameterKey": "H_Epoch",
          "Description": "NSSDC standard-reference time value at the center of the accumulation interval.",
          "Caveats": "Center epoch (milliseconds since 0 AD of variable accumulation intervals for H+",
          "Units": "ms",
          "UnitsConversion": "1e-3>s",
          "ValidMin": "17-Mar-1996 00:00:00.000",
          "ValidMax": "08-Dec-1998 23:59:59.999",
          "FillValue": "-1.0E31",
          "Support": {
            "SupportQuantity": "Temporal"
          }
        },
        {
          "Name": "Center Epoch for O_Fluence",
          "ParameterKey": "O_Epoch",
          "Description": "NSSDC standard-reference time value at the center of the accumulation interval.",
          "Caveats": "Center epoch (milliseconds since 0 AD of variable accumulation intervals for O+",
          "Units": "ms",
          "UnitsConversion": "1e-3>s",
          "ValidMin": "17-Mar-1996 00:00:00.000",
          "ValidMax": "08-Dec-1998 23:59:59.999",
          "FillValue": "-1.0E31",
          "Support": {
            "SupportQuantity": "Temporal"
          }
        },
        {
          "Name": "Center Epoch for He1_Fluence",
          "ParameterKey": "He1_Epoch",
          "Description": "NSSDC standard-reference time value at the center of the accumulation interval.",
          "Caveats": "Center epoch (milliseconds since 0 AD of variable accumulation intervals for He+",
          "Units": "ms",
          "UnitsConversion": "1e-3>s",
          "ValidMin": "17-Mar-1996 00:00:00.000",
          "ValidMax": "08-Dec-1998 23:59:59.999",
          "FillValue": "-1.0E31",
          "Support": {
            "SupportQuantity": "Temporal"
          }
        },
        {
          "Name": "Center Epoch for He2_Fluence",
          "ParameterKey": "He2_Epoch",
          "Description": "NSSDC standard-reference time value at the center of the accumulation interval.",
          "Caveats": "Center epoch (milliseconds since 0 AD of variable accumulation intervals for He++",
          "Units": "ms",
          "UnitsConversion": "1e-3>s",
          "ValidMin": "17-Mar-1996 00:00:00.000",
          "ValidMax": "08-Dec-1998 23:59:59.999",
          "FillValue": "-1.0E31",
          "Support": {
            "SupportQuantity": "Temporal"
          }
        },
        {
          "Name": "H+ Fluence",
          "ParameterKey": "H_Fluence",
          "Description": "H+ Fluence (upward directed flux) at the altitude measured (R) with loss cone correction.",
          "Caveats": "For statistical studies normalize to a standard altitude! Negative flux values correspond to downflowing fluxes.",
          "Units": "#/cm^2-sec",
          "ValidMin": "-1.0E10",
          "ValidMax": "1.0E10",
          "FillValue": "-1.0E31",
          "Particle": {
            "ParticleType": "Proton",
            "Qualifier": "Differential",
            "ParticleQuantity": "NumberFlux",
            "AtomicNumber": "1",
            "EnergyRange": {
              "Low": "16.0",
              "High": "33298.0",
              "Units": "eV/e"
            }
          }
        },
        {
          "Name": "O+ Fluence",
          "ParameterKey": "O_Fluence",
          "Description": "O+ Fluence (upward directed flux) at the altitude measured (R) with loss cone correction.",
          "Caveats": "For statistical studies normalize to a standard altitude! Negative flux values correspond to downflowing fluxes.",
          "Units": "#/cm^2-sec",
          "ValidMin": "-1.0E10",
          "ValidMax": "1.0E10",
          "FillValue": "-1.0E31",
          "Particle": {
            "ParticleType": "Ion",
            "Qualifier": "Differential",
            "ParticleQuantity": "NumberFlux",
            "AtomicNumber": "8",
            "EnergyRange": {
              "Low": "16.0",
              "High": "33298.0",
              "Units": "eV/e"
            }
          }
        },
        {
          "Name": "He+ Fluence",
          "ParameterKey": "He1_Fluence",
          "Description": "He+ Fluence (upward directed flux) at the altitude measured (R) with loss cone correction.",
          "Caveats": "For statistical studies normalize to a standard altitude! Negative flux values correspond to downflowing fluxes.",
          "Units": "#/cm^2-sec",
          "ValidMin": "-1.0E10",
          "ValidMax": "1.0E10",
          "FillValue": "-1.0E31",
          "Particle": {
            "ParticleType": "Ion",
            "Qualifier": "Differential",
            "ParticleQuantity": "NumberFlux",
            "AtomicNumber": "2",
            "EnergyRange": {
              "Low": "16.0",
              "High": "33298.0",
              "Units": "eV/e"
            }
          }
        },
        {
          "Name": "He++ Fluence",
          "ParameterKey": "He2_Fluence",
          "Description": "He++ Fluence (upward directed flux) at the altitude measured (R) with loss cone correction.",
          "Caveats": "For statistical studies normalize to a standard altitude! Negative flux values correspond to downflowing fluxes.",
          "Units": "#/cm^2-sec",
          "ValidMin": "-1.0E10",
          "ValidMax": "1.0E10",
          "FillValue": "-1.0E31",
          "Particle": {
            "ParticleType": "Ion",
            "Qualifier": "Differential",
            "ParticleQuantity": "NumberFlux",
            "AtomicNumber": "2",
            "EnergyRange": {
              "Low": "16.0",
              "High": "33298.0",
              "Units": "eV/e"
            }
          }
        },
        {
          "Name": "H+ 1 Sigma Fluence",
          "ParameterKey": "H_sigma",
          "Description": "One standard deviation (sigma) of H+ fluence at the altitude measured (R)",
          "Caveats": "For statistical studies normalize to a standard altitude!",
          "Units": "% of H+ Fluence",
          "ValidMin": "0.0",
          "ValidMax": "128.0",
          "FillValue": "128.0",
          "Particle": {
            "ParticleType": "Proton",
            "Qualifier": [
              "StandardDeviation",
              "Differential"
            ],
            "ParticleQuantity": "NumberFlux",
            "AtomicNumber": "1",
            "EnergyRange": {
              "Low": "16.0",
              "High": "33298.0",
              "Units": "eV/e"
            }
          }
        },
        {
          "Name": "O+ 1 Sigma Fluence",
          "ParameterKey": "O_sigma",
          "Description": "One standard deviation (sigma) of O+ fluence at the altitude measured (R)",
          "Caveats": "For statistical studies normalize to a standard altitude!",
          "Units": "% of O+ Fluence",
          "ValidMin": "0.0",
          "ValidMax": "128.0",
          "FillValue": "128.0",
          "Particle": {
            "ParticleType": "Ion",
            "Qualifier": [
              "StandardDeviation",
              "Differential"
            ],
            "ParticleQuantity": "NumberFlux",
            "AtomicNumber": "8",
            "EnergyRange": {
              "Low": "16.0",
              "High": "33298.0",
              "Units": "eV/e"
            }
          }
        },
        {
          "Name": "He+ 1 Sigma Fluence",
          "ParameterKey": "He1_sigma",
          "Description": "One standard deviation (sigma) of O+ fluence at the altitude measured (R)",
          "Caveats": "For statistical studies normalize to a standard altitude!",
          "Units": "% of He1 Fluence",
          "ValidMin": "0.0",
          "ValidMax": "128.0",
          "FillValue": "128.0",
          "Particle": {
            "ParticleType": "Ion",
            "Qualifier": [
              "StandardDeviation",
              "Differential"
            ],
            "ParticleQuantity": "NumberFlux",
            "AtomicNumber": "2",
            "EnergyRange": {
              "Low": "16.0",
              "High": "33298.0",
              "Units": "eV/e"
            }
          }
        },
        {
          "Name": "He++ 1 Sigma Fluence",
          "ParameterKey": "He2_sigma",
          "Description": "One standard deviation (sigma) of He++ fluence at the altitude measured (R)",
          "Caveats": "For statistical studies normalize to a standard altitude!",
          "Units": "% of He2 Fluence",
          "ValidMin": "0.0",
          "ValidMax": "128.0",
          "FillValue": "128.0",
          "Particle": {
            "ParticleType": "Ion",
            "Qualifier": [
              "StandardDeviation",
              "Differential"
            ],
            "ParticleQuantity": "NumberFlux",
            "AtomicNumber": "2",
            "EnergyRange": {
              "Low": "16.0",
              "High": "33298.0",
              "Units": "eV/e"
            }
          }
        },
        {
          "Name": "H+ E_Flux",
          "ParameterKey": "H_Eflux",
          "Description": "Net H+ energy flux at the altitude measured (R)",
          "Caveats": "For statistical studies normalize to a standard altitude!",
          "Units": "keV/cm^2-sec",
          "ValidMin": "-1.0E10",
          "ValidMax": "1.0E10",
          "FillValue": "-1.0E31",
          "Particle": {
            "ParticleType": "Proton",
            "ParticleQuantity": "EnergyFlux",
            "AtomicNumber": "1",
            "EnergyRange": {
              "Low": "16.0",
              "High": "33298.0",
              "Units": "eV/e"
            }
          }
        },
        {
          "Name": "O+ E_Flux",
          "ParameterKey": "O_Eflux",
          "Description": "Net O+ energy flux at the altitude measured (R)",
          "Caveats": "For statistical studies normalize to a standard altitude!",
          "Units": "keV/cm^2-sec",
          "ValidMin": "-1.0E10",
          "ValidMax": "1.0E10",
          "FillValue": "-1.0E31",
          "Particle": {
            "ParticleType": "Ion",
            "ParticleQuantity": "EnergyFlux",
            "AtomicNumber": "8",
            "EnergyRange": {
              "Low": "16.0",
              "High": "33298.0",
              "Units": "eV/e"
            }
          }
        },
        {
          "Name": "He+ E_Flux",
          "ParameterKey": "He1_Eflux",
          "Description": "Net He+ energy flux at the altitude measured (R)",
          "Caveats": "For statistical studies normalize to a standard altitude!",
          "Units": "keV/cm^2-sec",
          "ValidMin": "-1.0E10",
          "ValidMax": "1.0E10",
          "FillValue": "-1.0E31",
          "Particle": {
            "ParticleType": "Ion",
            "ParticleQuantity": "EnergyFlux",
            "AtomicNumber": "2",
            "EnergyRange": {
              "Low": "16.0",
              "High": "33298.0",
              "Units": "eV/e"
            }
          }
        },
        {
          "Name": "He++ E_Flux",
          "ParameterKey": "He2_Eflux",
          "Description": "Net He++ energy flux at the altitude measured (R)",
          "Caveats": "For statistical studies normalize to a standard altitude!",
          "Units": "keV/cm^2-sec",
          "ValidMin": "-1.0E10",
          "ValidMax": "1.0E10",
          "FillValue": "-1.0E31",
          "Particle": {
            "ParticleType": "Ion",
            "ParticleQuantity": "EnergyFlux",
            "AtomicNumber": "2",
            "EnergyRange": {
              "Low": "16.0",
              "High": "33298.0",
              "Units": "eV/e"
            }
          }
        },
        {
          "Name": "H+ 1 Sigma E-Flux",
          "ParameterKey": "H_efluxsigma",
          "Description": "One standard deviation (sigma) of H+ energy flux at the altitude measured (R)",
          "Caveats": "For statistical studies normalize to a standard altitude!",
          "Units": "% of H+ E-Flux",
          "ValidMin": "0.0",
          "ValidMax": "128.0",
          "FillValue": "128.0",
          "Particle": {
            "ParticleType": "Proton",
            "ParticleQuantity": "EnergyFlux",
            "AtomicNumber": "1",
            "EnergyRange": {
              "Low": "16.0",
              "High": "33298.0",
              "Units": "eV/e"
            }
          }
        },
        {
          "Name": "O+ 1 Sigma E-Flux",
          "ParameterKey": "O_efluxsigma",
          "Description": "One standard deviation (sigma) of O+ energy flux at the altitude measured (R)",
          "Caveats": "For statistical studies normalize to a standard altitude!",
          "Units": "% of O+ E-Flux",
          "ValidMin": "0.0",
          "ValidMax": "128.0",
          "FillValue": "128.0",
          "Particle": {
            "ParticleType": "Ion",
            "ParticleQuantity": "EnergyFlux",
            "AtomicNumber": "8",
            "EnergyRange": {
              "Low": "16.0",
              "High": "33298.0",
              "Units": "eV/e"
            }
          }
        },
        {
          "Name": "He+ 1 Sigma E-Flux",
          "ParameterKey": "He1_efluxsigma",
          "Description": "One standard deviation (sigma) of He+ energy flux at the altitude measured (R)",
          "Caveats": "For statistical studies normalize to a standard altitude!",
          "Units": "% of He+ E-Flux",
          "ValidMin": "0.0",
          "ValidMax": "128.0",
          "FillValue": "128.0",
          "Particle": {
            "ParticleType": "Ion",
            "ParticleQuantity": "EnergyFlux",
            "AtomicNumber": "2",
            "EnergyRange": {
              "Low": "16.0",
              "High": "33298.0",
              "Units": "eV/e"
            }
          }
        },
        {
          "Name": "He++ 1 Sigma E-Flux",
          "ParameterKey": "He2_efluxsigma",
          "Description": "One standard deviation (sigma) of He++ energy flux at the altitude measured (R)",
          "Caveats": "For statistical studies normalize to a standard altitude!",
          "Units": "% of He++ E-Flux",
          "ValidMin": "0.0",
          "ValidMax": "128.0",
          "FillValue": "128.0",
          "Particle": {
            "ParticleType": "Ion",
            "ParticleQuantity": "EnergyFlux",
            "AtomicNumber": "2",
            "EnergyRange": {
              "Low": "16.0",
              "High": "33298.0",
              "Units": "eV/e"
            }
          }
        },
        {
          "Name": "Spins Accumulatated for H+ values",
          "ParameterKey": "H_spins",
          "Description": "Number of spins accumulated for H+",
          "Caveats": "Number of spins of data accumulated for H+.",
          "Units": "# of spins",
          "ValidMin": "0",
          "ValidMax": "32",
          "FillValue": "255",
          "Support": {
            "SupportQuantity": "Other"
          }
        },
        {
          "Name": "Spins Accumulatated for O+ values",
          "ParameterKey": "O_spins",
          "Description": "Number of spins accumulated for O+",
          "Caveats": "Number of spins of data accumulated for O+.",
          "Units": "# of spins",
          "ValidMin": "0",
          "ValidMax": "32",
          "FillValue": "255",
          "Support": {
            "SupportQuantity": "Other"
          }
        },
        {
          "Name": "Spins Accumulatated for He+ values",
          "ParameterKey": "He1_spins",
          "Description": "Number of spins accumulated for He+",
          "Caveats": "Number of spins of data accumulated for He+.",
          "Units": "# of spins",
          "ValidMin": "0",
          "ValidMax": "32",
          "FillValue": "255",
          "Support": {
            "SupportQuantity": "Other"
          }
        },
        {
          "Name": "Spins Accumulatated for He++ values",
          "ParameterKey": "He2_spins",
          "Description": "Number of spins accumulated for He++",
          "Caveats": "Number of spins of data accumulated for He++.",
          "Units": "# of spins",
          "ValidMin": "0",
          "ValidMax": "32",
          "FillValue": "255",
          "Support": {
            "SupportQuantity": "Other"
          }
        },
        {
          "Name": "SZA",
          "ParameterKey": "SZA",
          "Description": "Solar Zenith angle at the magnetic foot point",
          "Caveats": "Check the SZA_status flag",
          "Units": "degrees",
          "ValidMin": "0",
          "ValidMax": "180",
          "FillValue": "-1.0E31",
          "Support": {
            "SupportQuantity": "Positional"
          }
        },
        {
          "Name": "Conjugate SZA",
          "ParameterKey": "Conjugate_SZA",
          "Description": "Solar Zenith angle at the Conjugate magnetic foot point",
          "Caveats": "Check the Conjugate_SZA_status flag",
          "Units": "degrees",
          "ValidMin": "0",
          "ValidMax": "180",
          "FillValue": "-1.0E31",
          "Support": {
            "SupportQuantity": "Positional"
          }
        },
        {
          "Name": "SZA Status",
          "ParameterKey": "SZA_status",
          "Description": "Quality of the solar zenith angle (SZA) values: 0=good, 99=invalid",
          "ValidMin": "0",
          "ValidMax": "99",
          "FillValue": "255",
          "Support": {
            "SupportQuantity": "Other"
          }
        },
        {
          "Name": "Conjugate SZA Status",
          "ParameterKey": "Conjugate_SZA_status",
          "Description": "Quality of the conjugate solar zenith angle (SZA) values: 0=good, 99=invalid",
          "ValidMin": "0",
          "ValidMax": "99",
          "FillValue": "255",
          "Support": {
            "SupportQuantity": "Other"
          }
        },
        {
          "Name": "H+ Quality Flag",
          "ParameterKey": "H_quality",
          "Description": "A quality flag in the range 0-99 with the following values/meanings:\n            0    OK.\n            1    Some data missing.\n            2    more than 5% data missing\n            3    not  used.\n            4    not used.\n            5    Warning flags set.\n            6    not used.\n            9    Invalid pitch angles\n            99   No valid data.",
          "ValidMin": "0",
          "ValidMax": "99",
          "FillValue": "255",
          "Support": {
            "SupportQuantity": "Other"
          }
        },
        {
          "Name": "O+ Quality Flag",
          "ParameterKey": "O_quality",
          "Description": "A quality flag in the range 0-99 with the following values/meanings:\n            0    OK.\n            1    Some data missing.\n            2    more than 5% data missing\n            3    not  used.\n            4    not used.\n            5    Warning flags set.\n            6    not used.\n            9    Invalid pitch angles\n            99   No valid data.",
          "ValidMin": "0",
          "ValidMax": "99",
          "FillValue": "255",
          "Support": {
            "SupportQuantity": "Other"
          }
        },
        {
          "Name": "He+ Quality Flag",
          "ParameterKey": "He1_quality",
          "Description": "A quality flag in the range 0-99 with the following values/meanings:\n            0    OK.\n            1    Some data missing.\n            2    more than 5% data missing\n            3    not  used.\n            4    not used.\n            5    Warning flags set.\n            6    not used.\n            9    Invalid pitch angles\n            99   No valid data.",
          "ValidMin": "0",
          "ValidMax": "99",
          "FillValue": "255",
          "Support": {
            "SupportQuantity": "Other"
          }
        },
        {
          "Name": "He++ Quality Flag",
          "ParameterKey": "He2_quality",
          "Description": "A quality flag in the range 0-99 with the following values/meanings:\n            0    OK.\n            1    Some data missing.\n            2    more than 5% data missing\n            3    not  used.\n            4    not used.\n            5    Warning flags set.\n            6    not used.\n            9    Invalid pitch angles\n            99   No valid data.",
          "ValidMin": "0",
          "ValidMax": "99",
          "FillValue": "255",
          "Support": {
            "SupportQuantity": "Other"
          }
        },
        {
          "Name": "Geocentric Distance",
          "ParameterKey": "R",
          "Description": "Geocentric Distance",
          "Units": "Re",
          "UnitsConversion": "6.370e6>m",
          "CoordinateSystem": {
            "CoordinateRepresentation": "Spherical",
            "CoordinateSystemName": "SM"
          },
          "ValidMin": "0",
          "ValidMax": "10",
          "FillValue": "-1.0E31",
          "Support": {
            "SupportQuantity": "Positional"
          }
        },
        {
          "Name": "L parameter",
          "ParameterKey": "L",
          "Description": "MacIlwain L Parameter",
          "Units": "Re",
          "UnitsConversion": "6.370e6>m",
          "ValidMin": "0",
          "ValidMax": "10",
          "FillValue": "-1.0E31",
          "Support": {
            "SupportQuantity": "Positional"
          }
        },
        {
          "Name": "MLT",
          "ParameterKey": "MLT",
          "Description": "Magnetic Local Time",
          "Units": "Hours",
          "UnitsConversion": "15>deg",
          "CoordinateSystem": {
            "CoordinateRepresentation": "Spherical",
            "CoordinateSystemName": "SM"
          },
          "ValidMin": "0",
          "ValidMax": "25",
          "FillValue": "-1.0E31",
          "Support": {
            "SupportQuantity": "Positional"
          }
        },
        {
          "Name": "LT",
          "ParameterKey": "LocT",
          "Description": "Local Time",
          "Units": "Hours",
          "ValidMin": "0",
          "ValidMax": "25",
          "FillValue": "-1.0E31",
          "Support": {
            "SupportQuantity": "Temporal"
          }
        },
        {
          "Name": "Mlat",
          "ParameterKey": "Mlat",
          "Description": "Magnetic Latitude",
          "Units": "deg",
          "CoordinateSystem": {
            "CoordinateRepresentation": "Spherical",
            "CoordinateSystemName": "SM"
          },
          "ValidMin": "-90.0",
          "ValidMax": "90.0",
          "FillValue": "-1.0E31",
          "Support": {
            "SupportQuantity": "Positional"
          }
        },
        {
          "Name": "INVL",
          "ParameterKey": "ILA",
          "Description": "Invariant Latitude",
          "Units": "deg",
          "CoordinateSystem": {
            "CoordinateRepresentation": "Spherical",
            "CoordinateSystemName": "CGM"
          },
          "ValidMin": "0",
          "ValidMax": "1000.0",
          "FillValue": "-1.0E31",
          "Support": {
            "SupportQuantity": "Positional"
          }
        },
        {
          "Name": "B",
          "ParameterKey": "MagField",
          "Description": "Average magnetic field vector in GSM coordinates at Polar (Uses\n            KH's co-ord conversion code).",
          "Caveats": "3 components are GSM -X, -Y, and -Z",
          "Units": "nT",
          "UnitsConversion": "1e-9>T",
          "CoordinateSystem": {
            "CoordinateRepresentation": "Cartesian",
            "CoordinateSystemName": "GSM"
          },
          "Structure": {
            "Size": "3",
            "Element": [
              {
                "Name": "-Bx",
                "Qualifier": "Component.I",
                "Index": "1",
                "ValidMin": "-100000.0",
                "ValidMax": "100000.0",
                "FillValue": "-1.0E31"
              },
              {
                "Name": "-By",
                "Qualifier": "Component.J",
                "Index": "2",
                "ValidMin": "-100000.0",
                "ValidMax": "100000.0",
                "FillValue": "-1.0E31"
              },
              {
                "Name": "-Bz",
                "Qualifier": "Component.K",
                "Index": "3",
                "ValidMin": "-100000.0",
                "ValidMax": "100000.0",
                "FillValue": "-1.0E31"
              }
            ]
          },
          "Field": {
            "Qualifier": [
              "Average",
              "Vector"
            ],
            "FieldQuantity": "Magnetic"
          }
        },
        {
          "Name": "SC Potential",
          "ParameterKey": "SC_Potential",
          "Description": "Space craft potential from EFI",
          "Caveats": "This Variable has not been extensively validated ... use with caution.",
          "Units": "V",
          "ValidMin": "-50.0",
          "ValidMax": "100.0",
          "FillValue": "-1.0E31",
          "Field": {
            "FieldQuantity": "Potential"
          }
        },
        {
          "Name": "IMF",
          "ParameterKey": "Imf_Gsm",
          "Description": "Time delayed Wind IMF Magnetic Field from WIND spacecraft in GSM Coordinates",
          "Units": "nT",
          "UnitsConversion": "1e-9>T",
          "CoordinateSystem": {
            "CoordinateRepresentation": "Cartesian",
            "CoordinateSystemName": "GSM"
          },
          "Structure": {
            "Size": "3",
            "Element": [
              {
                "Name": "IMF Bx",
                "Qualifier": "Component.I",
                "Index": "1",
                "ValidMin": "-100000.0",
                "ValidMax": "1000.0",
                "FillValue": "-1.0E31"
              },
              {
                "Name": "IMF By",
                "Qualifier": "Component.J",
                "Index": "2",
                "ValidMin": "-100000.0",
                "ValidMax": "1000.0",
                "FillValue": "-1.0E31"
              },
              {
                "Name": "IMF Bz",
                "Qualifier": "Component.K",
                "Index": "3",
                "ValidMin": "-100000.0",
                "ValidMax": "1000.0",
                "FillValue": "-1.0E31"
              }
            ]
          },
          "Field": {
            "Qualifier": [
              "Average",
              "Vector"
            ],
            "FieldQuantity": "Magnetic"
          }
        },
        {
          "Name": "SW Pressure",
          "ParameterKey": "SW_pressure",
          "Description": "Time lagged solar wind dynamic pressure from WIND observations",
          "Units": "nPa",
          "UnitsConversion": "1e-9>Pa",
          "ValidMin": "0",
          "ValidMax": "100",
          "FillValue": "-1.0E31",
          "Particle": {
            "ParticleType": "Proton",
            "ParticleQuantity": "Pressure"
          }
        },
        {
          "Name": "SW density",
          "ParameterKey": "SW_density",
          "Description": "Time lagged solar wind density from WIND observations",
          "Units": "#/cc",
          "ValidMin": "0",
          "ValidMax": "100",
          "FillValue": "-1.0E31",
          "Particle": {
            "ParticleType": "Proton",
            "ParticleQuantity": "NumberDensity"
          }
        },
        {
          "Name": "V",
          "ParameterKey": "SW_velocity",
          "Description": "Time lagged Solar wind velocity from WIND in GSM Coordinates",
          "Units": "km/s",
          "UnitsConversion": "1e3>m/s",
          "CoordinateSystem": {
            "CoordinateRepresentation": "Cartesian",
            "CoordinateSystemName": "GSM"
          },
          "Structure": {
            "Size": "3",
            "Element": [
              {
                "Name": "Vx",
                "Qualifier": "Component.I",
                "Index": "1",
                "ValidMin": "-700.0",
                "ValidMax": "700.0",
                "FillValue": "-1.0E31"
              },
              {
                "Name": "Vy",
                "Qualifier": "Component.J",
                "Index": "2",
                "ValidMin": "-700.0",
                "ValidMax": "700.0",
                "FillValue": "-1.0E31"
              },
              {
                "Name": "Vz",
                "Qualifier": "Component.K",
                "Index": "3",
                "ValidMin": "-700.0",
                "ValidMax": "700.0",
                "FillValue": "-1.0E31"
              }
            ]
          },
          "Particle": {
            "ParticleType": "Proton",
            "ParticleQuantity": "Velocity"
          }
        },
        {
          "Name": "FEC counts",
          "ParameterKey": "Fec",
          "Description": "Average counts per spin in the  fast event counter",
          "Caveats": "The TIMAS detector has a non  linear response at high count  rates that is, to some extent corrected for in the software  that generated the data here. The correction, however introduces  some uncertainty. The FEC count rate is carried as an indication of  the corrections applied to the raw data.",
          "Units": "Counts per spin",
          "ValidMin": "0.0",
          "ValidMax": "1.0E8",
          "FillValue": "-1.0E31",
          "Support": {
            "SupportQuantity": "Other"
          }
        },
        {
          "Name": "Background counts",
          "ParameterKey": "Bcr",
          "Description": "Average background counts per spin",
          "Units": "Counts per spin",
          "ValidMin": "0.0",
          "ValidMax": "1.0E8",
          "FillValue": "-1.0E31",
          "Support": {
            "SupportQuantity": "Other"
          }
        },
        {
          "Name": "Energy Range",
          "ParameterKey": "Energy_range",
          "Description": "TIMAS is operated in one of 3  energy ranges. Energy_Range ID indicates which of the 3 instrumental energy ranges is currently active. Energy Range Identification: 0: Full energy range;  1: Reduced energy range;  2: Low energy range",
          "ValidMin": "0",
          "ValidMax": "3",
          "FillValue": "255",
          "Support": {
            "SupportQuantity": "Other"
          }
        },
        {
          "Name": "Hzero Intervals",
          "ParameterKey": "Intervals",
          "Description": "# of intervals in the po_H0_tim data file included in the average reported here. These values should be compared with X_spins where = H, O He1 and He2",
          "ValidMin": "0",
          "ValidMax": "16",
          "FillValue": "255",
          "Support": {
            "SupportQuantity": "Other"
          }
        },
        {
          "Name": "SCPot Status",
          "ParameterKey": "SCPot_status",
          "Description": "Quality of the SC potential value obtained from EFI: 0=good 99=invalid",
          "ValidMin": "0",
          "ValidMax": "99",
          "FillValue": "255",
          "Support": {
            "SupportQuantity": "Other"
          }
        },
        {
          "Name": "IMF_status",
          "ParameterKey": "IMF_status",
          "Description": "Quality of the IMF_status values: 0=good 99=invalid",
          "ValidMin": "0",
          "ValidMax": "99",
          "FillValue": "255",
          "Support": {
            "SupportQuantity": "Other"
          }
        },
        {
          "Name": "SW Status",
          "ParameterKey": "SW_status",
          "Description": "Quality of the SW data: 0=good 99=invalid",
          "ValidMin": "0",
          "ValidMax": "99",
          "FillValue": "255",
          "Support": {
            "SupportQuantity": "Other"
          }
        },
        {
          "Name": "Mag Status",
          "ParameterKey": "Mag_status",
          "Description": "Quality of the Polar magnetometer data: 0=good 99=invalid",
          "ValidMin": "0",
          "ValidMax": "99",
          "FillValue": "255",
          "Support": {
            "SupportQuantity": "Other"
          }
        },
        {
          "Name": "Orbit Status",
          "ParameterKey": "Orbit_status",
          "Description": "Quality of the Polar ephemeris data: 0=good 99=invalid",
          "ValidMin": "0",
          "ValidMax": "99",
          "FillValue": "255",
          "Support": {
            "SupportQuantity": "Other"
          }
        }
      ]
    }
  }
}