{
  "Spase": {
    "xmlns:xsi": "http://www.w3.org/2001/XMLSchema-instance",
    "xmlns": "http://www.spase-group.org/data/schema",
    "xsi:schemaLocation": "http://www.spase-group.org/data/schema http://www.spase-group.org/data/schema/spase-2_3_0.xsd",
    "Version": "2.3.2",
    "NumericalData": {
      "ResourceID": "spase://NASA/NumericalData/Voyager1/PLS/Jupiter/Electron/CurrentSpectra/LowEnergy/PT96S",
      "ResourceHeader": {
        "ResourceName": "Voyager 1 Plasma Spectrometer (PLS) Faraday Cup D Low Energy Electron Current Spectra, E1 Mode, Electron Energies from 10 eV to 140 eV, 96 s Data",
        "ReleaseDate": "2021-04-27T15:38:11Z",
        "Description": "These Electron Current Spectra in the Jovian Magnetosphere are from the Plasma Spectrometer (PLS) Instrument on Voyager 1 during March 1979 Flyby of Jupiter. The Instrument has four Faraday Cups A, B, C, and D, the Electron Data come only from Faraday Cup D. The Data are specified in Terms of Current per Faraday Cup in femto-amperes (10^-15 A equals 1 fA) versus Channel Number and Energy (eV). This Data Set is for the PLS E1 Mode covering Electron Energies from 10 eV to 140 eV in 16 logarithmic Energy Channels. The PLS Instrument samples only one Mode of Electron (E1, E2) or Ion (L, M) Spectra in each Time Interval, so the E1 Data are not continuous but consecutive with the other Modes in Time. Reference: Bridge, H.S., Belcher, J.W., Butler, R.J., Lazarus, A.J., Mavretic, A.M., Sullivan, J.D., Siscoe, G.L., and V.M. Vasyliunas, The Plasma Experiment on the 1977 Voyager Mission, Space Sci. Rev., 21, 259-287, 1977.",
        "Acknowledgement": "Please acknowledge the Voyager 1 PLS Principal Investigator, J.D. Richardson, from the Massacusetts Institute of Technology for providing the Data. For Public Distribution but Users are advised to contact J.D. Richardson on Questions about how the Data were produced.",
        "Contact": [
          {
            "PersonID": "spase://SMWG/Person/John.D.Richardson",
            "Role": "PrincipalInvestigator"
          },
          {
            "PersonID": "spase://SMWG/Person/Robert.M.Candey",
            "Role": "MetadataContact"
          },
          {
            "PersonID": "spase://SMWG/Person/Lee.Frost.Bargatze",
            "Role": "MetadataContact"
          }
        ],
        "InformationURL": {
          "Name": "Voyager Plasma Science, PLS, Experiment Web Page at the Massachusetts Institute of Technology",
          "URL": "http://web.mit.edu/space/www/voyager/voyager.html",
          "Description": "Voyager Plasma Science Experiment Web Page at MIT"
        },
        "PriorID": "spase://VSPO/NumericalData/Voyager1/PLS/Jupiter/Electron/CurrentSpectra/LowEnergy/PT96S"
      },
      "AccessInformation": [
        {
          "RepositoryID": "spase://SMWG/Repository/NASA/GSFC/SPDF",
          "Availability": "Online",
          "AccessRights": "Open",
          "AccessURL": [
            {
              "Name": "FTPS from SPDF (not with most browsers)",
              "URL": "ftps://spdf.gsfc.nasa.gov/pub/data/voyager/voyager1/plasma_cdaweb/electrons/e1/",
              "Description": "Access to Data in CDF Format via ftp from SPDF"
            },
            {
              "Name": "HTTPS from SPDF",
              "URL": "https://spdf.gsfc.nasa.gov/pub/data/voyager/voyager1/plasma_cdaweb/electrons/e1/",
              "Description": "Access to Data in CDF Format via http from SPDF"
            },
            {
              "Name": "CDAWeb",
              "URL": "https://cdaweb.gsfc.nasa.gov/cgi-bin/eval2.cgi?dataset=VOYAGER1_PLS_ELECTRONS_E1&index=sp_phys",
              "ProductKey": "VOYAGER1_PLS_ELECTRONS_E1",
              "Description": "Access to ASCII, CDF, and Plots via NASA/GSFC CDAWeb"
            }
          ],
          "Format": "CDF",
          "Encoding": "None",
          "Acknowledgement": "Please acknowledge the Voyager 1 PLS Principal Investigator, J.D. Richardson, from the Massacusetts Institute of Technology for providing the Data. For Public Distribution but Users are advised to contact J.D. Richardson on Questions about how the Data were produced. Please acknowledge the Data Providers and CDAWeb when using these Data."
        },
        {
          "RepositoryID": "spase://SMWG/Repository/NASA/GSFC/SPDF",
          "Availability": "Online",
          "AccessRights": "Open",
          "AccessURL": {
            "Name": "CDAWeb HAPI Server",
            "URL": "https://cdaweb.gsfc.nasa.gov/hapi",
            "Style": "HAPI",
            "ProductKey": "VOYAGER1_PLS_ELECTRONS_E1",
            "Description": "Web Service to this product using the HAPI interface."
          },
          "Format": "CSV",
          "Acknowledgement": "Please acknowledge the Voyager 1 PLS Principal Investigator, J.D. Richardson, from the Massacusetts Institute of Technology for providing the Data. For Public Distribution but Users are advised to contact J.D. Richardson on Questions about how the Data were produced. Please acknowledge the Data Providers and CDAWeb when using these Data."
        }
      ],
      "ProcessingLevel": "Calibrated",
      "InstrumentID": "spase://SMWG/Instrument/Voyager1/PLS",
      "MeasurementType": "EnergeticParticles",
      "TemporalDescription": {
        "TimeSpan": {
          "StartDate": "1979-02-28T00:00:00.000",
          "StopDate": "1979-02-28T23:59:59.999"
        },
        "Cadence": "PT96S"
      },
      "ObservedRegion": "Jupiter.Magnetosphere",
      "Parameter": [
        {
          "Name": "CDF Epoch Time",
          "ParameterKey": "Epoch",
          "Description": "CDF Epoch Time for the Event, Format: DD-MON-YYYY HH:MM:SS.SSS",
          "Caveats": "This Parameter exhibits an increasing Monotonic Progression.",
          "Cadence": "PT96S",
          "RenderingHints": {
            "DisplayType": "TimeSeries",
            "AxisLabel": "Epoch",
            "ScaleType": "LinearScale"
          },
          "ValidMin": "01-Jan-1960 00:00:00.000",
          "ValidMax": "31-Dec-2029 23:59:59.999",
          "FillValue": "31-Dec-9999 23:59:59.999",
          "Support": {
            "SupportQuantity": "Temporal"
          }
        },
        {
          "Name": "Integer Year",
          "Set": "Time Series defined by using: EPOCH",
          "ParameterKey": "Year",
          "Description": "Integer Year, Four Digit",
          "Cadence": "PT96S",
          "Units": "a",
          "UnitsConversion": "31536000>s",
          "RenderingHints": {
            "AxisLabel": "Year",
            "ValueFormat": "I8",
            "ScaleType": "LinearScale"
          },
          "ValidMin": "1960",
          "ValidMax": "2200",
          "FillValue": "4294967295",
          "Support": {
            "Qualifier": "Scalar",
            "SupportQuantity": "Temporal"
          }
        },
        {
          "Name": "Month of Year",
          "Set": "Time Series defined by using: EPOCH",
          "ParameterKey": "Month",
          "Description": "Integer Month of Year",
          "Cadence": "PT96S",
          "RenderingHints": {
            "AxisLabel": "Month",
            "ValueFormat": "I2",
            "ScaleType": "LinearScale"
          },
          "ValidMin": "1",
          "ValidMax": "12",
          "FillValue": "4294967295",
          "Support": {
            "Qualifier": "Scalar",
            "SupportQuantity": "Temporal"
          }
        },
        {
          "Name": "Day of the Month",
          "Set": "Time Series defined by using: EPOCH",
          "ParameterKey": "Day",
          "Description": "Integer Day of the Month",
          "Cadence": "PT96S",
          "Units": "d",
          "UnitsConversion": "86400>s",
          "RenderingHints": {
            "AxisLabel": "Day",
            "ValueFormat": "I8",
            "ScaleType": "LinearScale"
          },
          "ValidMin": "0",
          "ValidMax": "31",
          "FillValue": "4294967295",
          "Support": {
            "Qualifier": "Scalar",
            "SupportQuantity": "Temporal"
          }
        },
        {
          "Name": "Hour of the Day",
          "Set": "Time Series defined by using: EPOCH",
          "ParameterKey": "Hour",
          "Description": "Integer Hour of the Day",
          "Cadence": "PT96S",
          "Units": "h",
          "UnitsConversion": "3600>s",
          "RenderingHints": {
            "AxisLabel": "Hour",
            "ValueFormat": "I2",
            "ScaleType": "LinearScale"
          },
          "ValidMin": "0",
          "ValidMax": "23",
          "FillValue": "4294967295",
          "Support": {
            "Qualifier": "Scalar",
            "SupportQuantity": "Temporal"
          }
        },
        {
          "Name": "Integer Minute of the Hour",
          "Set": "Time Series defined by using: EPOCH",
          "ParameterKey": "Minute",
          "Description": "Minute of the Hour",
          "Cadence": "PT96S",
          "Units": "min",
          "UnitsConversion": "60>s",
          "RenderingHints": {
            "AxisLabel": "Min",
            "ValueFormat": "I2",
            "ScaleType": "LinearScale"
          },
          "ValidMin": "0",
          "ValidMax": "59",
          "FillValue": "4294967295",
          "Support": {
            "Qualifier": "Scalar",
            "SupportQuantity": "Temporal"
          }
        },
        {
          "Name": "Integer Second of the Minute",
          "Set": "Time Series defined by using: EPOCH",
          "ParameterKey": "Second",
          "Description": "Second of the Minute",
          "Cadence": "PT96S",
          "Units": "s",
          "RenderingHints": {
            "AxisLabel": "Sec",
            "ValueFormat": "I2",
            "ScaleType": "LinearScale"
          },
          "ValidMin": "0",
          "ValidMax": "59",
          "FillValue": "4294967295",
          "Support": {
            "Qualifier": "Scalar",
            "SupportQuantity": "Temporal"
          }
        },
        {
          "Name": "Integer Millisecond of the Second",
          "Set": "Time Series defined by using: EPOCH",
          "ParameterKey": "Millisecond",
          "Description": "Millisecond of the Second",
          "Cadence": "PT96S",
          "Units": "ms",
          "UnitsConversion": "1.0e-3>s",
          "RenderingHints": {
            "AxisLabel": "MSec",
            "ValueFormat": "I4",
            "ScaleType": "LinearScale"
          },
          "ValidMin": "0",
          "ValidMax": "999",
          "FillValue": "4294967295",
          "Support": {
            "Qualifier": "Scalar",
            "SupportQuantity": "Temporal"
          }
        },
        {
          "Name": "Fraction of the Year",
          "Set": "Time Series defined by using: EPOCH",
          "ParameterKey": "FOY",
          "Description": "Fractional Year",
          "Cadence": "PT96S",
          "Units": "a",
          "UnitsConversion": "31536000>s",
          "RenderingHints": {
            "AxisLabel": "Time",
            "ValueFormat": "F12.6",
            "ScaleType": "LinearScale"
          },
          "ValidMin": "0.0",
          "ValidMax": "1.0",
          "FillValue": "-1.0e+31",
          "Support": {
            "Qualifier": "Scalar",
            "SupportQuantity": "Temporal"
          }
        },
        {
          "Name": "Day of the Year",
          "Set": "Time Series defined by using: EPOCH",
          "ParameterKey": "DOY",
          "Description": "Integer Day of the Year",
          "Cadence": "PT96S",
          "Units": "d",
          "UnitsConversion": "86400>s",
          "RenderingHints": {
            "AxisLabel": "DOY",
            "ValueFormat": "I8",
            "ScaleType": "LinearScale"
          },
          "ValidMin": "0",
          "ValidMax": "366",
          "FillValue": "4294967295",
          "Support": {
            "Qualifier": "Scalar",
            "SupportQuantity": "Temporal"
          }
        },
        {
          "Name": "E1 Mode Electron Current from Faraday Cup D",
          "Set": "Time Series defined by using: EPOCH",
          "ParameterKey": "Electrons",
          "Description": "E1 Mode Electron Current from Faraday Cup D versus Electron Energy from 10 eV to 140 eV",
          "Caveats": "Units: 1 femto-Ampere equals 1 fA or 10^-15 A",
          "Cadence": "PT96S",
          "Units": "fA",
          "RenderingHints": {
            "DisplayType": "TimeSeries",
            "AxisLabel": "Flux",
            "ValueFormat": "E12.6",
            "ScaleType": "LinearScale"
          },
          "Structure": {
            "Size": "16",
            "Element": [
              {
                "Name": "Channel #1 Energy Min - Max: 10.00 eV - 14.48 eV",
                "Index": "1",
                "RenderingHints": {
                  "AxisLabel": "1"
                }
              },
              {
                "Name": "Channel #2 Energy Min - Max: 14.48 eV - 19.30 eV",
                "Index": "2",
                "RenderingHints": {
                  "AxisLabel": "2"
                }
              },
              {
                "Name": "Channel #3 Energy Min - Max: 19.30 eV - 24.48 eV",
                "Index": "3",
                "RenderingHints": {
                  "AxisLabel": "3"
                }
              },
              {
                "Name": "Channel #4 Energy Min - Max: 24.48 eV - 30.04 eV",
                "Index": "4",
                "RenderingHints": {
                  "AxisLabel": "4"
                }
              },
              {
                "Name": "Channel #5 Energy Min - Max: 30.04 eV - 36.02 eV",
                "Index": "5",
                "RenderingHints": {
                  "AxisLabel": "5"
                }
              },
              {
                "Name": "Channel #6 Energy Min - Max: 36.02 eV - 42.44 eV",
                "Index": "6",
                "RenderingHints": {
                  "AxisLabel": "6"
                }
              },
              {
                "Name": "Channel #7 Energy Min - Max: 42.44 eV - 49.35 eV",
                "Index": "7",
                "RenderingHints": {
                  "AxisLabel": "7"
                }
              },
              {
                "Name": "Channel #8 Energy Min - Max: 49.35 eV - 56.77 eV",
                "Index": "8",
                "RenderingHints": {
                  "AxisLabel": "8"
                }
              },
              {
                "Name": "Channel #9 Energy Min - Max: 56.77 eV - 64.75 eV",
                "Index": "9",
                "RenderingHints": {
                  "AxisLabel": "9"
                }
              },
              {
                "Name": "Channel #10 Energy Min - Max: 64.75 eV - 73.32 eV",
                "Index": "10",
                "RenderingHints": {
                  "AxisLabel": "10"
                }
              },
              {
                "Name": "Channel #11 Energy Min - Max: 73.32 eV - 82.53 eV",
                "Index": "11",
                "RenderingHints": {
                  "AxisLabel": "11"
                }
              },
              {
                "Name": "Channel #12 Energy Min - Max: 82.53 eV - 92.43 eV",
                "Index": "12",
                "RenderingHints": {
                  "AxisLabel": "12"
                }
              },
              {
                "Name": "Channel #13 Energy Min - Max: 92.43 eV - 103.07 eV",
                "Index": "13",
                "RenderingHints": {
                  "AxisLabel": "13"
                }
              },
              {
                "Name": "Channel #14 Energy Min - Max: 103.07 eV - 114.51 eV",
                "Index": "14",
                "RenderingHints": {
                  "AxisLabel": "14"
                }
              },
              {
                "Name": "Channel #15 Energy Min - Max: 114.51 eV - 126.79 eV",
                "Index": "15",
                "RenderingHints": {
                  "AxisLabel": "15"
                }
              },
              {
                "Name": "Channel #16 Energy Min - Max: 126.79 eV - 140.00 eV",
                "Index": "16",
                "RenderingHints": {
                  "AxisLabel": "16"
                }
              }
            ]
          },
          "ValidMin": "0.0",
          "ValidMax": "10000.0",
          "FillValue": "-1.0e+31",
          "Field": {
            "Qualifier": "Array",
            "FieldQuantity": "Current"
          }
        },
        {
          "Name": "E1 Mode Electron Energy Channel Number, Low-Energy Resolution",
          "ParameterKey": "Channel",
          "Description": "Energy Channel Number for Electrons in E1 Mode, Low-Energy Resolution",
          "Caveats": "In E1 Mode, there are 16 logarithmic Energy Channels covering 10 eV to 140 eV. The 17 bounding Energies of the 16 Channels are computed from Ei = [60(1.07461)^(i-1) - 50] eV for i from 1 to 17.",
          "Cadence": "PT96S",
          "RenderingHints": {
            "AxisLabel": "Channel Number",
            "ValueFormat": "F5.2",
            "ScaleType": "LinearScale"
          },
          "Structure": {
            "Size": "16"
          },
          "ValidMin": "1.0",
          "ValidMax": "16.0",
          "FillValue": "-1.0e+31",
          "Support": {
            "Qualifier": "Array",
            "SupportQuantity": "InstrumentMode"
          }
        }
      ]
    }
  }
}