{
  "Spase": {
    "xmlns": "http://www.spase-group.org/data/schema",
    "xmlns:xsi": "http://www.w3.org/2001/XMLSchema-instance",
    "xsi:schemaLocation": "http://www.spase-group.org/data/schema  https://www.spase-group.org/data/schema/spase-2_3_2.xsd",
    "Version": "2.3.2",
    "NumericalData": {
      "ResourceID": "spase://NASA/NumericalData/IBEX/Hi/H3/Release14/CG/NOSP/Ram/P3Y",
      "ResourceHeader": {
        "ResourceName": "IBEX High Energy Neutral Atom Imager (ENA-Hi) Data Release-14, Compton Getting corrected, not Survival Probability corrected, Ram direction, West Ecliptic Global Distributed Flux and Flux Power Law Slope Maps, Level H3 (H3), three year average Data",
        "ReleaseDate": "2021-04-27T15:38:11Z",
        "Description": "The Interstellar Boundary Explorer, IBEX, has operated in space since 2008 updating our knowledge of the outer heliosphere and its interaction with the local interstellar medium. Start-time: 2008-12-25. There are currently 15 releases of IBEX-HI and/or IBEX-LO data covering the years from 2009 to 2018.\n\nThis data set is derived from the Release 14 three-year IBEX-Hi map data with two-year overlaps of adjacent maps, 2009-2011, 2010-2012, and so forth through 2015-2017 from ram-direction fluxes with corrections for spacecraft motion, cg: Compton-Getting, but with no corrections, sp, for Energetic Neutral Atom, ENA, survival probability between 1 and 100 AU. The data set parameters include line-of-sight, LOS, integrated pressures computed separately from the Global Distributed Flux, GDF, the Ribbon Flux, and the Total Flux from summing GDF and Ribbon LOS pressures. Additionally there are signal to noise ratios for the GDF, Ribbon, and Total LOS pressures. Finally, there are power law slope values for the GDF differential flux and signal to noise ratios of the slope.\n\nThe IBEX Release 14 data are archived as fully citable data. Please consult IBEX team publications and personnel for further details on production, processing, and usage of these data.\n\nThe data consist of ram-direction sky maps in Solar Ecliptic Longitude, east and west, and Latitude angles for the above parameters.\n\nDetails of the data and enabled science from Release 14 are given in the following journal publication: Schwadron, N. A., et al. 2018, Time Dependence of the IBEX Ribbon and the Globally Distributed Energetic Neutral Atom Flux Using the First 9 Years of Observations, DOI: 10.3847/1538-4365/aae48e.\n\nThe following codes are used to define data set types in the multiple IBEX data releases:\n\n+-----------------------------------------------------------------------------------------------------------------------------------------------------------------+\n| Code    | Code definition                                                                                                                                       |\n|---------|-------------------------------------------------------------------------------------------------------------------------------------------------------|\n| cg      | Compton-Getting corrections have been applied to the data to account for the speed of the spacecraft relative to the direction of arrival of the ENAs |\n| nocg    | no Compton-Getting corrections                                                                                                                        |\n|---------|-------------------------------------------------------------------------------------------------------------------------------------------------------|\n| sp      | survival probability corrections have been applied to the data to account for the loss of ENAs due to radiation pressure, photoionization and         |\n|         | ionization via charge exchange with solar wind protons as they stream through the heliosphere. This correction scales the data out from IBEX at 1 AU  |\n|         | to approximately 100 AU. In the original data this mode is denoted as Tabular.                                                                        |\n| noSP    | no survival probability corrections have been applied to the data                                                                                     |\n|---------|-------------------------------------------------------------------------------------------------------------------------------------------------------|\n| omni    | data from all directions                                                                                                                              |\n| ram     | data was collected when the spacecraft was ramming into the incoming ENAs                                                                             |\n| antiram | data was collected when the spacecraft was moving away from the incoming ENAs                                                                         |\n+-----------------------------------------------------------------------------------------------------------------------------------------------------------------+\n\nThis particular data set denoted in the original ASCII files as:\n\n+------------------------------------------------------------------------------------------------------------------------------------------------------------+\n| Directory Name | File Content Description                                                                                                                  |\n+----------------|-------------------------------------------------------------------------------------------------------------------------------------------+\n| GDFPressure    | Globally Distributed Flux Line-of-Sight Integrated Pressure in pdyne-au/cm^2                                                              |\n| GDFSlope       | Power Law Slope of the differential flux spectrum for the Globally Distributed Flux                                                       |\n| GDFSlopeSN     | Signal/Noise ratio of the GDF differential flux power law slope where noise represents uncertainty                                        |\n| GDFSN          | Globally Distributed Flux Signal/Noise, where Noise is defined as the uncertainty and the Signal is GDF Line-of-Sight integrated pressure |\n| RibbonPressure | Ribbon Line-of-Sight Integrated Pressure in pdyne-au/cm^2                                                                                 |\n| RibbonSN       | Ribbon Signal/Noise, where Noise is defined as the uncertainty and the Signal is GDF Line-of-Sight integrated pressure                    |\n| TotPressure    | Total Pressure in ENA maps including both the GDF and Ribbon. Line-of-Sight Integrated Pressure in pdyne-au/cm^2                          |\n| TotSN          | Total Pressure Signal-to-Noise where noise represents uncertainty and signal represents the Total LOS integrated pressure                 |\n+------------------------------------------------------------------------------------------------------------------------------------------------------------+",
        "Acknowledgement": "Please acknowledge the IBEX Mission Principal Investigator, D.J. McComas of Princeton University.. The IBEX Release 14 data are archived as fully citable data. Please consult IBEX team publications and personnel for further details on production, processing, and usage of these data.",
        "Contact": [
          {
            "PersonID": "spase://SMWG/Person/David.J.McComas",
            "Role": "PrincipalInvestigator"
          },
          {
            "PersonID": "spase://SMWG/Person/Robert.M.Candey",
            "Role": "MetadataContact"
          },
          {
            "PersonID": "spase://SMWG/Person/Lee.Frost.Bargatze",
            "Role": "MetadataContact"
          }
        ],
        "InformationURL": [
          {
            "Name": "IBEX The Interstellar Boundary Explorer mission",
            "URL": "http://ibex.swri.edu",
            "Description": "IBEX Mission, Instrument, and Data Release Descriptions",
            "Language": "en"
          },
          {
            "Name": "IBEX Data Release 14",
            "URL": "http://ibex.swri.edu/ibexpublicdata/Data_Release_14/",
            "Description": "IBEX Data Release-14, IBEX-Hi three-year maps in ASCII list and image formats",
            "Language": "en"
          }
        ],
        "PriorID": "spase://VSPO/NumericalData/IBEX/Hi/H3/Release14/CG/NOSP/Ram/P3Y"
      },
      "AccessInformation": [
        {
          "RepositoryID": "spase://SMWG/Repository/NASA/GSFC/SPDF",
          "Availability": "Online",
          "AccessRights": "Open",
          "AccessURL": [
            {
              "Name": "FTPS from SPDF (not with most browsers)",
              "URL": "ftps://spdf.gsfc.nasa.gov/pub/data/ibex/cdf/h3/release14/ena_hi_press-slope_cg_nosp_ram_3yr",
              "Description": "Access to Data in CDF Format via ftp from SPDF"
            },
            {
              "Name": "HTTPS from SPDF",
              "URL": "https://spdf.gsfc.nasa.gov/pub/data/ibex/cdf/h3/release14/ena_hi_press-slope_cg_nosp_ram_3yr",
              "Description": "Access to Data in CDF Format via http from SPDF"
            },
            {
              "Name": "CDAWeb",
              "URL": "https://cdaweb.gsfc.nasa.gov/cgi-bin/eval2.cgi?dataset=IBEX_H3_ENA_HI_R14_PRESS-SLOPE_CG_NOSP_RAM_3YR&index=sp_phys",
              "ProductKey": "IBEX_H3_ENA_HI_R14_PRESS-SLOPE_CG_NOSP_RAM_3YR",
              "Description": "Access to ASCII, CDF, and Plots via NASA/GSFC CDAWeb"
            }
          ],
          "Format": "CDF",
          "Encoding": "None",
          "Acknowledgement": "Please acknowledge the Principal Investigator D.J. McComas. Please acknowledge the Data Providers and CDAWeb when using these Data."
        },
        {
          "RepositoryID": "spase://SMWG/Repository/NASA/GSFC/SPDF",
          "Availability": "Online",
          "AccessRights": "Open",
          "AccessURL": {
            "Name": "CDAWeb HAPI Server",
            "URL": "https://cdaweb.gsfc.nasa.gov/hapi",
            "Style": "HAPI",
            "ProductKey": "IBEX_H3_ENA_HI_R14_PRESS-SLOPE_CG_NOSP_RAM_3YR",
            "Description": "Web Service to this product using the HAPI interface."
          },
          "Format": "CSV",
          "Acknowledgement": "Please acknowledge the Principal Investigator D.J. McComas. Please acknowledge the Data Providers and CDAWeb when using these Data."
        }
      ],
      "ProcessingLevel": "Calibrated",
      "InstrumentID": "spase://SMWG/Instrument/IBEX/Hi",
      "MeasurementType": "EnergeticParticles",
      "TemporalDescription": {
        "TimeSpan": {
          "StartDate": "2008-12-25T00:00:00.000",
          "StopDate": "2014-12-24T00:00:00.000"
        },
        "Cadence": "P3Y"
      },
      "ObservedRegion": "Heliosphere.Inner",
      "Parameter": [
        {
          "Name": "Epoch Time, start time",
          "ParameterKey": "Epoch",
          "Description": "Epoch Time Tags, start time of the six-month measurement period, expressed by using day-month-year hour:minute:second format, i.e., 01-Jan-1990 00:00:00.000",
          "Caveats": "This Parameter exhibits an increasing Monotonic Progression",
          "Cadence": "P3Y",
          "RenderingHints": {
            "AxisLabel": "Epoch",
            "ValueFormat": "CDF EPOCH TIME",
            "ScaleType": "LinearScale"
          },
          "ValidMin": "01-Jan-1990 00:00:00.000",
          "ValidMax": "31-Dec-2029 23:59:59.999",
          "FillValue": "31-Dec-9999 23:59:59.999",
          "Support": {
            "SupportQuantity": "Temporal"
          }
        },
        {
          "Name": "Epoch2 Time, stop time",
          "ParameterKey": "Epoch2",
          "Description": "Epoch Time Tags, stop time of the six-month measurement period, expressed by using day-month-year hour:minute:second format, i.e., 01-Jan-1990 00:00:00.000",
          "Caveats": "This Parameter exhibits an increasing Monotonic Progression",
          "Cadence": "P3Y",
          "RenderingHints": {
            "AxisLabel": "Epoch2",
            "ValueFormat": "CDF EPOCH TIME",
            "ScaleType": "LinearScale"
          },
          "ValidMin": "01-Jan-1990 00:00:00.000",
          "ValidMax": "31-Dec-2029 23:59:59.999",
          "FillValue": "31-Dec-9999 23:59:59.999",
          "Support": {
            "SupportQuantity": "Temporal"
          }
        },
        {
          "Name": "Start Map Number",
          "Set": "Time series defined by using: EPOCH",
          "ParameterKey": "mapnum",
          "Description": "Start Map Numbber, equential number ranging from 1 to 10 for the six-month maps from the IBEX Data Release 10",
          "Caveats": "Ma through Map 20 cover the ten years of IBEX data collected during the time interval from 2009 to 2018.",
          "Cadence": "P3Y",
          "RenderingHints": {
            "DisplayType": "TimeSeries",
            "AxisLabel": "Start Map Number",
            "ValueFormat": "I5",
            "ScaleType": "LinearScale"
          },
          "ValidMin": "0",
          "ValidMax": "65534",
          "FillValue": "65535",
          "Support": {
            "SupportQuantity": "Other"
          }
        },
        {
          "Name": "Solar Ecliptic Latitude Bin Number",
          "ParameterKey": "latitude_bin",
          "Description": "Solar Ecliptic Latitude Bin Number, an index ranging in value from 1 to 30 that corresponds to 6° latitudinal increments of the current IBEX-HI viewing sector",
          "Caveats": "There are 30 angular bins in Solar Ecliptic Latitude ranging from 0° to 360°. The first Bin, number 1, corresponds t mid-point latitude equal to -87°, the last Bin, number 30, corresponds t mid-point latitude equal to 87°.",
          "Cadence": "P3Y",
          "RenderingHints": {
            "AxisLabel": "#",
            "ValueFormat": "I5",
            "ScaleType": "LinearScale"
          },
          "Structure": {
            "Size": "30"
          },
          "ValidMin": "1",
          "ValidMax": "30",
          "FillValue": "65534",
          "Support": {
            "Qualifier": "Array",
            "SupportQuantity": "Other"
          }
        },
        {
          "Name": "Solar West Ecliptic Longitude Bin Number",
          "ParameterKey": "longitude_bin",
          "Description": "Solar West Ecliptic Longitude Bin Number, an index ranging in value from 1 to 60 that corresponds to 6° longitudinal increments of the current IBEX-HI viewing sector",
          "Caveats": "There are 60 angular sectors in Solar West Ecliptic Longitude ranging from 0° to 360°. The first Bin, number 1, corresponds t mid-point longitude equal to 3°, the last Bin, number 60, corresponds t mid-point longitude equal to 357°.",
          "Cadence": "P3Y",
          "RenderingHints": {
            "AxisLabel": "#",
            "ValueFormat": "I5",
            "ScaleType": "LinearScale"
          },
          "Structure": {
            "Size": "60"
          },
          "ValidMin": "1",
          "ValidMax": "60",
          "FillValue": "65535",
          "Support": {
            "Qualifier": "Array",
            "SupportQuantity": "Other"
          }
        },
        {
          "Name": "Solar Ecliptic Latitude, viewing sector",
          "ParameterKey": "Latitude",
          "Description": "Solar Ecliptic Latitude, the mid-point of the 6° latitudinal IBEX-HI viewing sector",
          "Caveats": "The Latitude values correspond to the mid-point of the 6° latitudinal IBEX-HI viewing sector",
          "Cadence": "P3Y",
          "Units": "°",
          "UnitsConversion": "0.0174532925>rad",
          "CoordinateSystem": {
            "CoordinateRepresentation": "Spherical",
            "CoordinateSystemName": "SE"
          },
          "RenderingHints": {
            "AxisLabel": "Latitude",
            "ValueFormat": "F6.0",
            "ScaleType": "LinearScale"
          },
          "Structure": {
            "Size": "30"
          },
          "ValidMin": "-90.0",
          "ValidMax": "90.0",
          "FillValue": "-1.0e+31",
          "Support": {
            "Qualifier": "Array",
            "SupportQuantity": "Velocity"
          }
        },
        {
          "Name": "Solar West Ecliptic Longitude, viewing sector",
          "ParameterKey": "West_Longitude",
          "Description": "Solar West Ecliptic Longitude, the mid-point of the 6° longitudinal IBEX-HI viewing sector",
          "Caveats": "The West Longitude values correspond to the mid-point of the 6° longitudinal IBEX-HI viewing sector.",
          "Cadence": "P3Y",
          "Units": "°",
          "UnitsConversion": "0.0174532925>rad",
          "CoordinateSystem": {
            "CoordinateRepresentation": "Spherical",
            "CoordinateSystemName": "SE"
          },
          "RenderingHints": {
            "AxisLabel": "SWE Longitude",
            "ValueFormat": "F6.0",
            "ScaleType": "LinearScale"
          },
          "Structure": {
            "Size": "60"
          },
          "ValidMin": "0.0",
          "ValidMax": "360.0",
          "FillValue": "-1.0e+31",
          "Support": {
            "Qualifier": "Array",
            "SupportQuantity": "Velocity"
          }
        },
        {
          "Name": "Solar East Ecliptic Longitude, viewing sector",
          "ParameterKey": "East_Longitude",
          "Description": "Solar East Ecliptic Longitude, the mid-point of the 6° longitudinal IBEX-HI viewing sector",
          "Caveats": "the East Longitude values correspond to the mid-point of the 6° longitudinal IBEX-HI viewing sector.",
          "Cadence": "P3Y",
          "Units": "°",
          "UnitsConversion": "0.0174532925>rad",
          "CoordinateSystem": {
            "CoordinateRepresentation": "Spherical",
            "CoordinateSystemName": "SE"
          },
          "RenderingHints": {
            "AxisLabel": "SEE Longitude",
            "ValueFormat": "F6.0",
            "ScaleType": "LinearScale"
          },
          "Structure": {
            "Size": "60"
          },
          "ValidMin": "0.0",
          "ValidMax": "360.0",
          "FillValue": "-1.0e+31",
          "Support": {
            "Qualifier": "Array",
            "SupportQuantity": "Velocity"
          }
        },
        {
          "Name": "Starting Orbit Number",
          "Set": "Time series defined by using: EPOCH",
          "ParameterKey": "orbit1",
          "Description": "Starting Orbit Number of the measurement period",
          "Caveats": "The IBEX orbital period around the Earth is 7.5 days.",
          "Cadence": "P3Y",
          "RenderingHints": {
            "AxisLabel": "Starting Orbit",
            "ValueFormat": "I5",
            "ScaleType": "LinearScale"
          },
          "ValidMin": "0",
          "ValidMax": "65534",
          "FillValue": "65535",
          "Support": {
            "SupportQuantity": "Other"
          }
        },
        {
          "Name": "Ending Orbit Number",
          "Set": "Time series defined by using: EPOCH",
          "ParameterKey": "orbit2",
          "Description": "Ending Orbit Number of the measurement period",
          "Caveats": "The IBEX orbital period around the Earth is 7.5 days.",
          "Cadence": "P3Y",
          "RenderingHints": {
            "AxisLabel": "Ending Orbit",
            "ValueFormat": "I5",
            "ScaleType": "LinearScale"
          },
          "ValidMin": "0",
          "ValidMax": "65534",
          "FillValue": "65535",
          "Support": {
            "SupportQuantity": "Other"
          }
        },
        {
          "Name": "Starting Year Number",
          "Set": "Time series defined by using: EPOCH",
          "ParameterKey": "year1",
          "Description": "Starting Year Number of the measurement period",
          "Cadence": "P3Y",
          "RenderingHints": {
            "AxisLabel": "Start Year",
            "ValueFormat": "I4",
            "ScaleType": "LinearScale"
          },
          "ValidMin": "0",
          "ValidMax": "4000",
          "FillValue": "65535",
          "Support": {
            "SupportQuantity": "Temporal"
          }
        },
        {
          "Name": "Ending Year Number",
          "Set": "Time series defined by using: EPOCH",
          "ParameterKey": "year2",
          "Description": "Ending Year Number of the measurement period",
          "Cadence": "P3Y",
          "RenderingHints": {
            "AxisLabel": "Stop Year",
            "ValueFormat": "I4",
            "ScaleType": "LinearScale"
          },
          "ValidMin": "0",
          "ValidMax": "4000",
          "FillValue": "65535",
          "Support": {
            "SupportQuantity": "Temporal"
          }
        },
        {
          "Name": "Globally Distributed Flux Line-of-Sight Integrated Pressure",
          "Set": "Time series defined by using: EPOCH",
          "ParameterKey": "GDFPressure",
          "Description": "Globally Distributed Flux, GDF, Line-of-Sight, LOS, Integrated Pressure.\n\n* Column 1 Labels from WEST_LONGITUDE: [ 357, 351, 345, 339, 333, 327, 321, 315, 309, 303, 297, 291, 285, 279, 273, 267, 261, 255, 249, 243, 237, 231, 225, 219, 213, 207, 201, 195, 189, 183, 177, 171, 165, 159, 153, 147, 141, 135, 129, 123, 117, 111, 105, 99, 93, 87, 81, 75, 69, 63, 57, 51, 45, 39, 33, 27, 21, 15, 9, 3].\n* Column 2 Labels from LATITUDE: [ -87, -81, -75, -69, -63, -57, -51, -45, -39, -33, -27, -21, -15, -9, -3, 3, 9, 15, 21, 27, 33, 39, 45, 51, 57, 63, 69, 75, 81, 87].",
          "Caveats": "This particular data set is denoted in the original IBEX ASCII files as ibexdatarelease14/gdfPressure/pmap-yrXXXXtoYYYY.txt for XXXX=2009-2015 and YYYY=2011-2017.",
          "Cadence": "P3Y",
          "Units": "pdyne-au/cm^2",
          "UnitsConversion": "1.495978706961e1>J-m/m^2",
          "RenderingHints": {
            "AxisLabel": "GDF Pressure",
            "ValueFormat": "F12.6",
            "ScaleType": "LinearScale"
          },
          "Structure": {
            "Size": "60 30"
          },
          "FillValue": "-1.0e+31",
          "Particle": {
            "Qualifier": "Array",
            "ParticleQuantity": "Pressure"
          }
        },
        {
          "Name": "Globally Distributed Flux Line-of-Sight Integrated Pressure, Signal/Noise Ratio",
          "Set": "Time series defined by using: EPOCH",
          "ParameterKey": "GDFSN",
          "Description": "Globally Distributed Flux, GDF, Line-of-Sight, LOS, Integrated Pressure, Signal-to-Noise Ratio, where Noise represents the uncertainty and Signal represents the GDF LOS integrated pressure.\n\n* Column 1 Labels from WEST_LONGITUDE: [ 357, 351, 345, 339, 333, 327, 321, 315, 309, 303, 297, 291, 285, 279, 273, 267, 261, 255, 249, 243, 237, 231, 225, 219, 213, 207, 201, 195, 189, 183, 177, 171, 165, 159, 153, 147, 141, 135, 129, 123, 117, 111, 105, 99, 93, 87, 81, 75, 69, 63, 57, 51, 45, 39, 33, 27, 21, 15, 9, 3].\n* Column 2 Labels from LATITUDE: [ -87, -81, -75, -69, -63, -57, -51, -45, -39, -33, -27, -21, -15, -9, -3, 3, 9, 15, 21, 27, 33, 39, 45, 51, 57, 63, 69, 75, 81, 87].",
          "Caveats": "This particular data set is denoted in the original IBEX ASCII files as ibexdatarelease14/gdfSN/pmap-yrXXXXtoYYYY.txt for XXXX=2009-2015 and YYYY= 2011-2017.",
          "Cadence": "P3Y",
          "RenderingHints": {
            "AxisLabel": "GDF Pressure S/N",
            "ValueFormat": "F12.6",
            "ScaleType": "LinearScale"
          },
          "Structure": {
            "Size": "60 30"
          },
          "FillValue": "-1.0e+31",
          "Particle": {
            "Qualifier": [
              "Array",
              "Ratio",
              "Uncertainty"
            ],
            "ParticleQuantity": "Pressure"
          }
        },
        {
          "Name": "Globally Distributed Flux Differential Flux Power Law Slope",
          "Set": "Time series defined by using: EPOCH",
          "ParameterKey": "GDFSlope",
          "Description": "Globally Distributed Flux, GDF, Differential Flux Power Law Slope.\n\n* Column 1 Labels from WEST_LONGITUDE: [ 357, 351, 345, 339, 333, 327, 321, 315, 309, 303, 297, 291, 285, 279, 273, 267, 261, 255, 249, 243, 237, 231, 225, 219, 213, 207, 201, 195, 189, 183, 177, 171, 165, 159, 153, 147, 141, 135, 129, 123, 117, 111, 105, 99, 93, 87, 81, 75, 69, 63, 57, 51, 45, 39, 33, 27, 21, 15, 9, 3].\n* Column 2 Labels from LATITUDE: [ -87, -81, -75, -69, -63, -57, -51, -45, -39, -33, -27, -21, -15, -9, -3, 3, 9, 15, 21, 27, 33, 39, 45, 51, 57, 63, 69, 75, 81, 87].",
          "Caveats": "This particular data set is denoted in the original IBEX ASCII files as ibexdatarelease14/gdfSlope/pmap-yrXXXXtoYYYY.txt for XXXX=2009-2015 and YYYY=2011-2017.",
          "Cadence": "P3Y",
          "RenderingHints": {
            "AxisLabel": "GDF Power Law Slope",
            "ValueFormat": "F12.6",
            "ScaleType": "LinearScale"
          },
          "Structure": {
            "Size": "60 30"
          },
          "FillValue": "-1.0e+31",
          "Particle": {
            "Qualifier": "Array",
            "ParticleQuantity": "Fluence"
          }
        },
        {
          "Name": "Globally Distributed Flux Differential Flux Power Law Slope, Signal/Noise Ratio",
          "Set": "Time series defined by using: EPOCH",
          "ParameterKey": "GDFSlopeSN",
          "Description": "Globally Distributed Flux, GDF, Differential Flux Power Law Slope, Signal-to-Noise Ratio, where Noise represents the uncertainty and Signal represents the GDF Differential Flux Power Law Slope.\n\n* Column 1 Labels from WEST_LONGITUDE: [ 357, 351, 345, 339, 333, 327, 321, 315, 309, 303, 297, 291, 285, 279, 273, 267, 261, 255, 249, 243, 237, 231, 225, 219, 213, 207, 201, 195, 189, 183, 177, 171, 165, 159, 153, 147, 141, 135, 129, 123, 117, 111, 105, 99, 93, 87, 81, 75, 69, 63, 57, 51, 45, 39, 33, 27, 21, 15, 9, 3].\n* Column 2 Labels from LATITUDE: [ -87, -81, -75, -69, -63, -57, -51, -45, -39, -33, -27, -21, -15, -9, -3, 3, 9, 15, 21, 27, 33, 39, 45, 51, 57, 63, 69, 75, 81, 87].",
          "Caveats": "This particular data set is denoted in the original IBEX ASCII files as ibexdatarelease14/gdfSN/pmap-yrXXXXtoYYYY-sn.txt for XXXX=2009-2015 and YYYY=2011-2017.",
          "Cadence": "P3Y",
          "RenderingHints": {
            "AxisLabel": "GDF Power Law Slope S/N",
            "ValueFormat": "F12.6",
            "ScaleType": "LinearScale"
          },
          "Structure": {
            "Size": "60 30"
          },
          "FillValue": "-1.0e+31",
          "Particle": {
            "Qualifier": [
              "Array",
              "Ratio",
              "Uncertainty"
            ],
            "ParticleQuantity": "Fluence"
          }
        },
        {
          "Name": "Ribbon Line-of-Sight Integrated Pressure",
          "Set": "Time series defined by using: EPOCH",
          "ParameterKey": "RibbonPressure",
          "Description": "Ribbon Line-of-Sight, LOS, Integrated Pressure.\n\n* Column 1 Labels from WEST_LONGITUDE: [ 357, 351, 345, 339, 333, 327, 321, 315, 309, 303, 297, 291, 285, 279, 273, 267, 261, 255, 249, 243, 237, 231, 225, 219, 213, 207, 201, 195, 189, 183, 177, 171, 165, 159, 153, 147, 141, 135, 129, 123, 117, 111, 105, 99, 93, 87, 81, 75, 69, 63, 57, 51, 45, 39, 33, 27, 21, 15, 9, 3].\n* Column 2 Labels from LATITUDE: [ -87, -81, -75, -69, -63, -57, -51, -45, -39, -33, -27, -21, -15, -9, -3, 3, 9, 15, 21, 27, 33, 39, 45, 51, 57, 63, 69, 75, 81, 87].",
          "Caveats": "This particular data set is denoted in the original IBEX ASCII files as ibexdatarelease14/ribbonPressure/rmap-yrXXXXtoYYYY.txt for XXXX=2009-2015 and YYYY=2011-2017.",
          "Cadence": "P3Y",
          "Units": "pdyne-au/cm^2",
          "UnitsConversion": "1.495978706961e1>J-m/m^2",
          "RenderingHints": {
            "AxisLabel": "Ribbon Pressure",
            "ValueFormat": "F12.6",
            "ScaleType": "LinearScale"
          },
          "Structure": {
            "Size": "60 30"
          },
          "FillValue": "-1.0e+31",
          "Particle": {
            "Qualifier": "Array",
            "ParticleQuantity": "Pressure"
          }
        },
        {
          "Name": "Ribbon Line-of-Sight Integrated Pressure, Signal/Noise Ratio",
          "Set": "Time series defined by using: EPOCH",
          "ParameterKey": "RibbonSN",
          "Description": "Ribbon Line-of-Sight, LOS, Integrated Pressure, Signal-to-Noise Ratio, where Noise represents the uncertainty and Signal represents the Ribbon LOS integrated pressure.\n\n* Column 1 Labels from WEST_LONGITUDE: [ 357, 351, 345, 339, 333, 327, 321, 315, 309, 303, 297, 291, 285, 279, 273, 267, 261, 255, 249, 243, 237, 231, 225, 219, 213, 207, 201, 195, 189, 183, 177, 171, 165, 159, 153, 147, 141, 135, 129, 123, 117, 111, 105, 99, 93, 87, 81, 75, 69, 63, 57, 51, 45, 39, 33, 27, 21, 15, 9, 3].\n* Column 2 Labels from LATITUDE: [ -87, -81, -75, -69, -63, -57, -51, -45, -39, -33, -27, -21, -15, -9, -3, 3, 9, 15, 21, 27, 33, 39, 45, 51, 57, 63, 69, 75, 81, 87].",
          "Caveats": "This particular data set is denoted in the original IBEX ASCII files as ibexdatarelease14/ribbonSN/rmap-yrXXXXtoYYYY.txt for XXXX=2009-2015 and YYYY=2011-2017.",
          "Cadence": "P3Y",
          "RenderingHints": {
            "AxisLabel": "Ribbon Pressure S/N",
            "ValueFormat": "F12.6",
            "ScaleType": "LinearScale"
          },
          "Structure": {
            "Size": "60 30"
          },
          "FillValue": "-1.0e+31",
          "Particle": {
            "Qualifier": [
              "Array",
              "Ratio",
              "Uncertainty"
            ],
            "ParticleQuantity": "Pressure"
          }
        },
        {
          "Name": "Total Line-of-Sight Integrated Pressure",
          "Set": "Time series defined by using: EPOCH",
          "ParameterKey": "TotalPressure",
          "Description": "Total GDF and Ribbon Line-of-Sight, LOS, Integrated Pressure Sum.\n\n* Column 1 Labels from WEST_LONGITUDE: [ 357, 351, 345, 339, 333, 327, 321, 315, 309, 303, 297, 291, 285, 279, 273, 267, 261, 255, 249, 243, 237, 231, 225, 219, 213, 207, 201, 195, 189, 183, 177, 171, 165, 159, 153, 147, 141, 135, 129, 123, 117, 111, 105, 99, 93, 87, 81, 75, 69, 63, 57, 51, 45, 39, 33, 27, 21, 15, 9, 3].\n* Column 2 Labels from LATITUDE: [ -87, -81, -75, -69, -63, -57, -51, -45, -39, -33, -27, -21, -15, -9, -3, 3, 9, 15, 21, 27, 33, 39, 45, 51, 57, 63, 69, 75, 81, 87].",
          "Caveats": "This particular data set is denoted in the original IBEX ASCII files as ibexdatarelease14/totPressure/fluxmap-yrXXXXtoYYYY.txt for XXXX=2009-2015 and YYYY=2011-2017.",
          "Cadence": "P3Y",
          "Units": "pdyne-au/cm^2",
          "UnitsConversion": "1.495978706961e1>J-m/m^2",
          "RenderingHints": {
            "AxisLabel": "Total Pressure",
            "ValueFormat": "F12.6",
            "ScaleType": "LinearScale"
          },
          "Structure": {
            "Size": "60 30"
          },
          "FillValue": "-1.0e+31",
          "Particle": {
            "Qualifier": "Array",
            "ParticleQuantity": "Pressure"
          }
        },
        {
          "Name": "Total Line-of-Sight Integrated Pressure, Signal/Noise Ratio",
          "Set": "Time series defined by using: EPOCH",
          "ParameterKey": "TotalSN",
          "Description": "Total GDF and Ribbon Line-of-Sight, LOS, Integrated Pressure Sum, Signal-to-Noise Ratio, where Noise represents the uncertainty and Signal represents the Total LOS integrated pressure.\n\n* Column 1 Labels from WEST_LONGITUDE: [ 357, 351, 345, 339, 333, 327, 321, 315, 309, 303, 297, 291, 285, 279, 273, 267, 261, 255, 249, 243, 237, 231, 225, 219, 213, 207, 201, 195, 189, 183, 177, 171, 165, 159, 153, 147, 141, 135, 129, 123, 117, 111, 105, 99, 93, 87, 81, 75, 69, 63, 57, 51, 45, 39, 33, 27, 21, 15, 9, 3].\n* Column 2 Labels from LATITUDE: [ -87, -81, -75, -69, -63, -57, -51, -45, -39, -33, -27, -21, -15, -9, -3, 3, 9, 15, 21, 27, 33, 39, 45, 51, 57, 63, 69, 75, 81, 87].",
          "Caveats": "This particular data set is denoted in the original IBEX ASCII files as ibexdatarelease14/totSN/fluxmap-yrXXXXtoYYYY.txt for XXXX=2009-2015 and YYYY=2011-2017.",
          "Cadence": "P3Y",
          "RenderingHints": {
            "AxisLabel": "Total Pressure S/N",
            "ValueFormat": "F12.6",
            "ScaleType": "LinearScale"
          },
          "Structure": {
            "Size": "60 30"
          },
          "FillValue": "-1.0e+31",
          "Particle": {
            "Qualifier": [
              "Array",
              "Ratio",
              "Uncertainty"
            ],
            "ParticleQuantity": "Pressure"
          }
        }
      ]
    }
  }
}