{
  "Spase": {
    "xmlns": "http://www.spase-group.org/data/schema",
    "xmlns:xsi": "http://www.w3.org/2001/XMLSchema-instance",
    "xsi:schemaLocation": "http://www.spase-group.org/data/schema  https://www.spase-group.org/data/schema/spase-2_3_2.xsd",
    "Version": "2.3.2",
    "NumericalData": {
      "ResourceID": "spase://NASA/NumericalData/RBSP/B/RBSPICE/L2/TOFXPHHHELT",
      "ResourceHeader": {
        "ResourceName": "Van Allen Probe B RBSPICE TOF x PH High Energy Low Time Resolution Hydrogen Rates converted Level-2 data",
        "ReleaseDate": "2021-04-27T15:38:11Z",
        "Description": " This data set contains Van Allen Probe B RBSPICE (Radiation Belt Storm Probes Ion Composition Experiment) TOF x (Time of Flight) pulse height hydrogen and oxygen fluxes that are measured at high-energy and low-time resolution by 6 telescopes in 28 channels from ~0.01-2.0 MeV.  Data are available in physical units (counts/(s*sr*cm^2*MeV)) by telescope in sector order, with spin accumulations plotted at the end of accumulation.  Also available are percentage error of measurement, quality flag, current sector number where each spin is dividied into 36 sectors, duration of the accumulation, current spin number of the spacecraft, orbit number, dipole L value using the SM reference frame, and position of the spacecraft in SM coordinates.",
        "Acknowledgement": "Please acknowledge data provider, Lou Lanzerotti at New Jersey Institute of Technology, and NASA Space Physics Data Facility (SPDF) CDAWeb when using these data.",
        "Contact": [
          {
            "PersonID": "spase://SMWG/Person/Louis.J.Lanzerotti",
            "Role": "PrincipalInvestigator"
          },
          {
            "PersonID": "spase://SMWG/Person/Robert.E.McGuire",
            "Role": "GeneralContact"
          }
        ],
        "InformationURL": [
          {
            "Name": "Current QuickLook & Summary Plots, Instrument Information and All Data",
            "URL": "http://rbspice.ftecs.com/Data.html",
            "Description": "at the RBSPICE Instrument Site"
          },
          {
            "Name": "Interactive Analysis for RBSPICE Data",
            "URL": "http://sd-www.jhuapl.edu/rbspice/MIDL/",
            "Description": "using RBSPICE MIDL"
          },
          {
            "Name": "The Van Allen Probes Home Page",
            "URL": "http://vanallenprobes.jhuapl.edu",
            "Description": "Science Gateway (including Mission Rules of the Road for Data Usage)"
          }
        ],
        "PriorID": [
          "spase://ViRBO/NumericalData/RBSP/B/RBSPICE/LEV-2/TOFXPHHHELT/sub spin resolution",
          "spase://VSPO/NumericalData/RBSP/B/RBSPICE/L2/TOFXPHHHELT"
        ]
      },
      "AccessInformation": [
        {
          "RepositoryID": "spase://SMWG/Repository/NASA/GSFC/SPDF",
          "Availability": "Online",
          "AccessRights": "Open",
          "AccessURL": [
            {
              "Name": "FTPS from SPDF (not with most browsers)",
              "URL": "ftps://spdf.gsfc.nasa.gov/pub/data/rbsp/rbspb/l2/rbspice/tofxphhhelt/",
              "Description": "In CDF via ftp from CDAWeb"
            },
            {
              "Name": "HTTPS from SPDF",
              "URL": "https://spdf.gsfc.nasa.gov/pub/data/rbsp/rbspb/l2/rbspice/tofxphhhelt/",
              "Description": "In CDF via HTTP from SPDF"
            }
          ],
          "Format": "CDF",
          "Acknowledgement": "Please acknowledge the CDAWeb team at GSFC/SPDF."
        },
        {
          "RepositoryID": "spase://SMWG/Repository/NASA/GSFC/SPDF",
          "Availability": "Online",
          "AccessRights": "Open",
          "AccessURL": {
            "Name": "CDAWeb",
            "URL": "https://cdaweb.gsfc.nasa.gov/cgi-bin/eval2.cgi?dataset=RBSP-B-RBSPICE_LEV-2_TOFXPHHHELT&index=sp_phys",
            "ProductKey": "RBSP-B-RBSPICE_LEV-2_TOFXPHHHELT"
          },
          "Format": "CDF"
        },
        {
          "RepositoryID": "spase://SMWG/Repository/NASA/GSFC/SPDF",
          "Availability": "Online",
          "AccessRights": "Open",
          "AccessURL": {
            "Name": "CDAWeb HAPI Server",
            "URL": "https://cdaweb.gsfc.nasa.gov/hapi",
            "Style": "HAPI",
            "ProductKey": "RBSP-B-RBSPICE_LEV-2_TOFXPHHHELT",
            "Description": "Web Service to this product using the HAPI interface."
          },
          "Format": "CSV"
        }
      ],
      "InstrumentID": "spase://SMWG/Instrument/RBSP/B/RBSPICE",
      "MeasurementType": "EnergeticParticles",
      "TemporalDescription": {
        "TimeSpan": {
          "StartDate": "2012-10-29T00:00:20.000Z",
          "StopDate": "2019-10-18T16:30:00Z"
        }
      },
      "Parameter": [
        {
          "Name": "Epoch ",
          "ParameterKey": "Epoch",
          "Description": "Ephemeris Time of the start  of the accumulation for this measurement. ",
          "Caveats": "This is the Ephemeris Time saved as a TT2000 CDF Variable.  The difference between the ET value and the TT value is less than a millisecond.  The ET time values have an accuracy of no greater than 3 milliseconds hence it was determined that there was no reason to convert the ET values into TT. ",
          "Units": "ns ",
          "Mixed": {
            "MixedQuantity": "Other"
          }
        },
        {
          "Name": "UTC ",
          "ParameterKey": "UTC",
          "Description": "The time of the start of the measurement in as a UTC time string (CCYY-DOYTHH:MM:SS.hhh) ",
          "Units": "seconds ",
          "Mixed": {
            "MixedQuantity": "Other"
          }
        },
        {
          "Name": "SCLOCK_Full ",
          "ParameterKey": "SCLOCK_Full",
          "Description": "The time at the start of the measurement of the Spacecraft Clock as (#/Ticks:Fine) ",
          "Units": "ticks ",
          "Mixed": {
            "MixedQuantity": "Other"
          }
        },
        {
          "Name": "ET ",
          "ParameterKey": "ET",
          "Description": "The ephemeris time at the start of the measurement. ",
          "Units": "seconds ",
          "Mixed": {
            "MixedQuantity": "Other"
          }
        },
        {
          "Name": "MidET ",
          "ParameterKey": "MidET",
          "Description": "The ephemeris time at the mid-point of the measurement. For multi-spin measurements the midET is centered so that it properly represents the time to be used to calculate the look direction of the instrument. ",
          "Units": "seconds ",
          "Mixed": {
            "MixedQuantity": "Other"
          }
        },
        {
          "Name": "StopET ",
          "ParameterKey": "StopET",
          "Description": "The ephemeris time at the end of the accumulation of the measurement ",
          "Units": "seconds ",
          "Mixed": {
            "MixedQuantity": "Other"
          }
        },
        {
          "Name": "Telescope ",
          "ParameterKey": "Telescope",
          "Description": "Identifies the telescope used to collect the measurement ",
          "Structure": {
            "Size": "6"
          },
          "Mixed": {
            "MixedQuantity": "Other"
          }
        },
        {
          "Name": "Channel ",
          "ParameterKey": "Channel",
          "Description": "Identifies the Channel used to collect the measurement ",
          "Structure": {
            "Size": "32"
          },
          "Mixed": {
            "MixedQuantity": "Other"
          }
        },
        {
          "Name": "Energy ",
          "ParameterKey": "FPDU_Energy_Fixed",
          "Description": "Midpoint energy of the measurement channel. A value of -1 indicates that an energy definition for this channel is not applicable ",
          "Caveats": "TJK changed this to be a single array vs. 6x64 since all values for the 6 telescopes are the same and this is what the display s/w is expecting.  ",
          "Units": "MeV ",
          "Structure": {
            "Size": "32"
          },
          "Mixed": {
            "MixedQuantity": "Other"
          }
        },
        {
          "Name": "FPDU ",
          "ParameterKey": "FPDU",
          "Description": "FPDU: Proton flux spectrograms in energy, by telescope in sector order (multi-spin accums plotted at end of accum) ",
          "Caveats": "The Proton component is measured in the last 20 channels of this data product. The frst 11 channels and last channel have values of a default value. ",
          "Units": "1/(MeV-cm^2-s-sr) ",
          "Structure": {
            "Size": "6 32"
          },
          "Mixed": {
            "MixedQuantity": "Other"
          }
        },
        {
          "Name": "FPDU ",
          "ParameterKey": "FPDU_I",
          "Description": "Telescope-energy images ",
          "Units": "1/(MeV-cm^2-s-sr) ",
          "Structure": {
            "Size": "6 32"
          },
          "Mixed": {
            "MixedQuantity": "Other"
          }
        },
        {
          "Name": "FPDU_Error ",
          "ParameterKey": "FPDU_Error",
          "Description": "The percentage error of the measurement. ",
          "Structure": {
            "Size": "6 32"
          },
          "Mixed": {
            "MixedQuantity": "Other"
          }
        },
        {
          "Name": "FPDU_Crosscalib_RMSE ",
          "ParameterKey": "FPDU_Crosscalib_RMSE",
          "Description": "RMS Error of the natural log of the flux for each channel. ",
          "Caveats": "This error value includes all errors associated with the measurement including cross calibration errors ",
          "Structure": {
            "Size": "6 32"
          },
          "Mixed": {
            "MixedQuantity": "Other"
          }
        },
        {
          "Name": "FPDU_Quality ",
          "ParameterKey": "FPDU_Quality",
          "Description": "Quality flag for the measurement for each telescope/channel/timestep. .see PREBM standards for definition ",
          "Units": "(10=OK) ",
          "Structure": {
            "Size": "6 32"
          },
          "Mixed": {
            "MixedQuantity": "Other"
          }
        },
        {
          "Name": "Sector ",
          "ParameterKey": "Sector",
          "Description": "The current sector number where each spin is divided into 36 sectors. ",
          "Mixed": {
            "MixedQuantity": "Other"
          }
        },
        {
          "Name": "Duration ",
          "ParameterKey": "Duration",
          "Description": "Duration of the accumulation. ",
          "Units": "Seconds ",
          "Mixed": {
            "MixedQuantity": "Other"
          }
        },
        {
          "Name": "Spin ",
          "ParameterKey": "Spin",
          "Description": "The current spin number of the spacecraft ",
          "Mixed": {
            "MixedQuantity": "Other"
          }
        },
        {
          "Name": "FPDU_Energy ",
          "ParameterKey": "FPDU_Energy",
          "Description": "Midpoint energy of the measurement channel. A value of -1 indicates that an energy definition for this channel is not applicable ",
          "Units": "MeV ",
          "Structure": {
            "Size": "6 32"
          },
          "Mixed": {
            "MixedQuantity": "Other"
          }
        },
        {
          "Name": "FPDU_EnergyRange ",
          "ParameterKey": "FPDU_EnergyRange",
          "Description": "Minimum and Maximum energy of the measurement channel. A value of -1 indicates that either an energy definition for this channel is not applicable or that the upper end of the channel is undefined - i.e. the channel becomes integral. ",
          "Units": "MeV ",
          "Structure": {
            "Size": "6 2 32"
          },
          "Mixed": {
            "MixedQuantity": "Other"
          }
        },
        {
          "Name": "Energy ",
          "ParameterKey": "FODU_Energy_Fixed",
          "Description": "Midpoint energy of the measurement channel. A value of -1 indicates that an energy definition for this channel is not applicable ",
          "Caveats": "TJK changed this to be a single array vs. 6x32 since all values for the 6 telescopes are the same and this is what the display s/w is expecting.  ",
          "Units": "MeV ",
          "Structure": {
            "Size": "32"
          },
          "Mixed": {
            "MixedQuantity": "Other"
          }
        },
        {
          "Name": "FODU ",
          "ParameterKey": "FODU",
          "Description": "FODU: Oxygen flux spectrograms in energy, by telescope in sector order (multi-spin accums plotted at end of accum) ",
          "Caveats": "The Oxygen component is measured in first 11 channels of this data product. The last 22 channels have values of a default value. ",
          "Units": "1/(MeV-cm^2-s-sr) ",
          "Structure": {
            "Size": "6 32"
          },
          "Mixed": {
            "MixedQuantity": "Other"
          }
        },
        {
          "Name": "FODU ",
          "ParameterKey": "FODU_I",
          "Description": "Telescope-energy images ",
          "Units": "1/(MeV-cm^2-s-sr) ",
          "Structure": {
            "Size": "6 32"
          },
          "Mixed": {
            "MixedQuantity": "Other"
          }
        },
        {
          "Name": "FODU_Error ",
          "ParameterKey": "FODU_Error",
          "Description": "The percentage error of the measurement. ",
          "Structure": {
            "Size": "6 32"
          },
          "Mixed": {
            "MixedQuantity": "Other"
          }
        },
        {
          "Name": "FODU_Crosscalib_RMSE ",
          "ParameterKey": "FODU_Crosscalib_RMSE",
          "Description": "RMS Error of the natural log of the flux for each channel. ",
          "Caveats": "This error value includes all errors associated with the measurement including cross calibration errors ",
          "Structure": {
            "Size": "6 32"
          },
          "Mixed": {
            "MixedQuantity": "Other"
          }
        },
        {
          "Name": "FODU_Quality ",
          "ParameterKey": "FODU_Quality",
          "Description": "Quality flag for the measurement for each telescope/channel/timestep. .see PREBM standards for definition ",
          "Units": "(10=OK) ",
          "Structure": {
            "Size": "6 32"
          },
          "Mixed": {
            "MixedQuantity": "Other"
          }
        },
        {
          "Name": "OrbitNumber ",
          "ParameterKey": "OrbitNumber",
          "Description": "Orbit Number at the time of the measurement ",
          "Mixed": {
            "MixedQuantity": "Other"
          }
        },
        {
          "Name": "L ",
          "ParameterKey": "L",
          "Description": "Dipole L value calculated using the SM Reference Frame and taken from the definitive SPICE SPK kernels that are available at the time.  ",
          "Units": "EarthRadii ",
          "Mixed": {
            "MixedQuantity": "Other"
          }
        },
        {
          "Name": "Position_SM ",
          "ParameterKey": "Position_SM",
          "Description": "Position of the spacecraft in SM coordinates ",
          "Units": "EarthRadii ",
          "Structure": {
            "Size": "3"
          },
          "Mixed": {
            "MixedQuantity": "Other"
          }
        },
        {
          "Name": "OrbitNumber ",
          "ParameterKey": "OrbitNumber_TT",
          "Description": "[Labels on plots] Orbit Number at the time of the measurement ",
          "Mixed": {
            "MixedQuantity": "Other"
          }
        },
        {
          "Name": "L ",
          "ParameterKey": "L_TT",
          "Description": "[Labels on plots] Dipole L value calculated using the SM Reference Frame and taken from the definitive SPICE SPK kernels that are available at the time.  ",
          "Units": "EarthRadii ",
          "Mixed": {
            "MixedQuantity": "Other"
          }
        },
        {
          "Name": "Position_SM ",
          "ParameterKey": "Position_SM_TT",
          "Description": "[Labels on plots] Position of the spacecraft in SM coordinates ",
          "Units": "EarthRadii ",
          "Structure": {
            "Size": "3"
          },
          "Mixed": {
            "MixedQuantity": "Other"
          }
        },
        {
          "Name": "FODU_Energy ",
          "ParameterKey": "FODU_Energy",
          "Description": "Midpoint energy of the measurement channel. A value of -1 indicates that an energy definition for this channel is not applicable ",
          "Units": "MeV ",
          "Structure": {
            "Size": "6 32"
          },
          "Mixed": {
            "MixedQuantity": "Other"
          }
        },
        {
          "Name": "FODU_EnergyRange ",
          "ParameterKey": "FODU_EnergyRange",
          "Description": "Minimum and Maximum energy of the measurement channel. A value of -1 indicates that either an energy definition for this channel is not applicable or that the upper end of the channel is undefined - i.e. the channel becomes integral. ",
          "Units": "MeV ",
          "Structure": {
            "Size": "6 2 32"
          },
          "Mixed": {
            "MixedQuantity": "Other"
          }
        }
      ]
    }
  }
}