{
  "Spase": {
    "xmlns": "http://www.spase-group.org/data/schema",
    "xmlns:xsi": "http://www.w3.org/2001/XMLSchema-instance",
    "xsi:schemaLocation": "http://www.spase-group.org/data/schema  https://www.spase-group.org/data/schema/spase-2_3_2.xsd",
    "Version": "2.3.2",
    "NumericalData": {
      "ResourceID": "spase://NASA/NumericalData/RBSP/B/EFW/L2/FBK/PT0.125S",
      "ResourceHeader": {
        "ResourceName": "Van Allen Probe B EFW Filterbank Data",
        "ReleaseDate": "2021-04-27T15:38:11Z",
        "Description": "This data set contains Level 2 filterbank data from the Electric Field and Waves Suite (EFW) onboard Van Allen Probe B.  Average power and peak amplitudes from either 7 (default) or 13 logarithmically spaced band-pass ï¬lters are measured between 0.8 Hz and 6.5 kHz sampled at a cadence of 8 samples/s. Two sources may be input into the ï¬lter banks at any one time.  The possible sources include:.E12DC,E34DC,E56DC,.E12AC,E34AC,E56AC,.SCMU,SCMV,SCMW.(V1DC+V2DC+V3DC+V4DC)/4. In the default mode, V12ac, the AC coupled measurement of the electric ï¬eld from sensors 1 and 2 in the spin plane is input into the first ï¬lter bank and SCMw, the spin axis component of the search coil magnetic ï¬eld, serves as input into the second ï¬lter bank. The broadband ï¬lters provide a continuous stream of survey mode measurements over the entire orbit providing information on rapid time variations and bursty wave activity over a broad frequency spectrum. These measurements are also used as an input to burst trigger algorithms.\n\nAll these quantities, the nature of the on board signal processing, their filtering, time resolution and their respective coordinate systems are described in the EFW instrument paper (Wygant et al. 2013). ",
        "Acknowledgement": "NASA Space Physics Data Facility (SPDF) CDAWeb.",
        "Contact": [
          {
            "PersonID": "spase://SMWG/Person/John.R.Wygant",
            "Role": "PrincipalInvestigator"
          },
          {
            "PersonID": "spase://SMWG/Person/Robert.E.McGuire",
            "Role": "GeneralContact"
          }
        ],
        "InformationURL": [
          {
            "Name": "EFW home page at the University of Minnesota",
            "URL": "http://rbsp.space.umn.edu",
            "Description": "EFW Data Required Reading"
          },
          {
            "Name": "The Van Allen Probes Home Page",
            "URL": "http://vanallenprobes.jhuapl.edu",
            "Description": "Science Gateway (including Mission Rules of the Road for Data Usage)"
          }
        ],
        "PriorID": [
          "spase://VSPO/NumericalData/RBSP/B/EFW/L2_FBK/PT0.125S",
          "spase://ViRBO/NumericalData/RBSP/B/EFW/L2/FBK/UTC",
          "spase://VSPO/NumericalData/RBSP/B/EFW/L2/FBK/PT0.125S"
        ]
      },
      "AccessInformation": [
        {
          "RepositoryID": "spase://SMWG/Repository/NASA/GSFC/SPDF",
          "Availability": "Online",
          "AccessRights": "Open",
          "AccessURL": [
            {
              "Name": "FTPS from SPDF (not with most browsers)",
              "URL": "ftps://spdf.gsfc.nasa.gov/pub/data/rbsp/rbspb/l2/efw/fbk/",
              "Description": "In CDF via ftp from CDAWeb"
            },
            {
              "Name": "HTTPS from SPDF",
              "URL": "https://spdf.gsfc.nasa.gov/pub/data/rbsp/rbspb/l2/efw/fbk/",
              "Description": "In CDF via HTTP from SPDF"
            }
          ],
          "Format": "CDF",
          "Acknowledgement": "Please acknowledge the PI and the CDAWeb team at GSFC/SPDF."
        },
        {
          "RepositoryID": "spase://SMWG/Repository/NASA/GSFC/SPDF",
          "Availability": "Online",
          "AccessRights": "Open",
          "AccessURL": {
            "Name": "CDAWeb",
            "URL": "https://cdaweb.gsfc.nasa.gov/cgi-bin/eval2.cgi?dataset=RBSPB_EFW-L2_FBK&index=sp_phys",
            "ProductKey": "RBSPB_EFW-L2_FBK"
          },
          "Format": "Text"
        },
        {
          "RepositoryID": "spase://SMWG/Repository/NASA/GSFC/SPDF",
          "Availability": "Online",
          "AccessRights": "Open",
          "AccessURL": {
            "Name": "CDAWeb HAPI Server",
            "URL": "https://cdaweb.gsfc.nasa.gov/hapi",
            "Style": "HAPI",
            "ProductKey": [
              "RBSPB_EFW-L2_FBK@0",
              "RBSPB_EFW-L2_FBK@1"
            ],
            "Description": "Web Service to this product using the HAPI interface."
          },
          "Format": "CSV"
        }
      ],
      "InstrumentID": "spase://SMWG/Instrument/RBSP/B/EFW",
      "MeasurementType": [
        "ElectricField",
        "Waves",
        "Spectrum"
      ],
      "TemporalDescription": {
        "TimeSpan": {
          "StartDate": "2012-09-05T15:01:53.000Z",
          "StopDate": "2019-10-18T16:30:00Z"
        }
      },
      "Parameter": [
        {
          "Name": "fbk13_fcenter ",
          "ParameterKey": "fbk13_fcenter",
          "Description": "fbk13_fcenter ",
          "Caveats": "High frequency bound for the FBK 13 bins ",
          "Units": "Hz ",
          "Structure": {
            "Size": "13"
          },
          "Mixed": {
            "MixedQuantity": "Other"
          }
        },
        {
          "Name": "fbk7_fcenter2 ",
          "ParameterKey": "fbk7_fcenter",
          "Description": "fbk7_fcenter2 ",
          "Caveats": "Center frequency for the FBK 7 bins ",
          "Units": "Hz ",
          "Structure": {
            "Size": "7"
          },
          "Mixed": {
            "MixedQuantity": "Other"
          }
        },
        {
          "Name": "fbk13_compno ",
          "ParameterKey": "fbk13_compno",
          "Description": "fbk13_compno ",
          "Structure": {
            "Size": "13"
          },
          "Mixed": {
            "MixedQuantity": "Other"
          }
        },
        {
          "Name": "fbk7_compno ",
          "ParameterKey": "fbk7_compno",
          "Description": "fbk7_compno ",
          "Structure": {
            "Size": "7"
          },
          "Mixed": {
            "MixedQuantity": "Other"
          }
        },
        {
          "Name": "fbk7_flow ",
          "ParameterKey": "fbk7_flow",
          "Description": "fbk7_flow ",
          "Caveats": "Low frequency bound for the FBK 7 bins ",
          "Structure": {
            "Size": "7"
          },
          "Mixed": {
            "MixedQuantity": "Other"
          }
        },
        {
          "Name": "fbk7_fcenter2 ",
          "ParameterKey": "fbk7_fhigh",
          "Description": "fbk7_fcenter2 ",
          "Caveats": "High frequency bound for the FBK 7 bins ",
          "Structure": {
            "Size": "7"
          },
          "Mixed": {
            "MixedQuantity": "Other"
          }
        },
        {
          "Name": "fbk13_flow ",
          "ParameterKey": "fbk13_flow",
          "Description": "fbk13_flow ",
          "Caveats": "Low frequency bound for the FBK 13 bins ",
          "Units": "Hz ",
          "Structure": {
            "Size": "13"
          },
          "Mixed": {
            "MixedQuantity": "Other"
          }
        },
        {
          "Name": "fbk13_fhigh ",
          "ParameterKey": "fbk13_fhigh",
          "Description": "fbk13_fhigh ",
          "Caveats": "High frequency bound for the FBK 13 bins ",
          "Units": "Hz ",
          "Structure": {
            "Size": "13"
          },
          "Mixed": {
            "MixedQuantity": "Other"
          }
        },
        {
          "Name": "Filterbank 13 E12DC peak values ",
          "ParameterKey": "fbk13_e12dc_pk",
          "Description": "Filterbank 13 E12DC peak values ",
          "Units": "mV/m ",
          "Structure": {
            "Size": "13"
          },
          "Mixed": {
            "MixedQuantity": "Other"
          }
        },
        {
          "Name": "Filterbank 13 E12AC peak values ",
          "ParameterKey": "fbk13_e12ac_pk",
          "Description": "Filterbank 13 E12AC peak values ",
          "Units": "mV/m ",
          "Structure": {
            "Size": "13"
          },
          "Mixed": {
            "MixedQuantity": "Other"
          }
        },
        {
          "Name": "Filterbank 13 E56DC peak values ",
          "ParameterKey": "fbk13_e56dc_pk",
          "Description": "Filterbank 13 E56DC peak values ",
          "Units": "mV/m ",
          "Structure": {
            "Size": "13"
          },
          "Mixed": {
            "MixedQuantity": "Other"
          }
        },
        {
          "Name": "Filterbank 13 E34DC peak values ",
          "ParameterKey": "fbk13_e34dc_pk",
          "Description": "Filterbank 13 E34DC peak values ",
          "Units": "mV/m ",
          "Structure": {
            "Size": "13"
          },
          "Mixed": {
            "MixedQuantity": "Other"
          }
        },
        {
          "Name": "Filterbank 13 E34AC peak values ",
          "ParameterKey": "fbk13_e34ac_pk",
          "Description": "Filterbank 13 E34AC peak values ",
          "Units": "mV/m ",
          "Structure": {
            "Size": "13"
          },
          "Mixed": {
            "MixedQuantity": "Other"
          }
        },
        {
          "Name": "Filterbank 13 E56AC peak values ",
          "ParameterKey": "fbk13_e56ac_pk",
          "Description": "Filterbank 13 E56AC peak values ",
          "Units": "mV/m ",
          "Structure": {
            "Size": "13"
          },
          "Mixed": {
            "MixedQuantity": "Other"
          }
        },
        {
          "Name": "Filterbank 13 SCMu peak values ",
          "ParameterKey": "fbk13_scmu_pk",
          "Description": "Filterbank 13 SCMu peak values ",
          "Units": "nT ",
          "Structure": {
            "Size": "13"
          },
          "Mixed": {
            "MixedQuantity": "Other"
          }
        },
        {
          "Name": "Filterbank 13 SCMv peak values ",
          "ParameterKey": "fbk13_scmv_pk",
          "Description": "Filterbank 13 SCMv peak values ",
          "Units": "nT ",
          "Structure": {
            "Size": "13"
          },
          "Mixed": {
            "MixedQuantity": "Other"
          }
        },
        {
          "Name": "Filterbank 13 SCMw peak values ",
          "ParameterKey": "fbk13_scmw_pk",
          "Description": "Filterbank 13 SCMw peak values ",
          "Units": "nT ",
          "Structure": {
            "Size": "13"
          },
          "Mixed": {
            "MixedQuantity": "Other"
          }
        },
        {
          "Name": "Filterbank 13 (v1+v2+v3+v4)/4 peak values ",
          "ParameterKey": "fbk13_v1v2v3v4_avg_pk",
          "Description": "Filterbank 13 (v1+v2+v3+v4)/4 peak values ",
          "Units": "Volts ",
          "Structure": {
            "Size": "13"
          },
          "Mixed": {
            "MixedQuantity": "Other"
          }
        },
        {
          "Name": "Filterbank 7 E12DC peak values ",
          "ParameterKey": "fbk7_e12dc_pk",
          "Description": "Filterbank 7 E12DC peak values ",
          "Units": "mV/m ",
          "Structure": {
            "Size": "7"
          },
          "Mixed": {
            "MixedQuantity": "Other"
          }
        },
        {
          "Name": "Filterbank 7 E12AC peak values ",
          "ParameterKey": "fbk7_e12ac_pk",
          "Description": "Filterbank 7 E12AC peak values ",
          "Units": "mV/m ",
          "Structure": {
            "Size": "7"
          },
          "Mixed": {
            "MixedQuantity": "Other"
          }
        },
        {
          "Name": "Filterbank 7 E34DC peak values ",
          "ParameterKey": "fbk7_e34dc_pk",
          "Description": "Filterbank 7 E34DC peak values ",
          "Units": "mV/m ",
          "Structure": {
            "Size": "7"
          },
          "Mixed": {
            "MixedQuantity": "Other"
          }
        },
        {
          "Name": "Filterbank 7 E34AC peak values ",
          "ParameterKey": "fbk7_e34ac_pk",
          "Description": "Filterbank 7 E34AC peak values ",
          "Units": "mV/m ",
          "Structure": {
            "Size": "7"
          },
          "Mixed": {
            "MixedQuantity": "Other"
          }
        },
        {
          "Name": "Filterbank 7 E56DC peak values ",
          "ParameterKey": "fbk7_e56dc_pk",
          "Description": "Filterbank 7 E56DC peak values ",
          "Units": "mV/m ",
          "Structure": {
            "Size": "7"
          },
          "Mixed": {
            "MixedQuantity": "Other"
          }
        },
        {
          "Name": "Filterbank 7 E56AC peak values ",
          "ParameterKey": "fbk7_e56ac_pk",
          "Description": "Filterbank 7 E56AC peak values ",
          "Units": "mV/m ",
          "Structure": {
            "Size": "7"
          },
          "Mixed": {
            "MixedQuantity": "Other"
          }
        },
        {
          "Name": "Filterbank 7 SCMu peak values ",
          "ParameterKey": "fbk7_scmu_pk",
          "Description": "Filterbank 7 SCMu peak values ",
          "Units": "nT ",
          "Structure": {
            "Size": "7"
          },
          "Mixed": {
            "MixedQuantity": "Other"
          }
        },
        {
          "Name": "Filterbank 7 SCMv peak values ",
          "ParameterKey": "fbk7_scmv_pk",
          "Description": "Filterbank 7 SCMv peak values ",
          "Units": "nT ",
          "Structure": {
            "Size": "7"
          },
          "Mixed": {
            "MixedQuantity": "Other"
          }
        },
        {
          "Name": "Filterbank 7 SCMw peak values ",
          "ParameterKey": "fbk7_scmw_pk",
          "Description": "Filterbank 7 SCMw peak values ",
          "Units": "nT ",
          "Structure": {
            "Size": "7"
          },
          "Mixed": {
            "MixedQuantity": "Other"
          }
        },
        {
          "Name": "Filterbank 7 (v1+v2+v3+v4)/4 peak values ",
          "ParameterKey": "fbk7_v1v2v3v4_avg_pk",
          "Description": "Filterbank 7 (v1+v2+v3+v4)/4 peak values ",
          "Units": "Volts ",
          "Structure": {
            "Size": "7"
          },
          "Mixed": {
            "MixedQuantity": "Other"
          }
        },
        {
          "Name": "Filterbank 13 E12DC average values ",
          "ParameterKey": "fbk13_e12dc_av",
          "Description": "Filterbank 13 E12DC average values ",
          "Units": "mV/m ",
          "Structure": {
            "Size": "13"
          },
          "Mixed": {
            "MixedQuantity": "Other"
          }
        },
        {
          "Name": "Filterbank 13 E12AC average values ",
          "ParameterKey": "fbk13_e12ac_av",
          "Description": "Filterbank 13 E12AC average values ",
          "Units": "mV/m ",
          "Structure": {
            "Size": "13"
          },
          "Mixed": {
            "MixedQuantity": "Other"
          }
        },
        {
          "Name": "Filterbank 13 E56DC average values ",
          "ParameterKey": "fbk13_e56dc_av",
          "Description": "Filterbank 13 E56DC average values ",
          "Units": "mV/m ",
          "Structure": {
            "Size": "13"
          },
          "Mixed": {
            "MixedQuantity": "Other"
          }
        },
        {
          "Name": "Filterbank 13 E34DC average values ",
          "ParameterKey": "fbk13_e34dc_av",
          "Description": "Filterbank 13 E34DC average values ",
          "Units": "mV/m ",
          "Structure": {
            "Size": "13"
          },
          "Mixed": {
            "MixedQuantity": "Other"
          }
        },
        {
          "Name": "Filterbank 13 E34AC average values ",
          "ParameterKey": "fbk13_e34ac_av",
          "Description": "Filterbank 13 E34AC average values ",
          "Units": "mV/m ",
          "Structure": {
            "Size": "13"
          },
          "Mixed": {
            "MixedQuantity": "Other"
          }
        },
        {
          "Name": "Filterbank 13 E56AC average values ",
          "ParameterKey": "fbk13_e56ac_av",
          "Description": "Filterbank 13 E56AC average values ",
          "Units": "mV/m ",
          "Structure": {
            "Size": "13"
          },
          "Mixed": {
            "MixedQuantity": "Other"
          }
        },
        {
          "Name": "Filterbank 13 SCMu average values ",
          "ParameterKey": "fbk13_scmu_av",
          "Description": "Filterbank 13 SCMu average values ",
          "Units": "nT ",
          "Structure": {
            "Size": "13"
          },
          "Mixed": {
            "MixedQuantity": "Other"
          }
        },
        {
          "Name": "Filterbank 13 SCMv average values ",
          "ParameterKey": "fbk13_scmv_av",
          "Description": "Filterbank 13 SCMv average values ",
          "Units": "nT ",
          "Structure": {
            "Size": "13"
          },
          "Mixed": {
            "MixedQuantity": "Other"
          }
        },
        {
          "Name": "Filterbank 13 SCMw average values ",
          "ParameterKey": "fbk13_scmw_av",
          "Description": "Filterbank 13 SCMw average values ",
          "Units": "nT ",
          "Structure": {
            "Size": "13"
          },
          "Mixed": {
            "MixedQuantity": "Other"
          }
        },
        {
          "Name": "Filterbank 13 (v1+v2+v3+v4)/4 average values ",
          "ParameterKey": "fbk13_v1v2v3v4_avg_av",
          "Description": "Filterbank 13 (v1+v2+v3+v4)/4 average values ",
          "Units": "Volts ",
          "Structure": {
            "Size": "13"
          },
          "Mixed": {
            "MixedQuantity": "Other"
          }
        },
        {
          "Name": "Filterbank 7 E12DC average values ",
          "ParameterKey": "fbk7_e12dc_av",
          "Description": "Filterbank 7 E12DC average values ",
          "Units": "mV/m ",
          "Structure": {
            "Size": "7"
          },
          "Mixed": {
            "MixedQuantity": "Other"
          }
        },
        {
          "Name": "Filterbank 7 E12AC average values ",
          "ParameterKey": "fbk7_e12ac_av",
          "Description": "Filterbank 7 E12AC average values ",
          "Units": "mV/m ",
          "Structure": {
            "Size": "7"
          },
          "Mixed": {
            "MixedQuantity": "Other"
          }
        },
        {
          "Name": "Filterbank 7 E34DC average values ",
          "ParameterKey": "fbk7_e34dc_av",
          "Description": "Filterbank 7 E34DC average values ",
          "Units": "mV/m ",
          "Structure": {
            "Size": "7"
          },
          "Mixed": {
            "MixedQuantity": "Other"
          }
        },
        {
          "Name": "Filterbank 7 E34AC average values ",
          "ParameterKey": "fbk7_e34ac_av",
          "Description": "Filterbank 7 E34AC average values ",
          "Units": "mV/m ",
          "Structure": {
            "Size": "7"
          },
          "Mixed": {
            "MixedQuantity": "Other"
          }
        },
        {
          "Name": "Filterbank 7 E56DC average values ",
          "ParameterKey": "fbk7_e56dc_av",
          "Description": "Filterbank 7 E56DC average values ",
          "Units": "mV/m ",
          "Structure": {
            "Size": "7"
          },
          "Mixed": {
            "MixedQuantity": "Other"
          }
        },
        {
          "Name": "Filterbank 7 E56AC average values ",
          "ParameterKey": "fbk7_e56ac_av",
          "Description": "Filterbank 7 E56AC average values ",
          "Units": "mV/m ",
          "Structure": {
            "Size": "7"
          },
          "Mixed": {
            "MixedQuantity": "Other"
          }
        },
        {
          "Name": "Filterbank 7 SCMu average values ",
          "ParameterKey": "fbk7_scmu_av",
          "Description": "Filterbank 7 SCMu average values ",
          "Units": "nT ",
          "Structure": {
            "Size": "7"
          },
          "Mixed": {
            "MixedQuantity": "Other"
          }
        },
        {
          "Name": "Filterbank 7 SCMv average values ",
          "ParameterKey": "fbk7_scmv_av",
          "Description": "Filterbank 7 SCMv average values ",
          "Units": "nT ",
          "Structure": {
            "Size": "7"
          },
          "Mixed": {
            "MixedQuantity": "Other"
          }
        },
        {
          "Name": "Filterbank 7 SCMw average values ",
          "ParameterKey": "fbk7_scmw_av",
          "Description": "Filterbank 7 SCMw average values ",
          "Units": "nT ",
          "Structure": {
            "Size": "7"
          },
          "Mixed": {
            "MixedQuantity": "Other"
          }
        },
        {
          "Name": "Filterbank 7 (v1+v2+v3+v4)/4 average values ",
          "ParameterKey": "fbk7_v1v2v3v4_avg_av",
          "Description": "Filterbank 7 (v1+v2+v3+v4)/4 average values ",
          "Units": "Volts ",
          "Structure": {
            "Size": "7"
          },
          "Mixed": {
            "MixedQuantity": "Other"
          }
        },
        {
          "Name": "Time, UTC ",
          "ParameterKey": "epoch",
          "Description": "Time, UTC ",
          "Caveats": "Time tags for the survey quantities ",
          "Units": "UTC ",
          "Mixed": {
            "MixedQuantity": "Other"
          }
        },
        {
          "Name": "Time, UTC ",
          "ParameterKey": "epoch_qual",
          "Description": "Timetags for elements of efw_qual ",
          "Caveats": "The elements of efw_qual are determined on a fixed cadence regardless of the nominal cadence of the individual L2 data products, and epoch_qual provides storage for those fixed-cadence time tags.. ",
          "Units": "UTC ",
          "Mixed": {
            "MixedQuantity": "Other"
          }
        },
        {
          "Name": "EFW Data Quality Flags ",
          "ParameterKey": "efw_qual",
          "Description": "An array that indicates a global estimate of EFW data quality, as well as a breakdown of observatory and instrument-level data quality issues that impact the global quality estimate.. ",
          "Caveats": "The quality of EFW data products can be affected by a variety of observatory and instrument-level conditions.  efw_qual is a collection of flags that show the estimate of each of these contributors over time.  ..See the EFW-FAQ (http://rbsp.space.umn.edu/efw_faq.html) for a detailed description of the determination and meaning of each of the elements of efw_qual...If the value of a particular element of efw_qual is not relevant to the quality of a particular data product, it shall receive the value EFW_QUAL_NR (typ. -2)...If the value of a particular element of efw_qual is relevant to the quality of a particular data product but is not known at the time lf L2 data production, it shall receive the value EFW_QUAL_UNK (typ. -1)...A quality value of EFW_QUAL_GOOD (typ. 0) indicates that there are no known issues with the data product due to that particular element of efw_qual...The quality values are meant to be conservative, and values other than EFW_QUAL_GOOD should lead the user back to a member of the EFW instrument team for discussion and advice on the nature of the data quality as needed. ",
          "Structure": {
            "Size": "20"
          },
          "Mixed": {
            "MixedQuantity": "Other"
          }
        },
        {
          "Name": "EFW Quality Flags Components ",
          "ParameterKey": "efw_qual_compno",
          "Description": "Component numbers for EFW data quality flags, efw_qual. ",
          "Caveats": "none. ",
          "Structure": {
            "Size": "20"
          },
          "Mixed": {
            "MixedQuantity": "Other"
          }
        }
      ]
    }
  }
}