{
  "Spase": {
    "xmlns": "http://www.spase-group.org/data/schema",
    "xmlns:xsi": "http://www.w3.org/2001/XMLSchema-instance",
    "xsi:schemaLocation": "http://www.spase-group.org/data/schema  https://www.spase-group.org/data/schema/spase-2_3_2.xsd",
    "Version": "2.3.2",
    "NumericalData": {
      "ResourceID": "spase://NASA/NumericalData/RBSP/A/EMFISIS/MAGNETOMETER/L3/SM/PT1S",
      "ResourceHeader": {
        "ResourceName": "Van Allen Probe A Fluxgate Magnetometer 1 second resolution data in SM coordinates",
        "ReleaseDate": "2021-04-27T15:38:11Z",
        "Description": "Fluxgate magnetometer data - Craig Kletzing (University of Iowa)",
        "Acknowledgement": "NASA Space Physics Data Facility (SPDF) CDAWeb.",
        "Contact": [
          {
            "PersonID": "spase://SMWG/Person/Craig.A.Kletzing",
            "Role": "PrincipalInvestigator"
          },
          {
            "PersonID": "spase://SMWG/Person/Robert.E.McGuire",
            "Role": "GeneralContact"
          }
        ],
        "InformationURL": [
          {
            "Name": "EMFISIS/MAG Release Notes",
            "URL": "http://emfisis.physics.uiowa.edu/data/mag_release_notes",
            "Description": "Current EMFISIS/MAG Issues, Caveats and Production Release Notes"
          },
          {
            "Name": "EMFISIS Instrument Description",
            "URL": "http://emfisis.physics.uiowa.edu/about/instrument",
            "Description": "at Iowa"
          },
          {
            "Name": "The Van Allen Probes Home Page",
            "URL": "http://vanallenprobes.jhuapl.edu",
            "Description": "Science Gateway (including Mission Rules of the Road for Data Usage)"
          }
        ],
        "PriorID": [
          "spase://ViRBO/NumericalData/RBSP/A/EMFISIS/MAGNETOMETER/1SEC-SM/L3/PT1S",
          "spase://ViRBO/NumericalData/RBSP/A/EMFISIS/MAGNETOMETER_1SEC-SM_EMFISIS-L3/PT1S",
          "spase://VSPO/NumericalData/RBSP/A/EMFISIS/SM/PT1S",
          "spase://VSPO/NumericalData/RBSP/A/EMFISIS/MAGNETOMETER/L3/SM/PT1S"
        ]
      },
      "AccessInformation": [
        {
          "RepositoryID": "spase://SMWG/Repository/NASA/GSFC/SPDF",
          "Availability": "Online",
          "AccessRights": "Open",
          "AccessURL": [
            {
              "Name": "FTPS from SPDF (not with most browsers)",
              "URL": "ftps://spdf.gsfc.nasa.gov/pub/data/rbsp/rbspa/l3/emfisis/magnetometer/1sec/sm/",
              "Description": "In CDF via ftp from CDAWeb"
            },
            {
              "Name": "HTTPS from SPDF",
              "URL": "https://spdf.gsfc.nasa.gov/pub/data/rbsp/rbspa/l3/emfisis/magnetometer/1sec/sm/",
              "Description": "In CDF via HTTP from SPDF"
            }
          ],
          "Format": "CDF",
          "Acknowledgement": "Please acknowledge the CDAWeb team at GSFC/SPDF."
        },
        {
          "RepositoryID": "spase://SMWG/Repository/NASA/GSFC/SPDF",
          "Availability": "Online",
          "AccessRights": "Open",
          "AccessURL": {
            "Name": "CDAWeb",
            "URL": "https://cdaweb.gsfc.nasa.gov/cgi-bin/eval2.cgi?dataset=RBSP-A_MAGNETOMETER_1SEC-SM_EMFISIS-L3&index=sp_phys",
            "ProductKey": "RBSP-A_MAGNETOMETER_1SEC-SM_EMFISIS-L3"
          },
          "Format": "Text"
        },
        {
          "RepositoryID": "spase://SMWG/Repository/NASA/GSFC/SPDF",
          "Availability": "Online",
          "AccessRights": "Open",
          "AccessURL": {
            "Name": "CDAWeb HAPI Server",
            "URL": "https://cdaweb.gsfc.nasa.gov/hapi",
            "Style": "HAPI",
            "ProductKey": "RBSP-A_MAGNETOMETER_1SEC-SM_EMFISIS-L3",
            "Description": "Web Service to this product using the HAPI interface."
          },
          "Format": "CSV"
        }
      ],
      "InstrumentID": "spase://SMWG/Instrument/RBSP/A/EMFISIS",
      "MeasurementType": "MagneticField",
      "TemporalDescription": {
        "TimeSpan": {
          "StartDate": "2012-10-08T00:00:00.000Z",
          "StopDate": "2019-10-18T16:30:00Z"
        },
        "Cadence": "PT1S"
      },
      "Parameter": [
        {
          "Name": "Epoch ",
          "ParameterKey": "Epoch",
          "Description": "Default time ",
          "Units": "ns ",
          "Mixed": {
            "MixedQuantity": "Other"
          }
        },
        {
          "Name": "Mag ",
          "ParameterKey": "Mag",
          "Description": "Magnetometer vector in SM ",
          "Units": "nT ",
          "Structure": {
            "Size": "3"
          },
          "Mixed": {
            "MixedQuantity": "Other"
          }
        },
        {
          "Name": "Magnitude ",
          "ParameterKey": "Magnitude",
          "Description": "Average magnitude (average of |B| values in the interval) ",
          "Units": "nT ",
          "Mixed": {
            "MixedQuantity": "Other"
          }
        },
        {
          "Name": "delta ",
          "ParameterKey": "delta",
          "Description": "Latitude (angle delta) of the field vector (where (0,0) is the positive Bx direction) ",
          "Units": "degrees ",
          "Mixed": {
            "MixedQuantity": "Other"
          }
        },
        {
          "Name": "delta ",
          "ParameterKey": "lambda",
          "Description": "Longitude (angle lambda) of the field vector (where (0,0) is the positive Bx direction) ",
          "Units": "degrees ",
          "Mixed": {
            "MixedQuantity": "Other"
          }
        },
        {
          "Name": "B-rms ",
          "ParameterKey": "rms",
          "Description": "B-rms (total standard deviation in B over averaging interval) ",
          "Units": "nT ",
          "Mixed": {
            "MixedQuantity": "Other"
          }
        },
        {
          "Name": "Mag ",
          "ParameterKey": "coordinates",
          "Description": "S/C position vector in SM ",
          "Units": "km ",
          "Structure": {
            "Size": "3"
          },
          "Mixed": {
            "MixedQuantity": "Other"
          }
        },
        {
          "Name": "range_flag ",
          "ParameterKey": "range_flag",
          "Description": "range_flag ",
          "Mixed": {
            "MixedQuantity": "Other"
          }
        },
        {
          "Name": "MET partition ",
          "ParameterKey": "partition",
          "Description": "partition ",
          "Mixed": {
            "MixedQuantity": "Other"
          }
        },
        {
          "Name": "MET ",
          "ParameterKey": "MET",
          "Description": "MET ",
          "Mixed": {
            "MixedQuantity": "Other"
          }
        },
        {
          "Name": "calState_flag ",
          "ParameterKey": "calState",
          "Description": "calState_flag ",
          "Mixed": {
            "MixedQuantity": "Other"
          }
        },
        {
          "Name": "magInvalid_flag ",
          "ParameterKey": "magInvalid",
          "Description": "magInvalid_flag ",
          "Mixed": {
            "MixedQuantity": "Other"
          }
        },
        {
          "Name": "magFill_flag ",
          "ParameterKey": "magFill",
          "Description": "magFill_flag ",
          "Mixed": {
            "MixedQuantity": "Other"
          }
        }
      ]
    }
  }
}