{
  "Spase": {
    "xmlns:xsi": "http://www.w3.org/2001/XMLSchema-instance",
    "xmlns": "http://www.spase-group.org/data/schema",
    "xsi:schemaLocation": "http://www.spase-group.org/data/schema http://www.spase-group.org/data/schema/spase-2_3_0.xsd",
    "Version": "2.3.2",
    "NumericalData": {
      "ResourceID": "spase://NASA/NumericalData/RENU2/COWBOY/ElectricField/PT0.001S",
      "ResourceHeader": {
        "ResourceName": "RENU2 COrnell Wire BOom Yo-yo (COWBOY) Electric Field, High Time Resolution (H0), 1 ms Data",
        "ReleaseDate": "2021-06-21T19:14:57Z",
        "Description": "Rocket Experiment for Neutral Upwelling 2, RENU2, COrnell Wire BOom Yo-yo, COWBOY, Electric Field Measurements",
        "Acknowledgement": "Please acknowledge the Principal Investigators, M.R. Lessard and D.L. Hysell, from the University of New Hampshire and Cornell University, respectively, for providing the Data.",
        "Contact": [
          {
            "PersonID": "spase://SMWG/Person/Marc.R.Lessard",
            "Role": "PrincipalInvestigator"
          },
          {
            "PersonID": "spase://SMWG/Person/David.L.Hysell",
            "Role": "PrincipalInvestigator"
          },
          {
            "PersonID": "spase://SMWG/Person/Robert.M.Candey",
            "Role": "MetadataContact"
          },
          {
            "PersonID": "spase://SMWG/Person/Lee.Frost.Bargatze",
            "Role": "MetadataContact"
          }
        ],
        "InformationURL": [
          {
            "Name": "RENU2 Mission Overview Web Page, UNH",
            "URL": "http://mirl.sr.unh.edu/projects_renu2/projects_renu2.html",
            "Description": "Rocket Experiment for Neutral Upwelling 2, RENU2, Mission Overview Web Page, University of New Hampshire"
          },
          {
            "Name": "RENU2 Instrument Overview Web Page, DU",
            "URL": "https://sites.dartmouth.edu/lynch-rocket-lab/",
            "Description": "Rocket Experiment for Neutral Upwelling 2, RENU2, Instrument Overview Web Page, Lynch Rocket Lab, Dartmouth University"
          },
          {
            "Name": "RENU2 Instrumentation Overview",
            "URL": "http://mirl.sr.unh.edu/projects_renu2/FlightData/FlightData.html",
            "Description": "UNH Web Page for the Instrumentation onboard the RENU2 Sounding Rocket"
          },
          {
            "Name": "RENU2 Overview Lessard et al. (2019) GRL Publication",
            "URL": "https://agupubs.onlinelibrary.wiley.com/doi/epdf/10.1029/2018GL081885",
            "Description": "Lessard, M.R., Fritz, B., Sadler, B., Cohen, I., Kenward, D., Godbole, N., Clemmons, J.H., Hecht, J.H., Lynch, K.A., Harrington, M., Roberts, T.M., Hysell, D., Crowley, G., Sigernes, F., Syrjasuo, M., Ellingson, P., Partamies, N., Moen, J., Clausen, L., Oksavik, K., and T. Yeoman, Overview of the Rocket Experiment for Neutral1, Upwelling Sounding Rocket 2 (RENU2), Geophys. Res. Lett., 46, https://doi.org/10.1029/2018GL081885"
          }
        ],
        "PriorID": "spase://VSPO/NumericalData/RENU2/COWBOY/ElectricField/PT0.001S"
      },
      "AccessInformation": [
        {
          "RepositoryID": "spase://SMWG/Repository/NASA/GSFC/SPDF",
          "Availability": "Online",
          "AccessRights": "Open",
          "AccessURL": [
            {
              "Name": "FTPS from SPDF (not with most browsers)",
              "URL": "ftps://spdf.gsfc.nasa.gov/pub/data/sounding_rockets/renu2/efield/2015",
              "Description": "Access to Data in CDF Format via ftp from SPDF"
            },
            {
              "Name": "HTTPS from SPDF",
              "URL": "https://spdf.gsfc.nasa.gov/pub/data/sounding_rockets/renu2/efield/2015",
              "Description": "Access to Data in CDF Format via http from SPDF"
            },
            {
              "Name": "CDAWeb",
              "URL": "https://cdaweb.gsfc.nasa.gov/cgi-bin/eval2.cgi?dataset=RENU2_H0_EFIELD&index=sp_phys",
              "ProductKey": "RENU2_H0_EFIELD",
              "Description": "Access to ASCII, CDF, and Plots via NASA/GSFC CDAWeb"
            }
          ],
          "Format": "CDF",
          "Encoding": "None",
          "Acknowledgement": "M.R. Lessard, D.L. Hysell: Please acknowledge the Principal Investigators, M.R. Lessard and D.L. Hysell, from the University of New Hampshire and Cornell University, respectively, for providing the Data. Please acknowledge the Data Providers and CDAWeb when using these Data."
        },
        {
          "RepositoryID": "spase://SMWG/Repository/NASA/GSFC/SPDF",
          "Availability": "Online",
          "AccessRights": "Open",
          "AccessURL": {
            "Name": "CDAWeb HAPI Server",
            "URL": "https://cdaweb.gsfc.nasa.gov/hapi",
            "Style": "HAPI",
            "ProductKey": "RENU2_H0_EFIELD",
            "Description": "Web Service to this product using the HAPI interface."
          },
          "Format": "CSV",
          "Acknowledgement": "M.R. Lessard, D.L. Hysell: Please acknowledge the Principal Investigators, M.R. Lessard and D.L. Hysell, from the University of New Hampshire and Cornell University, respectively, for providing the Data. Please acknowledge the Data Providers and CDAWeb when using these Data."
        }
      ],
      "ProcessingLevel": "Calibrated",
      "InstrumentID": "spase://SMWG/Instrument/RENU2/COWBOY",
      "MeasurementType": "ElectricField",
      "TemporalDescription": {
        "TimeSpan": {
          "StartDate": "2015-12-13T00:00:00.000",
          "StopDate": "2015-12-13T23:59:59.999"
        },
        "Cadence": "PT0.001S"
      },
      "ObservedRegion": [
        "Earth.NearSurface.AuroralRegion",
        "Earth.NearSurface.Ionosphere",
        "Earth.NearSurface.Ionosphere.DRegion",
        "Earth.NearSurface.Ionosphere.ERegion",
        "Earth.NearSurface.Ionosphere.FRegion",
        "Earth.NearSurface.Ionosphere.Topside",
        "Earth.NearSurface.PolarCap",
        "Earth.NearSurface.Thermosphere"
      ],
      "Parameter": [
        {
          "Name": "Epoch Time",
          "ParameterKey": "Epoch",
          "Description": "Epoch Time, Terrestrial Time 2000, Interval Centered Time",
          "Caveats": "This Parameter exhibits an increasing Monotonic Progression.",
          "Cadence": "PT0.001S",
          "Units": "ns",
          "UnitsConversion": "1.0e-9>s",
          "RenderingHints": {
            "AxisLabel": "Epoch",
            "ScaleType": "LinearScale"
          },
          "ValidMin": "2015-01-01T00:00:00.000000000",
          "ValidMax": "2016-12-31T23:59:59.999999999",
          "FillValue": "9999-12-31T23:59:59.999999999",
          "Support": {
            "SupportQuantity": "Temporal"
          }
        },
        {
          "Name": "Electric Field, Perpendicular East, Geomagnetic Coordinates",
          "Set": "Time Series defined by using: EPOCH",
          "ParameterKey": "EpE",
          "Description": "Electric Field, Perpendicular East, Geomagnetic, GM, Coordinates, Despun with v x B Component removed",
          "Cadence": "PT0.001S",
          "Units": "V/m",
          "CoordinateSystem": {
            "CoordinateRepresentation": "Cartesian",
            "CoordinateSystemName": "MAG"
          },
          "RenderingHints": {
            "DisplayType": "TimeSeries",
            "AxisLabel": "EpE",
            "ValueFormat": "E12.5"
          },
          "ValidMin": "-1.0",
          "ValidMax": "1.0",
          "FillValue": "-1.0e+31",
          "Field": {
            "Qualifier": [
              "Component.I",
              "Scalar"
            ],
            "FieldQuantity": "Electric"
          }
        },
        {
          "Name": "Electric Field, Perpendicular North, Geomagnetic Coordinates",
          "Set": "Time Series defined by using: EPOCH",
          "ParameterKey": "EpN",
          "Description": "Electric Field, Perpendicular North, Geomagnetic, GM, Coordinates, Despun with v x B Component removed",
          "Cadence": "PT0.001S",
          "Units": "V/m",
          "CoordinateSystem": {
            "CoordinateRepresentation": "Cartesian",
            "CoordinateSystemName": "MAG"
          },
          "RenderingHints": {
            "DisplayType": "TimeSeries",
            "AxisLabel": "EpN",
            "ValueFormat": "E12.5"
          },
          "ValidMin": "-1.0",
          "ValidMax": "1.0",
          "FillValue": "-1.0e+31",
          "Field": {
            "Qualifier": [
              "Component.J",
              "Scalar"
            ],
            "FieldQuantity": "Electric"
          }
        }
      ]
    }
  }
}