{
  "Spase": {
    "xmlns": "http://www.spase-group.org/data/schema",
    "xmlns:xsi": "http://www.w3.org/2001/XMLSchema-instance",
    "xsi:schemaLocation": "http://www.spase-group.org/data/schema  https://www.spase-group.org/data/schema/spase-2_3_2.xsd",
    "Version": "2.3.2",
    "NumericalData": {
      "ResourceID": "spase://NASA/NumericalData/Genesis/GIM/3DMOM/PT2M30S",
      "ResourceHeader": {
        "ResourceName": "Genesis 3D Ion Moments",
        "ReleaseDate": "2021-04-27T15:38:11Z",
        "Description": "Genesis level 2 3-dimensional ion moments and a bidirectional electron streaming flag",
        "Contact": {
          "PersonID": "spase://SMWG/Person/John.T.Steinberg",
          "Role": "DataProducer"
        },
        "PriorID": [
          "spase://VHO/NumericalData/Genesis/GIM/3DMOM/PT2M30S",
          "spase://VSPO/NumericalData/Genesis/GIM/3DMOM/PT2M30S"
        ]
      },
      "AccessInformation": [
        {
          "RepositoryID": "spase://SMWG/Repository/NASA/GSFC/SPDF/CDAWeb",
          "Availability": "Online",
          "AccessRights": "Open",
          "AccessURL": {
            "Name": "Genesis LANL Moment Data",
            "URL": "ftps://cdaweb.gsfc.nasa.gov/pub/data/genesis/gim/",
            "Description": "Genesis Moment Data determined by LANL"
          },
          "Format": "Text",
          "Encoding": "ASCII"
        },
        {
          "RepositoryID": "spase://SMWG/Repository/NASA/GSFC/SPDF",
          "Availability": "Online",
          "AccessRights": "Open",
          "AccessURL": [
            {
              "Name": "FTPS from SPDF (not with most browsers)",
              "URL": "ftps://spdf.gsfc.nasa.gov/pub/data/genesis/gim/",
              "Description": "For ftp downloads of daily CDF-formatted files"
            },
            {
              "Name": "HTTPS from SPDF",
              "URL": "https://spdf.gsfc.nasa.gov/pub/data/genesis/gim/",
              "Description": "In CDF via HTTP from SPDF"
            }
          ],
          "Format": "CDF"
        },
        {
          "RepositoryID": "spase://SMWG/Repository/NASA/GSFC/SPDF",
          "Availability": "Online",
          "AccessRights": "Open",
          "AccessURL": {
            "Name": "CDAWeb",
            "URL": "https://cdaweb.gsfc.nasa.gov/cgi-bin/eval2.cgi?dataset=GENESIS_3DL2_GIM&index=sp_phys",
            "ProductKey": "GENESIS_3DL2_GIM",
            "Description": "Plots, lists or files from CDAWeb"
          },
          "Format": "Text",
          "Encoding": "ASCII"
        },
        {
          "RepositoryID": "spase://SMWG/Repository/NASA/GSFC/SPDF",
          "Availability": "Online",
          "AccessRights": "Open",
          "AccessURL": {
            "Name": "CDAWeb HAPI Server",
            "URL": "https://cdaweb.gsfc.nasa.gov/hapi",
            "Style": "HAPI",
            "ProductKey": "GENESIS_3DL2_GIM",
            "Description": "Web Service to this product using the HAPI interface."
          },
          "Format": "CSV"
        }
      ],
      "InstrumentID": "spase://SMWG/Instrument/Genesis/GIM-GEM",
      "MeasurementType": "ThermalPlasma",
      "TemporalDescription": {
        "TimeSpan": {
          "StartDate": "2001-08-24T16:16:12Z",
          "StopDate": "2004-08-05T22:56:01Z"
        },
        "Cadence": "PT2M30S"
      },
      "Parameter": [
        {
          "Name": "Epoch",
          "ParameterKey": "Epoch",
          "Description": "DD-MM-YYYY HH:MM:SS.MS",
          "Support": {
            "SupportQuantity": "Temporal"
          }
        },
        {
          "Name": "Decimal Doy",
          "ParameterKey": "Decimal_DOY",
          "Description": "Decimal Day of Year",
          "Support": {
            "SupportQuantity": "Temporal"
          }
        },
        {
          "Name": "Proton Density",
          "ParameterKey": "Proton_Density",
          "Description": "Proton Density",
          "Units": "cm^-3",
          "FillValue": "-9999.00",
          "Particle": {
            "ParticleType": "Proton",
            "Qualifier": "Moment",
            "ParticleQuantity": "NumberDensity"
          }
        },
        {
          "Name": "Proton Temperature",
          "ParameterKey": "Proton_Temperature",
          "Description": "Proton Temperature",
          "Units": "Kelvin",
          "FillValue": "-10000.0",
          "Particle": {
            "ParticleType": "Proton",
            "Qualifier": "Scalar",
            "ParticleQuantity": "Temperature"
          }
        },
        {
          "Name": "Proton Speed",
          "ParameterKey": "Proton_Speed",
          "Description": "Proton Speed",
          "Units": "km/s",
          "FillValue": "-9999.0",
          "Particle": {
            "ParticleType": "Proton",
            "Qualifier": "Magnitude",
            "ParticleQuantity": "Velocity"
          }
        },
        {
          "Name": "Proton Velocity GSE",
          "ParameterKey": "Proton_Velocity_gse",
          "Description": "GSE Cartesian Components of the Proton Velocity",
          "Units": "km/s",
          "CoordinateSystem": {
            "CoordinateRepresentation": "Cartesian",
            "CoordinateSystemName": "GSE"
          },
          "Structure": {
            "Size": "3",
            "Description": "X,Y,Z velocity components"
          },
          "FillValue": "-9999.0",
          "Particle": {
            "ParticleType": "Proton",
            "Qualifier": "Vector",
            "ParticleQuantity": "Velocity"
          }
        },
        {
          "Name": "Proton Velocity RTN",
          "ParameterKey": "Proton_Velocity_rtn",
          "Description": "RTN Cartesian Components of the Proton Velocity",
          "Units": "km/s",
          "CoordinateSystem": {
            "CoordinateRepresentation": "Cartesian",
            "CoordinateSystemName": "RTN"
          },
          "Structure": {
            "Size": "3",
            "Description": "R,T,N velocity components"
          },
          "FillValue": "-9999.0",
          "Particle": {
            "ParticleType": "Proton",
            "Qualifier": "Vector",
            "ParticleQuantity": "Velocity"
          }
        },
        {
          "Name": "Alpha to Proton Ratio",
          "ParameterKey": "Alpha_Proton_ratio",
          "Description": "Alpha to Proton Ratio",
          "FillValue": "-9999.0000",
          "Particle": {
            "ParticleType": [
              "Proton",
              "AlphaParticle"
            ],
            "Qualifier": "Ratio",
            "ParticleQuantity": "NumberDensity"
          }
        },
        {
          "Name": "Spacecraft Position Vector GSE",
          "ParameterKey": "Genesis_Location_gse",
          "Description": "GSE Cartesian Components of the Genesis Position Vector",
          "Units": "km",
          "CoordinateSystem": {
            "CoordinateRepresentation": "Cartesian",
            "CoordinateSystemName": "GSE"
          },
          "Structure": {
            "Size": "3",
            "Description": "X,Y,Z spacecraft position vector components"
          },
          "FillValue": "-9999.0",
          "Support": {
            "SupportQuantity": "Positional"
          }
        },
        {
          "Name": "Heliographic longitude",
          "ParameterKey": "Heliographic_lon",
          "Description": "heliographic longitude of the spacecraft",
          "Units": "degrees",
          "CoordinateSystem": {
            "CoordinateRepresentation": "Spherical",
            "CoordinateSystemName": "HGI"
          },
          "Support": {
            "SupportQuantity": "Positional"
          }
        },
        {
          "Name": "Heliographic latitude",
          "ParameterKey": "Heliographic_lat",
          "Description": "heliographic latitude of the spacecraft",
          "Units": "degrees",
          "CoordinateSystem": {
            "CoordinateRepresentation": "Spherical",
            "CoordinateSystemName": "HGI"
          },
          "Support": {
            "SupportQuantity": "Positional"
          }
        },
        {
          "Name": "Bidirectional Electron Streaming Flag",
          "ParameterKey": "bde",
          "Description": "Flag indicating if bidirectional electron streaming was detected (0 = no, 1 = yes)",
          "FillValue": "-9999",
          "Support": {
            "SupportQuantity": "Other"
          }
        }
      ]
    }
  }
}