{
  "Spase": {
    "xmlns": "http://www.spase-group.org/data/schema",
    "xmlns:xsi": "http://www.w3.org/2001/XMLSchema-instance",
    "xsi:schemaLocation": "http://www.spase-group.org/data/schema  https://www.spase-group.org/data/schema/spase-2_3_2.xsd",
    "Version": "2.3.2",
    "NumericalData": {
      "ResourceID": "spase://NASA/NumericalData/RBSP/B/ECT/HOPE/L3/Moments/Release04/PT24.35S",
      "ResourceHeader": {
        "ResourceName": "Van Allen Probe B Energetic Particle, Composition, and Thermal Plasma Suite (ECT) Helium Oxygen Proton Electron Electrostatic Analyzer (HOPE) Spin-Resolved Science Data. Electron >200 eV and Ion >30 eV Plasma Moments measured at Apogee in Alternate Spin Cadence, Level 3, Release #4 (L3), 24.35 s Data",
        "ReleaseDate": "2021-04-27T15:38:11Z",
        "Description": "Van Allen Probe B, Energetic Particle, Composition, and Thermal Plasma Suite, ECT, Helium Oxygen Proton Electron, HOPE, Mass Spectrometer Spin Resolution Science Data. Plasma Moments from Electrons >200 eV and Ions >30 eV measured at Apogee in alternate Spin Cadence.",
        "Acknowledgement": "H.O. Funsten, R. Skoug, B.A. Larsen, R. Friedel. Distribute freely, please acknowledge the original Principal Investigator. Please contact the Principal Investigator before any publication or Presentation of Data.",
        "Contact": [
          {
            "PersonID": "spase://SMWG/Person/Herbert.O.Funsten",
            "Role": "PrincipalInvestigator"
          },
          {
            "PersonID": "spase://SMWG/Person/Ruth.Skoug",
            "Role": "PrincipalInvestigator"
          },
          {
            "PersonID": "spase://SMWG/Person/Brian.A.Larsen",
            "Role": "PrincipalInvestigator"
          },
          {
            "PersonID": "spase://SMWG/Person/Reiner.Friedel",
            "Role": "PrincipalInvestigator"
          },
          {
            "PersonID": "spase://SMWG/Person/Robert.E.McGuire",
            "Role": "MetadataContact"
          },
          {
            "PersonID": "spase://SMWG/Person/Lee.Frost.Bargatze",
            "Role": "MetadataContact"
          }
        ],
        "InformationURL": [
          {
            "Name": "Van Allen Probes Home Page, JHU/APL",
            "URL": "http://vanallenprobes.jhuapl.edu",
            "Description": "Van Allen Probes Home Page, Exploring Earth's Radiation Belts and the Extremes of Space Weather, Applied Physics Laboratory, Johns Hopkins University"
          },
          {
            "Name": "Van Allen Probes Science Gateway for access to Data, Models, Software and Tools for Researchers, Students and the General Public, JHU/APL",
            "URL": "http://rbspgway.jhuapl.edu/",
            "Description": "Van Allen Probes Science Gateway for access to Data, Models, Software and Tools for Researchers, Students and the General Public at the Applied Physics Laboratory, Johns Hopkins University"
          },
          {
            "Name": "Van Allen Probes Science Gateway, Mission Rules of the Road for Data Usage, JHU/APL",
            "URL": "http://rbspgway.jhuapl.edu/data_policy",
            "Description": "Van Allen Probes Science Gateway, Mission Rules of the Road for Data Usage, Applied Physics Laboratory at the Applied Physics Laboratory, Johns Hopkins University"
          },
          {
            "Name": "Van Allen Probes ECT Home Page, UNH",
            "URL": "http://rbsp-ect.sr.unh.edu",
            "Description": "Van Allen Probes Energetic Particle, Composition, and Thermal Plasma Suite, ECT, Home Page at the University of New Hampshire"
          },
          {
            "Name": "Van Allen Probes ECT SOC, and Data Services Web Page, LANL",
            "URL": "https://www.rbsp-ect.lanl.gov/",
            "Description": "Van Allen Probes Energetic Particle, Composition, and Thermal Plasma Suite, ECT, Science Operations Center, SOC, and Data Services Web Page at the Los Alamos National Laboratory"
          },
          {
            "Name": "Van Allen Probes ECT SOC, Data Access Links to HOPE Particle Data, LANL",
            "URL": "https://www.rbsp-ect.lanl.gov/science/DataDirectories.php",
            "Description": "Van Allen Probes Energetic Particle, Composition, and Thermal Plasma Suite, ECT, Science Operations Center, SOC, Data Access Links to Pitch Angle resolved Helium Oxygen Proton Electron, HOPE, Mass Spectrometer Particle Web Site for access to Magnetic Field Data the Los Alamos National Laboratory"
          }
        ],
        "PriorID": [
          "spase://VSPO/NumericalData/RBSP/B/ECT/HOPE/L3/Moments/Release03/PT24.35S",
          "spase://VSPO/NumericalData/RBSP/B/ECT/HOPE/L3/Moments/Release03/PT20S",
          "spase://VSPO/NumericalData/RBSP/B/ECT/HOPE/SCI-L3/PT20S",
          "spase://VSPO/NumericalData/RBSP/B/ECT/HOPE/L3/Moments/Release04/PT24.35S"
        ]
      },
      "AccessInformation": [
        {
          "RepositoryID": "spase://SMWG/Repository/NASA/GSFC/SPDF",
          "Availability": "Online",
          "AccessRights": "Open",
          "AccessURL": [
            {
              "Name": "FTPS from SPDF (not with most browsers)",
              "URL": "ftps://spdf.gsfc.nasa.gov/pub/data/rbsp/rbspb/l3/ect/hope/moments/rel04/",
              "Description": "Access to Data in CDF Format via ftp from SPDF"
            },
            {
              "Name": "HTTPS from SPDF",
              "URL": "https://spdf.gsfc.nasa.gov/pub/data/rbsp/rbspb/l3/ect/hope/moments/rel04/",
              "Description": "Access to Data in CDF Format via http from SPDF"
            },
            {
              "Name": "CDAWeb",
              "URL": "https://cdaweb.gsfc.nasa.gov/cgi-bin/eval2.cgi?dataset=RBSPB_REL04_ECT-HOPE-MOM-L3&index=sp_phys",
              "ProductKey": "RBSPB_REL04_ECT-HOPE-MOM-L3",
              "Description": "Access to ASCII, CDF, and Plots via NASA/GSFC CDAWeb"
            }
          ],
          "Format": "CDF",
          "Encoding": "None",
          "Acknowledgement": "H.O. Funsten, R. Skoug, B.A. Larsen, R. Friedel. Distribute freely, please acknowledge the original Principal Investigator. Please contact the Principal Investigator before any publication or Presentation of Data. Please acknowledge the Data Providers and CDAWeb when using these Data."
        },
        {
          "RepositoryID": "spase://SMWG/Repository/NASA/GSFC/SPDF",
          "Availability": "Online",
          "AccessRights": "Open",
          "AccessURL": {
            "Name": "CDAWeb HAPI Server",
            "URL": "https://cdaweb.gsfc.nasa.gov/hapi",
            "Style": "HAPI",
            "ProductKey": [
              "RBSPB_REL04_ECT-HOPE-MOM-L3@0",
              "RBSPB_REL04_ECT-HOPE-MOM-L3@1"
            ],
            "Description": "Web Service to this product using the HAPI interface."
          },
          "Format": "CSV",
          "Acknowledgement": "H.O. Funsten, R. Skoug, B.A. Larsen, R. Friedel. Distribute freely, please acknowledge the original Principal Investigator. Please contact the Principal Investigator before any publication or Presentation of Data. Please acknowledge the Data Providers and CDAWeb when using these Data."
        }
      ],
      "ProcessingLevel": "Calibrated",
      "InstrumentID": [
        "spase://SMWG/Instrument/RBSP/B/ECT",
        "spase://SMWG/Instrument/RBSP/B/Ephemeris"
      ],
      "MeasurementType": [
        "MagneticField",
        "ThermalPlasma"
      ],
      "TemporalDescription": {
        "TimeSpan": {
          "StartDate": "2012-10-26T00:00:20.000",
          "StopDate": "2019-10-18T16:30:00Z"
        },
        "Cadence": "PT24.35S"
      },
      "ObservedRegion": [
        "Earth.Magnetosphere",
        "Earth.Magnetosphere.Main",
        "Earth.Magnetosphere.RadiationBelt",
        "Earth.NearSurface.EquatorialRegion"
      ],
      "Parameter": [
        {
          "Name": "Epoch Time, Ions",
          "ParameterKey": "Epoch_Ion",
          "Description": "Epoch Time, Time Base for Ion Measurements",
          "Cadence": "PT24.35S",
          "ValidMin": "01-Jan-2010 00:00:00.000",
          "ValidMax": "31-Dec-2029 23:59:59.999",
          "FillValue": "31-Dec-9999 23:59:59.999",
          "Support": {
            "Qualifier": "Scalar",
            "SupportQuantity": "Temporal"
          }
        },
        {
          "Name": "Epoch Time, Electrons",
          "ParameterKey": "Epoch_Ele",
          "Description": "Epoch Time, Time Base for Electron Measurements",
          "Cadence": "PT24.35S",
          "ValidMin": "01-Jan-2010 00:00:00.000",
          "ValidMax": "31-Dec-2029 23:59:59.999",
          "FillValue": "31-Dec-9999 23:59:59.999",
          "Support": {
            "Qualifier": "Scalar",
            "SupportQuantity": "Temporal"
          }
        },
        {
          "Name": "Proton Temperature, Parallel",
          "Set": "Time Series defined by using: EPOCH_ION",
          "ParameterKey": "Tpar_p_30",
          "Description": "Proton Temperature, Parallel, Apogee Mode, Energies ≥30 eV",
          "Cadence": "PT24.35S",
          "Units": "eV",
          "UnitsConversion": "1.602176565e-19>J",
          "RenderingHints": {
            "DisplayType": "TimeSeries",
            "AxisLabel": "proton Tpar",
            "ValueFormat": "E10.3",
            "ScaleType": "LogScale"
          },
          "ValidMin": "0.0",
          "ValidMax": "1.0e+06",
          "FillValue": "-1.0e+31",
          "Particle": {
            "ParticleType": "Proton",
            "Qualifier": [
              "Parallel",
              "Scalar"
            ],
            "ParticleQuantity": "Temperature",
            "AtomicNumber": "1"
          }
        },
        {
          "Name": "Helium Temperature, Parallel",
          "Set": "Time Series defined by using: EPOCH_ION",
          "ParameterKey": "Tpar_he_30",
          "Description": "Helium Temperature, Parallel, Apogee Mode, Energies ≥30 eV",
          "Cadence": "PT24.35S",
          "Units": "eV",
          "UnitsConversion": "1.602176565e-19>J",
          "RenderingHints": {
            "DisplayType": "TimeSeries",
            "AxisLabel": "He+ Tpar",
            "ValueFormat": "E10.3",
            "ScaleType": "LogScale"
          },
          "ValidMin": "0.0",
          "ValidMax": "1.0e+06",
          "FillValue": "-1.0e+31",
          "Particle": {
            "ParticleType": "Ion",
            "Qualifier": [
              "Parallel",
              "Scalar"
            ],
            "ParticleQuantity": "Temperature",
            "AtomicNumber": "2"
          }
        },
        {
          "Name": "Oxygen Temperature, Parallel",
          "Set": "Time Series defined by using: EPOCH_ION",
          "ParameterKey": "Tpar_o_30",
          "Description": "Oxygen Temperature, Parallel, Apogee Mode, Energies ≥30 eV",
          "Cadence": "PT24.35S",
          "Units": "eV",
          "UnitsConversion": "1.602176565e-19>J",
          "RenderingHints": {
            "DisplayType": "TimeSeries",
            "AxisLabel": "O!u+!n Tpar",
            "ValueFormat": "E10.3",
            "ScaleType": "LogScale"
          },
          "ValidMin": "0.0",
          "ValidMax": "1.0e+06",
          "FillValue": "-1.0e+31",
          "Particle": {
            "ParticleType": "Ion",
            "Qualifier": [
              "Parallel",
              "Scalar"
            ],
            "ParticleQuantity": "Temperature",
            "AtomicNumber": "8"
          }
        },
        {
          "Name": "Electron Temperature, Parallel",
          "Set": "Time Series defined by using: EPOCH_ELE",
          "ParameterKey": "Tpar_e_200",
          "Description": "Electron Temperature, Parallel, Apogee Mode, Energies ≥ 200 eV",
          "Cadence": "PT24.35S",
          "Units": "eV",
          "UnitsConversion": "1.602176565e-19>J",
          "RenderingHints": {
            "DisplayType": "TimeSeries",
            "AxisLabel": "electron Tpar",
            "ValueFormat": "E10.3",
            "ScaleType": "LogScale"
          },
          "ValidMin": "0.0",
          "ValidMax": "1.0e+06",
          "FillValue": "-1.0e+31",
          "Particle": {
            "ParticleType": "Electron",
            "Qualifier": [
              "Parallel",
              "Scalar"
            ],
            "ParticleQuantity": "Temperature"
          }
        },
        {
          "Name": "Proton Temperature, Perpendicular",
          "Set": "Time Series defined by using: EPOCH_ION",
          "ParameterKey": "Tperp_p_30",
          "Description": "Proton Temperature, Perpendicular, Apogee Mode, Energies ≥30 eV",
          "Cadence": "PT24.35S",
          "Units": "eV",
          "UnitsConversion": "1.602176565e-19>J",
          "RenderingHints": {
            "DisplayType": "TimeSeries",
            "AxisLabel": "proton Tperp",
            "ValueFormat": "E10.3",
            "ScaleType": "LogScale"
          },
          "ValidMin": "0.0",
          "ValidMax": "1.0e+06",
          "FillValue": "-1.0e+31",
          "Particle": {
            "ParticleType": "Proton",
            "Qualifier": [
              "Perpendicular",
              "Scalar"
            ],
            "ParticleQuantity": "Temperature",
            "AtomicNumber": "1"
          }
        },
        {
          "Name": "Helium Temperature, Perpendicular",
          "Set": "Time Series defined by using: EPOCH_ION",
          "ParameterKey": "Tperp_he_30",
          "Description": "Helium Temperature, Perpendicular, Apogee Mode, Energies ≥30 eV",
          "Cadence": "PT24.35S",
          "Units": "eV",
          "UnitsConversion": "1.602176565e-19>J",
          "RenderingHints": {
            "DisplayType": "TimeSeries",
            "AxisLabel": "He+ Tperp",
            "ValueFormat": "E10.3",
            "ScaleType": "LogScale"
          },
          "ValidMin": "0.0",
          "ValidMax": "1.0e+06",
          "FillValue": "-1.0e+31",
          "Particle": {
            "ParticleType": "Ion",
            "Qualifier": [
              "Perpendicular",
              "Scalar"
            ],
            "ParticleQuantity": "Temperature",
            "AtomicNumber": "2"
          }
        },
        {
          "Name": "Oxygen Temperature, Perpendicular",
          "Set": "Time Series defined by using: EPOCH_ION",
          "ParameterKey": "Tperp_o_30",
          "Description": "Oxygen Temperature, Perpendicular, Apogee Mode, Energies ≥30 eV",
          "Cadence": "PT24.35S",
          "Units": "eV",
          "UnitsConversion": "1.602176565e-19>J",
          "RenderingHints": {
            "DisplayType": "TimeSeries",
            "AxisLabel": "O+ Tperp",
            "ValueFormat": "E10.3",
            "ScaleType": "LogScale"
          },
          "ValidMin": "0.0",
          "ValidMax": "1.0e+06",
          "FillValue": "-1.0e+31",
          "Particle": {
            "ParticleType": "Ion",
            "Qualifier": [
              "Perpendicular",
              "Scalar"
            ],
            "ParticleQuantity": "Temperature",
            "AtomicNumber": "8"
          }
        },
        {
          "Name": "Electron Temperature, Perpendicular",
          "Set": "Time Series defined by using: EPOCH_ELE",
          "ParameterKey": "Tperp_e_200",
          "Description": "Electron Temperature, Perpendicular, Apogee Mode, Energies ≥ 200 eV",
          "Cadence": "PT24.35S",
          "Units": "eV",
          "UnitsConversion": "1.602176565e-19>J",
          "RenderingHints": {
            "DisplayType": "TimeSeries",
            "AxisLabel": "electron Tperp",
            "ValueFormat": "E10.3",
            "ScaleType": "LogScale"
          },
          "ValidMin": "0.0",
          "ValidMax": "1.0e+06",
          "FillValue": "-1.0e+31",
          "Particle": {
            "ParticleType": "Electron",
            "Qualifier": [
              "Perpendicular",
              "Scalar"
            ],
            "ParticleQuantity": "Temperature"
          }
        },
        {
          "Name": "Proton Temperature Ratio",
          "Set": "Time Series defined by using: EPOCH_ION",
          "ParameterKey": "Tperp_Tpar_p_30",
          "Description": "Proton Temperature Ratio, Tperp/Tpar, Apogee Mode, Energies ≥30 eV",
          "Cadence": "PT24.35S",
          "RenderingHints": {
            "DisplayType": "TimeSeries",
            "AxisLabel": "proton Tperp/Tpar",
            "ValueFormat": "E10.3",
            "ScaleType": "LogScale"
          },
          "ValidMin": "0.0",
          "ValidMax": "1.0e+06",
          "FillValue": "-1.0e+31",
          "Particle": {
            "ParticleType": "Proton",
            "Qualifier": "Scalar",
            "ParticleQuantity": "Temperature",
            "AtomicNumber": "1"
          }
        },
        {
          "Name": "Helium Temperature Ratio",
          "Set": "Time Series defined by using: EPOCH_ION",
          "ParameterKey": "Tperp_Tpar_he_30",
          "Description": "Helium Temperature Ratio, Tperp/Tpar, Apogee Mode, Energies ≥30 eV",
          "Cadence": "PT24.35S",
          "RenderingHints": {
            "DisplayType": "TimeSeries",
            "AxisLabel": "He Tperp/Tpar",
            "ValueFormat": "E10.3",
            "ScaleType": "LogScale"
          },
          "ValidMin": "0.0",
          "ValidMax": "1.0e+06",
          "FillValue": "-1.0e+31",
          "Particle": {
            "ParticleType": "Ion",
            "Qualifier": "Scalar",
            "ParticleQuantity": "Temperature",
            "AtomicNumber": "2"
          }
        },
        {
          "Name": "Oxygen Temperature Ratio",
          "Set": "Time Series defined by using: EPOCH_ION",
          "ParameterKey": "Tperp_Tpar_o_30",
          "Description": "Oxygen Temperature Ratio, Tperp/Tpar, Apogee Mode, Energies ≥30 eV",
          "Cadence": "PT24.35S",
          "RenderingHints": {
            "DisplayType": "TimeSeries",
            "AxisLabel": "Oxygen Tperp/Tpar",
            "ValueFormat": "E10.3",
            "ScaleType": "LogScale"
          },
          "ValidMin": "0.0",
          "ValidMax": "1.0e+06",
          "FillValue": "-1.0e+31",
          "Particle": {
            "ParticleType": "Ion",
            "Qualifier": "Scalar",
            "ParticleQuantity": "Temperature",
            "AtomicNumber": "8"
          }
        },
        {
          "Name": "Electron Temperature Ratio",
          "Set": "Time Series defined by using: EPOCH_ELE",
          "ParameterKey": "Tperp_Tpar_e_30",
          "Description": "Electron Temperature Ratio, Tperp/Tpar, Apogee Mode, Energies ≥30 eV",
          "Cadence": "PT24.35S",
          "RenderingHints": {
            "DisplayType": "TimeSeries",
            "AxisLabel": "electron Tperp/Tpar",
            "ValueFormat": "E10.3",
            "ScaleType": "LogScale"
          },
          "ValidMin": "0.0",
          "ValidMax": "1.0e+06",
          "FillValue": "-1.0e+31",
          "Particle": {
            "ParticleType": "Electron",
            "Qualifier": "Scalar",
            "ParticleQuantity": "Temperature"
          }
        },
        {
          "Name": "Ion Density, Partial",
          "Set": "Time Series defined by using: EPOCH_ION",
          "ParameterKey": "Ion_density",
          "Description": "Ion Density, Partial, Apogee Mode, Energies ≥30 eV",
          "Cadence": "PT24.35S",
          "Units": "cm^-3",
          "UnitsConversion": "1.0e6>m^-3",
          "RenderingHints": {
            "DisplayType": "TimeSeries",
            "AxisLabel": "Ion density",
            "ValueFormat": "E10.3",
            "ScaleType": "LogScale"
          },
          "ValidMin": "0.0",
          "ValidMax": "1.0e+06",
          "FillValue": "-1.0e+31",
          "Particle": {
            "ParticleType": "Ion",
            "Qualifier": "Scalar",
            "ParticleQuantity": "NumberDensity"
          }
        },
        {
          "Name": "Proton Density, Partial",
          "Set": "Time Series defined by using: EPOCH_ION",
          "ParameterKey": "Dens_p_30",
          "Description": "Proton Density, Partial, Apogee Mode, Energies ≥30 eV",
          "Cadence": "PT24.35S",
          "Units": "cm^-3",
          "UnitsConversion": "1.0e6>m^-3",
          "RenderingHints": {
            "DisplayType": "TimeSeries",
            "AxisLabel": "proton density",
            "ValueFormat": "E10.3",
            "ScaleType": "LogScale"
          },
          "ValidMin": "0.0",
          "ValidMax": "1.0e+06",
          "FillValue": "-1.0e+31",
          "Particle": {
            "ParticleType": "Proton",
            "Qualifier": "Scalar",
            "ParticleQuantity": "NumberDensity",
            "AtomicNumber": "1"
          }
        },
        {
          "Name": "Helium Density, Partial",
          "Set": "Time Series defined by using: EPOCH_ION",
          "ParameterKey": "Dens_he_30",
          "Description": "Helium Density, Partial, Apogee Mode, Energies ≥30 eV",
          "Cadence": "PT24.35S",
          "Units": "cm^-3",
          "UnitsConversion": "1.0e6>m^-3",
          "RenderingHints": {
            "DisplayType": "TimeSeries",
            "AxisLabel": "He+ density",
            "ValueFormat": "E10.3",
            "ScaleType": "LogScale"
          },
          "ValidMin": "0.0",
          "ValidMax": "1.0e+06",
          "FillValue": "-1.0e+31",
          "Particle": {
            "ParticleType": "Ion",
            "Qualifier": "Scalar",
            "ParticleQuantity": "NumberDensity",
            "AtomicNumber": "2"
          }
        },
        {
          "Name": "Oxygen Density, Partial",
          "Set": "Time Series defined by using: EPOCH_ION",
          "ParameterKey": "Dens_o_30",
          "Description": "Oxygen Density, Partial, Apogee Mode, Energies ≥30 eV",
          "Cadence": "PT24.35S",
          "Units": "cm^-3",
          "UnitsConversion": "1.0e6>m^-3",
          "RenderingHints": {
            "DisplayType": "TimeSeries",
            "AxisLabel": "O+ density",
            "ValueFormat": "E10.3",
            "ScaleType": "LogScale"
          },
          "ValidMin": "0.0",
          "ValidMax": "1.0e+06",
          "FillValue": "-1.0e+31",
          "Particle": {
            "ParticleType": "Ion",
            "Qualifier": "Scalar",
            "ParticleQuantity": "NumberDensity",
            "AtomicNumber": "8"
          }
        },
        {
          "Name": "Electron Density, Partial",
          "Set": "Time Series defined by using: EPOCH_ELE",
          "ParameterKey": "Dens_e_200",
          "Description": "Electron Density, Partial, Apogee Mode, Energies ≥ 200 eV",
          "Cadence": "PT24.35S",
          "Units": "cm^-3",
          "UnitsConversion": "1.0e6>m^-3",
          "RenderingHints": {
            "DisplayType": "TimeSeries",
            "AxisLabel": "electron density",
            "ValueFormat": "E10.3",
            "ScaleType": "LogScale"
          },
          "ValidMin": "0.0",
          "ValidMax": "1.0e+06",
          "FillValue": "-1.0e+31",
          "Particle": {
            "ParticleType": "Electron",
            "Qualifier": "Scalar",
            "ParticleQuantity": "NumberDensity"
          }
        },
        {
          "Name": "Helium to Proton Density Ratio, Partial",
          "Set": "Time Series defined by using: EPOCH_ION",
          "ParameterKey": "he_p_ratio",
          "Description": "Helium to Proton, He/p, Density Ratio, Partial, Apogee Mode, Energies ≥30 eV",
          "Cadence": "PT24.35S",
          "RenderingHints": {
            "DisplayType": "TimeSeries",
            "AxisLabel": "He/p density ratio",
            "ValueFormat": "E10.3",
            "ScaleType": "LogScale"
          },
          "ValidMin": "0.0",
          "ValidMax": "1.0e+06",
          "FillValue": "-1.0e+31",
          "Particle": {
            "ParticleType": [
              "Ion",
              "Proton"
            ],
            "Qualifier": [
              "Ratio",
              "Scalar"
            ],
            "ParticleQuantity": "NumberDensity",
            "AtomicNumber": [
              "1",
              "2"
            ]
          }
        },
        {
          "Name": "Helium to Oxygen Density Ratio, Partial",
          "Set": "Time Series defined by using: EPOCH_ION",
          "ParameterKey": "he_o_ratio",
          "Description": "Helium to Oxygen, He/O, Density Ratio, Partial, Apogee Mode, Energies ≥30 eV",
          "Cadence": "PT24.35S",
          "RenderingHints": {
            "DisplayType": "TimeSeries",
            "AxisLabel": "He/O density ratio",
            "ValueFormat": "E10.3",
            "ScaleType": "LogScale"
          },
          "ValidMin": "0.0",
          "ValidMax": "1.0e+06",
          "FillValue": "-1.0e+31",
          "Particle": {
            "ParticleType": "Ion",
            "Qualifier": [
              "Ratio",
              "Scalar"
            ],
            "ParticleQuantity": "NumberDensity",
            "AtomicNumber": [
              "2",
              "8"
            ]
          }
        },
        {
          "Name": "Oxygen to Proton Density Ratio, Partial",
          "Set": "Time Series defined by using: EPOCH_ION",
          "ParameterKey": "o_p_ratio",
          "Description": "Oxygen to Proton, O/p, Density Ratio, Partial, Apogee Mode, Energies ≥30 eV",
          "Cadence": "PT24.35S",
          "RenderingHints": {
            "DisplayType": "TimeSeries",
            "AxisLabel": "O/p density ratio",
            "ValueFormat": "E10.3",
            "ScaleType": "LogScale"
          },
          "ValidMin": "0.0",
          "ValidMax": "1.0e+06",
          "FillValue": "-1.0e+31",
          "Particle": {
            "ParticleType": [
              "Ion",
              "Proton"
            ],
            "Qualifier": [
              "Ratio",
              "Scalar"
            ],
            "ParticleQuantity": "NumberDensity",
            "AtomicNumber": [
              "1",
              "8"
            ]
          }
        },
        {
          "Name": "Proton Bin Number",
          "Set": "Time Series defined by using: EPOCH_ION",
          "ParameterKey": "p_nonzero",
          "Description": "Number of sampled Proton Bins",
          "Cadence": "PT24.35S",
          "RenderingHints": {
            "DisplayType": "TimeSeries",
            "AxisLabel": "Samples p",
            "ValueFormat": "I2",
            "ScaleType": "LinearScale"
          },
          "ValidMin": "0.0",
          "ValidMax": "127",
          "FillValue": "-128",
          "Support": {
            "Qualifier": "Scalar",
            "SupportQuantity": "InstrumentMode"
          }
        },
        {
          "Name": "Helium Bin Number",
          "Set": "Time Series defined by using: EPOCH_ION",
          "ParameterKey": "he_nonzero",
          "Description": "Number of sampled Helium Bins",
          "Cadence": "PT24.35S",
          "RenderingHints": {
            "DisplayType": "TimeSeries",
            "AxisLabel": "Samples he",
            "ValueFormat": "I2",
            "ScaleType": "LinearScale"
          },
          "ValidMin": "0.0",
          "ValidMax": "127",
          "FillValue": "-128",
          "Support": {
            "Qualifier": "Scalar",
            "SupportQuantity": "InstrumentMode"
          }
        },
        {
          "Name": "Oxygen Bin Number",
          "Set": "Time Series defined by using: EPOCH_ION",
          "ParameterKey": "o_nonzero",
          "Description": "Number of sampled Oxygen Bins",
          "Cadence": "PT24.35S",
          "RenderingHints": {
            "DisplayType": "TimeSeries",
            "AxisLabel": "Samples o",
            "ValueFormat": "I2",
            "ScaleType": "LinearScale"
          },
          "ValidMin": "0.0",
          "ValidMax": "127",
          "FillValue": "-128",
          "Support": {
            "Qualifier": "Scalar",
            "SupportQuantity": "InstrumentMode"
          }
        },
        {
          "Name": "Electron Bin Number",
          "Set": "Time Series defined by using: EPOCH_ELE",
          "ParameterKey": "e_nonzero",
          "Description": "Number of sampled Electron Bins",
          "Cadence": "PT24.35S",
          "RenderingHints": {
            "DisplayType": "TimeSeries",
            "AxisLabel": "Samples e",
            "ValueFormat": "I2",
            "ScaleType": "LinearScale"
          },
          "ValidMin": "0.0",
          "ValidMax": "127",
          "FillValue": "-128",
          "Support": {
            "Qualifier": "Scalar",
            "SupportQuantity": "InstrumentMode"
          }
        },
        {
          "Name": "Data Quality Flag, Proton Temperature",
          "Set": "Time Series defined by using: EPOCH_ION",
          "ParameterKey": "p_T_flag",
          "Description": "Data Quality Flag, Proton Temperature",
          "Caveats": "This Parameter is used to flag suspicious Proton Temperature Values",
          "Cadence": "PT24.35S",
          "RenderingHints": {
            "DisplayType": "TimeSeries",
            "AxisLabel": "Temp flag p",
            "ValueFormat": "I2",
            "ScaleType": "LinearScale"
          },
          "ValidMin": "0",
          "ValidMax": "1",
          "FillValue": "-128",
          "Support": {
            "Qualifier": "Scalar",
            "SupportQuantity": "Other"
          }
        },
        {
          "Name": "Data Quality Flag, Helium Temperature",
          "Set": "Time Series defined by using: EPOCH_ION",
          "ParameterKey": "he_T_flag",
          "Description": "Data Quality Flag, Helium Temperature",
          "Caveats": "This Parameter is used to flag suspicious Helium Temperature Values",
          "Cadence": "PT24.35S",
          "RenderingHints": {
            "DisplayType": "TimeSeries",
            "AxisLabel": "Temp flag he",
            "ValueFormat": "I2",
            "ScaleType": "LinearScale"
          },
          "ValidMin": "0",
          "ValidMax": "1",
          "FillValue": "-128",
          "Support": {
            "Qualifier": "Scalar",
            "SupportQuantity": "Other"
          }
        },
        {
          "Name": "Data Quality Flag, Oxygen Temperature",
          "Set": "Time Series defined by using: EPOCH_ION",
          "ParameterKey": "o_T_flag",
          "Description": "Data Quality Flag, Oxygen Temperature",
          "Caveats": "This Parameter is used to flag suspicious Oxygen Temperature Values",
          "Cadence": "PT24.35S",
          "RenderingHints": {
            "DisplayType": "TimeSeries",
            "AxisLabel": "Temp flag o",
            "ValueFormat": "I2",
            "ScaleType": "LinearScale"
          },
          "ValidMin": "0",
          "ValidMax": "1",
          "FillValue": "-128",
          "Support": {
            "Qualifier": "Scalar",
            "SupportQuantity": "Other"
          }
        },
        {
          "Name": "Data Quality Flag, Electron Temperature",
          "Set": "Time Series defined by using: EPOCH_ELE",
          "ParameterKey": "e_T_flag",
          "Description": "Data Quality Flag, Electron Temperature",
          "Caveats": "This Parameter is used to flag suspicious Electron Temperature Values",
          "Cadence": "PT24.35S",
          "RenderingHints": {
            "DisplayType": "TimeSeries",
            "AxisLabel": "Temp flag e",
            "ValueFormat": "I2",
            "ScaleType": "LinearScale"
          },
          "ValidMin": "0",
          "ValidMax": "1",
          "FillValue": "-128",
          "Support": {
            "Qualifier": "Scalar",
            "SupportQuantity": "Other"
          }
        },
        {
          "Name": "Data Quality Flag, Proton Tperp Consistency",
          "Set": "Time Series defined by using: EPOCH_ION",
          "ParameterKey": "p_Tperp_flag",
          "Description": "Data Quality Flag, Proton Perpendicular Temperature, Tperp, Consistency",
          "Caveats": "This Parameter is used to flag Proton Perpendicular Temperature Measurements if the Ratio of consecutive Temperature Values are outside the Range of 0.5 to 1.5",
          "Cadence": "PT24.35S",
          "RenderingHints": {
            "DisplayType": "TimeSeries",
            "AxisLabel": "Tperp flag p",
            "ValueFormat": "I2",
            "ScaleType": "LinearScale"
          },
          "ValidMin": "0",
          "ValidMax": "1",
          "FillValue": "-128",
          "Support": {
            "Qualifier": "Scalar",
            "SupportQuantity": "Other"
          }
        },
        {
          "Name": "Data Quality Flag, Helium Tperp Consistency",
          "Set": "Time Series defined by using: EPOCH_ION",
          "ParameterKey": "he_Tperp_flag",
          "Description": "Data Quality Flag, Helium Perpendicular Temperature, Tperp, Consistency",
          "Caveats": "This Parameter is used to flag Helium Perpendicular Temperature Measurements if the Ratio of consecutive Temperature Values are outside the Range of 0.5 to 1.5",
          "Cadence": "PT24.35S",
          "RenderingHints": {
            "DisplayType": "TimeSeries",
            "AxisLabel": "Tperp flag he",
            "ValueFormat": "I2",
            "ScaleType": "LinearScale"
          },
          "ValidMin": "0",
          "ValidMax": "1",
          "FillValue": "-128",
          "Support": {
            "Qualifier": "Scalar",
            "SupportQuantity": "Other"
          }
        },
        {
          "Name": "Data Quality Flag, Oxygen Tperp Consistency",
          "Set": "Time Series defined by using: EPOCH_ION",
          "ParameterKey": "o_Tperp_flag",
          "Description": "Data Quality Flag, Oxygen Perpendicular Temperature, Tperp, Consistency",
          "Caveats": "This Parameter is used to flag Oxygen Perpendicular Temperature Measurements if the Ratio of consecutive Temperature Values are outside the Range of 0.5 to 1.5",
          "Cadence": "PT24.35S",
          "RenderingHints": {
            "DisplayType": "TimeSeries",
            "AxisLabel": "Tperp flag o",
            "ValueFormat": "I2",
            "ScaleType": "LinearScale"
          },
          "ValidMin": "0",
          "ValidMax": "1",
          "FillValue": "-128",
          "Support": {
            "Qualifier": "Scalar",
            "SupportQuantity": "Other"
          }
        },
        {
          "Name": "Data Quality Flag, Electron Tperp Consistency",
          "Set": "Time Series defined by using: EPOCH_ELE",
          "ParameterKey": "e_Tperp_flag",
          "Description": "Data Quality Flag, Electron Perpendicular Temperature, Tperp, Consistency",
          "Caveats": "This Parameter is used to flag Electron Perpendicular Temperature Measurements if the Ratio of consecutive Temperature Values are outside the Range of 0.5 to 1.5",
          "Cadence": "PT24.35S",
          "RenderingHints": {
            "DisplayType": "TimeSeries",
            "AxisLabel": "Tperp flag e",
            "ValueFormat": "I2",
            "ScaleType": "LinearScale"
          },
          "ValidMin": "0",
          "ValidMax": "1",
          "FillValue": "-128",
          "Support": {
            "Qualifier": "Scalar",
            "SupportQuantity": "Other"
          }
        },
        {
          "Name": "Data Quality Flag, Proton Density",
          "Set": "Time Series defined by using: EPOCH_ION",
          "ParameterKey": "p_Dens_flag",
          "Description": "Data Quality Flag, Proton Density",
          "Caveats": "This Parameter is used to flag suspicious Proton Density Values",
          "Cadence": "PT24.35S",
          "RenderingHints": {
            "DisplayType": "TimeSeries",
            "AxisLabel": "Dens flag p",
            "ValueFormat": "I2",
            "ScaleType": "LinearScale"
          },
          "ValidMin": "0",
          "ValidMax": "1",
          "FillValue": "-128",
          "Support": {
            "Qualifier": "Scalar",
            "SupportQuantity": "Other"
          }
        },
        {
          "Name": "Data Quality Flag, Helium Density",
          "Set": "Time Series defined by using: EPOCH_ION",
          "ParameterKey": "he_Dens_flag",
          "Description": "Data Quality Flag, Helium Density",
          "Caveats": "This Parameter is used to flag suspicious Helium Density Values",
          "Cadence": "PT24.35S",
          "RenderingHints": {
            "DisplayType": "TimeSeries",
            "AxisLabel": "Dens flag he",
            "ValueFormat": "I2",
            "ScaleType": "LinearScale"
          },
          "ValidMin": "0",
          "ValidMax": "1",
          "FillValue": "-128",
          "Support": {
            "Qualifier": "Scalar",
            "SupportQuantity": "Other"
          }
        },
        {
          "Name": "Data Quality Flag, Oxygen Density",
          "Set": "Time Series defined by using: EPOCH_ION",
          "ParameterKey": "o_Dens_flag",
          "Description": "Data Quality Flag, Oxygen Density",
          "Caveats": "This Parameter is used to flag suspicious Oxygen Density Values",
          "Cadence": "PT24.35S",
          "RenderingHints": {
            "DisplayType": "TimeSeries",
            "AxisLabel": "Dens flag o",
            "ValueFormat": "I2",
            "ScaleType": "LinearScale"
          },
          "ValidMin": "0",
          "ValidMax": "1",
          "FillValue": "-128",
          "Support": {
            "Qualifier": "Scalar",
            "SupportQuantity": "Other"
          }
        },
        {
          "Name": "Data Quality Flag, Electron Density",
          "Set": "Time Series defined by using: EPOCH_ELE",
          "ParameterKey": "e_Dens_flag",
          "Description": "Data Quality Flag, Electron Density",
          "Caveats": "This Parameter is used to flag suspicious Electron Density Values",
          "Cadence": "PT24.35S",
          "RenderingHints": {
            "DisplayType": "TimeSeries",
            "AxisLabel": "Dens flag e",
            "ValueFormat": "I2",
            "ScaleType": "LinearScale"
          },
          "ValidMin": "0",
          "ValidMax": "1",
          "FillValue": "-128",
          "Support": {
            "Qualifier": "Scalar",
            "SupportQuantity": "Other"
          }
        },
        {
          "Name": "Spacecraft Position Vector, Geographic Cartesian Coordinates",
          "Set": "Time Series defined by using: EPOCH_ION",
          "ParameterKey": "Position",
          "Description": "Spacecraft Position Vector, Geographic, GEO, Cartesian Coordinates",
          "Caveats": "The Origin is the Center of Mass of the Earth. The X-Axis points to the Intersection of the Greenwich Meridian and Geographic Equator. The Z Axis points to the Geographic North Pole. The Y Axis completes the Right-Handed Cartesian Triad with Y = -X × Z. Average Type: standard",
          "Cadence": "PT24.35S",
          "Units": "km",
          "UnitsConversion": "1.0e3>m",
          "CoordinateSystem": {
            "CoordinateRepresentation": "Cartesian",
            "CoordinateSystemName": "GEO"
          },
          "RenderingHints": {
            "DisplayType": "TimeSeries",
            "ValueFormat": "E10.3",
            "ScaleType": "LinearScale"
          },
          "Structure": {
            "Size": "3",
            "Element": [
              {
                "Name": "Xgeo",
                "Index": "1"
              },
              {
                "Name": "Ygeo",
                "Index": "2"
              },
              {
                "Name": "Zgeo",
                "Index": "3"
              }
            ]
          },
          "ValidMin": "-100000.0",
          "ValidMax": "100000.0",
          "FillValue": "-1.0e+31",
          "Support": {
            "Qualifier": [
              "Vector",
              "Array"
            ],
            "SupportQuantity": "Positional"
          }
        },
        {
          "Name": "Roederer L* generalized L Shell Parameter",
          "Set": "Time Series defined by using: EPOCH_ION",
          "ParameterKey": "L_star",
          "Description": "Roederer L* generalized L Shell Parameter",
          "Caveats": "Calculated by using the LANLGeoMag Software Library. Internal Magnetic Field Model: International Geomagnetic Reference Field, IGRF. External Magnetic Field Model: Olson-Pfitzer 1977 Quiet, OP77Q. Average Type: standard",
          "Cadence": "PT24.35S",
          "Units": "Re",
          "UnitsConversion": "6.3712e6>m",
          "RenderingHints": {
            "DisplayType": "TimeSeries",
            "AxisLabel": "L*",
            "ValueFormat": "E10.3",
            "ScaleType": "LinearScale"
          },
          "ValidMin": "0.0",
          "ValidMax": "1.0e+31",
          "FillValue": "-1.0e+31",
          "Support": {
            "Qualifier": "Scalar",
            "SupportQuantity": "Other"
          }
        },
        {
          "Name": "McIlwain L Shell Parameter",
          "Set": "Time Series defined by using: EPOCH_ION",
          "ParameterKey": "L",
          "Description": "McIlwain L Shell Parameter",
          "Caveats": "Calculated by using the LANLGeoMag Software Library. Internal Magnetic Field Model: International Geomagnetic Reference Field, IGRF. External Magnetic Field Model: Olson-Pfitzer 1977 Quiet, OP77Q. Average Type: standard",
          "Cadence": "PT24.35S",
          "Units": "Re",
          "UnitsConversion": "6.3712e6>m",
          "RenderingHints": {
            "DisplayType": "TimeSeries",
            "AxisLabel": "L",
            "ValueFormat": "E10.3",
            "ScaleType": "LinearScale"
          },
          "ValidMin": "0.0",
          "ValidMax": "1.0e+31",
          "FillValue": "-1.0e+31",
          "Support": {
            "Qualifier": "Scalar",
            "SupportQuantity": "Other"
          }
        },
        {
          "Name": "Model Magnetic Field Magnitude, Equatorial",
          "Set": "Time Series defined by using: EPOCH_ION",
          "ParameterKey": "B_Eq",
          "Description": "Model Magnetic Field Magnitude at the Magnetic Equator",
          "Caveats": "Calculated by using the LANLGeoMag Software Library. Internal Magnetic Field Model: International Geomagnetic Reference Field, IGRF. External Magnetic Field Model: Olson-Pfitzer 1977 Quiet, OP77Q. Average Type: standard",
          "Cadence": "PT24.35S",
          "Units": "nT",
          "UnitsConversion": "1.0e-9>T",
          "RenderingHints": {
            "DisplayType": "TimeSeries",
            "AxisLabel": "B_Eq",
            "ValueFormat": "E10.3",
            "ScaleType": "LinearScale"
          },
          "ValidMin": "0.0",
          "ValidMax": "1.0e+31",
          "FillValue": "-1.0e+31",
          "Field": {
            "Qualifier": [
              "Magnitude",
              "Scalar"
            ],
            "FieldQuantity": "Magnetic"
          }
        },
        {
          "Name": "Second Adiabatic Invariant, Bounce",
          "Set": "Time Series defined by using: EPOCH_ION",
          "ParameterKey": "I",
          "Description": "Second Adiabatic Invariant, Bounce",
          "Caveats": "Calculated by using the LANLGeoMag Software Library. Internal Magnetic Field Model: International Geomagnetic Reference Field, IGRF. External Magnetic Field Model: Olson-Pfitzer 1977 Quiet, OP77Q. Average Type: standard",
          "Cadence": "PT24.35S",
          "UnitsConversion": "none",
          "RenderingHints": {
            "DisplayType": "TimeSeries",
            "AxisLabel": "I",
            "ValueFormat": "E10.3",
            "ScaleType": "LinearScale"
          },
          "ValidMin": "0.0",
          "ValidMax": "1.0e+31",
          "FillValue": "-1.0e+31",
          "Support": {
            "Qualifier": "Scalar",
            "SupportQuantity": "Other"
          }
        },
        {
          "Name": "Spacecraft Position, Magnetic Local Time",
          "Set": "Time Series defined by using: EPOCH_ION",
          "ParameterKey": "MLT",
          "Description": "Spacecraft Position, Magnetic Local Time, MLT, in Hours",
          "Caveats": "Calculated by using the LANLGeoMag Software Library. Internal Magnetic Field Model: International Geomagnetic Reference Field, IGRF. External Magnetic Field Model: Olson-Pfitzer 1977 Quiet, OP77Q. Average Type: standard",
          "Cadence": "PT24.35S",
          "Units": "h",
          "UnitsConversion": "3600>s",
          "CoordinateSystem": {
            "CoordinateRepresentation": "Spherical",
            "CoordinateSystemName": "MAG"
          },
          "RenderingHints": {
            "DisplayType": "TimeSeries",
            "AxisLabel": "MLT",
            "ValueFormat": "E10.3",
            "ScaleType": "LinearScale"
          },
          "ValidMin": "0.0",
          "ValidMax": "24.0",
          "FillValue": "-1.0e+31",
          "Support": {
            "Qualifier": [
              "DirectionAngle.ElevationAngle",
              "Scalar"
            ],
            "SupportQuantity": "Positional"
          }
        }
      ]
    }
  }
}