{
  "Spase": {
    "xmlns": "http://www.spase-group.org/data/schema",
    "xmlns:xsi": "http://www.w3.org/2001/XMLSchema-instance",
    "xsi:schemaLocation": "http://www.spase-group.org/data/schema  https://www.spase-group.org/data/schema/spase-2_3_2.xsd",
    "Version": "2.3.2",
    "NumericalData": {
      "ResourceID": "spase://NASA/NumericalData/DE1/EICS/PT96S",
      "ResourceHeader": {
        "ResourceName": "DE 1 Energetic Ion Composition Spectrometer (EICS) Validated Summary Data",
        "AlternateName": [
          "Dynamics Explorer 1 EICS Validated Summary Data",
          "DE-A EICS Validated Summary Data"
        ],
        "ReleaseDate": "2021-04-27T15:38:11Z",
        "Description": "This Validated Summary (VS) data set from the DE 1 Energetic Ion Composition Spectrometer (EICS) contains 96-second averaged fluxes (in units of 1/(cm^2-sec-sr-keV) ) for H+, O+, and He+ ions in 15 energy (~0.01 to ~20 keV) and 14 pitch angle bins. It also includes data uncertainties, data quality indicators, and spacecraft position. Data are in CDF format from CDAWeb.",
        "Acknowledgement": "Please acknowledge the EICS Principal Investigator, Dr. E. G. Shelley",
        "Contact": [
          {
            "PersonID": "spase://SMWG/Person/Edward.G.Shelley",
            "Role": "PrincipalInvestigator"
          },
          {
            "PersonID": "spase://SMWG/Person/Robert.M.Candey",
            "Role": "GeneralContact"
          }
        ],
        "PriorID": [
          "spase://VSPO/NumericalData/DE1/EICS/VS",
          "spase://VSPO/NumericalData/DE1/EICS/PT96S"
        ]
      },
      "AccessInformation": [
        {
          "RepositoryID": "spase://SMWG/Repository/NASA/GSFC/SPDF",
          "Availability": "Online",
          "AccessRights": "Open",
          "AccessURL": [
            {
              "Name": "FTPS from SPDF (not with most browsers)",
              "URL": "ftps://spdf.gsfc.nasa.gov/pub/data/de/de1/particles_eics/vs_eics_cdaweb/"
            },
            {
              "Name": "HTTPS from SPDF",
              "URL": "https://spdf.gsfc.nasa.gov/pub/data/de/de1/particles_eics/vs_eics_cdaweb/",
              "Description": "In CDF via HTTP from CDAWeb"
            },
            {
              "Name": "CDAWeb",
              "URL": "https://cdaweb.gsfc.nasa.gov/cgi-bin/eval2.cgi?dataset=DE_VS_EICS&index=sp_phys",
              "ProductKey": "DE_VS_EICS"
            }
          ],
          "Format": "CDF"
        },
        {
          "RepositoryID": "spase://SMWG/Repository/NASA/GSFC/SPDF",
          "Availability": "Online",
          "AccessRights": "Open",
          "AccessURL": {
            "Name": "CDAWeb HAPI Server",
            "URL": "https://cdaweb.gsfc.nasa.gov/hapi",
            "Style": "HAPI",
            "ProductKey": "DE_VS_EICS",
            "Description": "Web Service to this product using the HAPI interface."
          },
          "Format": "CSV"
        }
      ],
      "ProcessingLevel": "Calibrated",
      "InstrumentID": "spase://SMWG/Instrument/DynamicsExplorer1/EICS",
      "MeasurementType": "EnergeticParticles",
      "TemporalDescription": {
        "TimeSpan": {
          "StartDate": "1981-09-16T00:00:00",
          "StopDate": "1991-02-18T00:00:00"
        },
        "Cadence": "PT96S"
      },
      "ObservedRegion": "Earth.NearSurface.Ionosphere"
    }
  }
}