{
  "Spase": {
    "xmlns": "http://www.spase-group.org/data/schema",
    "xmlns:xsi": "http://www.w3.org/2001/XMLSchema-instance",
    "xsi:schemaLocation": "http://www.spase-group.org/data/schema  https://www.spase-group.org/data/schema/spase-2_3_2.xsd",
    "Version": "2.3.2",
    "NumericalData": {
      "ResourceID": "spase://NASA/NumericalData/MMS/2/HotPlasmaCompositionAnalyzer/Survey/Level2/Ion/PT0.625S",
      "ResourceHeader": {
        "ResourceName": "MMS 2 Hot Plasma Composition Analyzer (HPCA) Ions, Level 2, Quick-Look Survey",
        "ReleaseDate": "2021-04-27T15:38:11Z",
        "Description": "Hot Plasma Composition Analyzer (HPCA) Ions, Level 2, Survey, 0.625 s Data. The MMS HPCA instruments measure the energy and composition of magnetospheric plasmas in the energy range from 1 eV to 40 keV. An electrostatic energy analyzer (ESA) that is optically coupled to a carbon-foil based Time-of-Flight (TOF) section comprises each HPCA. The basic HPCA data product is an array of counts for 5 ion species, at 63 energies, for each of 16 elevation anodes. Sixteen basic products, also called azimuths, are acquired every 0.625 s; half a spacecraft spin period nominally has 16 azimuths. The five ion species are protons (H+), alpha particles (He++), helium ions (He+), singly charged Oxygen (O+), and background counts.",
        "Acknowledgement": "J. Burch, S. Fuselier, Confer with PI for rules of acknowledgement",
        "Contact": [
          {
            "PersonID": "spase://SMWG/Person/James.L.Burch",
            "Role": "PrincipalInvestigator"
          },
          {
            "PersonID": "spase://SMWG/Person/Stephen.A.Fuselier",
            "Role": "PrincipalInvestigator"
          },
          {
            "PersonID": "spase://SMWG/Person/Robert.E.McGuire",
            "Role": "MetadataContact"
          },
          {
            "PersonID": "spase://SMWG/Person/Lee.Frost.Bargatze",
            "Role": "MetadataContact"
          }
        ],
        "InformationURL": [
          {
            "Name": "The Magnetospheric Multiscale (MMS) Mission home page at Goddard Space Flight Center (GSFC)",
            "URL": "https://mms.gsfc.nasa.gov/",
            "Description": "The Magnetospheric Multiscale (MMS) Mission Home Page hosted by the Goddard Space Flight Center (GSFC)."
          },
          {
            "Name": "Data Caveats and Current Release Notes at LASP MMS SDC",
            "URL": "https://lasp.colorado.edu/mms/sdc/public/datasets/hpca/",
            "Description": "The Magnetospheric Multiscale (MMS) Mission home page hosted by the Laboratory of Atmospheric and Space Physics, Science Data Center (LASP, SDC) at the University of Colorado, Boulder."
          }
        ],
        "PriorID": "spase://VSPO/NumericalData/MMS/2/HotPlasmaCompositionAnalyzer/Survey/Level2/Ion/PT0.625S"
      },
      "AccessInformation": [
        {
          "RepositoryID": "spase://SMWG/Repository/NASA/GSFC/SPDF",
          "Availability": "Online",
          "AccessRights": "Open",
          "AccessURL": [
            {
              "Name": "FTPS from SPDF (not with most browsers)",
              "URL": "ftps://spdf.gsfc.nasa.gov/pub/data/mms/mms2/hpca/srvy/l2/ion/",
              "Description": "In CDF via ftp from SPDF."
            },
            {
              "Name": "HTTPS from SPDF",
              "URL": "https://spdf.gsfc.nasa.gov/pub/data/mms/mms2/hpca/srvy/l2/ion/",
              "Description": "In CDF via http from SPDF."
            },
            {
              "Name": "CDAWeb",
              "URL": "https://cdaweb.gsfc.nasa.gov/cgi-bin/eval2.cgi?dataset=MMS2_HPCA_SRVY_L2_ION&index=sp_phys",
              "ProductKey": "MMS2_HPCA_SRVY_L2_ION",
              "Description": "Access to ASCII, CDF, and plots via NASA/GSFC CDAWeb"
            }
          ],
          "Format": "CDF",
          "Encoding": "None",
          "Acknowledgement": "J. Burch, S. Fuselier, Confer with PI for rules of acknowledgement. Please acknowledge the data providers and CDAWeb when using these data."
        },
        {
          "RepositoryID": "spase://SMWG/Repository/NASA/GSFC/SPDF",
          "Availability": "Online",
          "AccessRights": "Open",
          "AccessURL": {
            "Name": "CDAWeb HAPI Server",
            "URL": "https://cdaweb.gsfc.nasa.gov/hapi",
            "Style": "HAPI",
            "ProductKey": "MMS2_HPCA_SRVY_L2_ION",
            "Description": "Web Service to this product using the HAPI interface."
          },
          "Format": "CSV",
          "Acknowledgement": "J. Burch, S. Fuselier, Confer with PI for rules of acknowledgement. Please acknowledge the data providers and CDAWeb when using these data."
        }
      ],
      "ProcessingLevel": "Calibrated",
      "InstrumentID": [
        "spase://SMWG/Instrument/MMS/2/FIELDS/FGM",
        "spase://SMWG/Instrument/MMS/2/HotPlasmaCompositionAnalyzer"
      ],
      "MeasurementType": [
        "EnergeticParticles",
        "MagneticField"
      ],
      "TemporalDescription": {
        "TimeSpan": {
          "StartDate": "2015-08-15T00:00:00",
          "RelativeStopDate": "-P2M"
        },
        "Cadence": "PT0.625S"
      },
      "ObservedRegion": [
        "Earth.Magnetosheath",
        "Earth.Magnetosphere",
        "Earth.Magnetosphere.Magnetotail",
        "Earth.Magnetosphere.Main",
        "Earth.Magnetosphere.RadiationBelt",
        "Earth.NearSurface.EquatorialRegion",
        "Earth.NearSurface.Plasmasphere",
        "Heliosphere.NearEarth"
      ],
      "Parameter": [
        {
          "Name": "UTC converted from TAI time",
          "ParameterKey": "Epoch",
          "Description": "Start Time for the Record",
          "Cadence": "PT0.625S",
          "Units": "ns",
          "UnitsConversion": "1.0e-9>s",
          "RenderingHints": {
            "ValueFormat": "e14.8"
          },
          "ValidMin": "1990-01-01T00:00:00.000000000",
          "ValidMax": "2100-01-01T00:00:01.000000000",
          "Support": {
            "SupportQuantity": "Temporal"
          }
        },
        {
          "Name": "Delta Start Time",
          "ParameterKey": "Epoch_MINUS",
          "Description": "Delta Start Time for the Record from the Central Time",
          "Cadence": "PT0.625S",
          "Units": "ms",
          "UnitsConversion": "1.0e-3>s",
          "RenderingHints": {
            "ValueFormat": "I"
          },
          "ValidMin": "0",
          "ValidMax": "1000",
          "Support": {
            "SupportQuantity": "Temporal"
          }
        },
        {
          "Name": "Delta Stop Time",
          "ParameterKey": "Epoch_PLUS",
          "Description": "Delta Stop Time for the Record from the Central Time",
          "Cadence": "PT0.625S",
          "Units": "ms",
          "UnitsConversion": "1.0e-3>s",
          "RenderingHints": {
            "ValueFormat": "I"
          },
          "ValidMin": "0",
          "ValidMax": "1000",
          "Support": {
            "SupportQuantity": "Temporal"
          }
        },
        {
          "Name": "Polar Anode Number",
          "ParameterKey": "mms2_hpca_polar_anode_number",
          "Description": "Polar Anode Index Value",
          "Cadence": "PT0.625S",
          "RenderingHints": {
            "ValueFormat": "I"
          },
          "Structure": {
            "Size": "16",
            "Element": [
              {
                "Name": "Element 1",
                "Index": "1"
              },
              {
                "Name": "Element 2",
                "Index": "2"
              },
              {
                "Name": "Element 3",
                "Index": "3"
              },
              {
                "Name": "Element 4",
                "Index": "4"
              },
              {
                "Name": "Element 5",
                "Index": "5"
              },
              {
                "Name": "Element 6",
                "Index": "6"
              },
              {
                "Name": "Element 7",
                "Index": "7"
              },
              {
                "Name": "Element 8",
                "Index": "8"
              },
              {
                "Name": "Element 9",
                "Index": "9"
              },
              {
                "Name": "Element 10",
                "Index": "10"
              },
              {
                "Name": "Element 11",
                "Index": "11"
              },
              {
                "Name": "Element 12",
                "Index": "12"
              },
              {
                "Name": "Element 13",
                "Index": "13"
              },
              {
                "Name": "Element 14",
                "Index": "14"
              },
              {
                "Name": "Element 15",
                "Index": "15"
              },
              {
                "Name": "Element 16",
                "Index": "16"
              }
            ]
          },
          "ValidMin": "0",
          "ValidMax": "15",
          "Support": {
            "SupportQuantity": "Other"
          }
        },
        {
          "Name": "Azimuth Decimation Factor",
          "Set": "Time series defined by using: EPOCH",
          "ParameterKey": "mms2_hpca_azimuth_decimation_factor",
          "Description": "Azimuth Decimation Factor",
          "Cadence": "PT0.625S",
          "RenderingHints": {
            "DisplayType": "TimeSeries",
            "AxisLabel": "Azimuth Decimation",
            "ValueFormat": "I"
          },
          "ValidMin": "1",
          "ValidMax": "16",
          "FillValue": "65535",
          "Support": {
            "SupportQuantity": "Other"
          }
        },
        {
          "Name": "Polar Anode Decimation Factor",
          "Set": "Time series defined by using: EPOCH",
          "ParameterKey": "mms2_hpca_polar_decimation_factor",
          "Description": "Polar Anode Decimation Factor",
          "Cadence": "PT0.625S",
          "RenderingHints": {
            "DisplayType": "TimeSeries",
            "AxisLabel": "Polar Anode Decimation",
            "ValueFormat": "I"
          },
          "ValidMin": "1",
          "ValidMax": "16",
          "FillValue": "65535",
          "Support": {
            "SupportQuantity": "Other"
          }
        },
        {
          "Name": "Energy Decimation Factor",
          "Set": "Time series defined by using: EPOCH",
          "ParameterKey": "mms2_hpca_energy_decimation_factor",
          "Description": "Energy Decimation Factor",
          "Cadence": "PT0.625S",
          "RenderingHints": {
            "DisplayType": "TimeSeries",
            "AxisLabel": "Energy Decimation",
            "ValueFormat": "I"
          },
          "ValidMin": "1",
          "ValidMax": "64",
          "FillValue": "65535",
          "Support": {
            "SupportQuantity": "Other"
          }
        },
        {
          "Name": "Sweep Table Number",
          "Set": "Time series defined by using: EPOCH",
          "ParameterKey": "mms2_hpca_sweep_table_number",
          "Description": "Sweep Table Index as defined in the HPCA Science Algorithm Document",
          "Cadence": "PT0.625S",
          "RenderingHints": {
            "ValueFormat": "I"
          },
          "ValidMin": "0",
          "ValidMax": "15",
          "FillValue": "255",
          "Support": {
            "SupportQuantity": "InstrumentMode"
          }
        },
        {
          "Name": "Start Azimuth",
          "Set": "Time series defined by using: EPOCH",
          "ParameterKey": "mms2_hpca_start_azimuth",
          "Description": "Start Azimuth",
          "Cadence": "PT0.625S",
          "RenderingHints": {
            "ValueFormat": "I"
          },
          "ValidMin": "0",
          "ValidMax": "15",
          "FillValue": "255",
          "Particle": {
            "ParticleType": "Ion",
            "ParticleQuantity": "ArrivalDirection"
          }
        },
        {
          "Name": "Science Mode Number",
          "Set": "Time series defined by using: EPOCH",
          "ParameterKey": "mms2_hpca_science_mode",
          "Description": "Science Mode Value as defined in the HPCA Science Algorithm Document",
          "Cadence": "PT0.625S",
          "RenderingHints": {
            "ValueFormat": "I"
          },
          "ValidMin": "0",
          "ValidMax": "15",
          "FillValue": "255",
          "Support": {
            "SupportQuantity": "InstrumentMode"
          }
        },
        {
          "Name": "Electron Volts",
          "ParameterKey": "mms2_hpca_ion_energy",
          "Description": "Electron Voltage associated with the Ion Counts",
          "Cadence": "PT0.625S",
          "Units": "eV",
          "UnitsConversion": "1.602176565e-19>J",
          "RenderingHints": {
            "ValueFormat": "e13.6"
          },
          "Structure": {
            "Size": "63",
            "Element": [
              {
                "Name": "Element 1",
                "Index": "1"
              },
              {
                "Name": "Element 2",
                "Index": "2"
              },
              {
                "Name": "Element 3",
                "Index": "3"
              },
              {
                "Name": "Element 4",
                "Index": "4"
              },
              {
                "Name": "Element 5",
                "Index": "5"
              },
              {
                "Name": "Element 6",
                "Index": "6"
              },
              {
                "Name": "Element 7",
                "Index": "7"
              },
              {
                "Name": "Element 8",
                "Index": "8"
              },
              {
                "Name": "Element 9",
                "Index": "9"
              },
              {
                "Name": "Element 10",
                "Index": "10"
              },
              {
                "Name": "Element 11",
                "Index": "11"
              },
              {
                "Name": "Element 12",
                "Index": "12"
              },
              {
                "Name": "Element 13",
                "Index": "13"
              },
              {
                "Name": "Element 14",
                "Index": "14"
              },
              {
                "Name": "Element 15",
                "Index": "15"
              },
              {
                "Name": "Element 16",
                "Index": "16"
              },
              {
                "Name": "Element 17",
                "Index": "17"
              },
              {
                "Name": "Element 18",
                "Index": "18"
              },
              {
                "Name": "Element 19",
                "Index": "19"
              },
              {
                "Name": "Element 20",
                "Index": "20"
              },
              {
                "Name": "Element 21",
                "Index": "21"
              },
              {
                "Name": "Element 22",
                "Index": "22"
              },
              {
                "Name": "Element 23",
                "Index": "23"
              },
              {
                "Name": "Element 24",
                "Index": "24"
              },
              {
                "Name": "Element 25",
                "Index": "25"
              },
              {
                "Name": "Element 26",
                "Index": "26"
              },
              {
                "Name": "Element 27",
                "Index": "27"
              },
              {
                "Name": "Element 28",
                "Index": "28"
              },
              {
                "Name": "Element 29",
                "Index": "29"
              },
              {
                "Name": "Element 30",
                "Index": "30"
              },
              {
                "Name": "Element 31",
                "Index": "31"
              },
              {
                "Name": "Element 32",
                "Index": "32"
              },
              {
                "Name": "Element 33",
                "Index": "33"
              },
              {
                "Name": "Element 34",
                "Index": "34"
              },
              {
                "Name": "Element 35",
                "Index": "35"
              },
              {
                "Name": "Element 36",
                "Index": "36"
              },
              {
                "Name": "Element 37",
                "Index": "37"
              },
              {
                "Name": "Element 38",
                "Index": "38"
              },
              {
                "Name": "Element 39",
                "Index": "39"
              },
              {
                "Name": "Element 40",
                "Index": "40"
              },
              {
                "Name": "Element 41",
                "Index": "41"
              },
              {
                "Name": "Element 42",
                "Index": "42"
              },
              {
                "Name": "Element 43",
                "Index": "43"
              },
              {
                "Name": "Element 44",
                "Index": "44"
              },
              {
                "Name": "Element 45",
                "Index": "45"
              },
              {
                "Name": "Element 46",
                "Index": "46"
              },
              {
                "Name": "Element 47",
                "Index": "47"
              },
              {
                "Name": "Element 48",
                "Index": "48"
              },
              {
                "Name": "Element 49",
                "Index": "49"
              },
              {
                "Name": "Element 50",
                "Index": "50"
              },
              {
                "Name": "Element 51",
                "Index": "51"
              },
              {
                "Name": "Element 52",
                "Index": "52"
              },
              {
                "Name": "Element 53",
                "Index": "53"
              },
              {
                "Name": "Element 54",
                "Index": "54"
              },
              {
                "Name": "Element 55",
                "Index": "55"
              },
              {
                "Name": "Element 56",
                "Index": "56"
              },
              {
                "Name": "Element 57",
                "Index": "57"
              },
              {
                "Name": "Element 58",
                "Index": "58"
              },
              {
                "Name": "Element 59",
                "Index": "59"
              },
              {
                "Name": "Element 60",
                "Index": "60"
              },
              {
                "Name": "Element 61",
                "Index": "61"
              },
              {
                "Name": "Element 62",
                "Index": "62"
              },
              {
                "Name": "Element 63",
                "Index": "63"
              }
            ]
          },
          "ValidMin": "0.0",
          "ValidMax": "37600.0",
          "FillValue": "-1.0e+31",
          "Particle": {
            "ParticleType": "Ion",
            "Qualifier": "Differential",
            "ParticleQuantity": "Energy"
          }
        },
        {
          "Name": "Hydrogen+ Flux",
          "Set": "Time series defined by using: EPOCH",
          "ParameterKey": "mms2_hpca_hplus_flux",
          "Description": "Hydrogen+ Flux for all Elevation Anodes across all Energies\n                      Column 1 Labels: [ 0, 1, 2, 3, 4, 5, 6, 7, 8, 9, 10, 11, 12, 13, 14, 15]\n                      Column 2 Labels: [ 0.00000, 0.00000, 0.00000, 0.00000, 0.00000, 0.00000, 0.00000, 0.00000, 0.00000, 0.00000, 0.00000, 0.00000, 0.00000, 0.00000, 0.00000, 0.00000, 0.00000, 0.00000, 0.00000, 0.00000, 0.00000, 0.00000, 0.00000, 0.00000, 0.00000, 0.00000, 0.00000, 0.00000, 0.00000, 0.00000, 0.00000, 0.00000, 0.00000, 0.00000, 0.00000, 0.00000, 0.00000, 0.00000, 0.00000, 0.00000, 0.00000, 0.00000, 0.00000, 0.00000, 0.00000, 0.00000, 0.00000, 0.00000, 0.00000, 0.00000, 0.00000, 0.00000, 0.00000, 0.00000, 0.00000, 0.00000, 0.00000, 0.00000, 0.00000, 0.00000, 0.00000, 0.00000, 0.00000]",
          "Cadence": "PT0.625S",
          "Units": "(cm^2 s sr eV)^-1",
          "UnitsConversion": "6.24181e18>(m^2 s sr J)^-1",
          "CoordinateSystem": {
            "CoordinateRepresentation": "Cartesian",
            "CoordinateSystemName": "SR"
          },
          "RenderingHints": {
            "DisplayType": "Spectrogram",
            "ValueFormat": "e13.6"
          },
          "Structure": {
            "Size": "16 63"
          },
          "FillValue": "-1.0e+31",
          "Particle": {
            "ParticleType": "Proton",
            "Qualifier": "Differential",
            "ParticleQuantity": "EnergyFlux"
          }
        },
        {
          "Name": "Hydrogen+ Phase Space Density",
          "Set": "Time series defined by using: EPOCH",
          "ParameterKey": "mms2_hpca_hplus_phase_space_density",
          "Description": "Hydrogen+ Phase Space Density for all Elevation Anodes across all Energies\n                      Column 1 Labels: [ 0, 1, 2, 3, 4, 5, 6, 7, 8, 9, 10, 11, 12, 13, 14, 15]\n                      Column 2 Labels: [ 0.00000, 0.00000, 0.00000, 0.00000, 0.00000, 0.00000, 0.00000, 0.00000, 0.00000, 0.00000, 0.00000, 0.00000, 0.00000, 0.00000, 0.00000, 0.00000, 0.00000, 0.00000, 0.00000, 0.00000, 0.00000, 0.00000, 0.00000, 0.00000, 0.00000, 0.00000, 0.00000, 0.00000, 0.00000, 0.00000, 0.00000, 0.00000, 0.00000, 0.00000, 0.00000, 0.00000, 0.00000, 0.00000, 0.00000, 0.00000, 0.00000, 0.00000, 0.00000, 0.00000, 0.00000, 0.00000, 0.00000, 0.00000, 0.00000, 0.00000, 0.00000, 0.00000, 0.00000, 0.00000, 0.00000, 0.00000, 0.00000, 0.00000, 0.00000, 0.00000, 0.00000, 0.00000, 0.00000]",
          "Cadence": "PT0.625S",
          "Units": "cm^-6 s^3",
          "UnitsConversion": "1.0e13>m^-6 s^3",
          "CoordinateSystem": {
            "CoordinateRepresentation": "Cartesian",
            "CoordinateSystemName": "SR"
          },
          "RenderingHints": {
            "DisplayType": "Spectrogram",
            "ValueFormat": "e13.6"
          },
          "Structure": {
            "Size": "16 63"
          },
          "FillValue": "-1.0e+31",
          "Particle": {
            "ParticleType": "Proton",
            "Qualifier": "Tensor",
            "ParticleQuantity": "PhaseSpaceDensity"
          }
        },
        {
          "Name": "Data Quality for Hydrogen+",
          "Set": "Time series defined by using: EPOCH",
          "ParameterKey": "mms2_hpca_hplus_data_quality",
          "Description": "Per Sweep Status for H+ (0: Bad; 1: Good; 2: Good, RF On, Bkgd On; 3: Good, RF Off, Bkgd On; 4: Good, RF On, Bkgd Off; 5: Good, RF Off, Bkgd Off; 6: Good, Non-Sweeping Data)",
          "Cadence": "PT0.625S",
          "RenderingHints": {
            "DisplayType": "TimeSeries",
            "AxisLabel": "Data Quality",
            "ValueFormat": "I"
          },
          "ValidMin": "0",
          "ValidMax": "255",
          "FillValue": "65535",
          "Support": {
            "SupportQuantity": "Other"
          }
        },
        {
          "Name": "Helium+ Flux",
          "Set": "Time series defined by using: EPOCH",
          "ParameterKey": "mms2_hpca_heplus_flux",
          "Description": "Helium+ Flux for all Elevation Anodes across all Energies\n                      Column 1 Labels: [ 0, 1, 2, 3, 4, 5, 6, 7, 8, 9, 10, 11, 12, 13, 14, 15]\n                      Column 2 Labels: [ 0.00000, 0.00000, 0.00000, 0.00000, 0.00000, 0.00000, 0.00000, 0.00000, 0.00000, 0.00000, 0.00000, 0.00000, 0.00000, 0.00000, 0.00000, 0.00000, 0.00000, 0.00000, 0.00000, 0.00000, 0.00000, 0.00000, 0.00000, 0.00000, 0.00000, 0.00000, 0.00000, 0.00000, 0.00000, 0.00000, 0.00000, 0.00000, 0.00000, 0.00000, 0.00000, 0.00000, 0.00000, 0.00000, 0.00000, 0.00000, 0.00000, 0.00000, 0.00000, 0.00000, 0.00000, 0.00000, 0.00000, 0.00000, 0.00000, 0.00000, 0.00000, 0.00000, 0.00000, 0.00000, 0.00000, 0.00000, 0.00000, 0.00000, 0.00000, 0.00000, 0.00000, 0.00000, 0.00000]",
          "Cadence": "PT0.625S",
          "Units": "(cm^2 s sr eV)^-1",
          "UnitsConversion": "6.24181e18>(m^2 s sr J)^-1",
          "CoordinateSystem": {
            "CoordinateRepresentation": "Cartesian",
            "CoordinateSystemName": "SR"
          },
          "RenderingHints": {
            "DisplayType": "Spectrogram",
            "ValueFormat": "e13.6"
          },
          "Structure": {
            "Size": "16 63"
          },
          "FillValue": "-1.0e+31",
          "Particle": {
            "ParticleType": "Ion",
            "Qualifier": "Differential",
            "ParticleQuantity": "EnergyFlux"
          }
        },
        {
          "Name": "Helium+ Phase Space Density",
          "Set": "Time series defined by using: EPOCH",
          "ParameterKey": "mms2_hpca_heplus_phase_space_density",
          "Description": "Helium+ Phase Space Density for all Elevation Anodes across all Energies\n                      Column 1 Labels: [ 0, 1, 2, 3, 4, 5, 6, 7, 8, 9, 10, 11, 12, 13, 14, 15]\n                      Column 2 Labels: [ 0.00000, 0.00000, 0.00000, 0.00000, 0.00000, 0.00000, 0.00000, 0.00000, 0.00000, 0.00000, 0.00000, 0.00000, 0.00000, 0.00000, 0.00000, 0.00000, 0.00000, 0.00000, 0.00000, 0.00000, 0.00000, 0.00000, 0.00000, 0.00000, 0.00000, 0.00000, 0.00000, 0.00000, 0.00000, 0.00000, 0.00000, 0.00000, 0.00000, 0.00000, 0.00000, 0.00000, 0.00000, 0.00000, 0.00000, 0.00000, 0.00000, 0.00000, 0.00000, 0.00000, 0.00000, 0.00000, 0.00000, 0.00000, 0.00000, 0.00000, 0.00000, 0.00000, 0.00000, 0.00000, 0.00000, 0.00000, 0.00000, 0.00000, 0.00000, 0.00000, 0.00000, 0.00000, 0.00000]",
          "Cadence": "PT0.625S",
          "Units": "cm^-6 s^3",
          "UnitsConversion": "1.0e13>m^-6 s^3",
          "CoordinateSystem": {
            "CoordinateRepresentation": "Cartesian",
            "CoordinateSystemName": "SR"
          },
          "RenderingHints": {
            "DisplayType": "Spectrogram",
            "ValueFormat": "e13.6"
          },
          "Structure": {
            "Size": "16 63"
          },
          "FillValue": "-1.0e+31",
          "Particle": {
            "ParticleType": "Ion",
            "Qualifier": "Tensor",
            "ParticleQuantity": "PhaseSpaceDensity"
          }
        },
        {
          "Name": "Data Quality for Helium+",
          "Set": "Time series defined by using: EPOCH",
          "ParameterKey": "mms2_hpca_heplus_data_quality",
          "Description": "Per Sweep Status for He+ (0: Bad; 1: Good; 2: Good, RF On, Bkgd On; 3: Good, RF Off, Bkgd On; 4: Good, RF On, Bkgd Off; 5: Good, RF Off, Bkgd Off; 6: Good, Non-Sweeping Data)",
          "Cadence": "PT0.625S",
          "RenderingHints": {
            "DisplayType": "TimeSeries",
            "AxisLabel": "Data Quality",
            "ValueFormat": "I"
          },
          "ValidMin": "0",
          "ValidMax": "255",
          "FillValue": "65535",
          "Support": {
            "SupportQuantity": "Other"
          }
        },
        {
          "Name": "Helium++ Flux",
          "Set": "Time series defined by using: EPOCH",
          "ParameterKey": "mms2_hpca_heplusplus_flux",
          "Description": "Helium++ Flux for all Elevation Anodes across all Energies\n                      Column 1 Labels: [ 0, 1, 2, 3, 4, 5, 6, 7, 8, 9, 10, 11, 12, 13, 14, 15]\n                      Column 2 Labels: [ 0.00000, 0.00000, 0.00000, 0.00000, 0.00000, 0.00000, 0.00000, 0.00000, 0.00000, 0.00000, 0.00000, 0.00000, 0.00000, 0.00000, 0.00000, 0.00000, 0.00000, 0.00000, 0.00000, 0.00000, 0.00000, 0.00000, 0.00000, 0.00000, 0.00000, 0.00000, 0.00000, 0.00000, 0.00000, 0.00000, 0.00000, 0.00000, 0.00000, 0.00000, 0.00000, 0.00000, 0.00000, 0.00000, 0.00000, 0.00000, 0.00000, 0.00000, 0.00000, 0.00000, 0.00000, 0.00000, 0.00000, 0.00000, 0.00000, 0.00000, 0.00000, 0.00000, 0.00000, 0.00000, 0.00000, 0.00000, 0.00000, 0.00000, 0.00000, 0.00000, 0.00000, 0.00000, 0.00000]",
          "Cadence": "PT0.625S",
          "Units": "(cm^2 s sr eV)^-1",
          "UnitsConversion": "6.24181e18>(m^2 s sr J)^-1",
          "CoordinateSystem": {
            "CoordinateRepresentation": "Cartesian",
            "CoordinateSystemName": "SR"
          },
          "RenderingHints": {
            "DisplayType": "Spectrogram",
            "ValueFormat": "e13.6"
          },
          "Structure": {
            "Size": "16 63"
          },
          "FillValue": "-1.0e+31",
          "Particle": {
            "ParticleType": "AlphaParticle",
            "Qualifier": "Differential",
            "ParticleQuantity": "EnergyFlux"
          }
        },
        {
          "Name": "Helium++ Phase Space Density",
          "Set": "Time series defined by using: EPOCH",
          "ParameterKey": "mms2_hpca_heplusplus_phase_space_density",
          "Description": "Helium++ Phase Space Density for all Elevation Anodes across all Energies\n                      Column 1 Labels: [ 0, 1, 2, 3, 4, 5, 6, 7, 8, 9, 10, 11, 12, 13, 14, 15]\n                      Column 2 Labels: [ 0.00000, 0.00000, 0.00000, 0.00000, 0.00000, 0.00000, 0.00000, 0.00000, 0.00000, 0.00000, 0.00000, 0.00000, 0.00000, 0.00000, 0.00000, 0.00000, 0.00000, 0.00000, 0.00000, 0.00000, 0.00000, 0.00000, 0.00000, 0.00000, 0.00000, 0.00000, 0.00000, 0.00000, 0.00000, 0.00000, 0.00000, 0.00000, 0.00000, 0.00000, 0.00000, 0.00000, 0.00000, 0.00000, 0.00000, 0.00000, 0.00000, 0.00000, 0.00000, 0.00000, 0.00000, 0.00000, 0.00000, 0.00000, 0.00000, 0.00000, 0.00000, 0.00000, 0.00000, 0.00000, 0.00000, 0.00000, 0.00000, 0.00000, 0.00000, 0.00000, 0.00000, 0.00000, 0.00000]",
          "Cadence": "PT0.625S",
          "Units": "cm^-6 s^3",
          "UnitsConversion": "1.0e13>m^-6 s^3",
          "CoordinateSystem": {
            "CoordinateRepresentation": "Cartesian",
            "CoordinateSystemName": "SR"
          },
          "RenderingHints": {
            "DisplayType": "Spectrogram",
            "ValueFormat": "e13.6"
          },
          "Structure": {
            "Size": "16 63"
          },
          "FillValue": "-1.0e+31",
          "Particle": {
            "ParticleType": "AlphaParticle",
            "Qualifier": "Tensor",
            "ParticleQuantity": "PhaseSpaceDensity"
          }
        },
        {
          "Name": "Data Quality for Helium++",
          "Set": "Time series defined by using: EPOCH",
          "ParameterKey": "mms2_hpca_heplusplus_data_quality",
          "Description": "Per Sweep Status for He++ (0: Bad; 1: Good; 2: Good, RF On, Bkgd On; 3: Good, RF Off, Bkgd On; 4: Good, RF On, Bkgd Off; 5: Good, RF Off, Bkgd Off; 6: Good, Non-Sweeping Data)",
          "Cadence": "PT0.625S",
          "RenderingHints": {
            "DisplayType": "TimeSeries",
            "AxisLabel": "Data Quality",
            "ValueFormat": "I"
          },
          "ValidMin": "0",
          "ValidMax": "255",
          "FillValue": "65535",
          "Support": {
            "SupportQuantity": "Other"
          }
        },
        {
          "Name": "Oxygen+ Flux",
          "Set": "Time series defined by using: EPOCH",
          "ParameterKey": "mms2_hpca_oplus_flux",
          "Description": "Oxygen+ Flux for all Elevation Anodes across all Energies\n                      Column 1 Labels: [ 0, 1, 2, 3, 4, 5, 6, 7, 8, 9, 10, 11, 12, 13, 14, 15]\n                      Column 2 Labels: [ 0.00000, 0.00000, 0.00000, 0.00000, 0.00000, 0.00000, 0.00000, 0.00000, 0.00000, 0.00000, 0.00000, 0.00000, 0.00000, 0.00000, 0.00000, 0.00000, 0.00000, 0.00000, 0.00000, 0.00000, 0.00000, 0.00000, 0.00000, 0.00000, 0.00000, 0.00000, 0.00000, 0.00000, 0.00000, 0.00000, 0.00000, 0.00000, 0.00000, 0.00000, 0.00000, 0.00000, 0.00000, 0.00000, 0.00000, 0.00000, 0.00000, 0.00000, 0.00000, 0.00000, 0.00000, 0.00000, 0.00000, 0.00000, 0.00000, 0.00000, 0.00000, 0.00000, 0.00000, 0.00000, 0.00000, 0.00000, 0.00000, 0.00000, 0.00000, 0.00000, 0.00000, 0.00000, 0.00000]",
          "Cadence": "PT0.625S",
          "Units": "(cm^2 s sr eV)^-1",
          "UnitsConversion": "6.24181e18>(m^2 s sr J)^-1",
          "CoordinateSystem": {
            "CoordinateRepresentation": "Cartesian",
            "CoordinateSystemName": "SR"
          },
          "RenderingHints": {
            "DisplayType": "Spectrogram",
            "ValueFormat": "e13.6"
          },
          "Structure": {
            "Size": "16 63"
          },
          "FillValue": "-1.0e+31",
          "Particle": {
            "ParticleType": "Ion",
            "Qualifier": "Differential",
            "ParticleQuantity": "EnergyFlux"
          }
        },
        {
          "Name": "Oxygen+ Phase Space Density",
          "Set": "Time series defined by using: EPOCH",
          "ParameterKey": "mms2_hpca_oplus_phase_space_density",
          "Description": "Oxygen+ Phase Space Density for all Elevation Anodes across all Energies\n                      Column 1 Labels: [ 0, 1, 2, 3, 4, 5, 6, 7, 8, 9, 10, 11, 12, 13, 14, 15]\n                      Column 2 Labels: [ 0.00000, 0.00000, 0.00000, 0.00000, 0.00000, 0.00000, 0.00000, 0.00000, 0.00000, 0.00000, 0.00000, 0.00000, 0.00000, 0.00000, 0.00000, 0.00000, 0.00000, 0.00000, 0.00000, 0.00000, 0.00000, 0.00000, 0.00000, 0.00000, 0.00000, 0.00000, 0.00000, 0.00000, 0.00000, 0.00000, 0.00000, 0.00000, 0.00000, 0.00000, 0.00000, 0.00000, 0.00000, 0.00000, 0.00000, 0.00000, 0.00000, 0.00000, 0.00000, 0.00000, 0.00000, 0.00000, 0.00000, 0.00000, 0.00000, 0.00000, 0.00000, 0.00000, 0.00000, 0.00000, 0.00000, 0.00000, 0.00000, 0.00000, 0.00000, 0.00000, 0.00000, 0.00000, 0.00000]",
          "Cadence": "PT0.625S",
          "Units": "cm^-6 s^3",
          "UnitsConversion": "1.0e13>m^-6 s^3",
          "CoordinateSystem": {
            "CoordinateRepresentation": "Cartesian",
            "CoordinateSystemName": "SR"
          },
          "RenderingHints": {
            "DisplayType": "Spectrogram",
            "ValueFormat": "e13.6"
          },
          "Structure": {
            "Size": "16 63"
          },
          "FillValue": "-1.0e+31",
          "Particle": {
            "ParticleType": "Ion",
            "Qualifier": "Tensor",
            "ParticleQuantity": "PhaseSpaceDensity"
          }
        },
        {
          "Name": "Data Quality for Oxygen+",
          "Set": "Time series defined by using: EPOCH",
          "ParameterKey": "mms2_hpca_oplus_data_quality",
          "Description": "Per Sweep Status for O+ (0: Bad; 1: Good; 2: Good, RF On, Bkgd On; 3: Good, RF Off, Bkgd On; 4: Good, RF On, Bkgd Off; 5: Good, RF Off, Bkgd Off; 6: Good, Non-Sweeping Data)",
          "Cadence": "PT0.625S",
          "RenderingHints": {
            "DisplayType": "TimeSeries",
            "AxisLabel": "Data Quality",
            "ValueFormat": "I"
          },
          "ValidMin": "0",
          "ValidMax": "255",
          "FillValue": "65535",
          "Support": {
            "SupportQuantity": "Other"
          }
        },
        {
          "Name": "Magnetic Field Vector in DMPA plus Btotal (8 or 16 samples/s)",
          "Set": "Time series defined by using: EPOCH",
          "ParameterKey": "mms2_hpca_B_GSE_sweep_avg",
          "Description": "Magnetic Field Vector in Despun Major Principal Axis-Aligned (DMPA) Cartesian Coordinates plus Btotal (8 or 16 samples/s)",
          "Cadence": "PT0.625S",
          "Units": "nT",
          "UnitsConversion": "1.0e-9>T",
          "CoordinateSystem": {
            "CoordinateRepresentation": "Cartesian",
            "CoordinateSystemName": "MFA"
          },
          "RenderingHints": {
            "DisplayType": "TimeSeries",
            "ValueFormat": "e13.5"
          },
          "Structure": {
            "Size": "4",
            "Element": [
              {
                "Name": "X",
                "Index": "1"
              },
              {
                "Name": "Y",
                "Index": "2"
              },
              {
                "Name": "Z",
                "Index": "3"
              },
              {
                "Name": "Magnitude",
                "Index": "4"
              }
            ]
          },
          "ValidMin": "-17000.0",
          "ValidMax": "17000.0",
          "FillValue": "-1.0e+31",
          "Field": {
            "Qualifier": "Vector",
            "FieldQuantity": "Magnetic"
          }
        },
        {
          "Name": "Magnetic Field Vector in GSM plus Btotal (8 or 16 samples/s)",
          "Set": "Time series defined by using: EPOCH",
          "ParameterKey": "mms2_hpca_B_GSM_sweep_avg",
          "Description": "Magnetic Field Vector in Geocentric Solar Magnetospheric (GSM) Cartesian Coordinates plus Btotal (8 or 16 samples/s)",
          "Cadence": "PT0.625S",
          "Units": "nT",
          "UnitsConversion": "1.0e-9>T",
          "CoordinateSystem": {
            "CoordinateRepresentation": "Cartesian",
            "CoordinateSystemName": "GSM"
          },
          "RenderingHints": {
            "DisplayType": "TimeSeries",
            "ValueFormat": "e13.5"
          },
          "Structure": {
            "Size": "4",
            "Element": [
              {
                "Name": "X",
                "Index": "1"
              },
              {
                "Name": "Y",
                "Index": "2"
              },
              {
                "Name": "Z",
                "Index": "3"
              },
              {
                "Name": "Magnitude",
                "Index": "4"
              }
            ]
          },
          "ValidMin": "-17000.0",
          "ValidMax": "17000.0",
          "FillValue": "-1.0e+31",
          "Field": {
            "Qualifier": "Vector",
            "FieldQuantity": "Magnetic"
          }
        },
        {
          "Name": "UTC converted from TAI time",
          "ParameterKey": "Epoch_Angles",
          "Description": "Start Time for the Azimuth Angles associated with each Half-Spin",
          "Cadence": "PT0.625S",
          "Units": "ns",
          "UnitsConversion": "1.0e-9>s",
          "RenderingHints": {
            "ValueFormat": "e14.8"
          },
          "ValidMin": "1990-01-01T00:00:00.000000000",
          "ValidMax": "2100-01-01T00:00:01.000000000",
          "Support": {
            "SupportQuantity": "Temporal"
          }
        },
        {
          "Name": "Delta Start Time for Azimuth Angles",
          "ParameterKey": "Epoch_MINUS_Angles",
          "Description": "Delta Start Time for the Record from the Central Time",
          "Cadence": "PT0.625S",
          "Units": "ms",
          "UnitsConversion": "1.0e-3>s",
          "RenderingHints": {
            "ValueFormat": "I"
          },
          "ValidMin": "0",
          "ValidMax": "70000",
          "Support": {
            "SupportQuantity": "Temporal"
          }
        },
        {
          "Name": "Delta Stop Time for Azimuth Angles",
          "ParameterKey": "Epoch_PLUS_Angles",
          "Description": "Delta Stop Time for the Record from the Central Time",
          "Cadence": "PT0.625S",
          "Units": "ms",
          "UnitsConversion": "1.0e-3>s",
          "RenderingHints": {
            "ValueFormat": "I"
          },
          "ValidMin": "0",
          "ValidMax": "70000",
          "Support": {
            "SupportQuantity": "Temporal"
          }
        },
        {
          "Name": "Azimuth Angles in degrees",
          "Set": "Time series defined by using: EPOCH_ANGLES",
          "ParameterKey": "mms2_hpca_azimuth_angles_degrees",
          "Description": "Azimuth Angles in Degrees for each Anode for each HPCA Half-Spin\n                      Column 1 Labels: [ 0, 1, 2, 3, 4, 5, 6, 7, 8, 9, 10, 11, 12, 13, 14, 15]\n                      Column 2 Labels: [ 0, 1, 2, 3, 4, 5, 6, 7, 8, 9, 10, 11, 12, 13, 14, 15]",
          "Cadence": "PT0.625S",
          "Units": "degree",
          "UnitsConversion": "0.0174532925>rad",
          "CoordinateSystem": {
            "CoordinateRepresentation": "Spherical",
            "CoordinateSystemName": "SR"
          },
          "RenderingHints": {
            "ValueFormat": "F"
          },
          "Structure": {
            "Size": "16 16",
            "Element": [
              {
                "Name": "Element 1 1",
                "Index": "1"
              },
              {
                "Name": "Element 2 1",
                "Index": "2"
              },
              {
                "Name": "Element 3 1",
                "Index": "3"
              },
              {
                "Name": "Element 4 1",
                "Index": "4"
              },
              {
                "Name": "Element 5 1",
                "Index": "5"
              },
              {
                "Name": "Element 6 1",
                "Index": "6"
              },
              {
                "Name": "Element 7 1",
                "Index": "7"
              },
              {
                "Name": "Element 8 1",
                "Index": "8"
              },
              {
                "Name": "Element 9 1",
                "Index": "9"
              },
              {
                "Name": "Element 10 1",
                "Index": "10"
              },
              {
                "Name": "Element 11 1",
                "Index": "11"
              },
              {
                "Name": "Element 12 1",
                "Index": "12"
              },
              {
                "Name": "Element 13 1",
                "Index": "13"
              },
              {
                "Name": "Element 14 1",
                "Index": "14"
              },
              {
                "Name": "Element 15 1",
                "Index": "15"
              },
              {
                "Name": "Element 16 1",
                "Index": "16"
              },
              {
                "Name": "Element 1 2",
                "Index": "17"
              },
              {
                "Name": "Element 2 2",
                "Index": "18"
              },
              {
                "Name": "Element 3 2",
                "Index": "19"
              },
              {
                "Name": "Element 4 2",
                "Index": "20"
              },
              {
                "Name": "Element 5 2",
                "Index": "21"
              },
              {
                "Name": "Element 6 2",
                "Index": "22"
              },
              {
                "Name": "Element 7 2",
                "Index": "23"
              },
              {
                "Name": "Element 8 2",
                "Index": "24"
              },
              {
                "Name": "Element 9 2",
                "Index": "25"
              },
              {
                "Name": "Element 10 2",
                "Index": "26"
              },
              {
                "Name": "Element 11 2",
                "Index": "27"
              },
              {
                "Name": "Element 12 2",
                "Index": "28"
              },
              {
                "Name": "Element 13 2",
                "Index": "29"
              },
              {
                "Name": "Element 14 2",
                "Index": "30"
              },
              {
                "Name": "Element 15 2",
                "Index": "31"
              },
              {
                "Name": "Element 16 2",
                "Index": "32"
              },
              {
                "Name": "Element 1 3",
                "Index": "33"
              },
              {
                "Name": "Element 2 3",
                "Index": "34"
              },
              {
                "Name": "Element 3 3",
                "Index": "35"
              },
              {
                "Name": "Element 4 3",
                "Index": "36"
              },
              {
                "Name": "Element 5 3",
                "Index": "37"
              },
              {
                "Name": "Element 6 3",
                "Index": "38"
              },
              {
                "Name": "Element 7 3",
                "Index": "39"
              },
              {
                "Name": "Element 8 3",
                "Index": "40"
              },
              {
                "Name": "Element 9 3",
                "Index": "41"
              },
              {
                "Name": "Element 10 3",
                "Index": "42"
              },
              {
                "Name": "Element 11 3",
                "Index": "43"
              },
              {
                "Name": "Element 12 3",
                "Index": "44"
              },
              {
                "Name": "Element 13 3",
                "Index": "45"
              },
              {
                "Name": "Element 14 3",
                "Index": "46"
              },
              {
                "Name": "Element 15 3",
                "Index": "47"
              },
              {
                "Name": "Element 16 3",
                "Index": "48"
              },
              {
                "Name": "Element 1 4",
                "Index": "49"
              },
              {
                "Name": "Element 2 4",
                "Index": "50"
              },
              {
                "Name": "Element 3 4",
                "Index": "51"
              },
              {
                "Name": "Element 4 4",
                "Index": "52"
              },
              {
                "Name": "Element 5 4",
                "Index": "53"
              },
              {
                "Name": "Element 6 4",
                "Index": "54"
              },
              {
                "Name": "Element 7 4",
                "Index": "55"
              },
              {
                "Name": "Element 8 4",
                "Index": "56"
              },
              {
                "Name": "Element 9 4",
                "Index": "57"
              },
              {
                "Name": "Element 10 4",
                "Index": "58"
              },
              {
                "Name": "Element 11 4",
                "Index": "59"
              },
              {
                "Name": "Element 12 4",
                "Index": "60"
              },
              {
                "Name": "Element 13 4",
                "Index": "61"
              },
              {
                "Name": "Element 14 4",
                "Index": "62"
              },
              {
                "Name": "Element 15 4",
                "Index": "63"
              },
              {
                "Name": "Element 16 4",
                "Index": "64"
              },
              {
                "Name": "Element 1 5",
                "Index": "65"
              },
              {
                "Name": "Element 2 5",
                "Index": "66"
              },
              {
                "Name": "Element 3 5",
                "Index": "67"
              },
              {
                "Name": "Element 4 5",
                "Index": "68"
              },
              {
                "Name": "Element 5 5",
                "Index": "69"
              },
              {
                "Name": "Element 6 5",
                "Index": "70"
              },
              {
                "Name": "Element 7 5",
                "Index": "71"
              },
              {
                "Name": "Element 8 5",
                "Index": "72"
              },
              {
                "Name": "Element 9 5",
                "Index": "73"
              },
              {
                "Name": "Element 10 5",
                "Index": "74"
              },
              {
                "Name": "Element 11 5",
                "Index": "75"
              },
              {
                "Name": "Element 12 5",
                "Index": "76"
              },
              {
                "Name": "Element 13 5",
                "Index": "77"
              },
              {
                "Name": "Element 14 5",
                "Index": "78"
              },
              {
                "Name": "Element 15 5",
                "Index": "79"
              },
              {
                "Name": "Element 16 5",
                "Index": "80"
              },
              {
                "Name": "Element 1 6",
                "Index": "81"
              },
              {
                "Name": "Element 2 6",
                "Index": "82"
              },
              {
                "Name": "Element 3 6",
                "Index": "83"
              },
              {
                "Name": "Element 4 6",
                "Index": "84"
              },
              {
                "Name": "Element 5 6",
                "Index": "85"
              },
              {
                "Name": "Element 6 6",
                "Index": "86"
              },
              {
                "Name": "Element 7 6",
                "Index": "87"
              },
              {
                "Name": "Element 8 6",
                "Index": "88"
              },
              {
                "Name": "Element 9 6",
                "Index": "89"
              },
              {
                "Name": "Element 10 6",
                "Index": "90"
              },
              {
                "Name": "Element 11 6",
                "Index": "91"
              },
              {
                "Name": "Element 12 6",
                "Index": "92"
              },
              {
                "Name": "Element 13 6",
                "Index": "93"
              },
              {
                "Name": "Element 14 6",
                "Index": "94"
              },
              {
                "Name": "Element 15 6",
                "Index": "95"
              },
              {
                "Name": "Element 16 6",
                "Index": "96"
              },
              {
                "Name": "Element 1 7",
                "Index": "97"
              },
              {
                "Name": "Element 2 7",
                "Index": "98"
              },
              {
                "Name": "Element 3 7",
                "Index": "99"
              },
              {
                "Name": "Element 4 7",
                "Index": "100"
              },
              {
                "Name": "Element 5 7",
                "Index": "101"
              },
              {
                "Name": "Element 6 7",
                "Index": "102"
              },
              {
                "Name": "Element 7 7",
                "Index": "103"
              },
              {
                "Name": "Element 8 7",
                "Index": "104"
              },
              {
                "Name": "Element 9 7",
                "Index": "105"
              },
              {
                "Name": "Element 10 7",
                "Index": "106"
              },
              {
                "Name": "Element 11 7",
                "Index": "107"
              },
              {
                "Name": "Element 12 7",
                "Index": "108"
              },
              {
                "Name": "Element 13 7",
                "Index": "109"
              },
              {
                "Name": "Element 14 7",
                "Index": "110"
              },
              {
                "Name": "Element 15 7",
                "Index": "111"
              },
              {
                "Name": "Element 16 7",
                "Index": "112"
              },
              {
                "Name": "Element 1 8",
                "Index": "113"
              },
              {
                "Name": "Element 2 8",
                "Index": "114"
              },
              {
                "Name": "Element 3 8",
                "Index": "115"
              },
              {
                "Name": "Element 4 8",
                "Index": "116"
              },
              {
                "Name": "Element 5 8",
                "Index": "117"
              },
              {
                "Name": "Element 6 8",
                "Index": "118"
              },
              {
                "Name": "Element 7 8",
                "Index": "119"
              },
              {
                "Name": "Element 8 8",
                "Index": "120"
              },
              {
                "Name": "Element 9 8",
                "Index": "121"
              },
              {
                "Name": "Element 10 8",
                "Index": "122"
              },
              {
                "Name": "Element 11 8",
                "Index": "123"
              },
              {
                "Name": "Element 12 8",
                "Index": "124"
              },
              {
                "Name": "Element 13 8",
                "Index": "125"
              },
              {
                "Name": "Element 14 8",
                "Index": "126"
              },
              {
                "Name": "Element 15 8",
                "Index": "127"
              },
              {
                "Name": "Element 16 8",
                "Index": "128"
              },
              {
                "Name": "Element 1 9",
                "Index": "129"
              },
              {
                "Name": "Element 2 9",
                "Index": "130"
              },
              {
                "Name": "Element 3 9",
                "Index": "131"
              },
              {
                "Name": "Element 4 9",
                "Index": "132"
              },
              {
                "Name": "Element 5 9",
                "Index": "133"
              },
              {
                "Name": "Element 6 9",
                "Index": "134"
              },
              {
                "Name": "Element 7 9",
                "Index": "135"
              },
              {
                "Name": "Element 8 9",
                "Index": "136"
              },
              {
                "Name": "Element 9 9",
                "Index": "137"
              },
              {
                "Name": "Element 10 9",
                "Index": "138"
              },
              {
                "Name": "Element 11 9",
                "Index": "139"
              },
              {
                "Name": "Element 12 9",
                "Index": "140"
              },
              {
                "Name": "Element 13 9",
                "Index": "141"
              },
              {
                "Name": "Element 14 9",
                "Index": "142"
              },
              {
                "Name": "Element 15 9",
                "Index": "143"
              },
              {
                "Name": "Element 16 9",
                "Index": "144"
              },
              {
                "Name": "Element 1 10",
                "Index": "145"
              },
              {
                "Name": "Element 2 10",
                "Index": "146"
              },
              {
                "Name": "Element 3 10",
                "Index": "147"
              },
              {
                "Name": "Element 4 10",
                "Index": "148"
              },
              {
                "Name": "Element 5 10",
                "Index": "149"
              },
              {
                "Name": "Element 6 10",
                "Index": "150"
              },
              {
                "Name": "Element 7 10",
                "Index": "151"
              },
              {
                "Name": "Element 8 10",
                "Index": "152"
              },
              {
                "Name": "Element 9 10",
                "Index": "153"
              },
              {
                "Name": "Element 10 10",
                "Index": "154"
              },
              {
                "Name": "Element 11 10",
                "Index": "155"
              },
              {
                "Name": "Element 12 10",
                "Index": "156"
              },
              {
                "Name": "Element 13 10",
                "Index": "157"
              },
              {
                "Name": "Element 14 10",
                "Index": "158"
              },
              {
                "Name": "Element 15 10",
                "Index": "159"
              },
              {
                "Name": "Element 16 10",
                "Index": "160"
              },
              {
                "Name": "Element 1 11",
                "Index": "161"
              },
              {
                "Name": "Element 2 11",
                "Index": "162"
              },
              {
                "Name": "Element 3 11",
                "Index": "163"
              },
              {
                "Name": "Element 4 11",
                "Index": "164"
              },
              {
                "Name": "Element 5 11",
                "Index": "165"
              },
              {
                "Name": "Element 6 11",
                "Index": "166"
              },
              {
                "Name": "Element 7 11",
                "Index": "167"
              },
              {
                "Name": "Element 8 11",
                "Index": "168"
              },
              {
                "Name": "Element 9 11",
                "Index": "169"
              },
              {
                "Name": "Element 10 11",
                "Index": "170"
              },
              {
                "Name": "Element 11 11",
                "Index": "171"
              },
              {
                "Name": "Element 12 11",
                "Index": "172"
              },
              {
                "Name": "Element 13 11",
                "Index": "173"
              },
              {
                "Name": "Element 14 11",
                "Index": "174"
              },
              {
                "Name": "Element 15 11",
                "Index": "175"
              },
              {
                "Name": "Element 16 11",
                "Index": "176"
              },
              {
                "Name": "Element 1 12",
                "Index": "177"
              },
              {
                "Name": "Element 2 12",
                "Index": "178"
              },
              {
                "Name": "Element 3 12",
                "Index": "179"
              },
              {
                "Name": "Element 4 12",
                "Index": "180"
              },
              {
                "Name": "Element 5 12",
                "Index": "181"
              },
              {
                "Name": "Element 6 12",
                "Index": "182"
              },
              {
                "Name": "Element 7 12",
                "Index": "183"
              },
              {
                "Name": "Element 8 12",
                "Index": "184"
              },
              {
                "Name": "Element 9 12",
                "Index": "185"
              },
              {
                "Name": "Element 10 12",
                "Index": "186"
              },
              {
                "Name": "Element 11 12",
                "Index": "187"
              },
              {
                "Name": "Element 12 12",
                "Index": "188"
              },
              {
                "Name": "Element 13 12",
                "Index": "189"
              },
              {
                "Name": "Element 14 12",
                "Index": "190"
              },
              {
                "Name": "Element 15 12",
                "Index": "191"
              },
              {
                "Name": "Element 16 12",
                "Index": "192"
              },
              {
                "Name": "Element 1 13",
                "Index": "193"
              },
              {
                "Name": "Element 2 13",
                "Index": "194"
              },
              {
                "Name": "Element 3 13",
                "Index": "195"
              },
              {
                "Name": "Element 4 13",
                "Index": "196"
              },
              {
                "Name": "Element 5 13",
                "Index": "197"
              },
              {
                "Name": "Element 6 13",
                "Index": "198"
              },
              {
                "Name": "Element 7 13",
                "Index": "199"
              },
              {
                "Name": "Element 8 13",
                "Index": "200"
              },
              {
                "Name": "Element 9 13",
                "Index": "201"
              },
              {
                "Name": "Element 10 13",
                "Index": "202"
              },
              {
                "Name": "Element 11 13",
                "Index": "203"
              },
              {
                "Name": "Element 12 13",
                "Index": "204"
              },
              {
                "Name": "Element 13 13",
                "Index": "205"
              },
              {
                "Name": "Element 14 13",
                "Index": "206"
              },
              {
                "Name": "Element 15 13",
                "Index": "207"
              },
              {
                "Name": "Element 16 13",
                "Index": "208"
              },
              {
                "Name": "Element 1 14",
                "Index": "209"
              },
              {
                "Name": "Element 2 14",
                "Index": "210"
              },
              {
                "Name": "Element 3 14",
                "Index": "211"
              },
              {
                "Name": "Element 4 14",
                "Index": "212"
              },
              {
                "Name": "Element 5 14",
                "Index": "213"
              },
              {
                "Name": "Element 6 14",
                "Index": "214"
              },
              {
                "Name": "Element 7 14",
                "Index": "215"
              },
              {
                "Name": "Element 8 14",
                "Index": "216"
              },
              {
                "Name": "Element 9 14",
                "Index": "217"
              },
              {
                "Name": "Element 10 14",
                "Index": "218"
              },
              {
                "Name": "Element 11 14",
                "Index": "219"
              },
              {
                "Name": "Element 12 14",
                "Index": "220"
              },
              {
                "Name": "Element 13 14",
                "Index": "221"
              },
              {
                "Name": "Element 14 14",
                "Index": "222"
              },
              {
                "Name": "Element 15 14",
                "Index": "223"
              },
              {
                "Name": "Element 16 14",
                "Index": "224"
              },
              {
                "Name": "Element 1 15",
                "Index": "225"
              },
              {
                "Name": "Element 2 15",
                "Index": "226"
              },
              {
                "Name": "Element 3 15",
                "Index": "227"
              },
              {
                "Name": "Element 4 15",
                "Index": "228"
              },
              {
                "Name": "Element 5 15",
                "Index": "229"
              },
              {
                "Name": "Element 6 15",
                "Index": "230"
              },
              {
                "Name": "Element 7 15",
                "Index": "231"
              },
              {
                "Name": "Element 8 15",
                "Index": "232"
              },
              {
                "Name": "Element 9 15",
                "Index": "233"
              },
              {
                "Name": "Element 10 15",
                "Index": "234"
              },
              {
                "Name": "Element 11 15",
                "Index": "235"
              },
              {
                "Name": "Element 12 15",
                "Index": "236"
              },
              {
                "Name": "Element 13 15",
                "Index": "237"
              },
              {
                "Name": "Element 14 15",
                "Index": "238"
              },
              {
                "Name": "Element 15 15",
                "Index": "239"
              },
              {
                "Name": "Element 16 15",
                "Index": "240"
              },
              {
                "Name": "Element 1 16",
                "Index": "241"
              },
              {
                "Name": "Element 2 16",
                "Index": "242"
              },
              {
                "Name": "Element 3 16",
                "Index": "243"
              },
              {
                "Name": "Element 4 16",
                "Index": "244"
              },
              {
                "Name": "Element 5 16",
                "Index": "245"
              },
              {
                "Name": "Element 6 16",
                "Index": "246"
              },
              {
                "Name": "Element 7 16",
                "Index": "247"
              },
              {
                "Name": "Element 8 16",
                "Index": "248"
              },
              {
                "Name": "Element 9 16",
                "Index": "249"
              },
              {
                "Name": "Element 10 16",
                "Index": "250"
              },
              {
                "Name": "Element 11 16",
                "Index": "251"
              },
              {
                "Name": "Element 12 16",
                "Index": "252"
              },
              {
                "Name": "Element 13 16",
                "Index": "253"
              },
              {
                "Name": "Element 14 16",
                "Index": "254"
              },
              {
                "Name": "Element 15 16",
                "Index": "255"
              },
              {
                "Name": "Element 16 16",
                "Index": "256"
              }
            ]
          },
          "FillValue": "720.0",
          "Particle": {
            "ParticleType": "Ion",
            "Qualifier": "DirectionAngle.AzimuthAngle",
            "ParticleQuantity": "ArrivalDirection"
          }
        },
        {
          "Name": "Azimuth Angle per eV in degrees",
          "Set": "Time series defined by using: EPOCH_ANGLES",
          "ParameterKey": "mms2_hpca_azimuth_angles_per_ev_degrees",
          "Description": "Azimuth Angles per eV in Degrees for each Anode for each HPCA Half-Spin\n                      Column 1 Labels: [ 0, 1, 2, 3, 4, 5, 6, 7, 8, 9, 10, 11, 12, 13, 14, 15]\n                      Column 2 Labels: [ 0, 1, 2, 3, 4, 5, 6, 7, 8, 9, 10, 11, 12, 13, 14, 15]\n                      Column 3 Labels: [ 0, 1, 2, 3, 4, 5, 6, 7, 8, 9, 10, 11, 12, 13, 14, 15, 16, 17, 18, 19, 20, 21, 22, 23, 24, 25, 26, 27, 28, 29, 30, 31, 32, 33, 34, 35, 36, 37, 38, 39, 40, 41, 42, 43, 44, 45, 46, 47, 48, 49, 50, 51, 52, 53, 54, 55, 56, 57, 58, 59, 60, 61, 62]",
          "Cadence": "PT0.625S",
          "Units": "degree",
          "UnitsConversion": "0.0174532925>rad",
          "CoordinateSystem": {
            "CoordinateRepresentation": "Spherical",
            "CoordinateSystemName": "SR"
          },
          "RenderingHints": {
            "ValueFormat": "F"
          },
          "Structure": {
            "Size": "16 16 63"
          },
          "FillValue": "720.0",
          "Particle": {
            "ParticleType": "Ion",
            "Qualifier": "DirectionAngle.AzimuthAngle",
            "ParticleQuantity": "ArrivalDirection"
          }
        },
        {
          "Name": "Center Elevation Angles",
          "ParameterKey": "mms2_hpca_centroid_elevation_angle",
          "Description": "Center Elevation Angles of each of the Anodes",
          "Cadence": "PT0.625S",
          "Units": "degree",
          "UnitsConversion": "0.0174532925>rad",
          "CoordinateSystem": {
            "CoordinateRepresentation": "Spherical",
            "CoordinateSystemName": "SR"
          },
          "RenderingHints": {
            "ValueFormat": "F"
          },
          "Structure": {
            "Size": "16",
            "Element": [
              {
                "Name": "Element 1",
                "Index": "1"
              },
              {
                "Name": "Element 2",
                "Index": "2"
              },
              {
                "Name": "Element 3",
                "Index": "3"
              },
              {
                "Name": "Element 4",
                "Index": "4"
              },
              {
                "Name": "Element 5",
                "Index": "5"
              },
              {
                "Name": "Element 6",
                "Index": "6"
              },
              {
                "Name": "Element 7",
                "Index": "7"
              },
              {
                "Name": "Element 8",
                "Index": "8"
              },
              {
                "Name": "Element 9",
                "Index": "9"
              },
              {
                "Name": "Element 10",
                "Index": "10"
              },
              {
                "Name": "Element 11",
                "Index": "11"
              },
              {
                "Name": "Element 12",
                "Index": "12"
              },
              {
                "Name": "Element 13",
                "Index": "13"
              },
              {
                "Name": "Element 14",
                "Index": "14"
              },
              {
                "Name": "Element 15",
                "Index": "15"
              },
              {
                "Name": "Element 16",
                "Index": "16"
              }
            ]
          },
          "ValidMin": "11.25",
          "ValidMax": "168.75",
          "Particle": {
            "ParticleType": "Ion",
            "Qualifier": "DirectionAngle.ElevationAngle",
            "ParticleQuantity": "ArrivalDirection"
          }
        },
        {
          "Name": "Azimuth Index",
          "ParameterKey": "mms2_hpca_azimuth_index",
          "Description": "Azimuth Index Value",
          "Cadence": "PT0.625S",
          "RenderingHints": {
            "ValueFormat": "I"
          },
          "Structure": {
            "Size": "16",
            "Element": [
              {
                "Name": "Element 1",
                "Index": "1"
              },
              {
                "Name": "Element 2",
                "Index": "2"
              },
              {
                "Name": "Element 3",
                "Index": "3"
              },
              {
                "Name": "Element 4",
                "Index": "4"
              },
              {
                "Name": "Element 5",
                "Index": "5"
              },
              {
                "Name": "Element 6",
                "Index": "6"
              },
              {
                "Name": "Element 7",
                "Index": "7"
              },
              {
                "Name": "Element 8",
                "Index": "8"
              },
              {
                "Name": "Element 9",
                "Index": "9"
              },
              {
                "Name": "Element 10",
                "Index": "10"
              },
              {
                "Name": "Element 11",
                "Index": "11"
              },
              {
                "Name": "Element 12",
                "Index": "12"
              },
              {
                "Name": "Element 13",
                "Index": "13"
              },
              {
                "Name": "Element 14",
                "Index": "14"
              },
              {
                "Name": "Element 15",
                "Index": "15"
              },
              {
                "Name": "Element 16",
                "Index": "16"
              }
            ]
          },
          "ValidMin": "0",
          "ValidMax": "15",
          "Support": {
            "SupportQuantity": "Other"
          }
        },
        {
          "Name": "Energy Step Index",
          "ParameterKey": "mms2_hpca_energy_step_number",
          "Description": "Energy Step Index Value",
          "Cadence": "PT0.625S",
          "RenderingHints": {
            "ValueFormat": "I"
          },
          "Structure": {
            "Size": "63",
            "Element": [
              {
                "Name": "Element 1",
                "Index": "1"
              },
              {
                "Name": "Element 2",
                "Index": "2"
              },
              {
                "Name": "Element 3",
                "Index": "3"
              },
              {
                "Name": "Element 4",
                "Index": "4"
              },
              {
                "Name": "Element 5",
                "Index": "5"
              },
              {
                "Name": "Element 6",
                "Index": "6"
              },
              {
                "Name": "Element 7",
                "Index": "7"
              },
              {
                "Name": "Element 8",
                "Index": "8"
              },
              {
                "Name": "Element 9",
                "Index": "9"
              },
              {
                "Name": "Element 10",
                "Index": "10"
              },
              {
                "Name": "Element 11",
                "Index": "11"
              },
              {
                "Name": "Element 12",
                "Index": "12"
              },
              {
                "Name": "Element 13",
                "Index": "13"
              },
              {
                "Name": "Element 14",
                "Index": "14"
              },
              {
                "Name": "Element 15",
                "Index": "15"
              },
              {
                "Name": "Element 16",
                "Index": "16"
              },
              {
                "Name": "Element 17",
                "Index": "17"
              },
              {
                "Name": "Element 18",
                "Index": "18"
              },
              {
                "Name": "Element 19",
                "Index": "19"
              },
              {
                "Name": "Element 20",
                "Index": "20"
              },
              {
                "Name": "Element 21",
                "Index": "21"
              },
              {
                "Name": "Element 22",
                "Index": "22"
              },
              {
                "Name": "Element 23",
                "Index": "23"
              },
              {
                "Name": "Element 24",
                "Index": "24"
              },
              {
                "Name": "Element 25",
                "Index": "25"
              },
              {
                "Name": "Element 26",
                "Index": "26"
              },
              {
                "Name": "Element 27",
                "Index": "27"
              },
              {
                "Name": "Element 28",
                "Index": "28"
              },
              {
                "Name": "Element 29",
                "Index": "29"
              },
              {
                "Name": "Element 30",
                "Index": "30"
              },
              {
                "Name": "Element 31",
                "Index": "31"
              },
              {
                "Name": "Element 32",
                "Index": "32"
              },
              {
                "Name": "Element 33",
                "Index": "33"
              },
              {
                "Name": "Element 34",
                "Index": "34"
              },
              {
                "Name": "Element 35",
                "Index": "35"
              },
              {
                "Name": "Element 36",
                "Index": "36"
              },
              {
                "Name": "Element 37",
                "Index": "37"
              },
              {
                "Name": "Element 38",
                "Index": "38"
              },
              {
                "Name": "Element 39",
                "Index": "39"
              },
              {
                "Name": "Element 40",
                "Index": "40"
              },
              {
                "Name": "Element 41",
                "Index": "41"
              },
              {
                "Name": "Element 42",
                "Index": "42"
              },
              {
                "Name": "Element 43",
                "Index": "43"
              },
              {
                "Name": "Element 44",
                "Index": "44"
              },
              {
                "Name": "Element 45",
                "Index": "45"
              },
              {
                "Name": "Element 46",
                "Index": "46"
              },
              {
                "Name": "Element 47",
                "Index": "47"
              },
              {
                "Name": "Element 48",
                "Index": "48"
              },
              {
                "Name": "Element 49",
                "Index": "49"
              },
              {
                "Name": "Element 50",
                "Index": "50"
              },
              {
                "Name": "Element 51",
                "Index": "51"
              },
              {
                "Name": "Element 52",
                "Index": "52"
              },
              {
                "Name": "Element 53",
                "Index": "53"
              },
              {
                "Name": "Element 54",
                "Index": "54"
              },
              {
                "Name": "Element 55",
                "Index": "55"
              },
              {
                "Name": "Element 56",
                "Index": "56"
              },
              {
                "Name": "Element 57",
                "Index": "57"
              },
              {
                "Name": "Element 58",
                "Index": "58"
              },
              {
                "Name": "Element 59",
                "Index": "59"
              },
              {
                "Name": "Element 60",
                "Index": "60"
              },
              {
                "Name": "Element 61",
                "Index": "61"
              },
              {
                "Name": "Element 62",
                "Index": "62"
              },
              {
                "Name": "Element 63",
                "Index": "63"
              }
            ]
          },
          "ValidMin": "0",
          "ValidMax": "62",
          "Support": {
            "SupportQuantity": "Other"
          }
        }
      ]
    }
  }
}