{
  "Spase": {
    "xmlns": "http://www.spase-group.org/data/schema",
    "Version": "2.2.8",
    "NumericalData": {
      "ResourceID": "spase://NASA/NumericalData/TIMED/GUVI/L1C/Disk/LBH2/NorthPolar/Movies/P1D",
      "ResourceHeader": {
        "ResourceName": "TIMED Global Ultraviolet Imager (GUVI) Airglow Flux 14-day Movies, at Wavelength LBH2 in North Polar Projection",
        "ReleaseDate": "2021-03-29T17:14:50Z",
        "Description": "GUVI measures FUV Airglow in five Spectral Bands: the atomic HI Lyman-alpha Band, 121.6 nm, two atomic Oxygen OI Bands, 130.4 nm and 135.6 nm, and the molecular Nitrogen Lyman-Birge-Hopfield Short, LBHS, 141 to 152.8 nm, and Lyman-Birge-Hopfield Long, LBHL, 167.2 to 181.2 nm, Bands. The Cross-Track Scanning Spectrograph images a Ground Swath of 3000 km Width providing nearly Contiguous Global Coverage with 15 Orbits per Day. This L1CDisk, Level 1C Disk, Version 3, File provides the calibrated, geolocated, and rectified Intensities for the fifth LBH2, 1650-1800 Å, Wavelength Band. This is a Movie with mapped Images of the Log Intensities by Orbit by using a North Polar Projection.",
        "Acknowledgement": "A. B. Christensen",
        "Contact": [
          {
            "PersonID": "spase://SMWG/Person/Andrew.B.Christensen",
            "Role": "PrincipalInvestigator"
          },
          {
            "PersonID": "spase://SMWG/Person/Robert.E.McGuire",
            "Role": "MetadataContact"
          },
          {
            "PersonID": "spase://SMWG/Person/Lee.Frost.Bargatze",
            "Role": "MetadataContact"
          }
        ],
        "InformationURL": [
          {
            "Name": "Description of TIMED/GUVI Data Products, including L1Cdisk Data",
            "URL": "http://guvitimed.jhuapl.edu/data_use",
            "Description": "Description of TIMED Global Ultraviolet Imager, GUVI, Data Products, including Level L1C Disk Data binned in GUVI Coordinates"
          },
          {
            "Name": "CDAWeb Tutorial for Use of TIMED/GUVI L1Cdisk Data",
            "URL": "https://cdaweb.gsfc.nasa.gov/cdaweb/cdaweb_guvi_tutorial.pdf",
            "Description": "CDAWEB Tutorial for Use of TIMED Global Ultraviolet Imager, GUVI, Data Products. This Tutorial guides you through a typical CDAWeb Session using TIMED/GUVI Parameters."
          }
        ],
        "PriorID": "spase://VSPO/NumericalData/TIMED/GUVI/L1C/Disk/LBH2/NorthPolar/Movies/P1D"
      },
      "AccessInformation": {
        "RepositoryID": "spase://SMWG/Repository/NASA/GSFC/SPDF",
        "Availability": "Online",
        "AccessRights": "Open",
        "AccessURL": [
          {
            "Name": "FTPS from SPDF (not with most browsers)",
            "URL": "ftps://spdf.gsfc.nasa.gov/pub/data/timed/guvi/levels_v10/level1c/disk_movies/",
            "Description": "Access to Data in CDF Format via ftp from SPDF"
          },
          {
            "Name": "HTTPS from SPDF",
            "URL": "https://spdf.gsfc.nasa.gov/pub/data/timed/guvi/levels_v10/level1c/disk_movies/",
            "Description": "Access to Data in CDF Format via http from SPDF"
          },
          {
            "Name": "CDAWeb",
            "URL": "https://cdaweb.gsfc.nasa.gov/cgi-bin/eval2.cgi?dataset=TIMED_L1CDISK_GUVI_LBH2_NP_MOVIES&index=sp_phys",
            "ProductKey": "TIMED_L1CDISK_GUVI_LBH2_NP_MOVIES",
            "Description": "Access to ASCII, CDF, and plots via NASA/GSFC CDAWeb"
          }
        ],
        "Format": "CDF",
        "Encoding": "None",
        "Acknowledgement": "A. B. Christensen. Please acknowledge the data providers and CDAWeb when using these data."
      },
      "ProcessingLevel": "Calibrated",
      "InstrumentID": "spase://SMWG/Instrument/TIMED/GUVI",
      "MeasurementType": "ImageIntensity",
      "TemporalDescription": {
        "TimeSpan": {
          "StartDate": "2002-05-31T00:00:00",
          "StopDate": "2007-12-21T23:00:00"
        },
        "Cadence": "P1D"
      },
      "SpectralRange": [
        "Ultraviolet",
        "LBHBand"
      ],
      "ObservedRegion": [
        "Earth.NearSurface.AuroralRegion",
        "Earth.NearSurface.EquatorialRegion",
        "Earth.NearSurface.Ionosphere",
        "Earth.NearSurface.Ionosphere.DRegion",
        "Earth.NearSurface.Ionosphere.ERegion",
        "Earth.NearSurface.Ionosphere.FRegion",
        "Earth.NearSurface.PolarCap",
        "Earth.NearSurface.Thermosphere"
      ],
      "Parameter": [
        {
          "Name": "Epoch Time, since 0 A.D.",
          "ParameterKey": "Epoch",
          "Description": "Epoch Time, Milliseconds since 0 A.D., denotes Beginning of Interval, rounded to the nearest ms",
          "Cadence": "P1D",
          "Units": "ms",
          "UnitsConversion": "1e-3>s",
          "RenderingHints": {
            "AxisLabel": "Epoch",
            "ValueFormat": "1PE13.2"
          },
          "ValidMin": "6.28687e+13",
          "ValidMax": "6.28689e+13",
          "FillValue": "-1.0e+31",
          "Support": {
            "SupportQuantity": "Temporal"
          }
        },
        {
          "Name": "LBH2, 1650-1800 Å, log10 Intensity North Polar",
          "Set": "Time series defined by using: EPOCH",
          "ParameterKey": "Intns5_rec_MC_log",
          "Description": "Molecular Nitrogen, N₂, Lyman-Birge-Hopfield Long Band, LBHL, 1650-1800 Å, log10 Intensity, North Polar Projection, Pre-generated animated GIF Files",
          "Cadence": "P1D",
          "Units": "R",
          "UnitsConversion": "1e-10>m^-2 s-1",
          "RenderingHints": {
            "ValueFormat": "E11.4"
          },
          "Structure": {
            "Size": "1647 130"
          },
          "FillValue": "-1.0e+31",
          "Wave": {
            "WaveType": "Electromagnetic",
            "Qualifier": "Scalar",
            "WaveQuantity": "Intensity"
          }
        }
      ]
    }
  }
}