{
  "Spase": {
    "xmlns": "http://www.spase-group.org/data/schema",
    "xmlns:xsi": "http://www.w3.org/2001/XMLSchema-instance",
    "xsi:schemaLocation": "http://www.spase-group.org/data/schema  https://www.spase-group.org/data/schema/spase-2_3_2.xsd",
    "Version": "2.3.2",
    "NumericalData": {
      "ResourceID": "spase://NASA/NumericalData/Voyager1/PWS/CDF/PT4S",
      "ResourceHeader": {
        "ResourceName": "Voyager 1 Plasma Wave System (PWS), Low Rate Data",
        "ReleaseDate": "2021-04-27T15:38:11Z",
        "Description": "Voyager 1 Plasma Wave Subsystem, PWS, Electric Field Spectrum Analyzer Cruise Phase Data. The Data Set encompasses all Spectrum Analyzer Observations obtained in the Cruise Mission Phases before, between, and after the Jupiter and Saturn Encounter Phases.",
        "Acknowledgement": "D. Gurnett, W.S. Kurth",
        "Contact": [
          {
            "PersonID": "spase://SMWG/Person/Donald.A.Gurnett",
            "Role": "PrincipalInvestigator"
          },
          {
            "PersonID": "spase://SMWG/Person/William.S.Kurth",
            "Role": "PrincipalInvestigator"
          },
          {
            "PersonID": "spase://SMWG/Person/Robert.E.McGuire",
            "Role": "MetadataContact"
          },
          {
            "PersonID": "spase://SMWG/Person/Lee.Frost.Bargatze",
            "Role": "MetadataContact"
          }
        ],
        "InformationURL": {
          "Name": "Voyager 1 and 2 Plasma Wave Investigation Information",
          "URL": "http://www-pw.physics.uiowa.edu/voyager/",
          "Description": "Voyager 1 and Voyager 2 Plasma Wave Investigation Information and Web Site Links"
        },
        "PriorID": "spase://VSPO/NumericalData/Voyager1/PWS/CDF/PT4S"
      },
      "AccessInformation": [
        {
          "RepositoryID": "spase://SMWG/Repository/NASA/GSFC/SPDF",
          "Availability": "Online",
          "AccessRights": "Open",
          "AccessURL": [
            {
              "Name": "FTPS from SPDF (not with most browsers)",
              "URL": "ftps://spdf.gsfc.nasa.gov/pub/data/voyager/voyager1/wave_spectra_pws/",
              "Description": "Access to Data in CDF Format via ftp from SPDF"
            },
            {
              "Name": "HTTPS from SPDF",
              "URL": "https://spdf.gsfc.nasa.gov/pub/data/voyager/voyager1/wave_spectra_pws/",
              "Description": "Access to Data in CDF Format via http from SPDF"
            },
            {
              "Name": "CDAWeb",
              "URL": "https://cdaweb.gsfc.nasa.gov/cgi-bin/eval2.cgi?dataset=VG1_PWS_LR&index=sp_phys",
              "ProductKey": "VG1_PWS_LR",
              "Description": "Access to ASCII, CDF, and plots via NASA/GSFC CDAWeb"
            }
          ],
          "Format": "CDF",
          "Encoding": "None",
          "Acknowledgement": "D. Gurnett, W.S. Kurth. Please acknowledge the data providers and CDAWeb when using these data."
        },
        {
          "RepositoryID": "spase://SMWG/Repository/NASA/GSFC/SPDF",
          "Availability": "Online",
          "AccessRights": "Open",
          "AccessURL": {
            "Name": "CDAWeb HAPI Server",
            "URL": "https://cdaweb.gsfc.nasa.gov/hapi",
            "Style": "HAPI",
            "ProductKey": "VG1_PWS_LR",
            "Description": "Web Service to this product using the HAPI interface."
          },
          "Format": "CSV",
          "Acknowledgement": "D. Gurnett, W.S. Kurth. Please acknowledge the data providers and CDAWeb when using these data."
        }
      ],
      "ProcessingLevel": "Calibrated",
      "InstrumentID": "spase://SMWG/Instrument/Voyager1/PWS",
      "MeasurementType": "Waves",
      "TemporalDescription": {
        "TimeSpan": {
          "StartDate": "1977-09-05T00:00:00.000",
          "RelativeStopDate": "-P7D"
        },
        "Cadence": "PT4S"
      },
      "ObservedRegion": [
        "Heliosphere",
        "Heliosphere.NearEarth",
        "Heliosphere.Outer"
      ],
      "Parameter": [
        {
          "Name": "Epoch Time",
          "ParameterKey": "epoch",
          "Description": "Epoch Time, Spacecraft Measurement Time",
          "Caveats": "Spacecraft measurement time This parameter exhibits an increasing monotonic progression.",
          "Cadence": "PT4S",
          "Units": "ns",
          "UnitsConversion": "1.0e-9>s",
          "RenderingHints": {
            "AxisLabel": "Time",
            "ScaleType": "LinearScale"
          },
          "ValidMin": "1990-01-01T00:00:00.000000000",
          "ValidMax": "2030-01-01T00:00:00.999000000",
          "FillValue": "9999-12-31T23:59:59.999999999",
          "Support": {
            "SupportQuantity": "Temporal"
          }
        },
        {
          "Name": "Electric Field Strength, Spectrogram",
          "Set": "Time series defined by using: EPOCH",
          "ParameterKey": "electric_field",
          "Description": "Electric Field Strength, Spectrogram",
          "Caveats": "calibrated E-field for 16 channels",
          "Cadence": "PT4S",
          "Units": "V/m",
          "RenderingHints": {
            "DisplayType": "Spectrogram",
            "ValueFormat": "E13.3",
            "ScaleMin": "1.0e-07",
            "ScaleMax": "0.001"
          },
          "Structure": {
            "Size": "16",
            "Element": [
              {
                "Name": "Element 1",
                "Index": "1",
                "RenderingHints": {
                  "AxisLabel": "10.0000"
                }
              },
              {
                "Name": "Element 2",
                "Index": "2",
                "RenderingHints": {
                  "AxisLabel": "17.8000"
                }
              },
              {
                "Name": "Element 3",
                "Index": "3",
                "RenderingHints": {
                  "AxisLabel": "31.1000"
                }
              },
              {
                "Name": "Element 4",
                "Index": "4",
                "RenderingHints": {
                  "AxisLabel": "56.2000"
                }
              },
              {
                "Name": "Element 5",
                "Index": "5",
                "RenderingHints": {
                  "AxisLabel": "100.000"
                }
              },
              {
                "Name": "Element 6",
                "Index": "6",
                "RenderingHints": {
                  "AxisLabel": "178.000"
                }
              },
              {
                "Name": "Element 7",
                "Index": "7",
                "RenderingHints": {
                  "AxisLabel": "311.000"
                }
              },
              {
                "Name": "Element 8",
                "Index": "8",
                "RenderingHints": {
                  "AxisLabel": "562.000"
                }
              },
              {
                "Name": "Element 9",
                "Index": "9",
                "RenderingHints": {
                  "AxisLabel": "1000.00"
                }
              },
              {
                "Name": "Element 10",
                "Index": "10",
                "RenderingHints": {
                  "AxisLabel": "1780.00"
                }
              },
              {
                "Name": "Element 11",
                "Index": "11",
                "RenderingHints": {
                  "AxisLabel": "3110.00"
                }
              },
              {
                "Name": "Element 12",
                "Index": "12",
                "RenderingHints": {
                  "AxisLabel": "5620.00"
                }
              },
              {
                "Name": "Element 13",
                "Index": "13",
                "RenderingHints": {
                  "AxisLabel": "10000.0"
                }
              },
              {
                "Name": "Element 14",
                "Index": "14",
                "RenderingHints": {
                  "AxisLabel": "17800.0"
                }
              },
              {
                "Name": "Element 15",
                "Index": "15",
                "RenderingHints": {
                  "AxisLabel": "31100.0"
                }
              },
              {
                "Name": "Element 16",
                "Index": "16",
                "RenderingHints": {
                  "AxisLabel": "56200.0"
                }
              }
            ]
          },
          "ValidMin": "0.0",
          "ValidMax": "0.01",
          "FillValue": "-1.0e+31",
          "Wave": {
            "WaveType": "PlasmaWaves",
            "WaveQuantity": "Intensity"
          }
        },
        {
          "Name": "Electric Field Strength, Stacked Plots",
          "Set": "Time series defined by using: EPOCH",
          "ParameterKey": "electric_field_stack",
          "Description": "Electric Field Strength, Stacked Plots",
          "Caveats": "calibrated E-field for 16 channels This parameter is virtual. It is calculated by calling the function ALTERNATE_VIEW with the following input parameters: electric_field.",
          "Cadence": "PT4S",
          "Units": "V/m",
          "RenderingHints": {
            "ValueFormat": "E13.3",
            "ScaleMin": "1.0e-06",
            "ScaleMax": "0.01"
          },
          "Structure": {
            "Size": "16",
            "Element": [
              {
                "Name": "Element 1",
                "Index": "1",
                "RenderingHints": {
                  "AxisLabel": "10.0000"
                }
              },
              {
                "Name": "Element 2",
                "Index": "2",
                "RenderingHints": {
                  "AxisLabel": "17.8000"
                }
              },
              {
                "Name": "Element 3",
                "Index": "3",
                "RenderingHints": {
                  "AxisLabel": "31.1000"
                }
              },
              {
                "Name": "Element 4",
                "Index": "4",
                "RenderingHints": {
                  "AxisLabel": "56.2000"
                }
              },
              {
                "Name": "Element 5",
                "Index": "5",
                "RenderingHints": {
                  "AxisLabel": "100.000"
                }
              },
              {
                "Name": "Element 6",
                "Index": "6",
                "RenderingHints": {
                  "AxisLabel": "178.000"
                }
              },
              {
                "Name": "Element 7",
                "Index": "7",
                "RenderingHints": {
                  "AxisLabel": "311.000"
                }
              },
              {
                "Name": "Element 8",
                "Index": "8",
                "RenderingHints": {
                  "AxisLabel": "562.000"
                }
              },
              {
                "Name": "Element 9",
                "Index": "9",
                "RenderingHints": {
                  "AxisLabel": "1000.00"
                }
              },
              {
                "Name": "Element 10",
                "Index": "10",
                "RenderingHints": {
                  "AxisLabel": "1780.00"
                }
              },
              {
                "Name": "Element 11",
                "Index": "11",
                "RenderingHints": {
                  "AxisLabel": "3110.00"
                }
              },
              {
                "Name": "Element 12",
                "Index": "12",
                "RenderingHints": {
                  "AxisLabel": "5620.00"
                }
              },
              {
                "Name": "Element 13",
                "Index": "13",
                "RenderingHints": {
                  "AxisLabel": "10000.0"
                }
              },
              {
                "Name": "Element 14",
                "Index": "14",
                "RenderingHints": {
                  "AxisLabel": "17800.0"
                }
              },
              {
                "Name": "Element 15",
                "Index": "15",
                "RenderingHints": {
                  "AxisLabel": "31100.0"
                }
              },
              {
                "Name": "Element 16",
                "Index": "16",
                "RenderingHints": {
                  "AxisLabel": "56200.0"
                }
              }
            ]
          },
          "ValidMin": "1.0e-06",
          "ValidMax": "0.01",
          "FillValue": "-1.0e+31",
          "Wave": {
            "WaveType": "PlasmaWaves",
            "WaveQuantity": "Intensity"
          }
        },
        {
          "Name": "Electric Field Strength, Time Series",
          "Set": "Time series defined by using: EPOCH",
          "ParameterKey": "electric_field_timeseries",
          "Description": "Electric Field Strength, Time Series",
          "Caveats": "calibrated E-field for 16 channels This parameter is virtual. It is calculated by calling the function ALTERNATE_VIEW with the following input parameters: electric_field.",
          "Cadence": "PT4S",
          "Units": "V/m",
          "RenderingHints": {
            "DisplayType": "TimeSeries",
            "ValueFormat": "E13.3",
            "ScaleMin": "1.0e-10",
            "ScaleMax": "0.01"
          },
          "Structure": {
            "Size": "16",
            "Element": [
              {
                "Name": "Voy1 Electric Field at 10.0 Hz",
                "Index": "1",
                "RenderingHints": {
                  "AxisLabel": "10.0000"
                }
              },
              {
                "Name": "Voy1 Electric Field at 17.8 Hz",
                "Index": "2",
                "RenderingHints": {
                  "AxisLabel": "17.8000"
                }
              },
              {
                "Name": "Voy1 Electric Field at 31.1 Hz",
                "Index": "3",
                "RenderingHints": {
                  "AxisLabel": "31.1000"
                }
              },
              {
                "Name": "Voy1 Electric Field at 56.2 Hz",
                "Index": "4",
                "RenderingHints": {
                  "AxisLabel": "56.2000"
                }
              },
              {
                "Name": "Voy1 Electric Field at 100. Hz",
                "Index": "5",
                "RenderingHints": {
                  "AxisLabel": "100.000"
                }
              },
              {
                "Name": "Voy1 Electric Field at 178. Hz",
                "Index": "6",
                "RenderingHints": {
                  "AxisLabel": "178.000"
                }
              },
              {
                "Name": "Voy1 Electric Field at 311. Hz",
                "Index": "7",
                "RenderingHints": {
                  "AxisLabel": "311.000"
                }
              },
              {
                "Name": "Voy1 Electric Field at 562. Hz",
                "Index": "8",
                "RenderingHints": {
                  "AxisLabel": "562.000"
                }
              },
              {
                "Name": "Voy1 Electric Field at 1.00 kHz",
                "Index": "9",
                "RenderingHints": {
                  "AxisLabel": "1000.00"
                }
              },
              {
                "Name": "Voy1 Electric Field at 1.78 kHz",
                "Index": "10",
                "RenderingHints": {
                  "AxisLabel": "1780.00"
                }
              },
              {
                "Name": "Voy1 Electric Field at 3.11 kHz",
                "Index": "11",
                "RenderingHints": {
                  "AxisLabel": "3110.00"
                }
              },
              {
                "Name": "Voy1 Electric Field at 5.62 kHz",
                "Index": "12",
                "RenderingHints": {
                  "AxisLabel": "5620.00"
                }
              },
              {
                "Name": "Voy1 Electric Field at 10.0 kHz",
                "Index": "13",
                "RenderingHints": {
                  "AxisLabel": "10000.0"
                }
              },
              {
                "Name": "Voy1 Electric Field at 17.8 kHz",
                "Index": "14",
                "RenderingHints": {
                  "AxisLabel": "17800.0"
                }
              },
              {
                "Name": "Voy1 Electric Field at 31.1 kHz",
                "Index": "15",
                "RenderingHints": {
                  "AxisLabel": "31100.0"
                }
              },
              {
                "Name": "Voy1 Electric Field at 56.2 kHz",
                "Index": "16",
                "RenderingHints": {
                  "AxisLabel": "56200.0"
                }
              }
            ]
          },
          "ValidMin": "0.0",
          "ValidMax": "0.01",
          "FillValue": "-1.0e+31",
          "Wave": {
            "WaveType": "PlasmaWaves",
            "WaveQuantity": "Intensity"
          }
        }
      ]
    }
  }
}