{
  "Spase": {
    "xmlns": "http://www.spase-group.org/data/schema",
    "xmlns:xsi": "http://www.w3.org/2001/XMLSchema-instance",
    "xsi:schemaLocation": "http://www.spase-group.org/data/schema  https://www.spase-group.org/data/schema/spase-2_3_2.xsd",
    "Version": "2.3.2",
    "NumericalData": {
      "ResourceID": "spase://NASA/NumericalData/IBEX/Hi/H3/Release10/NOCG/SP/Antiram/P1Y",
      "ResourceHeader": {
        "ResourceName": "IBEX High Energy Neutral Atom Imager (ENA-Hi) Data Release 10, not Compton-Getting corrected, Survival Probability corrected, Antiram direction, West Longitude Ecliptic Maps, 1 year averaged data, Level H3",
        "ReleaseDate": "2021-04-27T15:38:11Z",
        "Description": "This IBEX-Hi data set is from Release 10 of all-sky map data for the first seven years, 2009-2015, in the form of antiram direction Hydrogen, H, energetic neutral atom fluxes with no Compton-Getting corrections for spacecraft motion and with corrections for ENA survival probability between 1 and 100 AU. All-sky maps have been compiled for each consecutive 1 year time interval.\n\nThe Interstellar Boundary Explorer, IBEX, has operated in space since 2008 updating our knowledge of the outer heliosphere and its interaction with the local interstellar medium. Start-time: 2008-12-25. There are currently 14 releases of IBEX-Hi and/or IBEX-Lo data covering 2009-2017. The data consist of all-sky maps in Solar Ecliptic Longitude, east and west, and Latitude angles for Energetic Neutral Atom, ENA, Hydrogen fluxes from IBEX-Hi from energy band 2 through energy band 6, see the first table below, in numerical data form. This particular data set is from IBEX Release 10 which includes observation from the first seven years, 2009-2015, of the IBEX mission. Details of the data and enabled science from Release 10 are given in the following journal publication:\n\nMcComas, D.J., et al. (2017), Seven Years of Imaging the Global Heliosphere with IBEX, Astrophys. J. Supp. Ser., 229(2), 41 (32 pp.), http://doi.org/10.3847/1538-4365/aa66d8\n\nThe IBEX-Hi band/channel center energies and full width half maximum, FWHM, energy ranges are listed in a table below:\n\n+-----------------------------------------------------+\n| Energy Band | Center Energy | Energy Range          |\n|-----------------------------------------------------|\n|  Channel 2  |   ~0.71 keV   |  0.52 keV to 0.95 keV |\n|  Channel 3  |   ~1.11 keV   |  0.84 keV to 1.55 keV |\n|  Channel 4  |   ~1.74 keV   |  1.36 keV to 2.50 keV |\n|  Channel 5  |   ~2.73 keV   |  1.99 keV to 3.75 keV |\n|  Channel 6  |   ~4.29 keV   |  3.13 keV to 6.00 keV |\n+-----------------------------------------------------+\n\nThis particular IBEX-Hi CDF data product was constructed from the original ascii files named using the pattern hvset_tabular_antiram_yearN for N=1,7, includes pixel map data from the antiram direction, with no corrections, nocg, for the Compton-Getting effect corrections, sp, for ENA survival probability between 1 AU and 100 AU, and a map compilation cadence equal to 1 year.\n\nIn all, there are 12 IBEX-Hi Release 10 CDF data products resulting from the multiplication of options for two Compton-Getting correction settings by two survival probability settings by three directional settings: antiram, ram, omni. The table below defines how the file naming pattern is constructed for each data product. Note that $quot;ibex_h3_ena_hi_r10\"\" is the file naming pattern root for all twelve of these IBEX-Hi CDF data products. The asterisk symbols in the last column of the table shows the line corresponding to this CDF data product within the expanded file naming pattern schema.\n\n+-----------------------------------------------------------------------------------------------------+\n| C-G Corr. | SP Corr. | Dir. Acronym  | Map Cadence | File Naming Pattern for 1 yr Skymaps     |     |\n|-----------------------------------------------------------------------------------------------------|\n|   cg      |   nosp   |    antiram    |   1 year    | ibex_h3_ena_hi_r10_cg_nosp_antiram_1yr   |     |\n|   cg      |   sp     |    antiram    |   1 year    | ibex_h3_ena_hi_r10_cg_sp_antiram_1yr     |     |\n|   nocg    |   nosp   |    antiram    |   1 year    | ibex_h3_ena_hi_r10_nocg_nosp_antiram_1yr |     |\n|   nocg    |   sp     |    antiram    |   1 year    | ibex_h3_ena_hi_r10_nocg_sp_antiram_1yr   | *** |\n|-----------------------------------------------------------------------------------------------------|\n|   cg      |   nosp   |    ram        |   1 year    | ibex_h3_ena_hi_r10_cg_nosp_ram_1yr       |     |\n|   cg      |   sp     |    ram        |   1 year    | ibex_h3_ena_hi_r10_cg_sp_ram_1yr         |     |\n|   nocg    |   nosp   |    ram        |   1 year    | ibex_h3_ena_hi_r10_nocg_nosp_ram_1yr     |     |\n|   nocg    |   sp     |    ram        |   1 year    | ibex_h3_ena_hi_r10_nocg_sp_ram_1yr       |     |\n|-----------------------------------------------------------------------------------------------------|\n|   cg      |   nosp   |    omni       |   6 months  | ibex_h3_ena_hi_r10_cg_nosp_omni_6mo      |     |\n|   cg      |   sp     |    omni       |   6 months  | ibex_h3_ena_hi_r10_cg_sp_omni_6mo        |     |\n|   nocg    |   nosp   |    omni       |   6 months  | ibex_h3_ena_hi_r10_nocg_nosp_omni_6mo    |     |\n|   nocg    |   sp     |    omni       |   6 months  | ibex_h3_ena_hi_r10_nocg_sp_omni_6mo      |     |\n+-----------------------------------------------------------------------------------------------------+\n\nThe first column in the above table shows whether Compton-Getting, C-G, corrections have been applied to the data. C-G corrections account for how ENA measurements are affected by the the orientation of the IBEX spacecraft velocity vector relative to the arrival direction of the ENAs.\n\ncg: Compton-Getting corrections applied\nnocg: Compton-Getting corrections not applied\n\nThe second column in the above table shows whether Survival Probability, SP, corrections have been applied to the data. SP corrections account for the loss of ENAs due to radiation pressure, photoionization and ionization via charge exchange with solar wind protons as they stream through the heliosphere. This correction scales the data out from IBEX at 1 AU to ~100 AU. In the original data this mode is denoted as Tabular.\n\nsp: Survival Probability corrections applied\nnosp: Survival Probability corrections not applied\n\nThe third column in the above table shows the constraint placed on the ENA arrival direction relative to spacecraft motion used in the construction of each of the various IBEX-Hi Skymaps.\n\nomni: All data, no Constraint on the IBEX velocity vector relative to the ram direction of incoming ENAs\nram: Data constrained to times when the IBEX velocity vector pointed into the ram direction of the incoming ENAs\nantiram: Data constrained to times when the IBEX velocity vector pointed away from the ram direction of the incoming ENAs\n\nThe data in IBEX Release 10 are separated into 6 month and 1 year segments. The following table shows the association betwwen Release 10 map numbers from 1 to 14 with mission year from 1 to 7, orbits from 11 to 310b, and dates from 2008-12-25 to 2015-12-23.\n\n+-------------------------------------------------------------------------+\n| Skymap # | Year | Start-End of Orbit or Arcs | Start Date to Stop Date  |\n|-------------------------------------------------------------------------|\n| 1        | 1    |  11-34                     | 2008-12-25 to 2009-06-25 |\n| 2        | 1    |  35-58                     | 2009-06-25 to 2009-12-25 |\n| 3        | 2    |  59-82                     | 2009-12-25 to 2010-06-26 |\n| 4        | 2    |  83-106                    | 2010-06-26 to 2010-12-26 |\n| 5        | 3    |  107-130a                  | 2010-12-26 to 2011-06-25 |\n| 6        | 3    |  130b-150a                 | 2011-06-25 to 2011-12-24 |\n| 7        | 4    |  150b-170a                 | 2011-12-24 to 2012-06-22 |\n| 8        | 4    |  170b-190b                 | 2012-06-22 to 2012-12-26 |\n| 9        | 5    |  191a-210b                 | 2012-12-26 to 2013-06-26 |\n| 10       | 5    |  211a-230b                 | 2013-06-26 to 2013-12-26 |\n| 11       | 6    |  231a-250b                 | 2013-12-26 to 2014-06-26 |\n| 12       | 6    |  251a-270b                 | 2014-06-26 to 2014-12-24 |\n| 13       | 7    |  271a-290b                 | 2014-12-24 to 2015-06-24 |\n| 14       | 7    |  291a-310b                 | 2015-06-24 to 2015-12-23 |\n+-------------------------------------------------------------------------+",
        "Acknowledgement": "Please acknowledge the IBEX Mission Principal Investigator, David J. McComas, Princeton University. The IBEX Release 10 data are archived as fully citable data. Please consult the IBEX Science Team personnel and publications for further details on production, processing, and usage of these data.",
        "Contact": [
          {
            "PersonID": "spase://SMWG/Person/David.J.McComas",
            "Role": "PrincipalInvestigator"
          },
          {
            "PersonID": "spase://SMWG/Person/Robert.M.Candey",
            "Role": "MetadataContact"
          },
          {
            "PersonID": "spase://SMWG/Person/Lee.Frost.Bargatze",
            "Role": "MetadataContact"
          }
        ],
        "InformationURL": [
          {
            "Name": "IBEX Mission, Instrument, and Data Release Description, SwRI",
            "URL": "http://ibex.swri.edu/",
            "Description": "Interstellar Boundary Explorer, IBEX, Mission, Instrument, and Data Release Description, hosted by the Southwest Research Institute, SwRI"
          },
          {
            "Name": "IBEX Data Release 10, IBEX-Hi Maps Overview Listing, SwRI",
            "URL": "http://ibex.swri.edu/ibexpublicdata/Data_Release_10/",
            "Description": "Interstellar Boundary Explorer, IBEX, Mission, Data Release 10, IBEX-Hi Maps in ASCII List Format and Image Format, hosted by the Southwest Research Institute, SwRI"
          },
          {
            "Name": "IBEX Data Release 10, IBEX-Hi Maps Overview Listing, SPDF, NASA",
            "URL": "https://spdf.gsfc.nasa.gov/pub/data/ibex/release10/IBEX-Data-Release-10_Seven-Years-of-Imaging-the-Global-Heliosphere-with-IBEX.pdf",
            "Description": "Interstellar Boundary Explorer, IBEX, Mission, Data Release 10, IBEX-Hi Maps in ASCII List Format and Image Format, hosted by the Space Physics Data Facility, SPDF, NASA"
          },
          {
            "Name": "IBEX Data Release 10 Description, Astrophys. J. Suppl. Ser. Publication",
            "URL": "https://iopscience.iop.org/article/10.3847/1538-4365/aa66d8",
            "Description": "McComas, D.J., Zirnstein, E.J., Bzowski, M., Dayeh, M.A., Funsten, H.O., Fuselier, S.A., Janzen, P.H., Kubiak, M.A., Kucharek, H., Mobius, E., Reisenfeld, D.B., Schwadron, N.A., Sokol, J.M., Szalay, J.R., and M. Tokumaru, Astrophysical Journal Supplement Series, 229:41, DOI:10.3847/1538-4365/aa66d8, 2017"
          },
          {
            "Name": "IBEX High Energy Neutral Atom Imager, IBEX-Hi, Instrument Description, Space Sci. Rev. Publication",
            "URL": "https://link.springer.com/article/10.1007/s11214-009-9504-y",
            "Description": "Funsten, H.O., Allegrini, F., Bochsler, P., Dunn, G., Ellis, S., Everett, D., Fagan, M.J., Fuselier, S.A., Granoff, M., Gruntman, M., Guthrie, A.A., Hanley, J., Harper, R.W., Heirtzler, D., Janzen, P., Kihara, K.H., King, B., Kucharek, H., Manzo, M.P., Maple, M., Mashburn, K., McComas, D.J., Moebius, E., Nolin, J., Piazza, D., Pope, S., Reisenfeld, D.B., Rodriguez, B., Roelof, E.C., Saul, L., Turco, S., Valek, P., Weidner, S., Wurz, P., and S. Zaffke, The Interstellar Boundary Explorer High Energy (IBEX-Hi) Neutral Atom Imager, Space Science Review, 146: 75-103, DOI:10.1007/s11214-009-9504-y, 2009"
          }
        ],
        "PriorID": "spase://VSPO/NumericalData/IBEX/Hi/H3/Release10/NOCG/SP/Antiram/P1Y"
      },
      "AccessInformation": [
        {
          "RepositoryID": "spase://SMWG/Repository/NASA/GSFC/SPDF",
          "Availability": "Online",
          "AccessRights": "Open",
          "AccessURL": [
            {
              "Name": "FTPS from SPDF (not with most browsers)",
              "URL": "ftps://spdf.gsfc.nasa.gov/pub/data/ibex/cdf/h3/release10/ena_hi_nocg_sp_antiram_1yr/",
              "Description": "Access to Data in CDF Format via ftp from SPDF"
            },
            {
              "Name": "HTTPS from SPDF",
              "URL": "https://spdf.gsfc.nasa.gov/pub/data/ibex/cdf/h3/release10/ena_hi_nocg_sp_antiram_1yr/",
              "Description": "Access to Data in CDF Format via http from SPDF"
            },
            {
              "Name": "CDAWeb",
              "URL": "https://cdaweb.gsfc.nasa.gov/cgi-bin/eval2.cgi?dataset=IBEX_H3_ENA_HI_R10_NOCG_SP_ANTIRAM_1YR&index=sp_phys",
              "ProductKey": "IBEX_H3_ENA_HI_R10_NOCG_SP_ANTIRAM_1YR",
              "Description": "Access to ASCII, CDF, and Plots via NASA/GSFC CDAWeb"
            }
          ],
          "Format": "CDF",
          "Encoding": "None",
          "Acknowledgement": "Please acknowledge D.J. McComas. Please acknowledge the Data Providers and CDAWeb when using these Data."
        },
        {
          "RepositoryID": "spase://SMWG/Repository/NASA/GSFC/SPDF",
          "Availability": "Online",
          "AccessRights": "Open",
          "AccessURL": {
            "Name": "CDAWeb HAPI Server",
            "URL": "https://cdaweb.gsfc.nasa.gov/hapi",
            "Style": "HAPI",
            "ProductKey": "IBEX_H3_ENA_HI_R10_NOCG_SP_ANTIRAM_1YR",
            "Description": "Web Service to this product using the HAPI interface."
          },
          "Format": "CSV",
          "Acknowledgement": "Please acknowledge D.J. McComas. Please acknowledge the Data Providers and CDAWeb when using these Data."
        }
      ],
      "ProcessingLevel": "Calibrated",
      "InstrumentID": "spase://SMWG/Instrument/IBEX/Hi",
      "MeasurementType": "EnergeticParticles",
      "TemporalDescription": {
        "TimeSpan": {
          "StartDate": "2008-12-25T00:00:00.000",
          "StopDate": "2014-12-23T23:59:59.999"
        },
        "Cadence": "P1Y"
      },
      "ObservedRegion": "Heliosphere.Inner",
      "Parameter": [
        {
          "Name": "Epoch Time, start time of averaging interval",
          "ParameterKey": "Epoch",
          "Description": "Epoch Time, start time of the 1 year averaging interval for all-sky map compilation",
          "Caveats": "This Parameter exhibits an increasing Monotonic Progression",
          "Cadence": "P1Y",
          "RenderingHints": {
            "AxisLabel": "Epoch",
            "ValueFormat": "CDF EPOCH TIME",
            "ScaleType": "LinearScale"
          },
          "ValidMin": "01-Jan-1990 00:00:00.000",
          "ValidMax": "31-Dec-2029 23:59:59.999",
          "FillValue": "31-Dec-9999 23:59:59.999",
          "Support": {
            "SupportQuantity": "Temporal"
          }
        },
        {
          "Name": "Epoch Time, end time of averaging interval",
          "ParameterKey": "Epoch2",
          "Description": "Epoch Time, end time of the 1 year averaging interval for all-sky map compilation",
          "Caveats": "This Parameter exhibits an increasing Monotonic Progression",
          "Cadence": "P1Y",
          "RenderingHints": {
            "AxisLabel": "Epoch2",
            "ValueFormat": "CDF EPOCH TIME",
            "ScaleType": "LinearScale"
          },
          "ValidMin": "01-Jan-1990 00:00:00.000",
          "ValidMax": "31-Dec-2029 23:59:59.999",
          "FillValue": "31-Dec-9999 23:59:59.999",
          "Support": {
            "SupportQuantity": "Temporal"
          }
        },
        {
          "Name": "All-sky Map Number",
          "Set": "Time Series defined by using: EPOCH",
          "ParameterKey": "mapnum",
          "Description": "All-sky Map Number for the 1 year averaged maps in IBEX Data Release 10 sequentially numbered from 1 to 7",
          "Caveats": "Maps 1 to 14 cover the first seven years of data from December 25, 2008 to December 23, 2015",
          "Cadence": "P1Y",
          "RenderingHints": {
            "DisplayType": "TimeSeries",
            "AxisLabel": "Start Map Number",
            "ValueFormat": "I5",
            "ScaleType": "LinearScale"
          },
          "ValidMin": "0",
          "ValidMax": "65534",
          "FillValue": "65535",
          "Support": {
            "Qualifier": "Scalar",
            "SupportQuantity": "Other"
          }
        },
        {
          "Name": "Solar Ecliptic Latitude Bin Number",
          "ParameterKey": "latitude_bin",
          "Description": "Solar Ecliptic Latitude Bin Number, corresponding to 6° latitudinal increments of the IBEX-Hi viewing sector",
          "Caveats": "There are 30 angular bins in Solar Ecliptic Latitude from -90° to +90°. The center-point angular value is -87° for Bin #1 and +87° for Bin #30.",
          "Cadence": "P1Y",
          "RenderingHints": {
            "AxisLabel": "#",
            "ValueFormat": "I5",
            "ScaleType": "LinearScale"
          },
          "Structure": {
            "Size": "30"
          },
          "ValidMin": "1",
          "ValidMax": "30",
          "FillValue": "65534",
          "Support": {
            "Qualifier": "Scalar",
            "SupportQuantity": "Other"
          }
        },
        {
          "Name": "Solar West Ecliptic Longitude Bin Number",
          "ParameterKey": "longitude_bin",
          "Description": "Solar West Ecliptic Longitude Bin Number, corresponding to 6° longitudinal increments of the IBEX-Hi viewing sector",
          "Caveats": "There are 60 angular sectors in Solar West Ecliptic Longitude from 0° to 360°. The center-point angular value is 3° for Bin #1 and 357° for Bin #60.",
          "Cadence": "P1Y",
          "RenderingHints": {
            "AxisLabel": "#",
            "ValueFormat": "I5",
            "ScaleType": "LinearScale"
          },
          "Structure": {
            "Size": "60"
          },
          "ValidMin": "1",
          "ValidMax": "60",
          "FillValue": "65535",
          "Support": {
            "Qualifier": "Scalar",
            "SupportQuantity": "Other"
          }
        },
        {
          "Name": "Skymap Pixel, Latitude, Solar Ecliptic Coodinates",
          "ParameterKey": "Latitude",
          "Description": "Skymap Pixel Heliocentric Directional Location, Latitude, Solar Ecliptic, SE, Spherical Coodinates",
          "Caveats": "Latitude values correspond to the mid-points of 6° latitudinal IBEX-Hi viewing sectors",
          "Cadence": "P1Y",
          "Units": "°",
          "UnitsConversion": "0.0174532925>rad",
          "CoordinateSystem": {
            "CoordinateRepresentation": "Spherical",
            "CoordinateSystemName": "SE"
          },
          "RenderingHints": {
            "AxisLabel": "Latitude",
            "ValueFormat": "F6.0",
            "ScaleType": "LinearScale"
          },
          "Structure": {
            "Size": "30"
          },
          "ValidMin": "-90.0",
          "ValidMax": "90.0",
          "FillValue": "-1.0e+31",
          "Support": {
            "Qualifier": [
              "Array",
              "Magnitude"
            ],
            "SupportQuantity": "Velocity"
          }
        },
        {
          "Name": "Skymap Pixel, West Longitude, Solar Ecliptic Coordinates",
          "ParameterKey": "West_Longitude",
          "Description": "Skymap Pixel Heliocentric Directional Location, West Longitude, Solar Ecliptic, SE, Spherical Coordinates",
          "Caveats": "Longitude values correspond to the mid-points of 6° longitudinal IBEX-Hi viewing sectors",
          "Cadence": "P1Y",
          "Units": "°",
          "UnitsConversion": "0.0174532925>rad",
          "CoordinateSystem": {
            "CoordinateRepresentation": "Spherical",
            "CoordinateSystemName": "SE"
          },
          "RenderingHints": {
            "AxisLabel": "SWE Longitude",
            "ValueFormat": "F6.0"
          },
          "Structure": {
            "Size": "60"
          },
          "ValidMin": "0.0",
          "ValidMax": "360.0",
          "FillValue": "-1.0e+31",
          "Support": {
            "Qualifier": [
              "Array",
              "Magnitude"
            ],
            "SupportQuantity": "Velocity"
          }
        },
        {
          "Name": "Skymap Pixel, East Longitude, Solar Ecliptic Coordinates",
          "ParameterKey": "East_Longitude",
          "Description": "Skymap Pixel Heliocentric Directional Location, East Longitude, Solar Ecliptic, SE, Spherical Coordinates",
          "Caveats": "Longitude values correspond to the mid-points of 6° longitudinal IBEX-Hi viewing sectors",
          "Cadence": "P1Y",
          "Units": "°",
          "UnitsConversion": "0.0174532925>rad",
          "CoordinateSystem": {
            "CoordinateRepresentation": "Spherical",
            "CoordinateSystemName": "SE"
          },
          "RenderingHints": {
            "AxisLabel": "SEE Longitude",
            "ValueFormat": "F6.0"
          },
          "Structure": {
            "Size": "60"
          },
          "ValidMin": "0.0",
          "ValidMax": "360.0",
          "FillValue": "-1.0e+31",
          "Support": {
            "Qualifier": [
              "Array",
              "Magnitude"
            ],
            "SupportQuantity": "Velocity"
          }
        },
        {
          "Name": "Start Orbit Number",
          "Set": "Time Series defined by using: EPOCH",
          "ParameterKey": "orbit1",
          "Description": "Orbit Number at the start of the measurement period",
          "Caveats": "The IBEX orbital period around the Earth is equal to about 7.5 days",
          "Cadence": "P1Y",
          "RenderingHints": {
            "AxisLabel": "Starting Orbit",
            "ValueFormat": "I5",
            "ScaleType": "LinearScale"
          },
          "ValidMin": "0",
          "ValidMax": "65534",
          "FillValue": "65535",
          "Support": {
            "Qualifier": "Scalar",
            "SupportQuantity": "Temporal"
          }
        },
        {
          "Name": "End Orbit Number",
          "Set": "Time Series defined by using: EPOCH",
          "ParameterKey": "orbit2",
          "Description": "Orbit Number an the end of the measurement period",
          "Caveats": "The IBEX orbital period around the Earth is equal to about 7.5 days",
          "Cadence": "P1Y",
          "RenderingHints": {
            "AxisLabel": "Ending Orbit",
            "ValueFormat": "I5",
            "ScaleType": "LinearScale"
          },
          "ValidMin": "0",
          "ValidMax": "65534",
          "FillValue": "65535",
          "Support": {
            "Qualifier": "Scalar",
            "SupportQuantity": "Temporal"
          }
        },
        {
          "Name": "Mid-Point Energy, IBEX-Hi Energy Channel 2, ~0.71 keV",
          "Set": "Time Series defined by using: EPOCH",
          "ParameterKey": "Ener2",
          "Description": "Mid-Point Energy for IBEX-Hi Energy Channel 2, ~0.71 keV, Band Range: 0.52 keV to 0.95 keV.\n                      Column 1 Labels from WEST_LONGITUDE: [ 357, 351, 345, 339, 333, 327, 321, 315, 309, 303, 297, 291, 285, 279, 273, 267, 261, 255, 249, 243, 237, 231, 225, 219, 213, 207, 201, 195, 189, 183, 177, 171, 165, 159, 153, 147, 141, 135, 129, 123, 117, 111, 105, 99, 93, 87, 81, 75, 69, 63, 57, 51, 45, 39, 33, 27, 21, 15, 9, 3].\n                      Column 2 Labels from LATITUDE: [ -87, -81, -75, -69, -63, -57, -51, -45, -39, -33, -27, -21, -15, -9, -3, 3, 9, 15, 21, 27, 33, 39, 45, 51, 57, 63, 69, 75, 81, 87].",
          "Cadence": "P1Y",
          "Units": "keV",
          "UnitsConversion": "1.602176565e-16>J",
          "RenderingHints": {
            "AxisLabel": "Energy Channel 2",
            "ValueFormat": "F10.6",
            "ScaleType": "LinearScale"
          },
          "Structure": {
            "Size": "60 30"
          },
          "FillValue": "-1.0e+31",
          "Particle": {
            "ParticleType": "Atom",
            "Qualifier": [
              "Array",
              "Magnitude"
            ],
            "ParticleQuantity": "Energy"
          }
        },
        {
          "Name": "Hydrogen, H, ENA Differential Flux, IBEX-Hi Energy Channel 2, ~0.71 keV",
          "Set": "Time Series defined by using: EPOCH",
          "ParameterKey": "Flux2",
          "Description": "Hydrogen, H, Energetic Neutral Atom, ENA, Differential Flux for IBEX-Hi Energy Channel 2, ~0.71 keV, Band Range: 0.52 keV to 0.95 keV.\n                      Column 1 Labels from WEST_LONGITUDE: [ 357, 351, 345, 339, 333, 327, 321, 315, 309, 303, 297, 291, 285, 279, 273, 267, 261, 255, 249, 243, 237, 231, 225, 219, 213, 207, 201, 195, 189, 183, 177, 171, 165, 159, 153, 147, 141, 135, 129, 123, 117, 111, 105, 99, 93, 87, 81, 75, 69, 63, 57, 51, 45, 39, 33, 27, 21, 15, 9, 3].\n                      Column 2 Labels from LATITUDE: [ -87, -81, -75, -69, -63, -57, -51, -45, -39, -33, -27, -21, -15, -9, -3, 3, 9, 15, 21, 27, 33, 39, 45, 51, 57, 63, 69, 75, 81, 87].",
          "Cadence": "P1Y",
          "Units": "(cm^2 s sr eV)^-1",
          "UnitsConversion": "6.24161e-13>(m^2 s sr J)^-1",
          "RenderingHints": {
            "AxisLabel": "Flux",
            "ValueFormat": "F12.6",
            "ScaleType": "LinearScale"
          },
          "Structure": {
            "Size": "60 30"
          },
          "FillValue": "-1.0e+31",
          "Particle": {
            "ParticleType": "Atom",
            "Qualifier": [
              "Array",
              "Magnitude",
              "Differential"
            ],
            "ParticleQuantity": "NumberFlux"
          }
        },
        {
          "Name": "Hydrogen, H, ENA Signal to Noise Ratio, IBEX-Hi Energy Channel 2, ~0.71 keV",
          "Set": "Time Series defined by using: EPOCH",
          "ParameterKey": "Fsnr2",
          "Description": "Hydrogen, H, Energetic Neutral Atom, ENA, Signal to Noise Ratio for IBEX-Hi Energy Channel 2, ~0.71 keV, Band Range: 0.52 keV to 0.95 keV.\n                      Column 1 Labels from WEST_LONGITUDE: [ 357, 351, 345, 339, 333, 327, 321, 315, 309, 303, 297, 291, 285, 279, 273, 267, 261, 255, 249, 243, 237, 231, 225, 219, 213, 207, 201, 195, 189, 183, 177, 171, 165, 159, 153, 147, 141, 135, 129, 123, 117, 111, 105, 99, 93, 87, 81, 75, 69, 63, 57, 51, 45, 39, 33, 27, 21, 15, 9, 3].\n                      Column 2 Labels from LATITUDE: [ -87, -81, -75, -69, -63, -57, -51, -45, -39, -33, -27, -21, -15, -9, -3, 3, 9, 15, 21, 27, 33, 39, 45, 51, 57, 63, 69, 75, 81, 87].",
          "Caveats": "The Signal to Noise Ratio is calculated by using Flux2/sqrt(Fvar2)",
          "Cadence": "P1Y",
          "RenderingHints": {
            "AxisLabel": "Signal to Noise Ratio",
            "ValueFormat": "E8.2",
            "ScaleType": "LinearScale"
          },
          "Structure": {
            "Size": "60 30"
          },
          "FillValue": "-1.0e+31",
          "Particle": {
            "ParticleType": "Atom",
            "Qualifier": [
              "Array",
              "Magnitude",
              "Ratio",
              "Uncertainty"
            ],
            "ParticleQuantity": "NumberFlux"
          }
        },
        {
          "Name": "Hydrogen, H, ENA Flux Variance, IBEX-Hi Energy Channel 2, ~0.71 keV",
          "Set": "Time Series defined by using: EPOCH",
          "ParameterKey": "Fvar2",
          "Description": "Hydrogen, H, Energetic Neutral Atom, ENA, Flux Variance for IBEX-Hi Energy Channel 2, ~0.71 keV, Band Range: 0.52 keV to 0.95 keV.\n                      Column 1 Labels from WEST_LONGITUDE: [ 357, 351, 345, 339, 333, 327, 321, 315, 309, 303, 297, 291, 285, 279, 273, 267, 261, 255, 249, 243, 237, 231, 225, 219, 213, 207, 201, 195, 189, 183, 177, 171, 165, 159, 153, 147, 141, 135, 129, 123, 117, 111, 105, 99, 93, 87, 81, 75, 69, 63, 57, 51, 45, 39, 33, 27, 21, 15, 9, 3].\n                      Column 2 Labels from LATITUDE: [ -87, -81, -75, -69, -63, -57, -51, -45, -39, -33, -27, -21, -15, -9, -3, 3, 9, 15, 21, 27, 33, 39, 45, 51, 57, 63, 69, 75, 81, 87].",
          "Caveats": "The Flux Variance is equal to the square of standard deviation, Sigma",
          "Cadence": "P1Y",
          "Units": "(cm^2 s sr eV)^-2",
          "UnitsConversion": "3.89577e-25>(m^2 s sr J)^-2",
          "RenderingHints": {
            "AxisLabel": "Flux Variance",
            "ValueFormat": "E12.2",
            "ScaleType": "LinearScale"
          },
          "Structure": {
            "Size": "60 30"
          },
          "FillValue": "-1.0e+31",
          "Particle": {
            "ParticleType": "Atom",
            "Qualifier": [
              "Array",
              "Magnitude",
              "Differential",
              "Variance"
            ],
            "ParticleQuantity": "NumberFlux"
          }
        },
        {
          "Name": "Hydrogen, H, ENA Total Counts, IBEX-Hi Energy Channel 2, ~0.71 keV",
          "Set": "Time Series defined by using: EPOCH",
          "ParameterKey": "Cnts2",
          "Description": "Hydrogen, H, Energetic Neutral Atom, ENA, Total Counts for IBEX-Hi Energy Channel 2, ~0.71 keV, Band Range: 0.52 keV to 0.95 keV.\n                      Column 1 Labels from WEST_LONGITUDE: [ 357, 351, 345, 339, 333, 327, 321, 315, 309, 303, 297, 291, 285, 279, 273, 267, 261, 255, 249, 243, 237, 231, 225, 219, 213, 207, 201, 195, 189, 183, 177, 171, 165, 159, 153, 147, 141, 135, 129, 123, 117, 111, 105, 99, 93, 87, 81, 75, 69, 63, 57, 51, 45, 39, 33, 27, 21, 15, 9, 3].\n                      Column 2 Labels from LATITUDE: [ -87, -81, -75, -69, -63, -57, -51, -45, -39, -33, -27, -21, -15, -9, -3, 3, 9, 15, 21, 27, 33, 39, 45, 51, 57, 63, 69, 75, 81, 87].",
          "Cadence": "P1Y",
          "RenderingHints": {
            "AxisLabel": "Counts",
            "ValueFormat": "F10.2",
            "ScaleType": "LinearScale"
          },
          "Structure": {
            "Size": "60 30"
          },
          "FillValue": "-1.0e+31",
          "Particle": {
            "ParticleType": "Atom",
            "Qualifier": [
              "Array",
              "Magnitude",
              "Differential"
            ],
            "ParticleQuantity": "CountRate"
          }
        },
        {
          "Name": "Hydrogen, H, ENA Total Exposure Time, ~0.71 keV, IBEX-Hi Energy Channel 2",
          "Set": "Time Series defined by using: EPOCH",
          "ParameterKey": "Fexp2",
          "Description": "Hydrogen, H, Energetic Neutral Atom, ENA, Total Exposure Time for IBEX-Hi Energy Channel 2, ~0.71 keV, Band Range: 0.52 keV to 0.95 keV.\n                      Column 1 Labels from WEST_LONGITUDE: [ 357, 351, 345, 339, 333, 327, 321, 315, 309, 303, 297, 291, 285, 279, 273, 267, 261, 255, 249, 243, 237, 231, 225, 219, 213, 207, 201, 195, 189, 183, 177, 171, 165, 159, 153, 147, 141, 135, 129, 123, 117, 111, 105, 99, 93, 87, 81, 75, 69, 63, 57, 51, 45, 39, 33, 27, 21, 15, 9, 3].\n                      Column 2 Labels from LATITUDE: [ -87, -81, -75, -69, -63, -57, -51, -45, -39, -33, -27, -21, -15, -9, -3, 3, 9, 15, 21, 27, 33, 39, 45, 51, 57, 63, 69, 75, 81, 87].",
          "Cadence": "P1Y",
          "Units": "s",
          "RenderingHints": {
            "AxisLabel": "Exposure Time",
            "ValueFormat": "E11.3",
            "ScaleType": "LinearScale"
          },
          "Structure": {
            "Size": "60 30"
          },
          "FillValue": "-1.0e+31",
          "Support": {
            "Qualifier": [
              "Array",
              "Magnitude"
            ],
            "SupportQuantity": "Temporal"
          }
        },
        {
          "Name": "Samples Per Pixel, IBEX-Hi Energy Channel 2, ~0.71 keV",
          "Set": "Time Series defined by using: EPOCH",
          "ParameterKey": "Numb2",
          "Description": "Samples per Pixel, averaged over a 1 year time interval for IBEX-Hi Energy Channel 2, ~0.71 keV, Band Range: 0.52 keV to 0.95 keV.\n                      Column 1 Labels from WEST_LONGITUDE: [ 357, 351, 345, 339, 333, 327, 321, 315, 309, 303, 297, 291, 285, 279, 273, 267, 261, 255, 249, 243, 237, 231, 225, 219, 213, 207, 201, 195, 189, 183, 177, 171, 165, 159, 153, 147, 141, 135, 129, 123, 117, 111, 105, 99, 93, 87, 81, 75, 69, 63, 57, 51, 45, 39, 33, 27, 21, 15, 9, 3].\n                      Column 2 Labels from LATITUDE: [ -87, -81, -75, -69, -63, -57, -51, -45, -39, -33, -27, -21, -15, -9, -3, 3, 9, 15, 21, 27, 33, 39, 45, 51, 57, 63, 69, 75, 81, 87].",
          "Cadence": "P1Y",
          "RenderingHints": {
            "AxisLabel": "Samples/pixel",
            "ValueFormat": "F14.6",
            "ScaleType": "LinearScale"
          },
          "Structure": {
            "Size": "60 30"
          },
          "FillValue": "-1.0e+31",
          "Support": {
            "Qualifier": [
              "Array",
              "Magnitude"
            ],
            "SupportQuantity": "Other"
          }
        },
        {
          "Name": "Mid-Point Energy, IBEX-Hi Energy Channel 3, ~1.11 keV",
          "Set": "Time Series defined by using: EPOCH",
          "ParameterKey": "Ener3",
          "Description": "Mid-Point Energy for IBEX-Hi Energy Channel 3, ~1.11 keV, Band Range: 0.84 keV to 1.55 keV.\n                      Column 1 Labels from WEST_LONGITUDE: [ 357, 351, 345, 339, 333, 327, 321, 315, 309, 303, 297, 291, 285, 279, 273, 267, 261, 255, 249, 243, 237, 231, 225, 219, 213, 207, 201, 195, 189, 183, 177, 171, 165, 159, 153, 147, 141, 135, 129, 123, 117, 111, 105, 99, 93, 87, 81, 75, 69, 63, 57, 51, 45, 39, 33, 27, 21, 15, 9, 3].\n                      Column 2 Labels from LATITUDE: [ -87, -81, -75, -69, -63, -57, -51, -45, -39, -33, -27, -21, -15, -9, -3, 3, 9, 15, 21, 27, 33, 39, 45, 51, 57, 63, 69, 75, 81, 87].",
          "Cadence": "P1Y",
          "Units": "keV",
          "UnitsConversion": "1.602176565e-16>J",
          "RenderingHints": {
            "AxisLabel": "Energy Channel 3",
            "ValueFormat": "F10.6",
            "ScaleType": "LinearScale"
          },
          "Structure": {
            "Size": "60 30"
          },
          "FillValue": "-1.0e+31",
          "Particle": {
            "ParticleType": "Atom",
            "Qualifier": [
              "Array",
              "Magnitude"
            ],
            "ParticleQuantity": "Energy"
          }
        },
        {
          "Name": "Hydrogen, H, ENA Differential Flux, IBEX-Hi Energy Channel 3, ~1.11 keV",
          "Set": "Time Series defined by using: EPOCH",
          "ParameterKey": "Flux3",
          "Description": "Hydrogen, H, Energetic Neutral Atom, ENA, Differential Flux for IBEX-Hi Energy Channel 3, ~1.11 keV, Band Range: 0.84 keV to 1.55 keV.\n                      Column 1 Labels from WEST_LONGITUDE: [ 357, 351, 345, 339, 333, 327, 321, 315, 309, 303, 297, 291, 285, 279, 273, 267, 261, 255, 249, 243, 237, 231, 225, 219, 213, 207, 201, 195, 189, 183, 177, 171, 165, 159, 153, 147, 141, 135, 129, 123, 117, 111, 105, 99, 93, 87, 81, 75, 69, 63, 57, 51, 45, 39, 33, 27, 21, 15, 9, 3].\n                      Column 2 Labels from LATITUDE: [ -87, -81, -75, -69, -63, -57, -51, -45, -39, -33, -27, -21, -15, -9, -3, 3, 9, 15, 21, 27, 33, 39, 45, 51, 57, 63, 69, 75, 81, 87].",
          "Cadence": "P1Y",
          "Units": "(cm^2 s sr eV)^-1",
          "UnitsConversion": "6.24161e-13>(m^2 s sr J)^-1",
          "RenderingHints": {
            "AxisLabel": "Flux",
            "ValueFormat": "F12.6",
            "ScaleType": "LinearScale"
          },
          "Structure": {
            "Size": "60 30"
          },
          "FillValue": "-1.0e+31",
          "Particle": {
            "ParticleType": "Atom",
            "Qualifier": [
              "Array",
              "Magnitude",
              "Differential"
            ],
            "ParticleQuantity": "NumberFlux"
          }
        },
        {
          "Name": "Hydrogen, H, ENA Signal to Noise Ratio, IBEX-Hi Energy Channel 3, ~1.11 keV",
          "Set": "Time Series defined by using: EPOCH",
          "ParameterKey": "Fsnr3",
          "Description": "Hydrogen, H, Energetic Neutral Atom, ENA, Signal to Noise Ratio for IBEX-Hi Energy Channel 3, ~1.11 keV, Band Range: 0.84 keV to 1.55 keV.\n                      Column 1 Labels from WEST_LONGITUDE: [ 357, 351, 345, 339, 333, 327, 321, 315, 309, 303, 297, 291, 285, 279, 273, 267, 261, 255, 249, 243, 237, 231, 225, 219, 213, 207, 201, 195, 189, 183, 177, 171, 165, 159, 153, 147, 141, 135, 129, 123, 117, 111, 105, 99, 93, 87, 81, 75, 69, 63, 57, 51, 45, 39, 33, 27, 21, 15, 9, 3].\n                      Column 2 Labels from LATITUDE: [ -87, -81, -75, -69, -63, -57, -51, -45, -39, -33, -27, -21, -15, -9, -3, 3, 9, 15, 21, 27, 33, 39, 45, 51, 57, 63, 69, 75, 81, 87].",
          "Caveats": "The Signal to Noise Ratio is calculated by using Flux3/sqrt(Fvar3)",
          "Cadence": "P1Y",
          "RenderingHints": {
            "AxisLabel": "Signal to Noise Ratio",
            "ValueFormat": "E8.2",
            "ScaleType": "LinearScale"
          },
          "Structure": {
            "Size": "60 30"
          },
          "FillValue": "-1.0e+31",
          "Particle": {
            "ParticleType": "Atom",
            "Qualifier": [
              "Array",
              "Magnitude",
              "Ratio",
              "Uncertainty"
            ],
            "ParticleQuantity": "NumberFlux"
          }
        },
        {
          "Name": "Hydrogen, H, ENA Flux Variance, IBEX-Hi Energy Channel 3, ~1.11 keV",
          "Set": "Time Series defined by using: EPOCH",
          "ParameterKey": "Fvar3",
          "Description": "Hydrogen, H, Energetic Neutral Atom, ENA, Flux Variance for IBEX-Hi Energy Channel 3, ~1.11 keV, Band Range: 0.84 keV to 1.55 keV.\n                      Column 1 Labels from WEST_LONGITUDE: [ 357, 351, 345, 339, 333, 327, 321, 315, 309, 303, 297, 291, 285, 279, 273, 267, 261, 255, 249, 243, 237, 231, 225, 219, 213, 207, 201, 195, 189, 183, 177, 171, 165, 159, 153, 147, 141, 135, 129, 123, 117, 111, 105, 99, 93, 87, 81, 75, 69, 63, 57, 51, 45, 39, 33, 27, 21, 15, 9, 3].\n                      Column 2 Labels from LATITUDE: [ -87, -81, -75, -69, -63, -57, -51, -45, -39, -33, -27, -21, -15, -9, -3, 3, 9, 15, 21, 27, 33, 39, 45, 51, 57, 63, 69, 75, 81, 87].",
          "Caveats": "The Flux Variance is equal to the square of standard deviation, Sigma",
          "Cadence": "P1Y",
          "Units": "(cm^2 s sr eV)^-2",
          "UnitsConversion": "3.89577e-25>(m^2 s sr J)^-2",
          "RenderingHints": {
            "AxisLabel": "Flux Variance",
            "ValueFormat": "E12.2",
            "ScaleType": "LinearScale"
          },
          "Structure": {
            "Size": "60 30"
          },
          "FillValue": "-1.0e+31",
          "Particle": {
            "ParticleType": "Atom",
            "Qualifier": [
              "Array",
              "Magnitude",
              "Differential",
              "Variance"
            ],
            "ParticleQuantity": "NumberFlux"
          }
        },
        {
          "Name": "Hydrogen, H, ENA Total Counts, IBEX-Hi Energy Channel 3, ~1.11 keV",
          "Set": "Time Series defined by using: EPOCH",
          "ParameterKey": "Cnts3",
          "Description": "Hydrogen, H, Energetic Neutral Atom, ENA, Total Counts for IBEX-Hi Energy Channel 3, ~1.11 keV, Band Range: 0.84 keV to 1.55 keV.\n                      Column 1 Labels from WEST_LONGITUDE: [ 357, 351, 345, 339, 333, 327, 321, 315, 309, 303, 297, 291, 285, 279, 273, 267, 261, 255, 249, 243, 237, 231, 225, 219, 213, 207, 201, 195, 189, 183, 177, 171, 165, 159, 153, 147, 141, 135, 129, 123, 117, 111, 105, 99, 93, 87, 81, 75, 69, 63, 57, 51, 45, 39, 33, 27, 21, 15, 9, 3].\n                      Column 2 Labels from LATITUDE: [ -87, -81, -75, -69, -63, -57, -51, -45, -39, -33, -27, -21, -15, -9, -3, 3, 9, 15, 21, 27, 33, 39, 45, 51, 57, 63, 69, 75, 81, 87].",
          "Cadence": "P1Y",
          "RenderingHints": {
            "AxisLabel": "Counts",
            "ValueFormat": "F10.2",
            "ScaleType": "LinearScale"
          },
          "Structure": {
            "Size": "60 30"
          },
          "FillValue": "-1.0e+31",
          "Particle": {
            "ParticleType": "Atom",
            "Qualifier": [
              "Array",
              "Magnitude",
              "Differential"
            ],
            "ParticleQuantity": "CountRate"
          }
        },
        {
          "Name": "Hydrogen, H, ENA Total Exposure Time, ~1.11 keV, IBEX-Hi Energy Channel 3",
          "Set": "Time Series defined by using: EPOCH",
          "ParameterKey": "Fexp3",
          "Description": "Hydrogen, H, Energetic Neutral Atom, ENA, Total Exposure Time for IBEX-Hi Energy Channel 3, ~1.11 keV, Band Range: 0.84 keV to 1.55 keV.\n                      Column 1 Labels from WEST_LONGITUDE: [ 357, 351, 345, 339, 333, 327, 321, 315, 309, 303, 297, 291, 285, 279, 273, 267, 261, 255, 249, 243, 237, 231, 225, 219, 213, 207, 201, 195, 189, 183, 177, 171, 165, 159, 153, 147, 141, 135, 129, 123, 117, 111, 105, 99, 93, 87, 81, 75, 69, 63, 57, 51, 45, 39, 33, 27, 21, 15, 9, 3].\n                      Column 2 Labels from LATITUDE: [ -87, -81, -75, -69, -63, -57, -51, -45, -39, -33, -27, -21, -15, -9, -3, 3, 9, 15, 21, 27, 33, 39, 45, 51, 57, 63, 69, 75, 81, 87].",
          "Cadence": "P1Y",
          "Units": "s",
          "RenderingHints": {
            "AxisLabel": "Exposure Time",
            "ValueFormat": "E11.3",
            "ScaleType": "LinearScale"
          },
          "Structure": {
            "Size": "60 30"
          },
          "FillValue": "-1.0e+31",
          "Support": {
            "Qualifier": [
              "Array",
              "Magnitude"
            ],
            "SupportQuantity": "Temporal"
          }
        },
        {
          "Name": "Samples Per Pixel, IBEX-Hi Energy Channel 3, ~1.74 keV",
          "Set": "Time Series defined by using: EPOCH",
          "ParameterKey": "Numb3",
          "Description": "Samples per Pixel, averaged over a 1 year time interval for IBEX-Hi Energy Channel 3, ~1.11 keV, Band Range: 0.84 keV to 1.55 keV.\n                      Column 1 Labels from WEST_LONGITUDE: [ 357, 351, 345, 339, 333, 327, 321, 315, 309, 303, 297, 291, 285, 279, 273, 267, 261, 255, 249, 243, 237, 231, 225, 219, 213, 207, 201, 195, 189, 183, 177, 171, 165, 159, 153, 147, 141, 135, 129, 123, 117, 111, 105, 99, 93, 87, 81, 75, 69, 63, 57, 51, 45, 39, 33, 27, 21, 15, 9, 3].\n                      Column 2 Labels from LATITUDE: [ -87, -81, -75, -69, -63, -57, -51, -45, -39, -33, -27, -21, -15, -9, -3, 3, 9, 15, 21, 27, 33, 39, 45, 51, 57, 63, 69, 75, 81, 87].",
          "Cadence": "P1Y",
          "RenderingHints": {
            "AxisLabel": "Samples/pixel",
            "ValueFormat": "F14.6",
            "ScaleType": "LinearScale"
          },
          "Structure": {
            "Size": "60 30"
          },
          "FillValue": "-1.0e+31",
          "Support": {
            "Qualifier": [
              "Array",
              "Magnitude"
            ],
            "SupportQuantity": "Other"
          }
        },
        {
          "Name": "Mid-Point Energy, IBEX-Hi Energy Channel 4, ~1.74 keV",
          "Set": "Time Series defined by using: EPOCH",
          "ParameterKey": "Ener4",
          "Description": "Mid-Point Energy for IBEX-Hi Energy Channel 4, ~1.74 keV, Band Range: 1.36 keV to 2.50 keV.\n                      Column 1 Labels from WEST_LONGITUDE: [ 357, 351, 345, 339, 333, 327, 321, 315, 309, 303, 297, 291, 285, 279, 273, 267, 261, 255, 249, 243, 237, 231, 225, 219, 213, 207, 201, 195, 189, 183, 177, 171, 165, 159, 153, 147, 141, 135, 129, 123, 117, 111, 105, 99, 93, 87, 81, 75, 69, 63, 57, 51, 45, 39, 33, 27, 21, 15, 9, 3].\n                      Column 2 Labels from LATITUDE: [ -87, -81, -75, -69, -63, -57, -51, -45, -39, -33, -27, -21, -15, -9, -3, 3, 9, 15, 21, 27, 33, 39, 45, 51, 57, 63, 69, 75, 81, 87].",
          "Cadence": "P1Y",
          "Units": "keV",
          "UnitsConversion": "1.602176565e-16>J",
          "RenderingHints": {
            "AxisLabel": "Energy Channel 4",
            "ValueFormat": "F10.6",
            "ScaleType": "LinearScale"
          },
          "Structure": {
            "Size": "60 30"
          },
          "FillValue": "-1.0e+31",
          "Particle": {
            "ParticleType": "Atom",
            "Qualifier": [
              "Array",
              "Magnitude"
            ],
            "ParticleQuantity": "Energy"
          }
        },
        {
          "Name": "Hydrogen, H, ENA Differential Flux, IBEX-Hi Energy Channel 4, ~1.74 keV",
          "Set": "Time Series defined by using: EPOCH",
          "ParameterKey": "Flux4",
          "Description": "Hydrogen, H, Energetic Neutral Atom, ENA, Differential Flux for IBEX-Hi Energy Channel 4, ~1.74 keV, Band Range: 1.36 keV to 2.50 keV.\n                      Column 1 Labels from WEST_LONGITUDE: [ 357, 351, 345, 339, 333, 327, 321, 315, 309, 303, 297, 291, 285, 279, 273, 267, 261, 255, 249, 243, 237, 231, 225, 219, 213, 207, 201, 195, 189, 183, 177, 171, 165, 159, 153, 147, 141, 135, 129, 123, 117, 111, 105, 99, 93, 87, 81, 75, 69, 63, 57, 51, 45, 39, 33, 27, 21, 15, 9, 3].\n                      Column 2 Labels from LATITUDE: [ -87, -81, -75, -69, -63, -57, -51, -45, -39, -33, -27, -21, -15, -9, -3, 3, 9, 15, 21, 27, 33, 39, 45, 51, 57, 63, 69, 75, 81, 87].",
          "Cadence": "P1Y",
          "Units": "(cm^2 s sr eV)^-1",
          "UnitsConversion": "6.24161e-13>(m^2 s sr J)^-1",
          "RenderingHints": {
            "AxisLabel": "Flux",
            "ValueFormat": "F12.6",
            "ScaleType": "LinearScale"
          },
          "Structure": {
            "Size": "60 30"
          },
          "FillValue": "-1.0e+31",
          "Particle": {
            "ParticleType": "Atom",
            "Qualifier": [
              "Array",
              "Magnitude",
              "Differential"
            ],
            "ParticleQuantity": "NumberFlux"
          }
        },
        {
          "Name": "Hydrogen, H, ENA Signal to Noise Ratio, IBEX-Hi Energy Channel 4, ~1.74 keV",
          "Set": "Time Series defined by using: EPOCH",
          "ParameterKey": "Fsnr4",
          "Description": "Hydrogen, H, Energetic Neutral Atom, ENA, Signal to Noise Ratio for IBEX-Hi Energy Channel 4, ~1.74 keV, Band Range: 1.36 keV to 2.50 keV.\n                      Column 1 Labels from WEST_LONGITUDE: [ 357, 351, 345, 339, 333, 327, 321, 315, 309, 303, 297, 291, 285, 279, 273, 267, 261, 255, 249, 243, 237, 231, 225, 219, 213, 207, 201, 195, 189, 183, 177, 171, 165, 159, 153, 147, 141, 135, 129, 123, 117, 111, 105, 99, 93, 87, 81, 75, 69, 63, 57, 51, 45, 39, 33, 27, 21, 15, 9, 3].\n                      Column 2 Labels from LATITUDE: [ -87, -81, -75, -69, -63, -57, -51, -45, -39, -33, -27, -21, -15, -9, -3, 3, 9, 15, 21, 27, 33, 39, 45, 51, 57, 63, 69, 75, 81, 87].",
          "Caveats": "The Signal to Noise Ratio is calculated by using Flux4/sqrt(Fvar4)",
          "Cadence": "P1Y",
          "RenderingHints": {
            "AxisLabel": "Signal to Noise Ratio",
            "ValueFormat": "E8.2",
            "ScaleType": "LinearScale"
          },
          "Structure": {
            "Size": "60 30"
          },
          "FillValue": "-1.0e+31",
          "Particle": {
            "ParticleType": "Atom",
            "Qualifier": [
              "Array",
              "Magnitude",
              "Ratio",
              "Uncertainty"
            ],
            "ParticleQuantity": "NumberFlux"
          }
        },
        {
          "Name": "Hydrogen, H, ENA Flux Variance, IBEX-Hi Energy Channel 4, ~1.74 keV",
          "Set": "Time Series defined by using: EPOCH",
          "ParameterKey": "Fvar4",
          "Description": "Hydrogen, H, Energetic Neutral Atom, ENA, Flux Variance for IBEX-Hi Energy Channel 4, ~1.74 keV, Band Range: 1.36 keV to 2.50 keV.\n                      Column 1 Labels from WEST_LONGITUDE: [ 357, 351, 345, 339, 333, 327, 321, 315, 309, 303, 297, 291, 285, 279, 273, 267, 261, 255, 249, 243, 237, 231, 225, 219, 213, 207, 201, 195, 189, 183, 177, 171, 165, 159, 153, 147, 141, 135, 129, 123, 117, 111, 105, 99, 93, 87, 81, 75, 69, 63, 57, 51, 45, 39, 33, 27, 21, 15, 9, 3].\n                      Column 2 Labels from LATITUDE: [ -87, -81, -75, -69, -63, -57, -51, -45, -39, -33, -27, -21, -15, -9, -3, 3, 9, 15, 21, 27, 33, 39, 45, 51, 57, 63, 69, 75, 81, 87].",
          "Caveats": "The Flux Variance is equal to the square of standard deviation, Sigma",
          "Cadence": "P1Y",
          "Units": "(cm^2 s sr eV)^-2",
          "UnitsConversion": "3.89577e-25>(m^2 s sr J)^-2",
          "RenderingHints": {
            "AxisLabel": "Flux Variance",
            "ValueFormat": "E12.2",
            "ScaleType": "LinearScale"
          },
          "Structure": {
            "Size": "60 30"
          },
          "FillValue": "-1.0e+31",
          "Particle": {
            "ParticleType": "Atom",
            "Qualifier": [
              "Array",
              "Magnitude",
              "Differential",
              "Variance"
            ],
            "ParticleQuantity": "NumberFlux"
          }
        },
        {
          "Name": "Hydrogen, H, ENA Total Counts, IBEX-Hi Energy Channel 4, ~1.74 keV",
          "Set": "Time Series defined by using: EPOCH",
          "ParameterKey": "Cnts4",
          "Description": "Hydrogen, H, Energetic Neutral Atom, ENA, Total Counts for IBEX-Hi Energy Channel 4, ~1.74 keV, Band Range: 1.36 keV to 2.50 keV.\n                      Column 1 Labels from WEST_LONGITUDE: [ 357, 351, 345, 339, 333, 327, 321, 315, 309, 303, 297, 291, 285, 279, 273, 267, 261, 255, 249, 243, 237, 231, 225, 219, 213, 207, 201, 195, 189, 183, 177, 171, 165, 159, 153, 147, 141, 135, 129, 123, 117, 111, 105, 99, 93, 87, 81, 75, 69, 63, 57, 51, 45, 39, 33, 27, 21, 15, 9, 3].\n                      Column 2 Labels from LATITUDE: [ -87, -81, -75, -69, -63, -57, -51, -45, -39, -33, -27, -21, -15, -9, -3, 3, 9, 15, 21, 27, 33, 39, 45, 51, 57, 63, 69, 75, 81, 87].",
          "Cadence": "P1Y",
          "RenderingHints": {
            "AxisLabel": "Counts",
            "ValueFormat": "F10.2",
            "ScaleType": "LinearScale"
          },
          "Structure": {
            "Size": "60 30"
          },
          "FillValue": "-1.0e+31",
          "Particle": {
            "ParticleType": "Atom",
            "Qualifier": [
              "Array",
              "Magnitude",
              "Differential"
            ],
            "ParticleQuantity": "CountRate"
          }
        },
        {
          "Name": "Hydrogen, H, ENA Total Exposure Time, ~1.74 keV, IBEX-Hi Energy Channel 4",
          "Set": "Time Series defined by using: EPOCH",
          "ParameterKey": "Fexp4",
          "Description": "Hydrogen, H, Energetic Neutral Atom, ENA, Total Exposure Time for IBEX-Hi Energy Channel 4, ~1.74 keV, Band Range: 1.36 keV to 2.50 keV.\n                      Column 1 Labels from WEST_LONGITUDE: [ 357, 351, 345, 339, 333, 327, 321, 315, 309, 303, 297, 291, 285, 279, 273, 267, 261, 255, 249, 243, 237, 231, 225, 219, 213, 207, 201, 195, 189, 183, 177, 171, 165, 159, 153, 147, 141, 135, 129, 123, 117, 111, 105, 99, 93, 87, 81, 75, 69, 63, 57, 51, 45, 39, 33, 27, 21, 15, 9, 3].\n                      Column 2 Labels from LATITUDE: [ -87, -81, -75, -69, -63, -57, -51, -45, -39, -33, -27, -21, -15, -9, -3, 3, 9, 15, 21, 27, 33, 39, 45, 51, 57, 63, 69, 75, 81, 87].",
          "Cadence": "P1Y",
          "Units": "s",
          "RenderingHints": {
            "AxisLabel": "Exposure Time",
            "ValueFormat": "E11.3",
            "ScaleType": "LinearScale"
          },
          "Structure": {
            "Size": "60 30"
          },
          "FillValue": "-1.0e+31",
          "Support": {
            "Qualifier": [
              "Array",
              "Magnitude"
            ],
            "SupportQuantity": "Temporal"
          }
        },
        {
          "Name": "Samples Per Pixel, IBEX-Hi Energy Channel 4, ~1.74 keV",
          "Set": "Time Series defined by using: EPOCH",
          "ParameterKey": "Numb4",
          "Description": "Samples per Pixel, averaged over a 1 year time interval for IBEX-Hi Energy Channel 4, ~1.74 keV, Band Range: 1.36 keV to 2.50 keV.\n                      Column 1 Labels from WEST_LONGITUDE: [ 357, 351, 345, 339, 333, 327, 321, 315, 309, 303, 297, 291, 285, 279, 273, 267, 261, 255, 249, 243, 237, 231, 225, 219, 213, 207, 201, 195, 189, 183, 177, 171, 165, 159, 153, 147, 141, 135, 129, 123, 117, 111, 105, 99, 93, 87, 81, 75, 69, 63, 57, 51, 45, 39, 33, 27, 21, 15, 9, 3].\n                      Column 2 Labels from LATITUDE: [ -87, -81, -75, -69, -63, -57, -51, -45, -39, -33, -27, -21, -15, -9, -3, 3, 9, 15, 21, 27, 33, 39, 45, 51, 57, 63, 69, 75, 81, 87].",
          "Cadence": "P1Y",
          "RenderingHints": {
            "AxisLabel": "Samples/pixel",
            "ValueFormat": "F14.6",
            "ScaleType": "LinearScale"
          },
          "Structure": {
            "Size": "60 30"
          },
          "FillValue": "-1.0e+31",
          "Support": {
            "Qualifier": [
              "Array",
              "Magnitude"
            ],
            "SupportQuantity": "Other"
          }
        },
        {
          "Name": "Mid-Point Energy, IBEX-Hi Energy Channel 5, ~2.73 keV",
          "Set": "Time Series defined by using: EPOCH",
          "ParameterKey": "Ener5",
          "Description": "Mid-Point Energy for IBEX-Hi Energy Channel 5, ~2.73 keV, Band Range: 1.99 keV to 3.75 keV.\n                      Column 1 Labels from WEST_LONGITUDE: [ 357, 351, 345, 339, 333, 327, 321, 315, 309, 303, 297, 291, 285, 279, 273, 267, 261, 255, 249, 243, 237, 231, 225, 219, 213, 207, 201, 195, 189, 183, 177, 171, 165, 159, 153, 147, 141, 135, 129, 123, 117, 111, 105, 99, 93, 87, 81, 75, 69, 63, 57, 51, 45, 39, 33, 27, 21, 15, 9, 3].\n                      Column 2 Labels from LATITUDE: [ -87, -81, -75, -69, -63, -57, -51, -45, -39, -33, -27, -21, -15, -9, -3, 3, 9, 15, 21, 27, 33, 39, 45, 51, 57, 63, 69, 75, 81, 87].",
          "Cadence": "P1Y",
          "Units": "keV",
          "UnitsConversion": "1.602176565e-16>J",
          "RenderingHints": {
            "AxisLabel": "Energy Channel 5",
            "ValueFormat": "F10.6",
            "ScaleType": "LinearScale"
          },
          "Structure": {
            "Size": "60 30"
          },
          "FillValue": "-1.0e+31",
          "Particle": {
            "ParticleType": "Atom",
            "Qualifier": [
              "Array",
              "Magnitude"
            ],
            "ParticleQuantity": "Energy"
          }
        },
        {
          "Name": "Hydrogen, H, ENA Differential Flux, IBEX-Hi Energy Channel 5, ~2.73 keV",
          "Set": "Time Series defined by using: EPOCH",
          "ParameterKey": "Flux5",
          "Description": "Hydrogen, H, Energetic Neutral Atom, ENA, Differential Flux for IBEX-Hi Energy Channel 5, ~2.73 keV, Band Range: 1.99 keV to 3.75 keV.\n                      Column 1 Labels from WEST_LONGITUDE: [ 357, 351, 345, 339, 333, 327, 321, 315, 309, 303, 297, 291, 285, 279, 273, 267, 261, 255, 249, 243, 237, 231, 225, 219, 213, 207, 201, 195, 189, 183, 177, 171, 165, 159, 153, 147, 141, 135, 129, 123, 117, 111, 105, 99, 93, 87, 81, 75, 69, 63, 57, 51, 45, 39, 33, 27, 21, 15, 9, 3].\n                      Column 2 Labels from LATITUDE: [ -87, -81, -75, -69, -63, -57, -51, -45, -39, -33, -27, -21, -15, -9, -3, 3, 9, 15, 21, 27, 33, 39, 45, 51, 57, 63, 69, 75, 81, 87].",
          "Cadence": "P1Y",
          "Units": "(cm^2 s sr eV)^-1",
          "UnitsConversion": "6.24161e-13>(m^2 s sr J)^-1",
          "RenderingHints": {
            "AxisLabel": "Flux",
            "ValueFormat": "F12.6",
            "ScaleType": "LinearScale"
          },
          "Structure": {
            "Size": "60 30"
          },
          "FillValue": "-1.0e+31",
          "Particle": {
            "ParticleType": "Atom",
            "Qualifier": [
              "Array",
              "Magnitude",
              "Differential"
            ],
            "ParticleQuantity": "NumberFlux"
          }
        },
        {
          "Name": "Hydrogen, H, ENA Signal to Noise Ratio, IBEX-Hi Energy Channel 5, ~2.73 keV",
          "Set": "Time Series defined by using: EPOCH",
          "ParameterKey": "Fsnr5",
          "Description": "Hydrogen, H, Energetic Neutral Atom, ENA, Signal to Noise Ratio for IBEX-Hi Energy Channel 5, ~2.73 keV, Band Range: 1.99 keV to 3.75 keV.\n                      Column 1 Labels from WEST_LONGITUDE: [ 357, 351, 345, 339, 333, 327, 321, 315, 309, 303, 297, 291, 285, 279, 273, 267, 261, 255, 249, 243, 237, 231, 225, 219, 213, 207, 201, 195, 189, 183, 177, 171, 165, 159, 153, 147, 141, 135, 129, 123, 117, 111, 105, 99, 93, 87, 81, 75, 69, 63, 57, 51, 45, 39, 33, 27, 21, 15, 9, 3].\n                      Column 2 Labels from LATITUDE: [ -87, -81, -75, -69, -63, -57, -51, -45, -39, -33, -27, -21, -15, -9, -3, 3, 9, 15, 21, 27, 33, 39, 45, 51, 57, 63, 69, 75, 81, 87].",
          "Caveats": "The Signal to Noise Ratio is calculated by using Flux5/sqrt(Fvar5)",
          "Cadence": "P1Y",
          "RenderingHints": {
            "AxisLabel": "Signal to Noise Ratio",
            "ValueFormat": "E8.2",
            "ScaleType": "LinearScale"
          },
          "Structure": {
            "Size": "60 30"
          },
          "FillValue": "-1.0e+31",
          "Particle": {
            "ParticleType": "Atom",
            "Qualifier": [
              "Array",
              "Magnitude",
              "Ratio",
              "Uncertainty"
            ],
            "ParticleQuantity": "NumberFlux"
          }
        },
        {
          "Name": "Hydrogen, H, ENA Flux Variance, IBEX-Hi Energy Channel 5, ~2.73 keV",
          "Set": "Time Series defined by using: EPOCH",
          "ParameterKey": "Fvar5",
          "Description": "Hydrogen, H, Energetic Neutral Atom, ENA, Flux Variance for IBEX-Hi Energy Channel 5, ~2.73 keV, Band Range: 1.99 keV to 3.75 keV.\n                      Column 1 Labels from WEST_LONGITUDE: [ 357, 351, 345, 339, 333, 327, 321, 315, 309, 303, 297, 291, 285, 279, 273, 267, 261, 255, 249, 243, 237, 231, 225, 219, 213, 207, 201, 195, 189, 183, 177, 171, 165, 159, 153, 147, 141, 135, 129, 123, 117, 111, 105, 99, 93, 87, 81, 75, 69, 63, 57, 51, 45, 39, 33, 27, 21, 15, 9, 3].\n                      Column 2 Labels from LATITUDE: [ -87, -81, -75, -69, -63, -57, -51, -45, -39, -33, -27, -21, -15, -9, -3, 3, 9, 15, 21, 27, 33, 39, 45, 51, 57, 63, 69, 75, 81, 87].",
          "Caveats": "The Flux Variance is equal to the square of standard deviation, Sigma",
          "Cadence": "P1Y",
          "Units": "(cm^2 s sr eV)^-2",
          "UnitsConversion": "3.89577e-25>(m^2 s sr J)^-2",
          "RenderingHints": {
            "AxisLabel": "Flux Variance",
            "ValueFormat": "E12.2",
            "ScaleType": "LinearScale"
          },
          "Structure": {
            "Size": "60 30"
          },
          "FillValue": "-1.0e+31",
          "Particle": {
            "ParticleType": "Atom",
            "Qualifier": [
              "Array",
              "Magnitude",
              "Differential",
              "Variance"
            ],
            "ParticleQuantity": "NumberFlux"
          }
        },
        {
          "Name": "Hydrogen, H, ENA Total Exposure Time, ~2.73 keV, IBEX-Hi Energy Channel 5",
          "Set": "Time Series defined by using: EPOCH",
          "ParameterKey": "Fexp5",
          "Description": "Hydrogen, H, Energetic Neutral Atom, ENA, Total Exposure Time for IBEX-Hi Energy Channel 5, ~2.73 keV, Band Range: 1.99 keV to 3.75 keV.\n                      Column 1 Labels from WEST_LONGITUDE: [ 357, 351, 345, 339, 333, 327, 321, 315, 309, 303, 297, 291, 285, 279, 273, 267, 261, 255, 249, 243, 237, 231, 225, 219, 213, 207, 201, 195, 189, 183, 177, 171, 165, 159, 153, 147, 141, 135, 129, 123, 117, 111, 105, 99, 93, 87, 81, 75, 69, 63, 57, 51, 45, 39, 33, 27, 21, 15, 9, 3].\n                      Column 2 Labels from LATITUDE: [ -87, -81, -75, -69, -63, -57, -51, -45, -39, -33, -27, -21, -15, -9, -3, 3, 9, 15, 21, 27, 33, 39, 45, 51, 57, 63, 69, 75, 81, 87].",
          "Cadence": "P1Y",
          "Units": "s",
          "RenderingHints": {
            "AxisLabel": "Exposure Time",
            "ValueFormat": "E11.3",
            "ScaleType": "LinearScale"
          },
          "Structure": {
            "Size": "60 30"
          },
          "FillValue": "-1.0e+31",
          "Support": {
            "Qualifier": [
              "Array",
              "Magnitude"
            ],
            "SupportQuantity": "Temporal"
          }
        },
        {
          "Name": "Hydrogen, H, ENA Total Counts, IBEX-Hi Energy Channel 5, ~2.73 keV",
          "Set": "Time Series defined by using: EPOCH",
          "ParameterKey": "Cnts5",
          "Description": "Hydrogen, H, Energetic Neutral Atom, ENA, Total Counts for IBEX-Hi Energy Channel 5, ~2.73 keV, Band Range: 1.99 keV to 3.75 keV.\n                      Column 1 Labels from WEST_LONGITUDE: [ 357, 351, 345, 339, 333, 327, 321, 315, 309, 303, 297, 291, 285, 279, 273, 267, 261, 255, 249, 243, 237, 231, 225, 219, 213, 207, 201, 195, 189, 183, 177, 171, 165, 159, 153, 147, 141, 135, 129, 123, 117, 111, 105, 99, 93, 87, 81, 75, 69, 63, 57, 51, 45, 39, 33, 27, 21, 15, 9, 3].\n                      Column 2 Labels from LATITUDE: [ -87, -81, -75, -69, -63, -57, -51, -45, -39, -33, -27, -21, -15, -9, -3, 3, 9, 15, 21, 27, 33, 39, 45, 51, 57, 63, 69, 75, 81, 87].",
          "Cadence": "P1Y",
          "RenderingHints": {
            "AxisLabel": "Counts",
            "ValueFormat": "F10.2",
            "ScaleType": "LinearScale"
          },
          "Structure": {
            "Size": "60 30"
          },
          "FillValue": "-1.0e+31",
          "Particle": {
            "ParticleType": "Atom",
            "Qualifier": [
              "Array",
              "Magnitude",
              "Differential"
            ],
            "ParticleQuantity": "CountRate"
          }
        },
        {
          "Name": "Samples Per Pixel, IBEX-Hi Energy Channel 5, ~2.73 keV",
          "Set": "Time Series defined by using: EPOCH",
          "ParameterKey": "Numb5",
          "Description": "Samples per Pixel, averaged over a 1 year time interval for IBEX-Hi Energy Channel 5, ~2.73 keV, Band Range: 1.99 keV to 3.75 keV.\n                      Column 1 Labels from WEST_LONGITUDE: [ 357, 351, 345, 339, 333, 327, 321, 315, 309, 303, 297, 291, 285, 279, 273, 267, 261, 255, 249, 243, 237, 231, 225, 219, 213, 207, 201, 195, 189, 183, 177, 171, 165, 159, 153, 147, 141, 135, 129, 123, 117, 111, 105, 99, 93, 87, 81, 75, 69, 63, 57, 51, 45, 39, 33, 27, 21, 15, 9, 3].\n                      Column 2 Labels from LATITUDE: [ -87, -81, -75, -69, -63, -57, -51, -45, -39, -33, -27, -21, -15, -9, -3, 3, 9, 15, 21, 27, 33, 39, 45, 51, 57, 63, 69, 75, 81, 87].",
          "Cadence": "P1Y",
          "RenderingHints": {
            "AxisLabel": "Samples/pixel",
            "ValueFormat": "F14.6",
            "ScaleType": "LinearScale"
          },
          "Structure": {
            "Size": "60 30"
          },
          "FillValue": "-1.0e+31",
          "Support": {
            "Qualifier": [
              "Array",
              "Magnitude"
            ],
            "SupportQuantity": "Other"
          }
        },
        {
          "Name": "Mid-Point Energy, IBEX-Hi Energy Channel 6, ~4.29 keV",
          "Set": "Time Series defined by using: EPOCH",
          "ParameterKey": "Ener6",
          "Description": "Mid-Point Energy for IBEX-Hi Energy Channel 6, ~4.29 keV, Band Range: 3.13 keV to 6.00 keV.\n                      Column 1 Labels from WEST_LONGITUDE: [ 357, 351, 345, 339, 333, 327, 321, 315, 309, 303, 297, 291, 285, 279, 273, 267, 261, 255, 249, 243, 237, 231, 225, 219, 213, 207, 201, 195, 189, 183, 177, 171, 165, 159, 153, 147, 141, 135, 129, 123, 117, 111, 105, 99, 93, 87, 81, 75, 69, 63, 57, 51, 45, 39, 33, 27, 21, 15, 9, 3].\n                      Column 2 Labels from LATITUDE: [ -87, -81, -75, -69, -63, -57, -51, -45, -39, -33, -27, -21, -15, -9, -3, 3, 9, 15, 21, 27, 33, 39, 45, 51, 57, 63, 69, 75, 81, 87].",
          "Cadence": "P1Y",
          "Units": "keV",
          "UnitsConversion": "1.602176565e-16>J",
          "RenderingHints": {
            "AxisLabel": "Energy Channel 6",
            "ValueFormat": "F10.6",
            "ScaleType": "LinearScale"
          },
          "Structure": {
            "Size": "60 30"
          },
          "FillValue": "-1.0e+31",
          "Particle": {
            "ParticleType": "Atom",
            "Qualifier": [
              "Array",
              "Magnitude"
            ],
            "ParticleQuantity": "Energy"
          }
        },
        {
          "Name": "Hydrogen, H, ENA Differential Flux, IBEX-Hi Energy Channel 6, ~4.29 keV",
          "Set": "Time Series defined by using: EPOCH",
          "ParameterKey": "Flux6",
          "Description": "Hydrogen, H, Energetic Neutral Atom, ENA, Differential Flux for IBEX-Hi Energy Channel 6, ~4.29 keV, Band Range: 3.13 keV to 6.00 keV.\n                      Column 1 Labels from WEST_LONGITUDE: [ 357, 351, 345, 339, 333, 327, 321, 315, 309, 303, 297, 291, 285, 279, 273, 267, 261, 255, 249, 243, 237, 231, 225, 219, 213, 207, 201, 195, 189, 183, 177, 171, 165, 159, 153, 147, 141, 135, 129, 123, 117, 111, 105, 99, 93, 87, 81, 75, 69, 63, 57, 51, 45, 39, 33, 27, 21, 15, 9, 3].\n                      Column 2 Labels from LATITUDE: [ -87, -81, -75, -69, -63, -57, -51, -45, -39, -33, -27, -21, -15, -9, -3, 3, 9, 15, 21, 27, 33, 39, 45, 51, 57, 63, 69, 75, 81, 87].",
          "Cadence": "P1Y",
          "Units": "(cm^2 s sr eV)^-1",
          "UnitsConversion": "6.24161e-13>(m^2 s sr J)^-1",
          "RenderingHints": {
            "AxisLabel": "Flux",
            "ValueFormat": "F12.6",
            "ScaleType": "LinearScale"
          },
          "Structure": {
            "Size": "60 30"
          },
          "FillValue": "-1.0e+31",
          "Particle": {
            "ParticleType": "Atom",
            "Qualifier": [
              "Array",
              "Magnitude",
              "Differential"
            ],
            "ParticleQuantity": "NumberFlux"
          }
        },
        {
          "Name": "Hydrogen, H, ENA Signal to Noise Ratio, IBEX-Hi Energy Channel 6, ~4.29 keV",
          "Set": "Time Series defined by using: EPOCH",
          "ParameterKey": "Fsnr6",
          "Description": "Hydrogen, H, Energetic Neutral Atom, ENA, Signal to Noise Ratio for IBEX-Hi Energy Channel 6, ~4.29 keV, Band Range: 3.13 keV to 6.00 keV.\n                      Column 1 Labels from WEST_LONGITUDE: [ 357, 351, 345, 339, 333, 327, 321, 315, 309, 303, 297, 291, 285, 279, 273, 267, 261, 255, 249, 243, 237, 231, 225, 219, 213, 207, 201, 195, 189, 183, 177, 171, 165, 159, 153, 147, 141, 135, 129, 123, 117, 111, 105, 99, 93, 87, 81, 75, 69, 63, 57, 51, 45, 39, 33, 27, 21, 15, 9, 3].\n                      Column 2 Labels from LATITUDE: [ -87, -81, -75, -69, -63, -57, -51, -45, -39, -33, -27, -21, -15, -9, -3, 3, 9, 15, 21, 27, 33, 39, 45, 51, 57, 63, 69, 75, 81, 87].",
          "Caveats": "The Signal to Noise Ratio is calculated by using Flux6/sqrt(Fvar6)",
          "Cadence": "P1Y",
          "RenderingHints": {
            "AxisLabel": "Signal to Noise Ratio",
            "ValueFormat": "E8.2",
            "ScaleType": "LinearScale"
          },
          "Structure": {
            "Size": "60 30"
          },
          "FillValue": "-1.0e+31",
          "Particle": {
            "ParticleType": "Atom",
            "Qualifier": [
              "Array",
              "Magnitude",
              "Ratio",
              "Uncertainty"
            ],
            "ParticleQuantity": "NumberFlux"
          }
        },
        {
          "Name": "Hydrogen, H, ENA Flux Variance, IBEX-Hi Energy Channel 6, ~4.29 keV",
          "Set": "Time Series defined by using: EPOCH",
          "ParameterKey": "Fvar6",
          "Description": "Hydrogen, H, Energetic Neutral Atom, ENA, Flux Variance for IBEX-Hi Energy Channel 6, ~4.29 keV, Band Range: 3.13 keV to 6.00 keV.\n                      Column 1 Labels from WEST_LONGITUDE: [ 357, 351, 345, 339, 333, 327, 321, 315, 309, 303, 297, 291, 285, 279, 273, 267, 261, 255, 249, 243, 237, 231, 225, 219, 213, 207, 201, 195, 189, 183, 177, 171, 165, 159, 153, 147, 141, 135, 129, 123, 117, 111, 105, 99, 93, 87, 81, 75, 69, 63, 57, 51, 45, 39, 33, 27, 21, 15, 9, 3].\n                      Column 2 Labels from LATITUDE: [ -87, -81, -75, -69, -63, -57, -51, -45, -39, -33, -27, -21, -15, -9, -3, 3, 9, 15, 21, 27, 33, 39, 45, 51, 57, 63, 69, 75, 81, 87].",
          "Caveats": "The Flux Variance is equal to the square of standard deviation, Sigma",
          "Cadence": "P1Y",
          "Units": "(cm^2 s sr eV)^-2",
          "UnitsConversion": "3.89577e-25>(m^2 s sr J)^-2",
          "RenderingHints": {
            "AxisLabel": "Flux Variance",
            "ValueFormat": "E12.2",
            "ScaleType": "LinearScale"
          },
          "Structure": {
            "Size": "60 30"
          },
          "FillValue": "-1.0e+31",
          "Particle": {
            "ParticleType": "Atom",
            "Qualifier": [
              "Array",
              "Magnitude",
              "Differential",
              "Variance"
            ],
            "ParticleQuantity": "NumberFlux"
          }
        },
        {
          "Name": "Hydrogen, H, ENA Total Counts, IBEX-Hi Energy Channel 6, ~4.29 keV",
          "Set": "Time Series defined by using: EPOCH",
          "ParameterKey": "Cnts6",
          "Description": "Hydrogen, H, Energetic Neutral Atom, ENA, Total Counts for IBEX-Hi Energy Channel 6, ~4.29 keV, Band Range: 3.13 keV to 6.00 keV.\n                      Column 1 Labels from WEST_LONGITUDE: [ 357, 351, 345, 339, 333, 327, 321, 315, 309, 303, 297, 291, 285, 279, 273, 267, 261, 255, 249, 243, 237, 231, 225, 219, 213, 207, 201, 195, 189, 183, 177, 171, 165, 159, 153, 147, 141, 135, 129, 123, 117, 111, 105, 99, 93, 87, 81, 75, 69, 63, 57, 51, 45, 39, 33, 27, 21, 15, 9, 3].\n                      Column 2 Labels from LATITUDE: [ -87, -81, -75, -69, -63, -57, -51, -45, -39, -33, -27, -21, -15, -9, -3, 3, 9, 15, 21, 27, 33, 39, 45, 51, 57, 63, 69, 75, 81, 87].",
          "Cadence": "P1Y",
          "RenderingHints": {
            "AxisLabel": "Counts",
            "ValueFormat": "F10.2",
            "ScaleType": "LinearScale"
          },
          "Structure": {
            "Size": "60 30"
          },
          "FillValue": "-1.0e+31",
          "Particle": {
            "ParticleType": "Atom",
            "Qualifier": [
              "Array",
              "Magnitude",
              "Differential"
            ],
            "ParticleQuantity": "CountRate"
          }
        },
        {
          "Name": "Hydrogen, H, ENA Total Exposure Time, ~4.29 keV, IBEX-Hi Energy Channel 6",
          "Set": "Time Series defined by using: EPOCH",
          "ParameterKey": "Fexp6",
          "Description": "Hydrogen, H, Energetic Neutral Atom, ENA, Total Exposure Time for IBEX-Hi Energy Channel 6, ~4.29 keV, Band Range: 3.13 keV to 6.00 keV.\n                      Column 1 Labels from WEST_LONGITUDE: [ 357, 351, 345, 339, 333, 327, 321, 315, 309, 303, 297, 291, 285, 279, 273, 267, 261, 255, 249, 243, 237, 231, 225, 219, 213, 207, 201, 195, 189, 183, 177, 171, 165, 159, 153, 147, 141, 135, 129, 123, 117, 111, 105, 99, 93, 87, 81, 75, 69, 63, 57, 51, 45, 39, 33, 27, 21, 15, 9, 3].\n                      Column 2 Labels from LATITUDE: [ -87, -81, -75, -69, -63, -57, -51, -45, -39, -33, -27, -21, -15, -9, -3, 3, 9, 15, 21, 27, 33, 39, 45, 51, 57, 63, 69, 75, 81, 87].",
          "Cadence": "P1Y",
          "Units": "s",
          "RenderingHints": {
            "AxisLabel": "Exposure Time",
            "ValueFormat": "E11.3",
            "ScaleType": "LinearScale"
          },
          "Structure": {
            "Size": "60 30"
          },
          "FillValue": "-1.0e+31",
          "Support": {
            "Qualifier": [
              "Array",
              "Magnitude"
            ],
            "SupportQuantity": "Temporal"
          }
        },
        {
          "Name": "Samples Per Pixel, IBEX-Hi Energy Channel 6, ~4.29 keV",
          "Set": "Time Series defined by using: EPOCH",
          "ParameterKey": "Numb6",
          "Description": "Samples per Pixel, averaged over a 1 year time interval for IBEX-Hi Energy Channel 6, ~4.29 keV, Band Range: 3.13 keV to 6.00 keV.\n                      Column 1 Labels from WEST_LONGITUDE: [ 357, 351, 345, 339, 333, 327, 321, 315, 309, 303, 297, 291, 285, 279, 273, 267, 261, 255, 249, 243, 237, 231, 225, 219, 213, 207, 201, 195, 189, 183, 177, 171, 165, 159, 153, 147, 141, 135, 129, 123, 117, 111, 105, 99, 93, 87, 81, 75, 69, 63, 57, 51, 45, 39, 33, 27, 21, 15, 9, 3].\n                      Column 2 Labels from LATITUDE: [ -87, -81, -75, -69, -63, -57, -51, -45, -39, -33, -27, -21, -15, -9, -3, 3, 9, 15, 21, 27, 33, 39, 45, 51, 57, 63, 69, 75, 81, 87].",
          "Cadence": "P1Y",
          "RenderingHints": {
            "AxisLabel": "Samples/pixel",
            "ValueFormat": "F14.6",
            "ScaleType": "LinearScale"
          },
          "Structure": {
            "Size": "60 30"
          },
          "FillValue": "-1.0e+31",
          "Support": {
            "Qualifier": [
              "Array",
              "Magnitude"
            ],
            "SupportQuantity": "Other"
          }
        }
      ]
    }
  }
}