{
  "Spase": {
    "xmlns": "http://www.spase-group.org/data/schema",
    "xmlns:xsi": "http://www.w3.org/2001/XMLSchema-instance",
    "xsi:schemaLocation": "http://www.spase-group.org/data/schema  https://www.spase-group.org/data/schema/spase-2_3_2.xsd",
    "Version": "2.3.2",
    "NumericalData": {
      "ResourceID": "spase://NASA/NumericalData/DMSP_5D-3/F18/SESS/SSJ5/PT1S",
      "ResourceHeader": {
        "ResourceName": "DMSP F18 Special Sensor J, SESS/SSJ5, Precipitating Electrons and Ions Observed at 850 km, 1 s Data",
        "ReleaseDate": "2021-04-27T15:38:11Z",
        "Description": "Precipitating Electrons And ions observed at nominally 850 km Altitude and over a Range of Energies from 30 eV to 30 keV by using the Special Sensor J, SSJ, Instrument. Please contact Rob.Redmon@noaa.gov with Questions and Comments. Many Individuals made Important Contributions including: D. Hardy, E. Holeman, F. Rich, D. Ober, G. Wilson, J. Machuzak, K. Kadinsky-Cade, J. McGarity, W.F. Denig, K. Martin, R. Redmon, D. Knipp, L. Kilcommons.",
        "Acknowledgement": "R.J. Redmon, L.M. Kilcommons, Data Access provided by NGDC in Coordination with AFRL and the University of Colorado, Boulder. Please acknowledge the Data Providers. If you find Problems, please report them.",
        "Contact": [
          {
            "PersonID": "spase://SMWG/Person/Robert.J.Redmon",
            "Role": "PrincipalInvestigator"
          },
          {
            "PersonID": "spase://SMWG/Person/Liam.M.Kilcommons",
            "Role": "PrincipalInvestigator"
          },
          {
            "PersonID": "spase://SMWG/Person/Robert.E.McGuire",
            "Role": "MetadataContact"
          },
          {
            "PersonID": "spase://SMWG/Person/Lee.Frost.Bargatze",
            "Role": "MetadataContact"
          }
        ],
        "InformationURL": {
          "Name": "NGDC, STP, Satellite Data Services",
          "URL": "https://www.ngdc.noaa.gov/stp/satellite/satdataservices.html",
          "Description": "NGDC Solar and Terrestrial Physics, STP, Satellite Data Services"
        },
        "PriorID": "spase://VSPO/NumericalData/DMSP_5D-3/F18/SESS/SSJ5/PT1S"
      },
      "AccessInformation": [
        {
          "RepositoryID": "spase://SMWG/Repository/NASA/GSFC/SPDF",
          "Availability": "Online",
          "AccessRights": "Open",
          "AccessURL": [
            {
              "Name": "FTPS from SPDF (not with most browsers)",
              "URL": "ftps://spdf.gsfc.nasa.gov/pub/data/dmsp/dmspf18/ssj/precipitating-electrons-ions/",
              "Description": "Access to Data in CDF Format via ftp from SPDF"
            },
            {
              "Name": "HTTPS from SPDF",
              "URL": "https://spdf.gsfc.nasa.gov/pub/data/dmsp/dmspf18/ssj/precipitating-electrons-ions/",
              "Description": "Access to Data in CDF Format via http from SPDF"
            },
            {
              "Name": "CDAWeb",
              "URL": "https://cdaweb.gsfc.nasa.gov/cgi-bin/eval2.cgi?dataset=DMSP-F18_SSJ_PRECIPITATING-ELECTRONS-IONS&index=sp_phys",
              "ProductKey": "DMSP-F18_SSJ_PRECIPITATING-ELECTRONS-IONS",
              "Description": "Access to ASCII, CDF, and plots via NASA/GSFC CDAWeb"
            }
          ],
          "Format": "CDF",
          "Encoding": "None",
          "Acknowledgement": "R.J. Redmon, L.M. Kilcommons, Data Access provided by NGDC in Coordination with AFRL and the University of Colorado, Boulder. Please acknowledge the Data Providers. If you find Problems, please report them. Please acknowledge the data providers and CDAWeb when using these data."
        },
        {
          "RepositoryID": "spase://SMWG/Repository/NASA/GSFC/SPDF",
          "Availability": "Online",
          "AccessRights": "Open",
          "AccessURL": {
            "Name": "CDAWeb HAPI Server",
            "URL": "https://cdaweb.gsfc.nasa.gov/hapi",
            "Style": "HAPI",
            "ProductKey": "DMSP-F18_SSJ_PRECIPITATING-ELECTRONS-IONS",
            "Description": "Web Service to this product using the HAPI interface."
          },
          "Format": "CSV",
          "Acknowledgement": "R.J. Redmon, L.M. Kilcommons, Data Access provided by NGDC in Coordination with AFRL and the University of Colorado, Boulder. Please acknowledge the Data Providers. If you find Problems, please report them. Please acknowledge the data providers and CDAWeb when using these data."
        }
      ],
      "ProcessingLevel": "Calibrated",
      "InstrumentID": "spase://SMWG/Instrument/DMSP_5D-3/F18/SESS/SSJ5",
      "MeasurementType": "EnergeticParticles",
      "TemporalDescription": {
        "TimeSpan": {
          "StartDate": "2010-01-01T00:00:00.000",
          "StopDate": "2014-12-31T23:59:59.999"
        },
        "Cadence": "PT1S"
      },
      "ObservedRegion": [
        "Earth.Magnetosphere",
        "Earth.Magnetosphere.Polar",
        "Earth.NearSurface",
        "Earth.NearSurface.AuroralRegion",
        "Earth.NearSurface.EquatorialRegion",
        "Earth.NearSurface.Ionosphere",
        "Earth.NearSurface.PolarCap"
      ],
      "Parameter": [
        {
          "Name": "Epoch Time",
          "ParameterKey": "Epoch",
          "Description": "Epoch Time, Default",
          "Caveats": "This parameter exhibits an increasing monotonic progression.",
          "Cadence": "PT1S",
          "Units": "ms",
          "UnitsConversion": "1e-3>s",
          "RenderingHints": {
            "AxisLabel": "Epoch",
            "ScaleType": "LinearScale"
          },
          "ValidMin": "01-Jan-1990 00:00:00.000",
          "ValidMax": "31-Dec-2029 23:59:59.999",
          "FillValue": "31-Dec-9999 23:59:59.999",
          "Support": {
            "SupportQuantity": "Temporal"
          }
        },
        {
          "Name": "Channel Center Energies",
          "ParameterKey": "CHANNEL_ENERGIES",
          "Description": "Channel Center Energies",
          "Cadence": "PT1S",
          "Units": "eV",
          "UnitsConversion": "1.60218e-19>J",
          "RenderingHints": {
            "ValueFormat": "E12.2"
          },
          "Structure": {
            "Size": "19",
            "Element": [
              {
                "Name": "Element 1",
                "Index": "1"
              },
              {
                "Name": "Element 2",
                "Index": "2"
              },
              {
                "Name": "Element 3",
                "Index": "3"
              },
              {
                "Name": "Element 4",
                "Index": "4"
              },
              {
                "Name": "Element 5",
                "Index": "5"
              },
              {
                "Name": "Element 6",
                "Index": "6"
              },
              {
                "Name": "Element 7",
                "Index": "7"
              },
              {
                "Name": "Element 8",
                "Index": "8"
              },
              {
                "Name": "Element 9",
                "Index": "9"
              },
              {
                "Name": "Element 10",
                "Index": "10"
              },
              {
                "Name": "Element 11",
                "Index": "11"
              },
              {
                "Name": "Element 12",
                "Index": "12"
              },
              {
                "Name": "Element 13",
                "Index": "13"
              },
              {
                "Name": "Element 14",
                "Index": "14"
              },
              {
                "Name": "Element 15",
                "Index": "15"
              },
              {
                "Name": "Element 16",
                "Index": "16"
              },
              {
                "Name": "Element 17",
                "Index": "17"
              },
              {
                "Name": "Element 18",
                "Index": "18"
              },
              {
                "Name": "Element 19",
                "Index": "19"
              }
            ]
          },
          "ValidMin": "30.0",
          "ValidMax": "30000.0",
          "FillValue": "-1.0e+30",
          "Support": {
            "Qualifier": "Array",
            "SupportQuantity": "Other"
          }
        },
        {
          "Name": "Electrons, Counts, 30 eV to 30 keV",
          "Set": "Time series defined by using: EPOCH",
          "ParameterKey": "ELE_COUNTS_OBS",
          "Description": "Electrons, Counts, 30 eV to 30 keV, as observed, no Corrections",
          "Cadence": "PT1S",
          "RenderingHints": {
            "DisplayType": "Spectrogram",
            "ValueFormat": "E12.2"
          },
          "Structure": {
            "Size": "19",
            "Element": [
              {
                "Name": "Element 1",
                "Index": "1",
                "RenderingHints": {
                  "AxisLabel": "30000.0"
                }
              },
              {
                "Name": "Element 2",
                "Index": "2",
                "RenderingHints": {
                  "AxisLabel": "20400.0"
                }
              },
              {
                "Name": "Element 3",
                "Index": "3",
                "RenderingHints": {
                  "AxisLabel": "13900.0"
                }
              },
              {
                "Name": "Element 4",
                "Index": "4",
                "RenderingHints": {
                  "AxisLabel": "9450.00"
                }
              },
              {
                "Name": "Element 5",
                "Index": "5",
                "RenderingHints": {
                  "AxisLabel": "6460.00"
                }
              },
              {
                "Name": "Element 6",
                "Index": "6",
                "RenderingHints": {
                  "AxisLabel": "4400.00"
                }
              },
              {
                "Name": "Element 7",
                "Index": "7",
                "RenderingHints": {
                  "AxisLabel": "3000.00"
                }
              },
              {
                "Name": "Element 8",
                "Index": "8",
                "RenderingHints": {
                  "AxisLabel": "2040.00"
                }
              },
              {
                "Name": "Element 9",
                "Index": "9",
                "RenderingHints": {
                  "AxisLabel": "1390.00"
                }
              },
              {
                "Name": "Element 10",
                "Index": "10",
                "RenderingHints": {
                  "AxisLabel": "949.000"
                }
              },
              {
                "Name": "Element 11",
                "Index": "11",
                "RenderingHints": {
                  "AxisLabel": "646.000"
                }
              },
              {
                "Name": "Element 12",
                "Index": "12",
                "RenderingHints": {
                  "AxisLabel": "440.000"
                }
              },
              {
                "Name": "Element 13",
                "Index": "13",
                "RenderingHints": {
                  "AxisLabel": "300.000"
                }
              },
              {
                "Name": "Element 14",
                "Index": "14",
                "RenderingHints": {
                  "AxisLabel": "204.000"
                }
              },
              {
                "Name": "Element 15",
                "Index": "15",
                "RenderingHints": {
                  "AxisLabel": "139.000"
                }
              },
              {
                "Name": "Element 16",
                "Index": "16",
                "RenderingHints": {
                  "AxisLabel": "95.0000"
                }
              },
              {
                "Name": "Element 17",
                "Index": "17",
                "RenderingHints": {
                  "AxisLabel": "65.0000"
                }
              },
              {
                "Name": "Element 18",
                "Index": "18",
                "RenderingHints": {
                  "AxisLabel": "44.0000"
                }
              },
              {
                "Name": "Element 19",
                "Index": "19",
                "RenderingHints": {
                  "AxisLabel": "30.0000"
                }
              }
            ]
          },
          "ValidMin": "0.0",
          "ValidMax": "2.06435e+06",
          "FillValue": "-1.0e+30",
          "Particle": {
            "ParticleType": "Electron",
            "Qualifier": "Array",
            "ParticleQuantity": "Counts"
          }
        },
        {
          "Name": "Electrons, Background Count",
          "Set": "Time series defined by using: EPOCH",
          "ParameterKey": "ELE_COUNTS_BKG",
          "Description": "Electrons, Background Count, Estimated",
          "Caveats": "This Instrument does not have a dedicated Background Channel. An Estimate is arrived at by running the AFRL Technique forward and backward in Time and choosing the Largest of these two Estimates for each Second and Energy Channel.",
          "Cadence": "PT1S",
          "RenderingHints": {
            "DisplayType": "Spectrogram",
            "ValueFormat": "E12.2"
          },
          "Structure": {
            "Size": "19",
            "Element": [
              {
                "Name": "Element 1",
                "Index": "1",
                "RenderingHints": {
                  "AxisLabel": "30000.0"
                }
              },
              {
                "Name": "Element 2",
                "Index": "2",
                "RenderingHints": {
                  "AxisLabel": "20400.0"
                }
              },
              {
                "Name": "Element 3",
                "Index": "3",
                "RenderingHints": {
                  "AxisLabel": "13900.0"
                }
              },
              {
                "Name": "Element 4",
                "Index": "4",
                "RenderingHints": {
                  "AxisLabel": "9450.00"
                }
              },
              {
                "Name": "Element 5",
                "Index": "5",
                "RenderingHints": {
                  "AxisLabel": "6460.00"
                }
              },
              {
                "Name": "Element 6",
                "Index": "6",
                "RenderingHints": {
                  "AxisLabel": "4400.00"
                }
              },
              {
                "Name": "Element 7",
                "Index": "7",
                "RenderingHints": {
                  "AxisLabel": "3000.00"
                }
              },
              {
                "Name": "Element 8",
                "Index": "8",
                "RenderingHints": {
                  "AxisLabel": "2040.00"
                }
              },
              {
                "Name": "Element 9",
                "Index": "9",
                "RenderingHints": {
                  "AxisLabel": "1390.00"
                }
              },
              {
                "Name": "Element 10",
                "Index": "10",
                "RenderingHints": {
                  "AxisLabel": "949.000"
                }
              },
              {
                "Name": "Element 11",
                "Index": "11",
                "RenderingHints": {
                  "AxisLabel": "646.000"
                }
              },
              {
                "Name": "Element 12",
                "Index": "12",
                "RenderingHints": {
                  "AxisLabel": "440.000"
                }
              },
              {
                "Name": "Element 13",
                "Index": "13",
                "RenderingHints": {
                  "AxisLabel": "300.000"
                }
              },
              {
                "Name": "Element 14",
                "Index": "14",
                "RenderingHints": {
                  "AxisLabel": "204.000"
                }
              },
              {
                "Name": "Element 15",
                "Index": "15",
                "RenderingHints": {
                  "AxisLabel": "139.000"
                }
              },
              {
                "Name": "Element 16",
                "Index": "16",
                "RenderingHints": {
                  "AxisLabel": "95.0000"
                }
              },
              {
                "Name": "Element 17",
                "Index": "17",
                "RenderingHints": {
                  "AxisLabel": "65.0000"
                }
              },
              {
                "Name": "Element 18",
                "Index": "18",
                "RenderingHints": {
                  "AxisLabel": "44.0000"
                }
              },
              {
                "Name": "Element 19",
                "Index": "19",
                "RenderingHints": {
                  "AxisLabel": "30.0000"
                }
              }
            ]
          },
          "ValidMin": "-2.06435e+06",
          "ValidMax": "2.06435e+06",
          "FillValue": "-1.0e+30",
          "Particle": {
            "ParticleType": "Electron",
            "Qualifier": "Array",
            "ParticleQuantity": "Counts"
          }
        },
        {
          "Name": "Electrons, Channel Geometric Factors",
          "ParameterKey": "ELE_GEOMETRIC",
          "Description": "Electrons, Channel Geometric Factors",
          "Cadence": "PT1S",
          "Units": "cm^2 s sr eV",
          "UnitsConversion": "1.60218e-15>m^2 s sr J",
          "RenderingHints": {
            "ValueFormat": "E12.2",
            "ScaleType": "LinearScale"
          },
          "Structure": {
            "Size": "19",
            "Element": [
              {
                "Name": "Element 1",
                "Index": "1"
              },
              {
                "Name": "Element 2",
                "Index": "2"
              },
              {
                "Name": "Element 3",
                "Index": "3"
              },
              {
                "Name": "Element 4",
                "Index": "4"
              },
              {
                "Name": "Element 5",
                "Index": "5"
              },
              {
                "Name": "Element 6",
                "Index": "6"
              },
              {
                "Name": "Element 7",
                "Index": "7"
              },
              {
                "Name": "Element 8",
                "Index": "8"
              },
              {
                "Name": "Element 9",
                "Index": "9"
              },
              {
                "Name": "Element 10",
                "Index": "10"
              },
              {
                "Name": "Element 11",
                "Index": "11"
              },
              {
                "Name": "Element 12",
                "Index": "12"
              },
              {
                "Name": "Element 13",
                "Index": "13"
              },
              {
                "Name": "Element 14",
                "Index": "14"
              },
              {
                "Name": "Element 15",
                "Index": "15"
              },
              {
                "Name": "Element 16",
                "Index": "16"
              },
              {
                "Name": "Element 17",
                "Index": "17"
              },
              {
                "Name": "Element 18",
                "Index": "18"
              },
              {
                "Name": "Element 19",
                "Index": "19"
              }
            ]
          },
          "ValidMin": "0.0",
          "ValidMax": "10.0",
          "FillValue": "-1.0e+30",
          "Mixed": {
            "MixedQuantity": "Other",
            "ParticleType": "Electron",
            "Qualifier": "Array"
          }
        },
        {
          "Name": "Electrons, Differential Energy Flux",
          "Set": "Time series defined by using: EPOCH",
          "ParameterKey": "ELE_DIFF_ENERGY_FLUX",
          "Description": "Electrons, Differential Energy Flux",
          "Cadence": "PT1S",
          "Units": "eV/(cm^2 s sr eV)",
          "UnitsConversion": "1e4>J/(m^2 s sr J)",
          "RenderingHints": {
            "DisplayType": "Spectrogram",
            "ValueFormat": "E12.2"
          },
          "Structure": {
            "Size": "19",
            "Element": [
              {
                "Name": "Element 1",
                "Index": "1",
                "RenderingHints": {
                  "AxisLabel": "30000.0"
                }
              },
              {
                "Name": "Element 2",
                "Index": "2",
                "RenderingHints": {
                  "AxisLabel": "20400.0"
                }
              },
              {
                "Name": "Element 3",
                "Index": "3",
                "RenderingHints": {
                  "AxisLabel": "13900.0"
                }
              },
              {
                "Name": "Element 4",
                "Index": "4",
                "RenderingHints": {
                  "AxisLabel": "9450.00"
                }
              },
              {
                "Name": "Element 5",
                "Index": "5",
                "RenderingHints": {
                  "AxisLabel": "6460.00"
                }
              },
              {
                "Name": "Element 6",
                "Index": "6",
                "RenderingHints": {
                  "AxisLabel": "4400.00"
                }
              },
              {
                "Name": "Element 7",
                "Index": "7",
                "RenderingHints": {
                  "AxisLabel": "3000.00"
                }
              },
              {
                "Name": "Element 8",
                "Index": "8",
                "RenderingHints": {
                  "AxisLabel": "2040.00"
                }
              },
              {
                "Name": "Element 9",
                "Index": "9",
                "RenderingHints": {
                  "AxisLabel": "1390.00"
                }
              },
              {
                "Name": "Element 10",
                "Index": "10",
                "RenderingHints": {
                  "AxisLabel": "949.000"
                }
              },
              {
                "Name": "Element 11",
                "Index": "11",
                "RenderingHints": {
                  "AxisLabel": "646.000"
                }
              },
              {
                "Name": "Element 12",
                "Index": "12",
                "RenderingHints": {
                  "AxisLabel": "440.000"
                }
              },
              {
                "Name": "Element 13",
                "Index": "13",
                "RenderingHints": {
                  "AxisLabel": "300.000"
                }
              },
              {
                "Name": "Element 14",
                "Index": "14",
                "RenderingHints": {
                  "AxisLabel": "204.000"
                }
              },
              {
                "Name": "Element 15",
                "Index": "15",
                "RenderingHints": {
                  "AxisLabel": "139.000"
                }
              },
              {
                "Name": "Element 16",
                "Index": "16",
                "RenderingHints": {
                  "AxisLabel": "95.0000"
                }
              },
              {
                "Name": "Element 17",
                "Index": "17",
                "RenderingHints": {
                  "AxisLabel": "65.0000"
                }
              },
              {
                "Name": "Element 18",
                "Index": "18",
                "RenderingHints": {
                  "AxisLabel": "44.0000"
                }
              },
              {
                "Name": "Element 19",
                "Index": "19",
                "RenderingHints": {
                  "AxisLabel": "30.0000"
                }
              }
            ]
          },
          "ValidMin": "-1.0e+30",
          "ValidMax": "1.0e+30",
          "FillValue": "-1.0e+30",
          "Particle": {
            "ParticleType": "Electron",
            "Qualifier": "Array",
            "ParticleQuantity": "EnergyFlux"
          }
        },
        {
          "Name": "Electrons, Differential Energy Flux, Uncertainty",
          "Set": "Time series defined by using: EPOCH",
          "ParameterKey": "ELE_DIFF_ENERGY_FLUX_STD",
          "Description": "Electrons, Differential Energy Flux, Estimated Fractional Uncertainty",
          "Cadence": "PT1S",
          "RenderingHints": {
            "DisplayType": "Spectrogram",
            "ValueFormat": "E12.2"
          },
          "Structure": {
            "Size": "19",
            "Element": [
              {
                "Name": "Element 1",
                "Index": "1",
                "RenderingHints": {
                  "AxisLabel": "30000.0"
                }
              },
              {
                "Name": "Element 2",
                "Index": "2",
                "RenderingHints": {
                  "AxisLabel": "20400.0"
                }
              },
              {
                "Name": "Element 3",
                "Index": "3",
                "RenderingHints": {
                  "AxisLabel": "13900.0"
                }
              },
              {
                "Name": "Element 4",
                "Index": "4",
                "RenderingHints": {
                  "AxisLabel": "9450.00"
                }
              },
              {
                "Name": "Element 5",
                "Index": "5",
                "RenderingHints": {
                  "AxisLabel": "6460.00"
                }
              },
              {
                "Name": "Element 6",
                "Index": "6",
                "RenderingHints": {
                  "AxisLabel": "4400.00"
                }
              },
              {
                "Name": "Element 7",
                "Index": "7",
                "RenderingHints": {
                  "AxisLabel": "3000.00"
                }
              },
              {
                "Name": "Element 8",
                "Index": "8",
                "RenderingHints": {
                  "AxisLabel": "2040.00"
                }
              },
              {
                "Name": "Element 9",
                "Index": "9",
                "RenderingHints": {
                  "AxisLabel": "1390.00"
                }
              },
              {
                "Name": "Element 10",
                "Index": "10",
                "RenderingHints": {
                  "AxisLabel": "949.000"
                }
              },
              {
                "Name": "Element 11",
                "Index": "11",
                "RenderingHints": {
                  "AxisLabel": "646.000"
                }
              },
              {
                "Name": "Element 12",
                "Index": "12",
                "RenderingHints": {
                  "AxisLabel": "440.000"
                }
              },
              {
                "Name": "Element 13",
                "Index": "13",
                "RenderingHints": {
                  "AxisLabel": "300.000"
                }
              },
              {
                "Name": "Element 14",
                "Index": "14",
                "RenderingHints": {
                  "AxisLabel": "204.000"
                }
              },
              {
                "Name": "Element 15",
                "Index": "15",
                "RenderingHints": {
                  "AxisLabel": "139.000"
                }
              },
              {
                "Name": "Element 16",
                "Index": "16",
                "RenderingHints": {
                  "AxisLabel": "95.0000"
                }
              },
              {
                "Name": "Element 17",
                "Index": "17",
                "RenderingHints": {
                  "AxisLabel": "65.0000"
                }
              },
              {
                "Name": "Element 18",
                "Index": "18",
                "RenderingHints": {
                  "AxisLabel": "44.0000"
                }
              },
              {
                "Name": "Element 19",
                "Index": "19",
                "RenderingHints": {
                  "AxisLabel": "30.0000"
                }
              }
            ]
          },
          "ValidMin": "-1.0e+30",
          "ValidMax": "1.0e+30",
          "FillValue": "-1.0e+30",
          "Particle": {
            "ParticleType": "Electron",
            "Qualifier": "Array",
            "ParticleQuantity": "EnergyFlux"
          }
        },
        {
          "Name": "Electrons, Total Energy Flux Integrated over Energy",
          "Set": "Time series defined by using: EPOCH",
          "ParameterKey": "ELE_TOTAL_ENERGY_FLUX",
          "Description": "Electrons, Total Energy Flux Integrated over Energy",
          "Cadence": "PT1S",
          "Units": "eV/(cm^2 s sr)",
          "UnitsConversion": "1.60218e-15>J/(m^2 s sr)",
          "RenderingHints": {
            "DisplayType": "TimeSeries",
            "AxisLabel": "Ele_Total_E-Flux",
            "ValueFormat": "E12.2"
          },
          "ValidMin": "-1.0e+30",
          "ValidMax": "1.0e+30",
          "FillValue": "-1.0e+30",
          "Particle": {
            "ParticleType": "Electron",
            "Qualifier": "Scalar",
            "ParticleQuantity": "EnergyFlux"
          }
        },
        {
          "Name": "Electrons, Total Energy Flux Integrated over Energy, no Error Bars",
          "Set": "Time series defined by using: EPOCH",
          "ParameterKey": "ELE_TOTAL_ENERGY_FLUX_NOE",
          "Description": "Electrons, Total Energy Flux Integrated over Energy, without Error Bars",
          "Caveats": "This parameter is virtual. It is calculated by calling the function ALTERNATE_VIEW with the following input parameters: ELE_TOTAL_ENERGY_FLUX.",
          "Cadence": "PT1S",
          "Units": "eV/(cm^2 s sr)",
          "UnitsConversion": "1.60218e-15>J/(m^2 s sr)",
          "RenderingHints": {
            "DisplayType": "TimeSeries",
            "AxisLabel": "Ele_Total_E-Flux",
            "ValueFormat": "E12.2"
          },
          "ValidMin": "-1.0e+30",
          "ValidMax": "1.0e+30",
          "FillValue": "-1.0e+30",
          "Particle": {
            "ParticleType": "Electron",
            "Qualifier": "Scalar",
            "ParticleQuantity": "EnergyFlux"
          }
        },
        {
          "Name": "Electrons, Total Energy Flux Integrated over Energy, Uncertainty",
          "Set": "Time series defined by using: EPOCH",
          "ParameterKey": "ELE_TOTAL_ENERGY_FLUX_STD",
          "Description": "Electrons, Total Energy Flux Integrated over Energy, Estimated Fractional Uncertainty",
          "Cadence": "PT1S",
          "RenderingHints": {
            "DisplayType": "TimeSeries",
            "AxisLabel": "STD_Ele_Total_E-Flux",
            "ValueFormat": "E12.2"
          },
          "ValidMin": "-1.0e+30",
          "ValidMax": "1.0e+30",
          "FillValue": "-1.0e+30",
          "Particle": {
            "ParticleType": "Electron",
            "Qualifier": [
              "Scalar",
              "Uncertainty"
            ],
            "ParticleQuantity": "EnergyFlux"
          }
        },
        {
          "Name": "Electrons, Average Energy",
          "Set": "Time series defined by using: EPOCH",
          "ParameterKey": "ELE_AVG_ENERGY",
          "Description": "Electrons, Average Energy",
          "Caveats": "Computed as: Total Energy Flux divided by the Total Number Flux",
          "Cadence": "PT1S",
          "Units": "eV",
          "UnitsConversion": "1.60218e-19>J",
          "RenderingHints": {
            "DisplayType": "TimeSeries",
            "AxisLabel": "Ele_Eavg",
            "ValueFormat": "E12.2"
          },
          "ValidMin": "-1.0e+30",
          "ValidMax": "1.0e+30",
          "FillValue": "-1.0e+30",
          "Particle": {
            "ParticleType": "Electron",
            "Qualifier": "Scalar",
            "ParticleQuantity": "Energy"
          }
        },
        {
          "Name": "Electrons, Average Energy, no Error Bars",
          "Set": "Time series defined by using: EPOCH",
          "ParameterKey": "ELE_AVG_ENERGY_NOE",
          "Description": "Electrons, Average Energy, without Error Bars",
          "Caveats": "Computed as: Total Energy Flux divided by the Total Number Flux This parameter is virtual. It is calculated by calling the function ALTERNATE_VIEW with the following input parameters: ELE_AVG_ENERGY.",
          "Cadence": "PT1S",
          "Units": "eV",
          "UnitsConversion": "1.60218e-19>J",
          "RenderingHints": {
            "DisplayType": "TimeSeries",
            "AxisLabel": "Ele_Eavg",
            "ValueFormat": "E12.2"
          },
          "ValidMin": "-1.0e+30",
          "ValidMax": "1.0e+30",
          "FillValue": "-1.0e+30",
          "Particle": {
            "ParticleType": "Electron",
            "Qualifier": "Scalar",
            "ParticleQuantity": "Energy"
          }
        },
        {
          "Name": "Electrons, Average Energy, Uncertainty",
          "Set": "Time series defined by using: EPOCH",
          "ParameterKey": "ELE_AVG_ENERGY_STD",
          "Description": "Electrons, Average Energy, Estimated Fractional Uncertainty",
          "Cadence": "PT1S",
          "RenderingHints": {
            "DisplayType": "TimeSeries",
            "AxisLabel": "STD_Ele_Eavg",
            "ValueFormat": "E12.2"
          },
          "ValidMin": "-1.0e+30",
          "ValidMax": "1.0e+30",
          "FillValue": "-1.0e+30",
          "Particle": {
            "ParticleType": "Electron",
            "Qualifier": [
              "Scalar",
              "Uncertainty"
            ],
            "ParticleQuantity": "Energy"
          }
        },
        {
          "Name": "Ions, Counts, 30 eV to 30 keV",
          "Set": "Time series defined by using: EPOCH",
          "ParameterKey": "ION_COUNTS_OBS",
          "Description": "Ions, Counts, 30 eV to 30 keV, as observed, no Corrections,",
          "Cadence": "PT1S",
          "RenderingHints": {
            "DisplayType": "Spectrogram",
            "ValueFormat": "E12.2"
          },
          "Structure": {
            "Size": "19",
            "Element": [
              {
                "Name": "Element 1",
                "Index": "1",
                "RenderingHints": {
                  "AxisLabel": "30000.0"
                }
              },
              {
                "Name": "Element 2",
                "Index": "2",
                "RenderingHints": {
                  "AxisLabel": "20400.0"
                }
              },
              {
                "Name": "Element 3",
                "Index": "3",
                "RenderingHints": {
                  "AxisLabel": "13900.0"
                }
              },
              {
                "Name": "Element 4",
                "Index": "4",
                "RenderingHints": {
                  "AxisLabel": "9450.00"
                }
              },
              {
                "Name": "Element 5",
                "Index": "5",
                "RenderingHints": {
                  "AxisLabel": "6460.00"
                }
              },
              {
                "Name": "Element 6",
                "Index": "6",
                "RenderingHints": {
                  "AxisLabel": "4400.00"
                }
              },
              {
                "Name": "Element 7",
                "Index": "7",
                "RenderingHints": {
                  "AxisLabel": "3000.00"
                }
              },
              {
                "Name": "Element 8",
                "Index": "8",
                "RenderingHints": {
                  "AxisLabel": "2040.00"
                }
              },
              {
                "Name": "Element 9",
                "Index": "9",
                "RenderingHints": {
                  "AxisLabel": "1390.00"
                }
              },
              {
                "Name": "Element 10",
                "Index": "10",
                "RenderingHints": {
                  "AxisLabel": "949.000"
                }
              },
              {
                "Name": "Element 11",
                "Index": "11",
                "RenderingHints": {
                  "AxisLabel": "646.000"
                }
              },
              {
                "Name": "Element 12",
                "Index": "12",
                "RenderingHints": {
                  "AxisLabel": "440.000"
                }
              },
              {
                "Name": "Element 13",
                "Index": "13",
                "RenderingHints": {
                  "AxisLabel": "300.000"
                }
              },
              {
                "Name": "Element 14",
                "Index": "14",
                "RenderingHints": {
                  "AxisLabel": "204.000"
                }
              },
              {
                "Name": "Element 15",
                "Index": "15",
                "RenderingHints": {
                  "AxisLabel": "139.000"
                }
              },
              {
                "Name": "Element 16",
                "Index": "16",
                "RenderingHints": {
                  "AxisLabel": "95.0000"
                }
              },
              {
                "Name": "Element 17",
                "Index": "17",
                "RenderingHints": {
                  "AxisLabel": "65.0000"
                }
              },
              {
                "Name": "Element 18",
                "Index": "18",
                "RenderingHints": {
                  "AxisLabel": "44.0000"
                }
              },
              {
                "Name": "Element 19",
                "Index": "19",
                "RenderingHints": {
                  "AxisLabel": "30.0000"
                }
              }
            ]
          },
          "ValidMin": "0.0",
          "ValidMax": "2.06435e+06",
          "FillValue": "-1.0e+30",
          "Particle": {
            "ParticleType": "Ion",
            "Qualifier": "Array",
            "ParticleQuantity": "Counts"
          }
        },
        {
          "Name": "Ions, Background Count",
          "Set": "Time series defined by using: EPOCH",
          "ParameterKey": "ION_COUNTS_BKG",
          "Description": "Ions, Background Count, Estimated",
          "Caveats": "This Instrument does not have a dedicated Background Channel. An Estimate is arrived at by running the AFRL Technique forward and backward in Time and choosing the Largest of these two Estimates for each Second and Energy Channel.",
          "Cadence": "PT1S",
          "RenderingHints": {
            "DisplayType": "Spectrogram",
            "ValueFormat": "E12.2"
          },
          "Structure": {
            "Size": "19",
            "Element": [
              {
                "Name": "Element 1",
                "Index": "1",
                "RenderingHints": {
                  "AxisLabel": "30000.0"
                }
              },
              {
                "Name": "Element 2",
                "Index": "2",
                "RenderingHints": {
                  "AxisLabel": "20400.0"
                }
              },
              {
                "Name": "Element 3",
                "Index": "3",
                "RenderingHints": {
                  "AxisLabel": "13900.0"
                }
              },
              {
                "Name": "Element 4",
                "Index": "4",
                "RenderingHints": {
                  "AxisLabel": "9450.00"
                }
              },
              {
                "Name": "Element 5",
                "Index": "5",
                "RenderingHints": {
                  "AxisLabel": "6460.00"
                }
              },
              {
                "Name": "Element 6",
                "Index": "6",
                "RenderingHints": {
                  "AxisLabel": "4400.00"
                }
              },
              {
                "Name": "Element 7",
                "Index": "7",
                "RenderingHints": {
                  "AxisLabel": "3000.00"
                }
              },
              {
                "Name": "Element 8",
                "Index": "8",
                "RenderingHints": {
                  "AxisLabel": "2040.00"
                }
              },
              {
                "Name": "Element 9",
                "Index": "9",
                "RenderingHints": {
                  "AxisLabel": "1390.00"
                }
              },
              {
                "Name": "Element 10",
                "Index": "10",
                "RenderingHints": {
                  "AxisLabel": "949.000"
                }
              },
              {
                "Name": "Element 11",
                "Index": "11",
                "RenderingHints": {
                  "AxisLabel": "646.000"
                }
              },
              {
                "Name": "Element 12",
                "Index": "12",
                "RenderingHints": {
                  "AxisLabel": "440.000"
                }
              },
              {
                "Name": "Element 13",
                "Index": "13",
                "RenderingHints": {
                  "AxisLabel": "300.000"
                }
              },
              {
                "Name": "Element 14",
                "Index": "14",
                "RenderingHints": {
                  "AxisLabel": "204.000"
                }
              },
              {
                "Name": "Element 15",
                "Index": "15",
                "RenderingHints": {
                  "AxisLabel": "139.000"
                }
              },
              {
                "Name": "Element 16",
                "Index": "16",
                "RenderingHints": {
                  "AxisLabel": "95.0000"
                }
              },
              {
                "Name": "Element 17",
                "Index": "17",
                "RenderingHints": {
                  "AxisLabel": "65.0000"
                }
              },
              {
                "Name": "Element 18",
                "Index": "18",
                "RenderingHints": {
                  "AxisLabel": "44.0000"
                }
              },
              {
                "Name": "Element 19",
                "Index": "19",
                "RenderingHints": {
                  "AxisLabel": "30.0000"
                }
              }
            ]
          },
          "ValidMin": "-2.06435e+06",
          "ValidMax": "2.06435e+06",
          "FillValue": "-1.0e+30",
          "Particle": {
            "ParticleType": "Ion",
            "Qualifier": "Array",
            "ParticleQuantity": "Counts"
          }
        },
        {
          "Name": "Ions, Channel Geometric Factors",
          "ParameterKey": "ION_GEOMETRIC",
          "Description": "Ions, Channel Geometric Factors",
          "Cadence": "PT1S",
          "Units": "cm^2 s sr eV",
          "UnitsConversion": "1.60218e-15>m^2 s sr J",
          "RenderingHints": {
            "ValueFormat": "E12.2",
            "ScaleType": "LinearScale"
          },
          "Structure": {
            "Size": "19",
            "Element": [
              {
                "Name": "Element 1",
                "Index": "1"
              },
              {
                "Name": "Element 2",
                "Index": "2"
              },
              {
                "Name": "Element 3",
                "Index": "3"
              },
              {
                "Name": "Element 4",
                "Index": "4"
              },
              {
                "Name": "Element 5",
                "Index": "5"
              },
              {
                "Name": "Element 6",
                "Index": "6"
              },
              {
                "Name": "Element 7",
                "Index": "7"
              },
              {
                "Name": "Element 8",
                "Index": "8"
              },
              {
                "Name": "Element 9",
                "Index": "9"
              },
              {
                "Name": "Element 10",
                "Index": "10"
              },
              {
                "Name": "Element 11",
                "Index": "11"
              },
              {
                "Name": "Element 12",
                "Index": "12"
              },
              {
                "Name": "Element 13",
                "Index": "13"
              },
              {
                "Name": "Element 14",
                "Index": "14"
              },
              {
                "Name": "Element 15",
                "Index": "15"
              },
              {
                "Name": "Element 16",
                "Index": "16"
              },
              {
                "Name": "Element 17",
                "Index": "17"
              },
              {
                "Name": "Element 18",
                "Index": "18"
              },
              {
                "Name": "Element 19",
                "Index": "19"
              }
            ]
          },
          "ValidMin": "0.0",
          "ValidMax": "10.0",
          "FillValue": "-1.0e+30",
          "Mixed": {
            "MixedQuantity": "Other",
            "ParticleType": "Ion",
            "Qualifier": "Array"
          }
        },
        {
          "Name": "Ions, Differential Energy Flux",
          "Set": "Time series defined by using: EPOCH",
          "ParameterKey": "ION_DIFF_ENERGY_FLUX",
          "Description": "Ions, Differential Energy Flux",
          "Cadence": "PT1S",
          "Units": "eV/(cm^2 s sr eV)",
          "UnitsConversion": "1e4>J/(m^2 s sr J)",
          "RenderingHints": {
            "DisplayType": "Spectrogram",
            "ValueFormat": "E12.2"
          },
          "Structure": {
            "Size": "19",
            "Element": [
              {
                "Name": "Element 1",
                "Index": "1",
                "RenderingHints": {
                  "AxisLabel": "30000.0"
                }
              },
              {
                "Name": "Element 2",
                "Index": "2",
                "RenderingHints": {
                  "AxisLabel": "20400.0"
                }
              },
              {
                "Name": "Element 3",
                "Index": "3",
                "RenderingHints": {
                  "AxisLabel": "13900.0"
                }
              },
              {
                "Name": "Element 4",
                "Index": "4",
                "RenderingHints": {
                  "AxisLabel": "9450.00"
                }
              },
              {
                "Name": "Element 5",
                "Index": "5",
                "RenderingHints": {
                  "AxisLabel": "6460.00"
                }
              },
              {
                "Name": "Element 6",
                "Index": "6",
                "RenderingHints": {
                  "AxisLabel": "4400.00"
                }
              },
              {
                "Name": "Element 7",
                "Index": "7",
                "RenderingHints": {
                  "AxisLabel": "3000.00"
                }
              },
              {
                "Name": "Element 8",
                "Index": "8",
                "RenderingHints": {
                  "AxisLabel": "2040.00"
                }
              },
              {
                "Name": "Element 9",
                "Index": "9",
                "RenderingHints": {
                  "AxisLabel": "1390.00"
                }
              },
              {
                "Name": "Element 10",
                "Index": "10",
                "RenderingHints": {
                  "AxisLabel": "949.000"
                }
              },
              {
                "Name": "Element 11",
                "Index": "11",
                "RenderingHints": {
                  "AxisLabel": "646.000"
                }
              },
              {
                "Name": "Element 12",
                "Index": "12",
                "RenderingHints": {
                  "AxisLabel": "440.000"
                }
              },
              {
                "Name": "Element 13",
                "Index": "13",
                "RenderingHints": {
                  "AxisLabel": "300.000"
                }
              },
              {
                "Name": "Element 14",
                "Index": "14",
                "RenderingHints": {
                  "AxisLabel": "204.000"
                }
              },
              {
                "Name": "Element 15",
                "Index": "15",
                "RenderingHints": {
                  "AxisLabel": "139.000"
                }
              },
              {
                "Name": "Element 16",
                "Index": "16",
                "RenderingHints": {
                  "AxisLabel": "95.0000"
                }
              },
              {
                "Name": "Element 17",
                "Index": "17",
                "RenderingHints": {
                  "AxisLabel": "65.0000"
                }
              },
              {
                "Name": "Element 18",
                "Index": "18",
                "RenderingHints": {
                  "AxisLabel": "44.0000"
                }
              },
              {
                "Name": "Element 19",
                "Index": "19",
                "RenderingHints": {
                  "AxisLabel": "30.0000"
                }
              }
            ]
          },
          "ValidMin": "-1.0e+30",
          "ValidMax": "1.0e+30",
          "FillValue": "-1.0e+30",
          "Particle": {
            "ParticleType": "Ion",
            "Qualifier": "Array",
            "ParticleQuantity": "EnergyFlux"
          }
        },
        {
          "Name": "Ions, Differential Energy Flux, Uncertainty",
          "Set": "Time series defined by using: EPOCH",
          "ParameterKey": "ION_DIFF_ENERGY_FLUX_STD",
          "Description": "Ions, Differential Energy Flux, Estimated Fractional Uncertainty",
          "Cadence": "PT1S",
          "RenderingHints": {
            "DisplayType": "Spectrogram",
            "ValueFormat": "E12.2"
          },
          "Structure": {
            "Size": "19",
            "Element": [
              {
                "Name": "Element 1",
                "Index": "1",
                "RenderingHints": {
                  "AxisLabel": "30000.0"
                }
              },
              {
                "Name": "Element 2",
                "Index": "2",
                "RenderingHints": {
                  "AxisLabel": "20400.0"
                }
              },
              {
                "Name": "Element 3",
                "Index": "3",
                "RenderingHints": {
                  "AxisLabel": "13900.0"
                }
              },
              {
                "Name": "Element 4",
                "Index": "4",
                "RenderingHints": {
                  "AxisLabel": "9450.00"
                }
              },
              {
                "Name": "Element 5",
                "Index": "5",
                "RenderingHints": {
                  "AxisLabel": "6460.00"
                }
              },
              {
                "Name": "Element 6",
                "Index": "6",
                "RenderingHints": {
                  "AxisLabel": "4400.00"
                }
              },
              {
                "Name": "Element 7",
                "Index": "7",
                "RenderingHints": {
                  "AxisLabel": "3000.00"
                }
              },
              {
                "Name": "Element 8",
                "Index": "8",
                "RenderingHints": {
                  "AxisLabel": "2040.00"
                }
              },
              {
                "Name": "Element 9",
                "Index": "9",
                "RenderingHints": {
                  "AxisLabel": "1390.00"
                }
              },
              {
                "Name": "Element 10",
                "Index": "10",
                "RenderingHints": {
                  "AxisLabel": "949.000"
                }
              },
              {
                "Name": "Element 11",
                "Index": "11",
                "RenderingHints": {
                  "AxisLabel": "646.000"
                }
              },
              {
                "Name": "Element 12",
                "Index": "12",
                "RenderingHints": {
                  "AxisLabel": "440.000"
                }
              },
              {
                "Name": "Element 13",
                "Index": "13",
                "RenderingHints": {
                  "AxisLabel": "300.000"
                }
              },
              {
                "Name": "Element 14",
                "Index": "14",
                "RenderingHints": {
                  "AxisLabel": "204.000"
                }
              },
              {
                "Name": "Element 15",
                "Index": "15",
                "RenderingHints": {
                  "AxisLabel": "139.000"
                }
              },
              {
                "Name": "Element 16",
                "Index": "16",
                "RenderingHints": {
                  "AxisLabel": "95.0000"
                }
              },
              {
                "Name": "Element 17",
                "Index": "17",
                "RenderingHints": {
                  "AxisLabel": "65.0000"
                }
              },
              {
                "Name": "Element 18",
                "Index": "18",
                "RenderingHints": {
                  "AxisLabel": "44.0000"
                }
              },
              {
                "Name": "Element 19",
                "Index": "19",
                "RenderingHints": {
                  "AxisLabel": "30.0000"
                }
              }
            ]
          },
          "ValidMin": "-1.0e+30",
          "ValidMax": "1.0e+30",
          "FillValue": "-1.0e+30",
          "Particle": {
            "ParticleType": "Ion",
            "Qualifier": "Array",
            "ParticleQuantity": "EnergyFlux"
          }
        },
        {
          "Name": "Ions, Total Energy Flux Integrated over Energy",
          "Set": "Time series defined by using: EPOCH",
          "ParameterKey": "ION_TOTAL_ENERGY_FLUX",
          "Description": "Ions, Total Energy Flux Integrated over Energy",
          "Cadence": "PT1S",
          "Units": "eV/(cm^2 s sr)",
          "UnitsConversion": "1.60218e-15>J/(m^2 s sr)",
          "RenderingHints": {
            "DisplayType": "TimeSeries",
            "AxisLabel": "Ion_Total_E-Flux",
            "ValueFormat": "E12.2"
          },
          "ValidMin": "-1.0e+30",
          "ValidMax": "1.0e+30",
          "FillValue": "-1.0e+30",
          "Particle": {
            "ParticleType": "Ion",
            "Qualifier": "Scalar",
            "ParticleQuantity": "EnergyFlux"
          }
        },
        {
          "Name": "Ions, Total Energy Flux Integrated over Energy, no Error Bars",
          "Set": "Time series defined by using: EPOCH",
          "ParameterKey": "ION_TOTAL_ENERGY_FLUX_NOE",
          "Description": "Ions, Total Energy Flux Integrated over Energy, without Error Bars",
          "Caveats": "This parameter is virtual. It is calculated by calling the function ALTERNATE_VIEW with the following input parameters: ION_TOTAL_ENERGY_FLUX.",
          "Cadence": "PT1S",
          "Units": "eV/(cm^2 s sr)",
          "UnitsConversion": "1.60218e-15>J/(m^2 s sr)",
          "RenderingHints": {
            "DisplayType": "TimeSeries",
            "AxisLabel": "Ion_Total_E-Flux",
            "ValueFormat": "E12.2"
          },
          "ValidMin": "-1.0e+30",
          "ValidMax": "1.0e+30",
          "FillValue": "-1.0e+30",
          "Particle": {
            "ParticleType": "Ion",
            "Qualifier": "Scalar",
            "ParticleQuantity": "EnergyFlux"
          }
        },
        {
          "Name": "Ions, Total Energy Flux Integrated over Energy, Uncertainty",
          "Set": "Time series defined by using: EPOCH",
          "ParameterKey": "ION_TOTAL_ENERGY_FLUX_STD",
          "Description": "Ions, Total Energy Flux Integrated over Energy, Estimated Fractional Uncertainty",
          "Cadence": "PT1S",
          "RenderingHints": {
            "DisplayType": "TimeSeries",
            "AxisLabel": "STD_Ion_Total_E-Flux",
            "ValueFormat": "E12.2"
          },
          "ValidMin": "-1.0e+30",
          "ValidMax": "1.0e+30",
          "FillValue": "-1.0e+30",
          "Particle": {
            "ParticleType": "Ion",
            "Qualifier": [
              "Scalar",
              "Uncertainty"
            ],
            "ParticleQuantity": "EnergyFlux"
          }
        },
        {
          "Name": "Ions, Average Energy",
          "Set": "Time series defined by using: EPOCH",
          "ParameterKey": "ION_AVG_ENERGY",
          "Description": "Ions, Average Energy",
          "Caveats": "Computed as: Total Energy Flux divided by the Total Number Flux",
          "Cadence": "PT1S",
          "Units": "eV",
          "UnitsConversion": "1.60218e-19>J",
          "RenderingHints": {
            "DisplayType": "TimeSeries",
            "AxisLabel": "Ion_Eavg",
            "ValueFormat": "E12.2"
          },
          "ValidMin": "-1.0e+30",
          "ValidMax": "1.0e+30",
          "FillValue": "-1.0e+30",
          "Particle": {
            "ParticleType": "Ion",
            "Qualifier": "Scalar",
            "ParticleQuantity": "Energy"
          }
        },
        {
          "Name": "Ions, Average Energy, no Error Bars",
          "Set": "Time series defined by using: EPOCH",
          "ParameterKey": "ION_AVG_ENERGY_NOE",
          "Description": "Ions, Average Energy, without Error Bars",
          "Caveats": "Computed as: Total Energy Flux divided by the Total Number Flux This parameter is virtual. It is calculated by calling the function ALTERNATE_VIEW with the following input parameters: ION_AVG_ENERGY.",
          "Cadence": "PT1S",
          "Units": "eV",
          "UnitsConversion": "1.60218e-19>J",
          "RenderingHints": {
            "DisplayType": "TimeSeries",
            "AxisLabel": "Ion_Eavg",
            "ValueFormat": "E12.2"
          },
          "ValidMin": "-1.0e+30",
          "ValidMax": "1.0e+30",
          "FillValue": "-1.0e+30",
          "Particle": {
            "ParticleType": "Ion",
            "Qualifier": "Scalar",
            "ParticleQuantity": "Energy"
          }
        },
        {
          "Name": "Ions, Average Energy, Uncertainty",
          "Set": "Time series defined by using: EPOCH",
          "ParameterKey": "ION_AVG_ENERGY_STD",
          "Description": "Ions, Average Energy, Estimated Fractional Uncertainty",
          "Cadence": "PT1S",
          "RenderingHints": {
            "DisplayType": "TimeSeries",
            "AxisLabel": "STD_Ion_Eavg",
            "ValueFormat": "E12.2"
          },
          "ValidMin": "-1.0e+30",
          "ValidMax": "1.0e+30",
          "FillValue": "-1.0e+30",
          "Particle": {
            "ParticleType": "Ion",
            "Qualifier": [
              "Scalar",
              "Uncertainty"
            ],
            "ParticleQuantity": "Energy"
          }
        },
        {
          "Name": "Spacecraft Position, ECI",
          "Set": "Time series defined by using: EPOCH",
          "ParameterKey": "SC_ECI",
          "Description": "Spacecraft Position, Earth Centered Inertial, ECI, Cartesian Coordinates",
          "Caveats": "Epoch is True of Date, TOD. These ECI Coordinates are calculated from an SPDF SSC Locator 1 min Ephemeris using an Eight Order Interpolation, Burden, R.L., and Faires, J.D., Numerical Analysis, 5th Ed., PWS Publishing Company, Boston, 1993. Using SPDF Methods, expected Accuracy is on the Order of a few km.",
          "Cadence": "PT1S",
          "Units": "km",
          "UnitsConversion": "1e3>m",
          "CoordinateSystem": {
            "CoordinateRepresentation": "Cartesian",
            "CoordinateSystemName": "GEI"
          },
          "RenderingHints": {
            "DisplayType": "TimeSeries",
            "ValueFormat": "E12.2",
            "ScaleType": "LinearScale"
          },
          "Structure": {
            "Size": "3",
            "Element": [
              {
                "Name": "x_ECI",
                "Index": "1"
              },
              {
                "Name": "y_ECI",
                "Index": "2"
              },
              {
                "Name": "z_ECI",
                "Index": "3"
              }
            ]
          },
          "ValidMin": "-7500.0",
          "ValidMax": "7500.0",
          "FillValue": "-1.0e+30",
          "Support": {
            "Qualifier": "Vector",
            "SupportQuantity": "Positional"
          }
        },
        {
          "Name": "Spacecraft Latitude, GEO",
          "Set": "Time series defined by using: EPOCH",
          "ParameterKey": "SC_GEOCENTRIC_LAT",
          "Description": "Spacecraft Latitude, Geographic Inertial, GEO, Coordinates",
          "Caveats": "Calculated by using IDL Astro Library Function ECI2GEO",
          "Cadence": "PT1S",
          "Units": "°",
          "UnitsConversion": "0.0174532925>rad",
          "CoordinateSystem": {
            "CoordinateRepresentation": "Spherical",
            "CoordinateSystemName": "GEO"
          },
          "RenderingHints": {
            "DisplayType": "TimeSeries",
            "AxisLabel": "SC_GEOCENTRIC_LAT",
            "ValueFormat": "E12.2",
            "ScaleType": "LinearScale"
          },
          "ValidMin": "-90.0",
          "ValidMax": "90.0",
          "FillValue": "-1.0e+30",
          "Support": {
            "Qualifier": "DirectionAngle.ElevationAngle",
            "SupportQuantity": "Positional"
          }
        },
        {
          "Name": "Spacecraft Longitude, GEO",
          "Set": "Time series defined by using: EPOCH",
          "ParameterKey": "SC_GEOCENTRIC_LON",
          "Description": "Spacecraft Longitude, Geographic Inertial, GEO, Coordinates",
          "Caveats": "Calculated by using IDL Astro Library Function ECI2GEO",
          "Cadence": "PT1S",
          "Units": "°",
          "UnitsConversion": "0.0174532925>rad",
          "CoordinateSystem": {
            "CoordinateRepresentation": "Spherical",
            "CoordinateSystemName": "GEO"
          },
          "RenderingHints": {
            "DisplayType": "TimeSeries",
            "AxisLabel": "SC_GEOCENTRIC_LON",
            "ValueFormat": "E12.2",
            "ScaleType": "LinearScale"
          },
          "ValidMin": "0.0",
          "ValidMax": "360.0",
          "FillValue": "-1.0e+30",
          "Support": {
            "Qualifier": "DirectionAngle.AzimuthAngle",
            "SupportQuantity": "Positional"
          }
        },
        {
          "Name": "Spacecraft Geocentric Distance",
          "Set": "Time series defined by using: EPOCH",
          "ParameterKey": "SC_GEOCENTRIC_R",
          "Description": "Spacecraft Geocentric Distance",
          "Cadence": "PT1S",
          "Units": "km",
          "UnitsConversion": "1e3>m",
          "RenderingHints": {
            "DisplayType": "TimeSeries",
            "AxisLabel": "SC_GEOCENTRIC_R",
            "ValueFormat": "E12.2",
            "ScaleType": "LinearScale"
          },
          "ValidMin": "6378.0",
          "ValidMax": "7500.0",
          "FillValue": "-1.0e+30",
          "Support": {
            "Qualifier": "Magnitude",
            "SupportQuantity": "Positional"
          }
        },
        {
          "Name": "Spacecraft Latitude, AACGM",
          "Set": "Time series defined by using: EPOCH",
          "ParameterKey": "SC_AACGM_LAT",
          "Description": "Spacecraft Latitude, Altitude Adjusted Corrected Geomagnetic, AACGM, Coordinates",
          "Caveats": "Calculated by using the SuperDARN AACGM IDL Library. Values are the Result of linearly interpolating between two nearest AACGM 5 Year Epochs.",
          "Cadence": "PT1S",
          "Units": "°",
          "UnitsConversion": "0.0174532925>rad",
          "CoordinateSystem": {
            "CoordinateRepresentation": "Spherical",
            "CoordinateSystemName": "CGM"
          },
          "RenderingHints": {
            "DisplayType": "TimeSeries",
            "AxisLabel": "SC_AACGM_LAT",
            "ValueFormat": "E12.2",
            "ScaleType": "LinearScale"
          },
          "ValidMin": "-90.0",
          "ValidMax": "90.0",
          "FillValue": "-1.0e+30",
          "Support": {
            "Qualifier": "DirectionAngle.ElevationAngle",
            "SupportQuantity": "Positional"
          }
        },
        {
          "Name": "Spacecraft Longitude, AACGM",
          "Set": "Time series defined by using: EPOCH",
          "ParameterKey": "SC_AACGM_LON",
          "Description": "Spacecraft Longitude, Altitude Adjusted Corrected Geomagnetic, AACGM, Coordinates",
          "Caveats": "Calculated by using the SuperDARN AACGM IDL Library. Values are the Result of linearly interpolating between two nearest AACGM 5 Year Epochs.",
          "Cadence": "PT1S",
          "Units": "°",
          "UnitsConversion": "0.0174532925>rad",
          "CoordinateSystem": {
            "CoordinateRepresentation": "Spherical",
            "CoordinateSystemName": "CGM"
          },
          "RenderingHints": {
            "DisplayType": "TimeSeries",
            "AxisLabel": "SC_AACGM_LON",
            "ValueFormat": "E12.2",
            "ScaleType": "LinearScale"
          },
          "ValidMin": "0.0",
          "ValidMax": "360.0",
          "FillValue": "-1.0e+30",
          "Support": {
            "Qualifier": "DirectionAngle.AzimuthAngle",
            "SupportQuantity": "Positional"
          }
        },
        {
          "Name": "Spacecraft Local Time, AACGM",
          "Set": "Time series defined by using: EPOCH",
          "ParameterKey": "SC_AACGM_LTIME",
          "Description": "Spacecraft Local Time, Altitude Adjusted Corrected Geomagnetic, AACGM, Coordinates",
          "Caveats": "Calculated by using the SuperDARN AACGM IDL Library. Values are the Result of linearly interpolating between two nearest AACGM 5 Year Epochs.",
          "Cadence": "PT1S",
          "Units": "h",
          "UnitsConversion": "3600>s",
          "CoordinateSystem": {
            "CoordinateRepresentation": "Spherical",
            "CoordinateSystemName": "CGM"
          },
          "RenderingHints": {
            "DisplayType": "TimeSeries",
            "AxisLabel": "SC_AACGM_LTIME",
            "ValueFormat": "E12.2",
            "ScaleType": "LinearScale"
          },
          "ValidMin": "0.0",
          "ValidMax": "24.0",
          "FillValue": "-1.0e+30",
          "Support": {
            "Qualifier": "DirectionAngle.AzimuthAngle",
            "SupportQuantity": "Positional"
          }
        }
      ]
    }
  }
}