{
  "Spase": {
    "xmlns:xsi": "http://www.w3.org/2001/XMLSchema-instance",
    "xmlns": "http://www.spase-group.org/data/schema",
    "xsi:schemaLocation": "http://www.spase-group.org/data/schema http://www.spase-group.org/data/schema/spase-2_3_0.xsd",
    "Version": "2.3.2",
    "NumericalData": {
      "ResourceID": "spase://NASA/NumericalData/RBSP/B/RBSPICE/L3/PAP/TOFXEO-0/PT10.9S",
      "ResourceHeader": {
        "ResourceName": "Van Allen Probe B Radiation Belt Storm Probes Ion Composition Experiment (RBSPICE) Time of Flight × Energy, High-Energy Resolution, Low-Time Resolution Oxygen Intensities and Pressures sorted by Pitch Angles (Species Mode Measurement), Level 3 (L3), 10.9 s Data",
        "ReleaseDate": "2021-04-27T15:38:11Z",
        "Description": "Van Allen Probe B, Radiation Belt Storm Probes Ion Composition Experiment, RBSPICE, High Energy Resolution, Low Time Resolution, Time of Flight × Energy Oxygen, TOFxEO, Pitch Angles and Pressures, PAP, Level 3 Data Product. Oxygen Differential Flux Intensities and Pressures sorted by Pitch Angle.\n                      \n                      This Data Set contains Van Allen Probe B Radiation Belt Storm Probes Ion Composition Experiment, RBSPICE, Level 3 Data, Time of Flight × Energy (TOF×E) Oxygen Flux Intensities and Pressures that are sorted by Pitch Angles. The Data include Unidirectional Differential Oxygen Fluxes (FODU) that are measured at High-Energy Resolution, Low-Time Resolution by 6 Telescopes in 28 Channels from 60 keV to 590 keV. The Data are binned by Pitch Angles in 17 Bins. Also available are Percentage Error of Measurement, Quality Flag for the each Measurement Pitch Angle Bin and Time Step, calculated Perpendicular and Parallel Partial Pressure, Number Density calculated by integrating the Distribution Function and Pitch Angle, Total Flux Intensity observed during the Spin by intergrating over Energy and Pitch Angle, and Omnidirectional Total Flux Intensity per Spin. In addition, the Data Set contains Orbit Number, Spacecraft Position of the Spacecraft in GEO, SM, and GSM Coordinates, current Sector Number where each Spin is divided into 36 Sectors, Duration of the Accumulation, current Spin Number of the Spacecraft, Orbit Number, Dipole L Values in different Reference Frames. Level 3 Data include all Level 2 Data plus Spacecraft Positions, Pitch Angles of the six Telescopes based upon the measured Magnetic Field received from the Electric and Magnetic Field Instrument Suite and Integrated Science, EMFISIS, Instrument. This Processing is done in a Series of algorithmic Steps in which the EMFISIS Magnetic Field Data are loaded, the Energetic Particle, Composition and Thermal Plasma Suite, ECT, Magnetic Ephemeris Data are loaded, the Level 2 Flux Intensity Data File is copied, and the Pitch Angles are calculated and placed. Finally, the calculated Pitch Angles are written out along with the Level 2 Data Parameters to create the Level 3 RBSPICE Data Files.",
        "Acknowledgement": "L. Lanzerotti, The RBSPICE Instrument was supported under a NASA Contract with the New Jersey Institute of Technology, with Subcontracts to the Johns Hopkins University Applied Physics Laboratory and to Fundamental Technologies, LLC.",
        "Contact": [
          {
            "PersonID": "spase://SMWG/Person/Louis.J.Lanzerotti",
            "Role": "PrincipalInvestigator"
          },
          {
            "PersonID": "spase://SMWG/Person/Robert.E.McGuire",
            "Role": "MetadataContact"
          },
          {
            "PersonID": "spase://SMWG/Person/Lee.Frost.Bargatze",
            "Role": "MetadataContact"
          }
        ],
        "InformationURL": [
          {
            "Name": "Van Allen Probes Home Page, Exploring Earth's Radiation Belts and the Extremes of Space Weather, Applied Physics Laboratory, Johns Hopkins University",
            "URL": "http://vanallenprobes.jhuapl.edu",
            "Description": "Van Allen Probes Home Page, JHU/APL"
          },
          {
            "Name": "Van Allen Probes Science Gateway for access to Data, Models, Software and Tools for Researchers, Students and the General Public, JHU/APL",
            "URL": "http://rbspgway.jhuapl.edu/",
            "Description": "Van Allen Probes Science Gateway for access to Data, Models, Software and Tools for Researchers, Students and the General Public at the Applied Physics Laboratory, Johns Hopkins University"
          },
          {
            "Name": "Van Allen Probes Science Gateway, Mission Rules of the Road for Data Usage, JHU/APL",
            "URL": "http://rbspgway.jhuapl.edu/data_policy",
            "Description": "Van Allen Probes Science Gateway, Mission Rules of the Road for Data Usage, Applied Physics Laboratory at the Applied Physics Laboratory, Johns Hopkins University"
          },
          {
            "Name": "Van Allen Probes RBSPICE Web Page for Data, Plots, and Instrument Information, FTECS, LLC",
            "URL": "http://rbspice.ftecs.com/Data.html",
            "Description": "Van Allen Probes Radiation Belt Storm Probes Ion Composition Experiment, RBSPICE, Web Page for Data Access, Current QuickLook and Summary Plots, Instrument Information at Fundamental Technologies, LLC"
          },
          {
            "Name": "Van Allen Probes RBSPICE Web Page for MIDL Data Analysis and Visualization, APL/JHU",
            "URL": "http://sd-www.jhuapl.edu/rbspice/MIDL/",
            "Description": "Van Allen Probes RBSPICE Web Page for Mission Independent Data Layer, MIDL, Data Analysis and Visualization Software at the Applied Physics Laboratory, Johns Hopkins University"
          }
        ],
        "PriorID": [
          "spase://VSPO/NumericalData/RBSP/B/RBSPICE/L3/PAP/TOFXEO-0/PT0.02S",
          "spase://VSPO/NumericalData/RBSP/B/RBSPICE/L3/PAP/TOFXEO",
          "spase://VSPO/NumericalData/RBSP/B/RBSPICE/L3/PAP/TOFXEO",
          "spase://VSPO/NumericalData/RBSP/B/RBSPICE/L3/PAP/TOFXEO-0/PT10.9S"
        ]
      },
      "AccessInformation": [
        {
          "RepositoryID": "spase://SMWG/Repository/NASA/GSFC/SPDF",
          "Availability": "Online",
          "AccessRights": "Open",
          "AccessURL": [
            {
              "Name": "FTPS from SPDF (not with most browsers)",
              "URL": "ftps://spdf.gsfc.nasa.gov/pub/data/rbsp/rbspb/l3/rbspice/pap_tofxeo/",
              "Description": "Access to Data in CDF Format via ftp from SPDF"
            },
            {
              "Name": "HTTPS from SPDF",
              "URL": "https://spdf.gsfc.nasa.gov/pub/data/rbsp/rbspb/l3/rbspice/pap_tofxeo/",
              "Description": "Access to Data in CDF Format via http from SPDF"
            },
            {
              "Name": "CDAWeb",
              "URL": "https://cdaweb.gsfc.nasa.gov/cgi-bin/eval2.cgi?dataset=RBSP-B-RBSPICE_LEV-3-PAP_TOFXEO-0&index=sp_phys",
              "ProductKey": "RBSP-B-RBSPICE_LEV-3-PAP_TOFXEO-0",
              "Description": "Access to ASCII, CDF, and Plots via NASA/GSFC CDAWeb"
            }
          ],
          "Format": "CDF",
          "Encoding": "None",
          "Acknowledgement": "L. Lanzerotti, The RBSPICE Instrument was supported under a NASA Contract with the New Jersey Institute of Technology, with Subcontracts to the Johns Hopkins University Applied Physics Laboratory and to Fundamental Technologies, LLC. Please acknowledge the Data Providers and CDAWeb when using these Data."
        },
        {
          "RepositoryID": "spase://SMWG/Repository/NASA/GSFC/SPDF",
          "Availability": "Online",
          "AccessRights": "Open",
          "AccessURL": {
            "Name": "CDAWeb HAPI Server",
            "URL": "https://cdaweb.gsfc.nasa.gov/hapi",
            "Style": "HAPI",
            "ProductKey": "RBSP-B-RBSPICE_LEV-3-PAP_TOFXEO-0",
            "Description": "Web Service to this product using the HAPI interface."
          },
          "Format": "CSV",
          "Acknowledgement": "L. Lanzerotti, The RBSPICE Instrument was supported under a NASA Contract with the New Jersey Institute of Technology, with Subcontracts to the Johns Hopkins University Applied Physics Laboratory and to Fundamental Technologies, LLC. Please acknowledge the Data Providers and CDAWeb when using these Data."
        }
      ],
      "ProcessingLevel": "Calibrated",
      "InstrumentID": [
        "spase://SMWG/Instrument/RBSP/B/Ephemeris",
        "spase://SMWG/Instrument/RBSP/B/RBSPICE"
      ],
      "MeasurementType": [
        "EnergeticParticles",
        "Ephemeris",
        "ThermalPlasma"
      ],
      "TemporalDescription": {
        "TimeSpan": {
          "StartDate": "2012-11-14T16:59:50.000",
          "StopDate": "2015-01-14T23:59:47.000"
        },
        "Cadence": "PT10.9S"
      },
      "ObservedRegion": [
        "Earth.Magnetosphere",
        "Earth.Magnetosphere.Main",
        "Earth.Magnetosphere.RadiationBelt",
        "Earth.NearSurface.EquatorialRegion"
      ],
      "Parameter": [
        {
          "Name": "Epoch Time",
          "ParameterKey": "Epoch",
          "Description": "Epoch Time, Start of the Measurement Accumulation Interval",
          "Caveats": "This is the Ephemeris Time saved as a TT2000 CDF Variable. The difference between the ET value and the TT value is less than a millisecond. The ET time values have an accuracy of no greater than 3 milliseconds hence it was determined that there was no reason to convert the ET values into TT. This Parameter exhibits an increasing Monotonic Progression.",
          "Cadence": "PT10.9S",
          "Units": "ns",
          "UnitsConversion": "1.0e-9>s",
          "RenderingHints": {
            "AxisLabel": "Epoch",
            "ScaleType": "LinearScale"
          },
          "ValidMin": "1990-01-01T00:00:00.000000000",
          "ValidMax": "2030-01-01T00:00:00.999000000",
          "FillValue": "9999-12-31T23:59:59.999999999",
          "Support": {
            "SupportQuantity": "Temporal"
          }
        },
        {
          "Name": "Measurement Start Time, UTC Format",
          "Set": "Time Series defined by using: EPOCH",
          "ParameterKey": "UTC",
          "Description": "Measurement Start Time, UTC Time String Format, CCYY-DOYTHH:MM:SS.hhh",
          "Cadence": "PT10.9S",
          "Units": "s",
          "RenderingHints": {
            "AxisLabel": "UTC",
            "ValueFormat": "A31"
          },
          "Support": {
            "SupportQuantity": "Temporal"
          }
        },
        {
          "Name": "Midpoint Epoch Time, DDOY Format",
          "Set": "Time Series defined by using: EPOCH",
          "ParameterKey": "DDOY",
          "Description": "Midpoint Epoch Time, MidET, Decimal Day of Year, DDOY, Format",
          "Cadence": "PT10.9S",
          "Units": "s",
          "RenderingHints": {
            "AxisLabel": "DDOY",
            "ValueFormat": "E12.6"
          },
          "ValidMin": "0.0",
          "ValidMax": "367.0",
          "FillValue": "-1.0e+31",
          "Support": {
            "SupportQuantity": "Temporal"
          }
        },
        {
          "Name": "Ephemeris Time, Start of the Spin Group Observation",
          "Set": "Time Series defined by using: EPOCH",
          "ParameterKey": "ET",
          "Description": "Ephemeris Time, Start Time of the Spin Group Observation Interval",
          "Cadence": "PT10.9S",
          "Units": "s",
          "RenderingHints": {
            "AxisLabel": "ET",
            "ValueFormat": "E12.2",
            "ScaleType": "LinearScale"
          },
          "ValidMin": "3.15576e+08",
          "ValidMax": "7.88962e+08",
          "FillValue": "-1.0e+31",
          "Support": {
            "SupportQuantity": "Temporal"
          }
        },
        {
          "Name": "Ephemeris Time, Midpoint of Spin Group Observation",
          "Set": "Time Series defined by using: EPOCH",
          "ParameterKey": "MidET",
          "Description": "Ephemeris Time, Midpoint Time of the Spin Group Observation Interval. For Multi-Spin Measurements the midET is centered so that it properly represents the Time to be used to calculate the Look Direction of the Instrument.",
          "Cadence": "PT10.9S",
          "Units": "s",
          "RenderingHints": {
            "AxisLabel": "MidET",
            "ValueFormat": "E12.2",
            "ScaleType": "LinearScale"
          },
          "ValidMin": "3.15576e+08",
          "ValidMax": "7.88962e+08",
          "FillValue": "-1.0e+31",
          "Support": {
            "SupportQuantity": "Temporal"
          }
        },
        {
          "Name": "Ephemeris Time, End of Spin Group Observation",
          "Set": "Time Series defined by using: EPOCH",
          "ParameterKey": "StopET",
          "Description": "Ephemeris Time, End Time of the Spin Group Observation Interval",
          "Cadence": "PT10.9S",
          "Units": "s",
          "RenderingHints": {
            "AxisLabel": "StopET",
            "ValueFormat": "E12.2",
            "ScaleType": "LinearScale"
          },
          "ValidMin": "3.15576e+08",
          "ValidMax": "7.88962e+08",
          "FillValue": "-1.0e+31",
          "Support": {
            "SupportQuantity": "Temporal"
          }
        },
        {
          "Name": "Time Duration, Spin Group Observation",
          "Set": "Time Series defined by using: EPOCH",
          "ParameterKey": "Duration",
          "Description": "Time Duration, Spin Group Observation Interval",
          "Cadence": "PT10.9S",
          "Units": "s",
          "RenderingHints": {
            "AxisLabel": "Duration",
            "ValueFormat": "E12.2",
            "ScaleType": "LinearScale"
          },
          "ValidMin": "0.0",
          "ValidMax": "1.0e+06",
          "FillValue": "-1.0e+31",
          "Support": {
            "SupportQuantity": "Temporal"
          }
        },
        {
          "Name": "Spacecraft Spin Number",
          "Set": "Time Series defined by using: EPOCH",
          "ParameterKey": "Spin",
          "Description": "Spin Number as identified by the Spacecraft at the Beginning of the Measurement. The Spin Number Values are Cyclical.",
          "Cadence": "PT10.9S",
          "RenderingHints": {
            "AxisLabel": "Spin",
            "ValueFormat": "I8",
            "ScaleType": "LinearScale"
          },
          "ValidMin": "0",
          "ValidMax": "65535",
          "FillValue": "4294967295",
          "Support": {
            "Qualifier": "Scalar",
            "SupportQuantity": "Other"
          }
        },
        {
          "Name": "Oxygen Differential Flux Intensity, Unidirectional, Pitch Angle binned",
          "Set": "Time Series defined by using: EPOCH",
          "ParameterKey": "FODU",
          "Description": "Oxygen Differential Flux Intensity, Unidirectional, 0.14 MeV to 1.1 MeV, one record per spin binned by Pitch Angle in 17 Bins. This Format permits easy Energy-Pitch Angle Display.\n                      Column 1 Labels from FODU_ENERGY: [ 0.0650000, 0.0850000, 0.110000, 0.142000, 0.184000, 0.238000, 0.309000, 0.400000, 0.518000].\n                      Column 2 Labels from PA_MIDPOINT: [ 7.50000, 20.0000, 30.0000, 40.0000, 50.0000, 60.0000, 70.0000, 80.0000, 90.0000, 100.000, 110.000, 120.000, 130.000, 140.000, 150.000, 160.000, 172.500].",
          "Cadence": "PT10.9S",
          "Units": "(cm^2 s sr MeV)^-1",
          "RenderingHints": {
            "AxisLabel": "FODU",
            "ValueFormat": "E12.2",
            "ScaleType": "LogScale"
          },
          "Structure": {
            "Size": "9 17"
          },
          "FillValue": "-1.0e+31",
          "Particle": {
            "ParticleType": "Ion",
            "Qualifier": "Array",
            "ParticleQuantity": "NumberFlux",
            "AtomicNumber": "8"
          }
        },
        {
          "Name": "Oxygen Differential Flux Intensity, Unidirectional, Spectrogram, Energy versus Pitch Angle",
          "Set": "Time Series defined by using: EPOCH",
          "ParameterKey": "FODU_byE_atA",
          "Description": "Oxygen Differential Flux Intensity, Unidirectional, Spectrogram by Energy at Sample Pitch Angles.\n                      Column 1 Labels from FODU_ENERGY: [\"FODU_Flux_0.065_MeV\",\"FODU_Flux_0.085_MeV\",\"FODU_Flux_0.110_MeV\",\"FODU_Flux_0.142_MeV\",\"FODU_Flux_0.184_MeV\",\"FODU_Flux_0.238_MeV\",\"FODU_Flux_0.309_MeV\",\"FODU_Flux_0.400_MeV\",\"FODU_Flux_0.518_MeV\"].\n                      Column 2 Labels from PA_MIDPOINT: [\"FODU_Flux_7.5_degPA\",\"FODU_Flux_20.0_degPA\",\"FODU_Flux_30.0_degPA\",\"FODU_Flux_40.0_degPA\",\"FODU_Flux_50.0_degPA\",\"FODU_Flux_60.0_degPA\",\"FODU_Flux_70.0_degPA\",\"FODU_Flux_80.0_degPA\",\"FODU_Flux_90.0_degPA\",\"FODU_Flux_100.0_degPA\",\"FODU_Flux_110.0_degPA\",\"FODU_Flux_120.0_degPA\",\"FODU_Flux_130.0_degPA\",\"FODU_Flux_140.0_degPA\",\"FODU_Flux_150.0_degPA\",\"FODU_Flux_160.0_degPA\",\"FODU_Flux_172.5_degPA\"].",
          "Caveats": "This parameter is virtual. It is calculated by calling the function ALTERNATE_VIEW with the following input parameters: FODU.",
          "Cadence": "PT10.9S",
          "Units": "(cm^2 s sr MeV)^-1",
          "RenderingHints": {
            "DisplayType": "Spectrogram",
            "ValueFormat": "E12.2",
            "ScaleType": "LogScale"
          },
          "Structure": {
            "Size": "9 17"
          },
          "FillValue": "-1.0e+31",
          "Particle": {
            "ParticleType": "Ion",
            "Qualifier": "Array",
            "ParticleQuantity": "NumberFlux",
            "AtomicNumber": "8"
          }
        },
        {
          "Name": "Oxygen Differential Flux Intensity, Unidirectional, Spectrogram, Pitch Angle versus Energy",
          "Set": "Time Series defined by using: EPOCH",
          "ParameterKey": "FODU_byA_atE",
          "Description": "Oxygen Differential Flux Intensity, Unidirectional, Spectrogram by Pitch Angle at Sample Energies.\n                      Column 1 Labels from FODU_ENERGY: [\"FODU_Flux_0.065_MeV\",\"FODU_Flux_0.085_MeV\",\"FODU_Flux_0.110_MeV\",\"FODU_Flux_0.142_MeV\",\"FODU_Flux_0.184_MeV\",\"FODU_Flux_0.238_MeV\",\"FODU_Flux_0.309_MeV\",\"FODU_Flux_0.400_MeV\",\"FODU_Flux_0.518_MeV\"].\n                      Column 2 Labels from PA_MIDPOINT: [\"FODU_Flux_7.5_degPA\",\"FODU_Flux_20.0_degPA\",\"FODU_Flux_30.0_degPA\",\"FODU_Flux_40.0_degPA\",\"FODU_Flux_50.0_degPA\",\"FODU_Flux_60.0_degPA\",\"FODU_Flux_70.0_degPA\",\"FODU_Flux_80.0_degPA\",\"FODU_Flux_90.0_degPA\",\"FODU_Flux_100.0_degPA\",\"FODU_Flux_110.0_degPA\",\"FODU_Flux_120.0_degPA\",\"FODU_Flux_130.0_degPA\",\"FODU_Flux_140.0_degPA\",\"FODU_Flux_150.0_degPA\",\"FODU_Flux_160.0_degPA\",\"FODU_Flux_172.5_degPA\"].",
          "Caveats": "This parameter is virtual. It is calculated by calling the function ALTERNATE_VIEW with the following input parameters: FODU.",
          "Cadence": "PT10.9S",
          "Units": "(cm^2 s sr MeV)^-1",
          "RenderingHints": {
            "DisplayType": "Spectrogram",
            "ValueFormat": "E12.2",
            "ScaleType": "LogScale"
          },
          "Structure": {
            "Size": "9 17"
          },
          "FillValue": "-1.0e+31",
          "Particle": {
            "ParticleType": "Ion",
            "Qualifier": "Array",
            "ParticleQuantity": "NumberFlux",
            "AtomicNumber": "8"
          }
        },
        {
          "Name": "Oxygen Differential Flux Intensity, Weighting Factors",
          "Set": "Time Series defined by using: EPOCH",
          "ParameterKey": "FODU_Weight",
          "Description": "Oxygen Differential Flux Intensity, Weighting Factors used for Spin Integration of the Flux. The Weighting Factors are dependent on the Number of Observations made for each Energy Channel/Bin Combination per Spin.\n                      Column 1 Labels from CHANNEL: [\"       0\",\"       1\",\"       2\",\"       3\",\"       4\",\"       5\",\"       6\",\"       7\",\"       8\"].\n                      Column 2 Labels from BIN: [\"       0\",\"       1\",\"       2\",\"       3\",\"       4\",\"       5\",\"       6\",\"       7\",\"       8\",\"       9\",\"      10\",\"      11\",\"      12\",\"      13\",\"      14\",\"      15\",\"      16\"].",
          "Cadence": "PT10.9S",
          "RenderingHints": {
            "DisplayType": "Spectrogram",
            "AxisLabel": "FODU_Weights",
            "ValueFormat": "I2",
            "ScaleType": "LinearScale"
          },
          "Structure": {
            "Size": "9 17"
          },
          "FillValue": "-32768",
          "Support": {
            "Qualifier": "Array",
            "SupportQuantity": "Other"
          }
        },
        {
          "Name": "Percentage Error, Oxygen Differential Flux Intensity, UniDirectional, Pitch Angle binned",
          "Set": "Time Series defined by using: EPOCH",
          "ParameterKey": "FODU_Error",
          "Description": "Percentage Error, Oxygen Differential Flux Intensity, UniDirectional, Poisson Statistical Counting Percentage Error of the Measurement for each Energy Channel and Bin calculated by using 100*sqrt(Counts)^-1.\n                      Column 1 Labels from FODU_ENERGY: [ 0.0650000, 0.0850000, 0.110000, 0.142000, 0.184000, 0.238000, 0.309000, 0.400000, 0.518000].\n                      Column 2 Labels from PA_MIDPOINT: [ 7.50000, 20.0000, 30.0000, 40.0000, 50.0000, 60.0000, 70.0000, 80.0000, 90.0000, 100.000, 110.000, 120.000, 130.000, 140.000, 150.000, 160.000, 172.500].",
          "Cadence": "PT10.9S",
          "RenderingHints": {
            "AxisLabel": "FODU_Error",
            "ValueFormat": "E12.2",
            "ScaleType": "LinearScale"
          },
          "Structure": {
            "Size": "9 17"
          },
          "FillValue": "-1.0e+31",
          "Support": {
            "Qualifier": [
              "Array",
              "Uncertainty"
            ],
            "SupportQuantity": "Other"
          }
        },
        {
          "Name": "Percentage Error, Oxygen Differential Flux Intensity, Unidirectional, Spectrogram, Energy versus Pitch Angle",
          "Set": "Time Series defined by using: EPOCH",
          "ParameterKey": "FODU_Error_byE_atA",
          "Description": "Percentage Error, Oxygen Differential Flux Intensity, Unidirectional, Spectrogram by Energy at Sample Pitch Angles.\n                      Column 1 Labels from FODU_ENERGY: [\"FODU_Error_Flux_0.065_MeV\",\"FODU_Error_Flux_0.085_MeV\",\"FODU_Error_Flux_0.110_MeV\",\"FODU_Error_Flux_0.142_MeV\",\"FODU_Error_Flux_0.184_MeV\",\"FODU_Error_Flux_0.238_MeV\",\"FODU_Error_Flux_0.309_MeV\",\"FODU_Error_Flux_0.400_MeV\",\"FODU_Error_Flux_0.518_MeV\"].\n                      Column 2 Labels from PA_MIDPOINT: [\"FODU_Error_Flux_7.5_degPA\",\"FODU_Error_Flux_20.0_degPA\",\"FODU_Error_Flux_30.0_degPA\",\"FODU_Error_Flux_40.0_degPA\",\"FODU_Error_Flux_50.0_degPA\",\"FODU_Error_Flux_60.0_degPA\",\"FODU_Error_Flux_70.0_degPA\",\"FODU_Error_Flux_80.0_degPA\",\"FODU_Error_Flux_90.0_degPA\",\"FODU_Error_Flux_100.0_degPA\",\"FODU_Error_Flux_110.0_degPA\",\"FODU_Error_Flux_120.0_degPA\",\"FODU_Error_Flux_130.0_degPA\",\"FODU_Error_Flux_140.0_degPA\",\"FODU_Error_Flux_150.0_degPA\",\"FODU_Error_Flux_160.0_degPA\",\"FODU_Error_Flux_172.5_degPA\"].",
          "Caveats": "This parameter is virtual. It is calculated by calling the function ALTERNATE_VIEW with the following input parameters: FODU_Error.",
          "Cadence": "PT10.9S",
          "RenderingHints": {
            "DisplayType": "Spectrogram",
            "AxisLabel": "FODU_Error",
            "ValueFormat": "E12.2",
            "ScaleType": "LinearScale"
          },
          "Structure": {
            "Size": "9 17"
          },
          "FillValue": "-1.0e+31",
          "Support": {
            "Qualifier": [
              "Array",
              "Uncertainty"
            ],
            "SupportQuantity": "Other"
          }
        },
        {
          "Name": "Percentage Error, Oxygen Differential Flux Intensity, Unidirectional, Spectrogram, Pitch Angle versus Energy",
          "Set": "Time Series defined by using: EPOCH",
          "ParameterKey": "FODU_Error_byA_atE",
          "Description": "Percentage Error, Oxygen Differential Flux Intensity, Unidirectional, Spectrogram by Pitch Angle at Sample Energies.\n                      Column 1 Labels from FODU_ENERGY: [\"FODU_Error_Flux_0.065_MeV\",\"FODU_Error_Flux_0.085_MeV\",\"FODU_Error_Flux_0.110_MeV\",\"FODU_Error_Flux_0.142_MeV\",\"FODU_Error_Flux_0.184_MeV\",\"FODU_Error_Flux_0.238_MeV\",\"FODU_Error_Flux_0.309_MeV\",\"FODU_Error_Flux_0.400_MeV\",\"FODU_Error_Flux_0.518_MeV\"].\n                      Column 2 Labels from PA_MIDPOINT: [\"FODU_Error_Flux_7.5_degPA\",\"FODU_Error_Flux_20.0_degPA\",\"FODU_Error_Flux_30.0_degPA\",\"FODU_Error_Flux_40.0_degPA\",\"FODU_Error_Flux_50.0_degPA\",\"FODU_Error_Flux_60.0_degPA\",\"FODU_Error_Flux_70.0_degPA\",\"FODU_Error_Flux_80.0_degPA\",\"FODU_Error_Flux_90.0_degPA\",\"FODU_Error_Flux_100.0_degPA\",\"FODU_Error_Flux_110.0_degPA\",\"FODU_Error_Flux_120.0_degPA\",\"FODU_Error_Flux_130.0_degPA\",\"FODU_Error_Flux_140.0_degPA\",\"FODU_Error_Flux_150.0_degPA\",\"FODU_Error_Flux_160.0_degPA\",\"FODU_Error_Flux_172.5_degPA\"].",
          "Caveats": "This parameter is virtual. It is calculated by calling the function ALTERNATE_VIEW with the following input parameters: FODU_Error.",
          "Cadence": "PT10.9S",
          "RenderingHints": {
            "DisplayType": "Spectrogram",
            "ValueFormat": "E12.2",
            "ScaleType": "LogScale"
          },
          "Structure": {
            "Size": "9 17"
          },
          "FillValue": "-1.0e+31",
          "Support": {
            "Qualifier": [
              "Array",
              "Uncertainty"
            ],
            "SupportQuantity": "Other"
          }
        },
        {
          "Name": "Data Quality Flag, Oxygen Differential Flux Intensity, Unidirectional, Pitch Angle and Time Step",
          "Set": "Time Series defined by using: EPOCH",
          "ParameterKey": "FODU_Quality",
          "Description": "Data Quality Flag, Oxygen Differential Flux Intensity, Unidirectional, Data Quality Flags for each Pitch Angle Bin and Time Step. See PREBM Standards for Definitions.\n                      Column 1 Labels from FODU_ENERGY: [ 0.0650000, 0.0850000, 0.110000, 0.142000, 0.184000, 0.238000, 0.309000, 0.400000, 0.518000].\n                      Column 2 Labels from PA_MIDPOINT: [ 7.50000, 20.0000, 30.0000, 40.0000, 50.0000, 60.0000, 70.0000, 80.0000, 90.0000, 100.000, 110.000, 120.000, 130.000, 140.000, 150.000, 160.000, 172.500].",
          "Cadence": "PT10.9S",
          "RenderingHints": {
            "AxisLabel": "FODU_Quality",
            "ValueFormat": "I10",
            "ScaleType": "LinearScale"
          },
          "Structure": {
            "Size": "9 17"
          },
          "FillValue": "-32768",
          "Support": {
            "Qualifier": "Array",
            "SupportQuantity": "Other"
          }
        },
        {
          "Name": "Data Quality Flag, Oxygen Differential Flux Intensity, Unidirectional, Spectrogram, Energy versus Pitch Angle",
          "Set": "Time Series defined by using: EPOCH",
          "ParameterKey": "FODU_Quality_byE_atA",
          "Description": "Data Quality Flag, Oxygen Differential Flux Intensity, Unidirectional, Spectrogram by Energy at Sample Pitch Angles.\n                      Column 1 Labels from FODU_ENERGY: [\"FODU_Qual_Flux_0.065_MeV\",\"FODU_Qual_Flux_0.085_MeV\",\"FODU_Qual_Flux_0.110_MeV\",\"FODU_Qual_Flux_0.142_MeV\",\"FODU_Qual_Flux_0.184_MeV\",\"FODU_Qual_Flux_0.238_MeV\",\"FODU_Qual_Flux_0.309_MeV\",\"FODU_Qual_Flux_0.400_MeV\",\"FODU_Qual_Flux_0.518_MeV\"].\n                      Column 2 Labels from PA_MIDPOINT: [\"FODU_Qual_Flux_7.5_degPA\",\"FODU_Qual_Flux_20.0_degPA\",\"FODU_Qual_Flux_30.0_degPA\",\"FODU_Qual_Flux_40.0_degPA\",\"FODU_Qual_Flux_50.0_degPA\",\"FODU_Qual_Flux_60.0_degPA\",\"FODU_Qual_Flux_70.0_degPA\",\"FODU_Qual_Flux_80.0_degPA\",\"FODU_Qual_Flux_90.0_degPA\",\"FODU_Qual_Flux_100.0_degPA\",\"FODU_Qual_Flux_110.0_degPA\",\"FODU_Qual_Flux_120.0_degPA\",\"FODU_Qual_Flux_130.0_degPA\",\"FODU_Qual_Flux_140.0_degPA\",\"FODU_Qual_Flux_150.0_degPA\",\"FODU_Qual_Flux_160.0_degPA\",\"FODU_Qual_Flux_172.5_degPA\"].",
          "Caveats": "This parameter is virtual. It is calculated by calling the function ALTERNATE_VIEW with the following input parameters: FODU_Quality.",
          "Cadence": "PT10.9S",
          "RenderingHints": {
            "DisplayType": "Spectrogram",
            "ValueFormat": "E12.2",
            "ScaleType": "LinearScale"
          },
          "Structure": {
            "Size": "9 17"
          },
          "FillValue": "-32768",
          "Support": {
            "Qualifier": "Array",
            "SupportQuantity": "Other"
          }
        },
        {
          "Name": "Data Quality Flag, Oxygen Differential Flux Intensity, Unidirectional, Spectrogram, Pitch Angle versus Energy",
          "Set": "Time Series defined by using: EPOCH",
          "ParameterKey": "FODU_Quality_byA_atE",
          "Description": "Data Quality Flag, Oxygen Differential Flux Intensity, Unidirectional, Spectrogram by Pitch Angle at Sample Energies.\n                      Column 1 Labels from FODU_ENERGY: [\"FODU_Qual_Flux_0.065_MeV\",\"FODU_Qual_Flux_0.085_MeV\",\"FODU_Qual_Flux_0.110_MeV\",\"FODU_Qual_Flux_0.142_MeV\",\"FODU_Qual_Flux_0.184_MeV\",\"FODU_Qual_Flux_0.238_MeV\",\"FODU_Qual_Flux_0.309_MeV\",\"FODU_Qual_Flux_0.400_MeV\",\"FODU_Qual_Flux_0.518_MeV\"].\n                      Column 2 Labels from PA_MIDPOINT: [\"FODU_Qual_Flux_7.5_degPA\",\"FODU_Qual_Flux_20.0_degPA\",\"FODU_Qual_Flux_30.0_degPA\",\"FODU_Qual_Flux_40.0_degPA\",\"FODU_Qual_Flux_50.0_degPA\",\"FODU_Qual_Flux_60.0_degPA\",\"FODU_Qual_Flux_70.0_degPA\",\"FODU_Qual_Flux_80.0_degPA\",\"FODU_Qual_Flux_90.0_degPA\",\"FODU_Qual_Flux_100.0_degPA\",\"FODU_Qual_Flux_110.0_degPA\",\"FODU_Qual_Flux_120.0_degPA\",\"FODU_Qual_Flux_130.0_degPA\",\"FODU_Qual_Flux_140.0_degPA\",\"FODU_Qual_Flux_150.0_degPA\",\"FODU_Qual_Flux_160.0_degPA\",\"FODU_Qual_Flux_172.5_degPA\"].",
          "Caveats": "This parameter is virtual. It is calculated by calling the function ALTERNATE_VIEW with the following input parameters: FODU_Quality.",
          "Cadence": "PT10.9S",
          "RenderingHints": {
            "DisplayType": "Spectrogram",
            "ValueFormat": "E12.2",
            "ScaleType": "LinearScale"
          },
          "Structure": {
            "Size": "9 17"
          },
          "FillValue": "-32768",
          "Support": {
            "Qualifier": "Array",
            "SupportQuantity": "Other"
          }
        },
        {
          "Name": "Oxygen Channel, Midpoint Energy",
          "ParameterKey": "FODU_Energy",
          "Description": "Oxygen Channel, Midpoint Energy, Values equal to -1 indicate that an Energy Definition for this Channel is not applicable",
          "Cadence": "PT10.9S",
          "Units": "MeV",
          "RenderingHints": {
            "AxisLabel": "Energy",
            "ValueFormat": "E12.2",
            "ScaleType": "LogScale"
          },
          "Structure": {
            "Size": "9"
          },
          "ValidMin": "0.04",
          "ValidMax": "0.7",
          "FillValue": "-1.0e+31",
          "Particle": {
            "ParticleType": "Ion",
            "Qualifier": "Array",
            "ParticleQuantity": "Energy",
            "AtomicNumber": "8"
          }
        },
        {
          "Name": "Oxygen Partial Pressure, Perpendicular",
          "Set": "Time Series defined by using: EPOCH",
          "ParameterKey": "FODU_PerpPressure",
          "Description": "Oxygen Partial Pressure, Perpendicular, calculated for Energies from 125 keV to 1260 keV. The Calculation excludes Noisy Energy Channels.",
          "Cadence": "PT10.9S",
          "Units": "nPa",
          "RenderingHints": {
            "DisplayType": "TimeSeries",
            "AxisLabel": "Oxygen Perpendicular Pressure",
            "ValueFormat": "E12.2",
            "ScaleType": "LogScale"
          },
          "ValidMin": "0.0",
          "ValidMax": "100000.0",
          "FillValue": "-1.0e+31",
          "Particle": {
            "ParticleType": "Ion",
            "Qualifier": [
              "Parallel",
              "Scalar"
            ],
            "ParticleQuantity": "Pressure",
            "AtomicNumber": "8"
          }
        },
        {
          "Name": "Oxygen Partial Pressure, Parallel",
          "Set": "Time Series defined by using: EPOCH",
          "ParameterKey": "FODU_ParaPressure",
          "Description": "Oxygen Partial Pressure, Parallel, calculated for Energies from 125 keV to 1260 keV. The Calculation excludes Noisy Energy Channels.",
          "Cadence": "PT10.9S",
          "Units": "nPa",
          "RenderingHints": {
            "DisplayType": "TimeSeries",
            "AxisLabel": "Oxygen Parallel Pressure",
            "ValueFormat": "E12.2",
            "ScaleType": "LogScale"
          },
          "ValidMin": "0.0",
          "ValidMax": "100000.0",
          "FillValue": "-1.0e+31",
          "Particle": {
            "ParticleType": "Ion",
            "Qualifier": [
              "Parallel",
              "FieldAligned",
              "Scalar"
            ],
            "ParticleQuantity": "Pressure",
            "AtomicNumber": "8"
          }
        },
        {
          "Name": "Oxygen Number Density, integrated over Energy and Pitch Angle",
          "Set": "Time Series defined by using: EPOCH",
          "ParameterKey": "FODU_Density",
          "Description": "Oxygen Number Density, calculated by integrating the Distribution Function over Pitch Angles and over Energies from 125 keV to 1260 keV. The Integration excludes Noisy Energy Channels.",
          "Cadence": "PT10.9S",
          "Units": "cm^-3",
          "RenderingHints": {
            "DisplayType": "TimeSeries",
            "AxisLabel": "Oxygen Number Density",
            "ValueFormat": "E12.2",
            "ScaleType": "LinearScale"
          },
          "ValidMin": "0.0",
          "ValidMax": "6.0e+12",
          "FillValue": "-1.0e+31",
          "Particle": {
            "ParticleType": "Ion",
            "Qualifier": [
              "Magnitude",
              "Moment",
              "Scalar"
            ],
            "ParticleQuantity": "NumberDensity",
            "AtomicNumber": "8"
          }
        },
        {
          "Name": "Oxygen Total Integral Flux Intensity, Spin Integrated over Pitch Angle and Energy",
          "Set": "Time Series defined by using: EPOCH",
          "ParameterKey": "FODU_IntegralFlux",
          "Description": "Oxygen Total Integral Flux Intensity, Spin Integrated over Pitch Angles and over Energies 60 keV to 590 keV. The Integration excludes Noisy Energy Channels.",
          "Cadence": "PT10.9S",
          "Units": "s^-1",
          "RenderingHints": {
            "DisplayType": "TimeSeries",
            "AxisLabel": "Oxygen Total Intensity",
            "ValueFormat": "E12.2",
            "ScaleType": "LogScale"
          },
          "ValidMin": "0.0",
          "ValidMax": "6.0e+12",
          "FillValue": "-1.0e+31",
          "Particle": {
            "ParticleType": "Ion",
            "Qualifier": "Scalar",
            "ParticleQuantity": "NumberFlux",
            "AtomicNumber": "8"
          }
        },
        {
          "Name": "Oxygen Total Integral Flux Intensity, Omnidirectional",
          "Set": "Time Series defined by using: EPOCH",
          "ParameterKey": "FODU_OmniFlux",
          "Description": "Oxygen Total Integral Flux Intensity, Omnidirectional, Spin integrated over Energies from 125 keV to 1260 keV",
          "Cadence": "PT10.9S",
          "Units": "(cm^2 s MeV)^-1",
          "RenderingHints": {
            "DisplayType": "Spectrogram",
            "AxisLabel": "Oxygen Total Flux",
            "ValueFormat": "E12.2",
            "ScaleType": "LogScale"
          },
          "Structure": {
            "Size": "9",
            "Element": [
              {
                "Name": "Element 1",
                "Index": "1",
                "RenderingHints": {
                  "AxisLabel": "0.0650000"
                }
              },
              {
                "Name": "Element 2",
                "Index": "2",
                "RenderingHints": {
                  "AxisLabel": "0.0850000"
                }
              },
              {
                "Name": "Element 3",
                "Index": "3",
                "RenderingHints": {
                  "AxisLabel": "0.110000"
                }
              },
              {
                "Name": "Element 4",
                "Index": "4",
                "RenderingHints": {
                  "AxisLabel": "0.142000"
                }
              },
              {
                "Name": "Element 5",
                "Index": "5",
                "RenderingHints": {
                  "AxisLabel": "0.184000"
                }
              },
              {
                "Name": "Element 6",
                "Index": "6",
                "RenderingHints": {
                  "AxisLabel": "0.238000"
                }
              },
              {
                "Name": "Element 7",
                "Index": "7",
                "RenderingHints": {
                  "AxisLabel": "0.309000"
                }
              },
              {
                "Name": "Element 8",
                "Index": "8",
                "RenderingHints": {
                  "AxisLabel": "0.400000"
                }
              },
              {
                "Name": "Element 9",
                "Index": "9",
                "RenderingHints": {
                  "AxisLabel": "0.518000"
                }
              }
            ]
          },
          "ValidMin": "0.0",
          "ValidMax": "6.0e+12",
          "FillValue": "-1.0e+31",
          "Particle": {
            "ParticleType": "Ion",
            "Qualifier": "Array",
            "ParticleQuantity": "NumberFlux",
            "AtomicNumber": "8"
          }
        },
        {
          "Name": "Oxygen Flux Intensity, Spin Minimum",
          "Set": "Time Series defined by using: EPOCH",
          "ParameterKey": "FODU_MinimFlux",
          "Description": "Oxygen Flux Intensity, Spin Minimum for each Energy Channel",
          "Cadence": "PT10.9S",
          "Units": "(cm^2 s sr MeV)^-1",
          "RenderingHints": {
            "DisplayType": "Spectrogram",
            "AxisLabel": "O Minimum Intensity",
            "ValueFormat": "E12.2",
            "ScaleType": "LogScale"
          },
          "Structure": {
            "Size": "9",
            "Element": [
              {
                "Name": "Element 1",
                "Index": "1",
                "RenderingHints": {
                  "AxisLabel": "0.0650000"
                }
              },
              {
                "Name": "Element 2",
                "Index": "2",
                "RenderingHints": {
                  "AxisLabel": "0.0850000"
                }
              },
              {
                "Name": "Element 3",
                "Index": "3",
                "RenderingHints": {
                  "AxisLabel": "0.110000"
                }
              },
              {
                "Name": "Element 4",
                "Index": "4",
                "RenderingHints": {
                  "AxisLabel": "0.142000"
                }
              },
              {
                "Name": "Element 5",
                "Index": "5",
                "RenderingHints": {
                  "AxisLabel": "0.184000"
                }
              },
              {
                "Name": "Element 6",
                "Index": "6",
                "RenderingHints": {
                  "AxisLabel": "0.238000"
                }
              },
              {
                "Name": "Element 7",
                "Index": "7",
                "RenderingHints": {
                  "AxisLabel": "0.309000"
                }
              },
              {
                "Name": "Element 8",
                "Index": "8",
                "RenderingHints": {
                  "AxisLabel": "0.400000"
                }
              },
              {
                "Name": "Element 9",
                "Index": "9",
                "RenderingHints": {
                  "AxisLabel": "0.518000"
                }
              }
            ]
          },
          "ValidMin": "0.0",
          "ValidMax": "6.0e+12",
          "FillValue": "-1.0e+31",
          "Particle": {
            "ParticleType": "Ion",
            "Qualifier": "Array",
            "ParticleQuantity": "NumberFlux",
            "AtomicNumber": "8"
          }
        },
        {
          "Name": "Oxygen Flux Intensity, Spin Maximum",
          "Set": "Time Series defined by using: EPOCH",
          "ParameterKey": "FODU_MaximFlux",
          "Description": "Oxygen Flux Intensity, Spin Maximum for each Energy Channel",
          "Cadence": "PT10.9S",
          "Units": "(cm^2 s sr MeV)^-1",
          "RenderingHints": {
            "DisplayType": "Spectrogram",
            "AxisLabel": "O Maximum Intensity",
            "ValueFormat": "E12.2",
            "ScaleType": "LogScale"
          },
          "Structure": {
            "Size": "9",
            "Element": [
              {
                "Name": "Element 1",
                "Index": "1",
                "RenderingHints": {
                  "AxisLabel": "0.0650000"
                }
              },
              {
                "Name": "Element 2",
                "Index": "2",
                "RenderingHints": {
                  "AxisLabel": "0.0850000"
                }
              },
              {
                "Name": "Element 3",
                "Index": "3",
                "RenderingHints": {
                  "AxisLabel": "0.110000"
                }
              },
              {
                "Name": "Element 4",
                "Index": "4",
                "RenderingHints": {
                  "AxisLabel": "0.142000"
                }
              },
              {
                "Name": "Element 5",
                "Index": "5",
                "RenderingHints": {
                  "AxisLabel": "0.184000"
                }
              },
              {
                "Name": "Element 6",
                "Index": "6",
                "RenderingHints": {
                  "AxisLabel": "0.238000"
                }
              },
              {
                "Name": "Element 7",
                "Index": "7",
                "RenderingHints": {
                  "AxisLabel": "0.309000"
                }
              },
              {
                "Name": "Element 8",
                "Index": "8",
                "RenderingHints": {
                  "AxisLabel": "0.400000"
                }
              },
              {
                "Name": "Element 9",
                "Index": "9",
                "RenderingHints": {
                  "AxisLabel": "0.518000"
                }
              }
            ]
          },
          "ValidMin": "0.0",
          "ValidMax": "6.0e+12",
          "FillValue": "-1.0e+31",
          "Particle": {
            "ParticleType": "Ion",
            "Qualifier": "Array",
            "ParticleQuantity": "NumberFlux",
            "AtomicNumber": "8"
          }
        },
        {
          "Name": "Oxygen Channel, Energy Range",
          "ParameterKey": "FODU_EnergyRange",
          "Description": "Oxygen Channel, Energy Range, upper and lower Limits: A Value of -1 indicates either that an Energy Definition for this Measurement Channel is not applicable or that the upper Energy Limit of the Measurement Channel is undefined, which means that the Channel becomes integral.",
          "Cadence": "PT10.9S",
          "Units": "MeV",
          "RenderingHints": {
            "AxisLabel": "FODU_EnergyRange",
            "ValueFormat": "E12.2",
            "ScaleType": "LinearScale"
          },
          "Structure": {
            "Size": "2 9"
          },
          "FillValue": "-1.0e+31",
          "Particle": {
            "ParticleType": "Ion",
            "Qualifier": "Array",
            "ParticleQuantity": "Energy",
            "AtomicNumber": "8"
          }
        },
        {
          "Name": "Pitch Angle Bin Midpoint",
          "ParameterKey": "PA_Midpoint",
          "Description": "Pitch Angle Bin Midpoint, Center Points of the Bin Ranges",
          "Cadence": "PT10.9S",
          "Units": "°",
          "RenderingHints": {
            "AxisLabel": "PA",
            "ValueFormat": "F6.2",
            "ScaleType": "LinearScale"
          },
          "Structure": {
            "Size": "17"
          },
          "ValidMin": "0.0",
          "ValidMax": "180.0",
          "FillValue": "-1.0e+31",
          "Support": {
            "Qualifier": "Array",
            "SupportQuantity": "Other"
          }
        },
        {
          "Name": "Pitch Angle Bin Range Limits, Minimum Value and Maximum Value for each Bin",
          "Set": "Time Series defined by using: MINMAXRANGE",
          "ParameterKey": "PA_Range",
          "Description": "Pitch Angle Bin Range Limits, Minimum Value and Maximum Value for each Bin",
          "Cadence": "PT10.9S",
          "RenderingHints": {
            "AxisLabel": "PARange",
            "ValueFormat": "F7.2",
            "ScaleType": "LinearScale"
          },
          "Structure": {
            "Size": "2 17"
          },
          "FillValue": "-1.0e+31",
          "Support": {
            "Qualifier": "Array",
            "SupportQuantity": "Other"
          }
        },
        {
          "Name": "Spacecraft Position Vector, GEO, Cartesian Coordinates",
          "Set": "Time Series defined by using: EPOCH",
          "ParameterKey": "Position",
          "Description": "Spacecraft Position Vector, Geographic, GEO, Cartesian Coordinates",
          "Cadence": "PT10.9S",
          "Units": "Earth radii",
          "CoordinateSystem": {
            "CoordinateRepresentation": "Cartesian",
            "CoordinateSystemName": "GEO"
          },
          "RenderingHints": {
            "DisplayType": "TimeSeries",
            "ValueFormat": "E12.2"
          },
          "Structure": {
            "Size": "3",
            "Element": [
              {
                "Name": "XGEO",
                "Index": "1"
              },
              {
                "Name": "YGEO",
                "Index": "2"
              },
              {
                "Name": "ZGEO",
                "Index": "3"
              }
            ]
          },
          "ValidMin": "-10.0",
          "ValidMax": "10.0",
          "FillValue": "-1.0e+31",
          "Support": {
            "Qualifier": "Vector",
            "SupportQuantity": "Positional"
          }
        },
        {
          "Name": "Spacecraft Position Vector, SM, Cartesian Coordinates",
          "Set": "Time Series defined by using: EPOCH",
          "ParameterKey": "Position_SM",
          "Description": "Spacecraft Position Vector, Solar Magnetospheric, SM, Cartesian Coordinates",
          "Caveats": "Position of the spacecraft at MidET in the SM (Solar Magnetospheric) reference frame using the definition SPICE kernels available at production. The position varies with time and contains the position for the X, Y, and Z axis of the SC in Earth Radii.",
          "Cadence": "PT10.9S",
          "Units": "Earth radii",
          "CoordinateSystem": {
            "CoordinateRepresentation": "Cartesian",
            "CoordinateSystemName": "SM"
          },
          "RenderingHints": {
            "DisplayType": "TimeSeries",
            "ValueFormat": "E12.2",
            "ScaleType": "LinearScale"
          },
          "Structure": {
            "Size": "3",
            "Element": [
              {
                "Name": "XSM",
                "Index": "1"
              },
              {
                "Name": "YSM",
                "Index": "2"
              },
              {
                "Name": "ZSM",
                "Index": "3"
              }
            ]
          },
          "ValidMin": "-10.0",
          "ValidMax": "10.0",
          "FillValue": "-1.0e+31",
          "Support": {
            "Qualifier": "Vector",
            "SupportQuantity": "Positional"
          }
        },
        {
          "Name": "Spacecraft Position Vector, GSM, Cartesian Coordinates",
          "Set": "Time Series defined by using: EPOCH",
          "ParameterKey": "Position_GSM",
          "Description": "Spacecraft Position Vector, Geocentric Solar Magnetospheric, GSM, Cartesian Coordinates",
          "Cadence": "PT10.9S",
          "Units": "Earth radii",
          "CoordinateSystem": {
            "CoordinateRepresentation": "Cartesian",
            "CoordinateSystemName": "GSM"
          },
          "RenderingHints": {
            "DisplayType": "TimeSeries",
            "ValueFormat": "E12.2"
          },
          "Structure": {
            "Size": "3",
            "Element": [
              {
                "Name": "XGSM",
                "Index": "1"
              },
              {
                "Name": "YGSM",
                "Index": "2"
              },
              {
                "Name": "ZGSM",
                "Index": "3"
              }
            ]
          },
          "ValidMin": "-10.0",
          "ValidMax": "10.0",
          "FillValue": "-1.0e+31",
          "Support": {
            "Qualifier": "Vector",
            "SupportQuantity": "Positional"
          }
        },
        {
          "Name": "Data Quality Flag, Spacecraft Position Vector Data",
          "Set": "Time Series defined by using: EPOCH",
          "ParameterKey": "Position_Quality",
          "Description": "Data Quality Flag, Spacecraft Position Vector Data, all Coordinate Systems, 0=Good, 1=Bad",
          "Cadence": "PT10.9S",
          "RenderingHints": {
            "AxisLabel": "Position_Quality",
            "ValueFormat": "I1"
          },
          "ValidMin": "0",
          "ValidMax": "1",
          "FillValue": "-32768",
          "Support": {
            "Qualifier": "Scalar",
            "SupportQuantity": "Other"
          }
        },
        {
          "Name": "Orbit Number",
          "Set": "Time Series defined by using: EPOCH",
          "ParameterKey": "OrbitNumber",
          "Description": "Orbit Number, at the Time of the Measurement",
          "Cadence": "PT10.9S",
          "RenderingHints": {
            "AxisLabel": "OrbitNumber",
            "ValueFormat": "I8",
            "ScaleType": "LinearScale"
          },
          "ValidMin": "0",
          "ValidMax": "5000",
          "FillValue": "-2147483648",
          "Support": {
            "Qualifier": "Scalar",
            "SupportQuantity": "Other"
          }
        },
        {
          "Name": "Dipole L Value, SM Coordinates",
          "Set": "Time Series defined by using: EPOCH",
          "ParameterKey": "L",
          "Description": "Dipole L Value, Solar Magnetospheric, SM, Coordinates",
          "Cadence": "PT10.9S",
          "Units": "Earth radii",
          "RenderingHints": {
            "AxisLabel": "L",
            "ValueFormat": "E12.2",
            "ScaleType": "LinearScale"
          },
          "ValidMin": "0.0",
          "ValidMax": "10.0",
          "FillValue": "-1.0e+31",
          "Support": {
            "Qualifier": "Scalar",
            "SupportQuantity": "Other"
          }
        },
        {
          "Name": "McIlwain L Value, Equatorial, computed by using ECT MagEIS Ephemeris Data",
          "Set": "Time Series defined by using: EPOCH",
          "ParameterKey": "L_Eq",
          "Description": "McIlwain L Value, Equatorial, derived from the Energetic Particle, Composition, and Thermal Plasma, ECT, Magnetic Electron Ion Spectrometer, MagEIS, Ephemeris Data",
          "Cadence": "PT10.9S",
          "Units": "Earth radii",
          "RenderingHints": {
            "AxisLabel": "L_Eq",
            "ValueFormat": "E10.4"
          },
          "ValidMin": "0.0",
          "ValidMax": "1000.0",
          "FillValue": "-1.0e+31",
          "Support": {
            "Qualifier": "Scalar",
            "SupportQuantity": "Other"
          }
        },
        {
          "Name": "Roederer L* Value, for the Average Pitch Angle, computed by using ECT MagEIS Ephemeris Data",
          "Set": "Time Series defined by using: EPOCH",
          "ParameterKey": "L_Star",
          "Description": "Roederer L* Value, for the Average Pitch Angle, derived from the Energetic Particle, Composition, and Thermal Plasma, ECT, Magnetic Electron Ion Spectrometer, MagEIS, Ephemeris Data",
          "Cadence": "PT10.9S",
          "Units": "Earth radii",
          "RenderingHints": {
            "AxisLabel": "L*",
            "ValueFormat": "E10.4"
          },
          "ValidMin": "0.0",
          "ValidMax": "1000.0",
          "FillValue": "-1.0e+31",
          "Support": {
            "Qualifier": "Scalar",
            "SupportQuantity": "Other"
          }
        },
        {
          "Name": "Average Pitch Angle Integral Invariant, computed by using ECT MagEIS Ephemeris Data",
          "Set": "Time Series defined by using: EPOCH",
          "ParameterKey": "I",
          "Description": "Average Pitch Angle Integral Invariant, derived from the Energetic Particle, Composition, and Thermal Plasma, ECT, Magnetic Electron Ion Spectrometer, MagEIS, Ephemeris Data",
          "Cadence": "PT10.9S",
          "Units": "Earth radii",
          "RenderingHints": {
            "AxisLabel": "I",
            "ValueFormat": "E10.4"
          },
          "ValidMin": "0.0",
          "ValidMax": "1000.0",
          "FillValue": "-1.0e+31",
          "Support": {
            "Qualifier": "Scalar",
            "SupportQuantity": "Other"
          }
        },
        {
          "Name": "Spacecraft Position, MLT, CD Coordinates, computed by using ECT MagEIS Ephemeris Data",
          "Set": "Time Series defined by using: EPOCH",
          "ParameterKey": "MLT",
          "Description": "Spacecraft Position, Magnetic Local Time, MLT, Centered Dipole, CD, Coordinates, derived from the Energetic Particle, Composition, and Thermal Plasma, ECT, Magnetic Electron Ion Spectrometer, MagEIS, Ephemeris Data",
          "Cadence": "PT10.9S",
          "Units": "°",
          "CoordinateSystem": {
            "CoordinateRepresentation": "Spherical",
            "CoordinateSystemName": "MAG"
          },
          "RenderingHints": {
            "AxisLabel": "MLT",
            "ValueFormat": "E10.4"
          },
          "ValidMin": "0.0",
          "ValidMax": "24.0",
          "FillValue": "-1.0e+31",
          "Support": {
            "Qualifier": "DirectionAngle.AzimuthAngle",
            "SupportQuantity": "Positional"
          }
        }
      ]
    }
  }
}