{
  "Spase": {
    "xmlns:xsi": "http://www.w3.org/2001/XMLSchema-instance",
    "xmlns": "http://www.spase-group.org/data/schema",
    "xsi:schemaLocation": "http://www.spase-group.org/data/schema http://www.spase-group.org/data/schema/spase-2_3_0.xsd",
    "Version": "2.3.2",
    "NumericalData": {
      "ResourceID": "spase://NASA/NumericalData/MMS/3/FastPlasmaInvestigation/DIS/Fast/Level2/Moments/PT4.5S",
      "ResourceHeader": {
        "ResourceName": "MMS 3 Fast Plasma Investigation, Dual Ion Spectrometer (FPI, DIS) Distribution Moments, Fast Survey, Level 2 (L2), 4.5 s Data",
        "ReleaseDate": "2021-04-27T15:38:11Z",
        "Description": "The Fast Plasma Instrument (FPI) usually Operates in Fast Survey (FS) Mode in the MMS Region Of Interest (ROI) for the current Mission Phase. Data are taken at Burst (30/150 ms for DES/DIS) Resolution are aggregated onboard and made available at Survey (4.5 s) Resolution in this Mode. Planning around Calibration Activities, avoidance of Earth Radiation Belts, etc., when possible, FPI usually Operates in Slow Survey (SS) Mode outside of ROI, and then only the 60 s Resolution Survey Data are available. This Product contains Results from integrating the standard Moments of Phase Space Distributions formed from the indicated Data Type (DES/DIS Burst, FS or SS). For Convenience, some additional Parameters are included to augment those most commonly found in a Moments Product of this sort, plus Time Stamps and other Annotation characterizing the State of the Instrument System at the indicated Time.",
        "Acknowledgement": "J. Burch, B.L. Giles",
        "Contact": [
          {
            "PersonID": "spase://SMWG/Person/James.L.Burch",
            "Role": "PrincipalInvestigator"
          },
          {
            "PersonID": "spase://SMWG/Person/Barbara.L.Giles",
            "Role": "PrincipalInvestigator"
          },
          {
            "PersonID": "spase://SMWG/Person/Robert.E.McGuire",
            "Role": "MetadataContact"
          },
          {
            "PersonID": "spase://SMWG/Person/Lee.Frost.Bargatze",
            "Role": "MetadataContact"
          }
        ],
        "InformationURL": [
          {
            "Name": "The Magnetospheric Multiscale (MMS) Mission home page at Goddard Space Flight Center (GSFC)",
            "URL": "https://mms.gsfc.nasa.gov",
            "Description": "The Magnetospheric Multiscale (MMS) Mission Home Page hosted at the Goddard Space Flight Center (GSFC)"
          },
          {
            "Name": "The MMS Mission home page at the Science Data Center (SDC) LASP, UC Boulder",
            "URL": "https://lasp.colorado.edu/mms/sdc/public/",
            "Description": "The Magnetospheric Multiscale (MMS) Mission Home Page hosted by the Laboratory of Atmospheric and Space Physics, Science Data Center (LASP, SDC) at the University of Colorado, Boulder"
          },
          {
            "Name": "NASA Web Page providing Inforamtion for the Magnetospheric Multiscale (MMS) Fast Plasma Investigation (FPI) Instrument",
            "URL": "https://www.nasa.gov/mission_pages/mms/spacecraft/mms-instruments.html#fpi",
            "Description": "NASA Web Page providing an Overview of the Magnetospheric Multiscale (MMS) Fast Plasma Investigation (FPI) Instrument"
          }
        ],
        "PriorID": [
          "spase://VSPO/NumericalData/MMS/3/FastPlasmaInvestigation/DIS/Burst/Level2/Moments/PT4.5S",
          "spase://VSPO/NumericalData/MMS/3/FastPlasmaInvestigation/DIS/Fast/Level2/Moments/PT4.5S"
        ]
      },
      "AccessInformation": [
        {
          "RepositoryID": "spase://SMWG/Repository/NASA/GSFC/SPDF",
          "Availability": "Online",
          "AccessRights": "Open",
          "AccessURL": [
            {
              "Name": "FTPS from SPDF (not with most browsers)",
              "URL": "ftps://spdf.gsfc.nasa.gov/pub/data/mms/mms3/fpi/fast/l2/dis-moms/",
              "Description": "Access to Data in CDF Format via ftp from SPDF"
            },
            {
              "Name": "HTTPS from SPDF",
              "URL": "https://spdf.gsfc.nasa.gov/pub/data/mms/mms3/fpi/fast/l2/dis-moms/",
              "Description": "Access to Data in CDF Format via http from SPDF"
            },
            {
              "Name": "CDAWeb",
              "URL": "https://cdaweb.gsfc.nasa.gov/index.html/",
              "ProductKey": "MMS3_FPI_FAST_L2_DIS-MOMS",
              "Description": "Access to ASCII, CDF, and Plots via NASA/GSFC CDAWeb"
            }
          ],
          "Format": "CDF",
          "Encoding": "None",
          "Acknowledgement": "J. Burch, B.L. Giles. Please acknowledge the Data Providers and CDAWeb when using these Data."
        },
        {
          "RepositoryID": "spase://SMWG/Repository/NASA/GSFC/SPDF",
          "Availability": "Online",
          "AccessRights": "Open",
          "AccessURL": {
            "Name": "CDAWeb HAPI Server",
            "URL": "https://cdaweb.gsfc.nasa.gov/hapi",
            "Style": "HAPI",
            "ProductKey": "MMS3_FPI_FAST_L2_DIS-MOMS",
            "Description": "Web Service to this product using the HAPI interface."
          },
          "Format": "CSV",
          "Acknowledgement": "J. Burch, B.L. Giles. Please acknowledge the Data Providers and CDAWeb when using these Data."
        },
        {
          "RepositoryID": "spase://SMWG/Repository/UCOLO/LASP/MMS_SDC",
          "Availability": "Online",
          "AccessRights": "Open",
          "AccessURL": {
            "Name": "HTTP access to files at the MMS Science Data Center, SDC, at the Laboratory for Atmospheric and Space Physics, LASP, University of Colorado, Boulder",
            "URL": "https://lasp.colorado.edu/mms/sdc/public/data/",
            "Description": "Access to MMS Data in CDF Format via http from the MMS SDC"
          },
          "Format": "CDF",
          "Encoding": "None",
          "Acknowledgement": "J. Burch, B.L. Giles. Please acknowledge the Data Providers and the MMS SDC when using these Data."
        }
      ],
      "ProcessingLevel": "Calibrated",
      "InstrumentID": "spase://SMWG/Instrument/MMS/1/FastPlasmaInstrument/DIS",
      "MeasurementType": [
        "EnergeticParticles",
        "ThermalPlasma"
      ],
      "TemporalDescription": {
        "TimeSpan": {
          "StartDate": "2015-05-06T00:00:00.000",
          "StopDate": "2018-09-16T23:59:59.999"
        },
        "Cadence": "PT4.5S"
      },
      "ObservedRegion": [
        "Earth.Magnetosheath",
        "Earth.Magnetosphere",
        "Earth.Magnetosphere.Magnetotail",
        "Earth.Magnetosphere.Main",
        "Earth.Magnetosphere.RadiationBelt",
        "Earth.NearSurface.EquatorialRegion",
        "Earth.NearSurface.Plasmasphere",
        "Heliosphere.NearEarth"
      ],
      "Caveats": "This SPASE Numerical Data Description is for the MMS3_FPI_FAST_L2_DIS-MOMS Data Product. This Numerical Data Description has been written by utilizing the ADAPT Software Package. ADAPT can harvest Metadata that are embedded in Data Files stored in Common Data File Format that are then leveraged to populate corresponding SPASE Schema Text Fields. Typically, the CDF embedded Metadata are harvested from CDF Master Files, which contain no actual Data, in order to populate SPASE Documents. In this case, the Metadata were harvested from a \"Data\" CDF, which contains actual Data Observations from one of the four MMS FPI Instruments. The \"Data\" CDF used by ADAPT has the following Specifications: Data Product Version Number: 3.3.0, CDF Generation Date: 2018-11-02T19:04:30, CDF Skeleton Version Revision Number: 8731, and CDF Skeleton Version Revision Date: 2018-07-10T12:19:56.",
      "Parameter": [
        {
          "Name": "Epoch Time",
          "ParameterKey": "Epoch",
          "Description": "Epoch Time Tags in Terrestrial Time 2000 (TT2000), Nanoseconds since J2000",
          "Caveats": "Survey Data Begin Time, derived from the Survey Packet Time. This Parameter exhibits an increasing Monotonic Progression.",
          "Cadence": "PT4.5S",
          "Units": "ns",
          "UnitsConversion": "1.0e-9>s",
          "RenderingHints": {
            "AxisLabel": "Epoch",
            "ScaleType": "LinearScale"
          },
          "ValidMin": "1990-01-01T00:00:00.000000000",
          "ValidMax": "2100-01-01T00:00:01.000000000",
          "FillValue": "9999-12-31T23:59:59.999999999",
          "Support": {
            "SupportQuantity": "Temporal"
          }
        },
        {
          "Name": "Epoch Plus Var",
          "ParameterKey": "Epoch_plus_var",
          "Description": "Epoch Plus Var",
          "Cadence": "PT4.5S",
          "Units": "s",
          "UnitsConversion": "1.0>s",
          "RenderingHints": {
            "ValueFormat": "F4.2"
          },
          "ValidMin": "0.0",
          "ValidMax": "4.5",
          "Support": {
            "SupportQuantity": "Temporal"
          }
        },
        {
          "Name": "Epoch Minus Var",
          "ParameterKey": "Epoch_minus_var",
          "Description": "Epoch Minus Var",
          "Cadence": "PT4.5S",
          "Units": "s",
          "UnitsConversion": "1.0>s",
          "RenderingHints": {
            "ValueFormat": "F4.2"
          },
          "ValidMin": "0.0",
          "ValidMax": "4.5",
          "Support": {
            "SupportQuantity": "Temporal"
          }
        },
        {
          "Name": "Data Quality Error Flags",
          "Set": "Time Series defined by using: EPOCH",
          "ParameterKey": "mms3_dis_errorflags_fast",
          "Description": "Vector of Data Quality Indicator Flag Flags at Survey Start Time",
          "Caveats": "A Value of Zero signifies no Quality Errors. For Non-Zero Values: Bit-0=Manually flagged Interval, Bit-1=Overcounting/Saturation Effects likely present in Sky Map, Bit-2=Reported Spacecraft Potential above 20 V, Bit-3=Invalid/Unavailable Spacecraft Potential, Bit-4=Significant (>10%) Cold Plasma (<10 eV) Component, Bit-5=Significant (>25%) Hot Plasma (>30 keV) Component, Bit-6=High Sonic Mach Number (V/Vth > 2.5), Bit-7=Low calculated Density (N_DIS ≤ 0.0 cm^-3), Bit-8=Bent Pipe Magnetic Field used instead of Survey l2pre Magnetic Field, Bit-10=No internally generated Photoelectron Correction applied, Bit-11=Compression Pipeline Error, Bit-12=Spintone Calculation Error (DBCS only), Bit-13=Significant (≥20%) Penetrating Radiation",
          "Cadence": "PT4.5S",
          "RenderingHints": {
            "DisplayType": "TimeSeries",
            "AxisLabel": "Error_Flags",
            "ValueFormat": "I10",
            "ScaleType": "LinearScale"
          },
          "ValidMin": "0",
          "ValidMax": "4294967294",
          "FillValue": "4294967295",
          "Support": {
            "SupportQuantity": "Other"
          }
        },
        {
          "Name": "Compression Flag",
          "ParameterKey": "mms3_dis_compressionloss_fast",
          "Description": "Compression Lossless/Lossy Indicator Flag at Survey Start Time",
          "Caveats": "Compression Loss Indicator, 0=Lossless, 1=Lossy",
          "Cadence": "PT4.5S",
          "RenderingHints": {
            "DisplayType": "TimeSeries",
            "AxisLabel": "Compress_Flag",
            "ValueFormat": "I1",
            "ScaleType": "LinearScale"
          },
          "ValidMin": "0",
          "ValidMax": "1",
          "FillValue": "255",
          "Support": {
            "SupportQuantity": "Other"
          }
        },
        {
          "Name": "Start Del-Phi Count",
          "Set": "Time Series defined by using: EPOCH",
          "ParameterKey": "mms3_dis_startdelphi_count_fast",
          "Description": "Del-Phi (Observatory Spin Phase) Count at Survey Start Time",
          "Caveats": "Nominally, the Spin Phase Counts range over [0000,5759] Counts. Each Count represents 1/16 of a Degree (0.0625°) of Observatory Spin Phase. Zero Spin Phase Angle indicates that the Observatory +X-axis is aligned with the Sun Sensor Axis.",
          "Cadence": "PT4.5S",
          "RenderingHints": {
            "DisplayType": "TimeSeries",
            "AxisLabel": "DelPhi_Count",
            "ValueFormat": "I4.4",
            "ScaleType": "LinearScale"
          },
          "ValidMin": "0",
          "ValidMax": "5761",
          "FillValue": "65535",
          "Support": {
            "SupportQuantity": "Other"
          }
        },
        {
          "Name": "Start Del-Phi Angle",
          "Set": "Time Series defined by using: EPOCH",
          "ParameterKey": "mms3_dis_startdelphi_angle_fast",
          "Description": "Del-Phi (Observatory Spin Phase) Angle at Survey Start Time",
          "Caveats": "Nominally, the Spin Phase Angles range over [0°,360°). Each Count represents 1/16 of a Degree (0.0625°) of Observatory Spin Phase. Zero Spin Phase Angle indicates that the Observatory +X-axis is aligned with the Sun Sensor Axis.",
          "Cadence": "PT4.5S",
          "Units": "°",
          "UnitsConversion": "0.0174532925>rad",
          "RenderingHints": {
            "DisplayType": "TimeSeries",
            "AxisLabel": "DelPhi_Angle",
            "ValueFormat": "E12.2",
            "ScaleType": "LinearScale"
          },
          "ValidMin": "0.0",
          "ValidMax": "360.0",
          "FillValue": "-1.0e+31",
          "Support": {
            "Qualifier": [
              "DirectionAngle.AzimuthAngle",
              "PhaseAngle"
            ],
            "SupportQuantity": "Positional"
          }
        },
        {
          "Name": "Ion Energy Spectrum, DBCS +X Direction",
          "Set": "Time Series defined by using: EPOCH",
          "ParameterKey": "mms3_dis_energyspectr_px_fast",
          "Description": "Ion Energy Spectrum \"near\" the De-spun Body Spacecraft Coordinate System, DBCS, +X Axis during this Survey",
          "Caveats": "Differential Energy Flux by Energy Bin, averaged (weighted by Solid Angle) over Particles whose DBCS Flow Direction is within 45° (Polar and Azimuthal) of the +X Axis (Instrument Look Angles: 45° ≤ Theta < 135° and 135° ≤ Phi < 225°).",
          "Cadence": "PT4.5S",
          "Units": "keV/(cm^2 s sr keV)",
          "UnitsConversion": "1.0e4>J/(m^2 s sr J)",
          "CoordinateSystem": {
            "CoordinateRepresentation": "Cartesian",
            "CoordinateSystemName": "GSE"
          },
          "RenderingHints": {
            "DisplayType": "Spectrogram",
            "AxisLabel": "DEF_px",
            "ValueFormat": "E12.2",
            "ScaleType": "LogScale"
          },
          "Structure": {
            "Size": "32"
          },
          "ValidMin": "0.0",
          "ValidMax": "1.0e+30",
          "FillValue": "-1.0e+31",
          "Particle": {
            "ParticleType": "Ion",
            "Qualifier": [
              "Array",
              "Component.I"
            ],
            "ParticleQuantity": "NumberFlux"
          }
        },
        {
          "Name": "Ion Energy Spectrum, DBCS -X Direction",
          "Set": "Time Series defined by using: EPOCH",
          "ParameterKey": "mms3_dis_energyspectr_mx_fast",
          "Description": "Ion Energy Spectrum \"near\" the De-spun Body Spacecraft Coordinate System, DBCS, -X Axis during this Survey",
          "Caveats": "Differential Energy Flux by Energy Bin, averaged (weighted by Solid Angle) over Particles whose DBCS Flow Direction is within 45° (Polar and Azimuthal) of the -X Axis (Instrument Look Angles: 45° ≤ Theta < 135° and Phi ≥ 315° or Phi < 45°).",
          "Cadence": "PT4.5S",
          "Units": "keV/(cm^2 s sr keV)",
          "UnitsConversion": "1.0e4>J/(m^2 s sr J)",
          "CoordinateSystem": {
            "CoordinateRepresentation": "Cartesian",
            "CoordinateSystemName": "GSE"
          },
          "RenderingHints": {
            "DisplayType": "Spectrogram",
            "AxisLabel": "DEF_mx",
            "ValueFormat": "E12.2",
            "ScaleType": "LogScale"
          },
          "Structure": {
            "Size": "32"
          },
          "ValidMin": "0.0",
          "ValidMax": "1.0e+30",
          "FillValue": "-1.0e+31",
          "Particle": {
            "ParticleType": "Ion",
            "Qualifier": [
              "Array",
              "Component.I"
            ],
            "ParticleQuantity": "NumberFlux"
          }
        },
        {
          "Name": "Ion Energy Spectrum, DBCS +Y Direction",
          "Set": "Time Series defined by using: EPOCH",
          "ParameterKey": "mms3_dis_energyspectr_py_fast",
          "Description": "Ion Energy Spectrum \"near\" the De-spun Body Spacecraft Coordinate System, DBCS, +Y Axis during this Survey",
          "Caveats": "Differential Energy Flux by Energy Bin, averaged (weighted by Solid Angle) over Particles whose DBCS Flow Direction is within 45° (Polar and Azimuthal) of the +Y Axis (Instrument Look Angles: 45° ≤ Theta < 135° and 225° ≤ Phi < 315°).",
          "Cadence": "PT4.5S",
          "Units": "keV/(cm^2 s sr keV)",
          "UnitsConversion": "1.0e4>J/(m^2 s sr J)",
          "CoordinateSystem": {
            "CoordinateRepresentation": "Cartesian",
            "CoordinateSystemName": "GSE"
          },
          "RenderingHints": {
            "DisplayType": "Spectrogram",
            "AxisLabel": "DEF_py",
            "ValueFormat": "E12.2",
            "ScaleType": "LogScale"
          },
          "Structure": {
            "Size": "32"
          },
          "ValidMin": "0.0",
          "ValidMax": "1.0e+30",
          "FillValue": "-1.0e+31",
          "Particle": {
            "ParticleType": "Ion",
            "Qualifier": [
              "Array",
              "Component.J"
            ],
            "ParticleQuantity": "NumberFlux"
          }
        },
        {
          "Name": "Ion Energy Spectrum, DBCS -Y Direction",
          "Set": "Time Series defined by using: EPOCH",
          "ParameterKey": "mms3_dis_energyspectr_my_fast",
          "Description": "Ion Energy Spectrum \"near\" the De-spun Body Spacecraft Coordinate System, DBCS, -Y Axis during this Survey",
          "Caveats": "Differential Energy Flux by Energy Bin, averaged (weighted by Solid Angle) over Particles whose DBCS Flow Direction is within 45° (Polar and Azimuthal) of the -Y Axis (Instrument Look Angles: 45° ≤ Theta < 135° and 45° ≤ Phi < 135°).",
          "Cadence": "PT4.5S",
          "Units": "keV/(cm^2 s sr keV)",
          "UnitsConversion": "1.0e4>J/(m^2 s sr J)",
          "CoordinateSystem": {
            "CoordinateRepresentation": "Cartesian",
            "CoordinateSystemName": "GSE"
          },
          "RenderingHints": {
            "DisplayType": "Spectrogram",
            "AxisLabel": "DEF_my",
            "ValueFormat": "E12.2",
            "ScaleType": "LogScale"
          },
          "Structure": {
            "Size": "32"
          },
          "ValidMin": "0.0",
          "ValidMax": "1.0e+30",
          "FillValue": "-1.0e+31",
          "Particle": {
            "ParticleType": "Ion",
            "Qualifier": [
              "Array",
              "Component.J"
            ],
            "ParticleQuantity": "NumberFlux"
          }
        },
        {
          "Name": "Ion Energy Spectrum, DBCS +Z Direction",
          "Set": "Time Series defined by using: EPOCH",
          "ParameterKey": "mms3_dis_energyspectr_pz_fast",
          "Description": "Ion Energy Spectrum \"near\" the De-spun Body Spacecraft Coordinate System, DBCS, +Z Axis during this Survey",
          "Caveats": "Differential Energy Flux by Energy Bin, averaged (weighted by Solid Angle) over Particles whose DBCS Flow Direction is within 45° (Polar and Azimuthal) of the +Z Axis (Instrument Look Angles: 135° ≤ Theta < 180° and 0° ≤ Phi < 360°).",
          "Cadence": "PT4.5S",
          "Units": "keV/(cm^2 s sr keV)",
          "UnitsConversion": "1.0e4>J/(m^2 s sr J)",
          "CoordinateSystem": {
            "CoordinateRepresentation": "Cartesian",
            "CoordinateSystemName": "GSE"
          },
          "RenderingHints": {
            "DisplayType": "Spectrogram",
            "AxisLabel": "DEF_pz",
            "ValueFormat": "E12.2",
            "ScaleType": "LogScale"
          },
          "Structure": {
            "Size": "32"
          },
          "ValidMin": "0.0",
          "ValidMax": "1.0e+30",
          "FillValue": "-1.0e+31",
          "Particle": {
            "ParticleType": "Ion",
            "Qualifier": [
              "Array",
              "Component.K"
            ],
            "ParticleQuantity": "NumberFlux"
          }
        },
        {
          "Name": "Ion Energy Spectrum, DBCS -Z Direction",
          "Set": "Time Series defined by using: EPOCH",
          "ParameterKey": "mms3_dis_energyspectr_mz_fast",
          "Description": "Ion Energy Spectrum \"near\" the De-spun Body Spacecraft Coordinate System, DBCS, -Z Axis during this Survey",
          "Caveats": "Differential Energy Flux by Energy Bin, averaged (weighted by Solid Angle) over Particles whose DBCS Flow Direction is within 45° (Polar and Azimuthal) of the -Z Axis (Instrument Look Angles: 0° ≤ Theta < 45° and 0° ≤ Phi < 360°).",
          "Cadence": "PT4.5S",
          "Units": "keV/(cm^2 s sr keV)",
          "UnitsConversion": "1.0e4>J/(m^2 s sr J)",
          "CoordinateSystem": {
            "CoordinateRepresentation": "Cartesian",
            "CoordinateSystemName": "GSE"
          },
          "RenderingHints": {
            "DisplayType": "Spectrogram",
            "AxisLabel": "DEF_mz",
            "ValueFormat": "E12.2",
            "ScaleType": "LogScale"
          },
          "Structure": {
            "Size": "32"
          },
          "ValidMin": "0.0",
          "ValidMax": "1.0e+30",
          "FillValue": "-1.0e+31",
          "Particle": {
            "ParticleType": "Ion",
            "Qualifier": [
              "Array",
              "Component.K"
            ],
            "ParticleQuantity": "NumberFlux"
          }
        },
        {
          "Name": "Ion Energy Spectrum, Omni-Directional",
          "Set": "Time Series defined by using: EPOCH",
          "ParameterKey": "mms3_dis_energyspectr_omni_fast",
          "Description": "Omni-Directional Ion Energy Spectrum during this Survey",
          "Caveats": "Differential Energy Flux by Energy Bin, averaged (weighted by Solid Angle) over all Directions (Flow or Look).",
          "Cadence": "PT4.5S",
          "Units": "keV/(cm^2 s sr keV)",
          "UnitsConversion": "1.0e4>J/(m^2 s sr J)",
          "RenderingHints": {
            "DisplayType": "Spectrogram",
            "AxisLabel": "DEF_Omni",
            "ValueFormat": "E12.2",
            "ScaleType": "LogScale"
          },
          "Structure": {
            "Size": "32"
          },
          "ValidMin": "0.0",
          "ValidMax": "1.0e+30",
          "FillValue": "-1.0e+31",
          "Particle": {
            "ParticleType": "Ion",
            "Qualifier": "Array",
            "ParticleQuantity": "NumberFlux"
          }
        },
        {
          "Name": "Ion Energy Spectrum, Background",
          "Set": "Time Series defined by using: EPOCH",
          "ParameterKey": "mms3_dis_spectr_bg_fast",
          "Description": "Ion Energy Spectrum Background during this Survey",
          "Caveats": "Background Differential Energy Flux by Energy Bin, averaged (weighted by Solid Angle) over all Directions (Flow or Look).",
          "Cadence": "PT4.5S",
          "Units": "keV/(cm^2 s sr keV)",
          "UnitsConversion": "1.0e4>J/(m^2 s sr J)",
          "RenderingHints": {
            "DisplayType": "TimeSeries",
            "AxisLabel": "DEF_Spect_BG",
            "ValueFormat": "E12.2",
            "ScaleType": "LogScale"
          },
          "ValidMin": "0.0",
          "ValidMax": "1.0e+30",
          "FillValue": "-1.0e+31",
          "Particle": {
            "ParticleType": "Ion",
            "Qualifier": [
              "Scalar",
              "Magnitude"
            ],
            "ParticleQuantity": "NumberFlux"
          }
        },
        {
          "Name": "Ion Number Density, Background",
          "Set": "Time Series defined by using: EPOCH",
          "ParameterKey": "mms3_dis_numberdensity_bg_fast",
          "Description": "Ion Number Density Background during this Survey",
          "Caveats": "Background Number Density derived via Integration of the estimated Background Differential Energy Flux.",
          "Cadence": "PT4.5S",
          "Units": "cm^-3",
          "UnitsConversion": "1.0e6>m^-3",
          "RenderingHints": {
            "DisplayType": "TimeSeries",
            "AxisLabel": "N_BG",
            "ValueFormat": "E12.2",
            "ScaleType": "LogScale"
          },
          "ValidMin": "0.0",
          "ValidMax": "100000.0",
          "FillValue": "-1.0e+31",
          "Particle": {
            "ParticleType": "Ion",
            "Qualifier": [
              "Magnitude",
              "Moment"
            ],
            "ParticleQuantity": "NumberDensity"
          }
        },
        {
          "Name": "Ion Number Density",
          "Set": "Time Series defined by using: EPOCH",
          "ParameterKey": "mms3_dis_numberdensity_fast",
          "Description": "Ion Number Density during this Survey",
          "Cadence": "PT4.5S",
          "Units": "cm^-3",
          "UnitsConversion": "1.0e6>m^-3",
          "RenderingHints": {
            "DisplayType": "TimeSeries",
            "AxisLabel": "N",
            "ValueFormat": "E12.2",
            "ScaleType": "LogScale"
          },
          "ValidMin": "0.0",
          "ValidMax": "100000.0",
          "FillValue": "-1.0e+31",
          "Particle": {
            "ParticleType": "Ion",
            "Qualifier": [
              "Magnitude",
              "Moment"
            ],
            "ParticleQuantity": "NumberDensity"
          }
        },
        {
          "Name": "Ion Number Density, Error",
          "Set": "Time Series defined by using: EPOCH",
          "ParameterKey": "mms3_dis_numberdensity_err_fast",
          "Description": "Ion Number Density Error during this Survey",
          "Cadence": "PT4.5S",
          "Units": "cm^-3",
          "UnitsConversion": "1.0e6>m^-3",
          "RenderingHints": {
            "DisplayType": "TimeSeries",
            "AxisLabel": "N_Error",
            "ValueFormat": "E12.2",
            "ScaleType": "LinearScale"
          },
          "ValidMin": "0.0",
          "ValidMax": "100000.0",
          "FillValue": "-1.0e+31",
          "Particle": {
            "ParticleType": "Ion",
            "Qualifier": [
              "Magnitude",
              "Moment"
            ],
            "ParticleQuantity": "NumberDensity"
          }
        },
        {
          "Name": "Ion Number Density, Extrapolation, Low",
          "Set": "Time Series defined by using: EPOCH",
          "ParameterKey": "mms3_dis_densityextrapolation_low_fast",
          "Description": "Estimated Contribution (via Extrapolation to Zero) to the Ion Number Density Integral below 10 eV",
          "Cadence": "PT4.5S",
          "Units": "cm^-3",
          "UnitsConversion": "1.0e6>m^-3",
          "RenderingHints": {
            "DisplayType": "TimeSeries",
            "AxisLabel": "N",
            "ValueFormat": "E12.2",
            "ScaleType": "LogScale"
          },
          "ValidMin": "0.0",
          "ValidMax": "100000.0",
          "FillValue": "-1.0e+31",
          "Particle": {
            "ParticleType": "Ion",
            "Qualifier": [
              "Magnitude",
              "Moment"
            ],
            "ParticleQuantity": "NumberDensity"
          }
        },
        {
          "Name": "Ion Number Density, Extrapolation, High",
          "Set": "Time Series defined by using: EPOCH",
          "ParameterKey": "mms3_dis_densityextrapolation_high_fast",
          "Description": "Estimated Contribution (via Extrapolation to Infinity) to the Ion Number Density Integral above 30 keV",
          "Cadence": "PT4.5S",
          "Units": "cm^-3",
          "UnitsConversion": "1.0e6>m^-3",
          "RenderingHints": {
            "DisplayType": "TimeSeries",
            "AxisLabel": "N",
            "ValueFormat": "E12.2",
            "ScaleType": "LogScale"
          },
          "ValidMin": "0.0",
          "ValidMax": "100000.0",
          "FillValue": "-1.0e+31",
          "Particle": {
            "ParticleType": "Ion",
            "Qualifier": [
              "Magnitude",
              "Moment"
            ],
            "ParticleQuantity": "NumberDensity"
          }
        },
        {
          "Name": "Ion Bulk Velocity Vector, DBCS",
          "Set": "Time Series defined by using: EPOCH",
          "ParameterKey": "mms3_dis_bulkv_dbcs_fast",
          "Description": "Ion Bulk Velocity Vector during this Survey, De-spun Body Spacecraft Coordinate System, DBCS",
          "Cadence": "PT4.5S",
          "Units": "km/s",
          "UnitsConversion": "1.0e3>m/s",
          "CoordinateSystem": {
            "CoordinateRepresentation": "Cartesian",
            "CoordinateSystemName": "GSE"
          },
          "RenderingHints": {
            "DisplayType": "TimeSeries",
            "ValueFormat": "E12.2",
            "ScaleType": "LinearScale"
          },
          "Structure": {
            "Size": "3",
            "Element": [
              {
                "Name": "Vx_DBCS",
                "Index": "1"
              },
              {
                "Name": "Vy_DBCS",
                "Index": "2"
              },
              {
                "Name": "Vz_DBCS",
                "Index": "3"
              }
            ]
          },
          "ValidMin": "-2500.0",
          "ValidMax": "2500.0",
          "FillValue": "-1.0e+31",
          "Particle": {
            "ParticleType": "Ion",
            "Qualifier": [
              "Vector",
              "Moment"
            ],
            "ParticleQuantity": "FlowVelocity"
          }
        },
        {
          "Name": "Ion Bulk Velocity Spintone Vector, DBCS",
          "Set": "Time Series defined by using: EPOCH",
          "ParameterKey": "mms3_dis_bulkv_spintone_dbcs_fast",
          "Description": "Ion Bulk Velocity estimated Spintone Vector during this Survey, De-spun Body Spacecraft Coordinate System, DBCS",
          "Caveats": "Estimated Systematic Error (Positive or Negative) in Spin Plane Bulk Velocity (km/s) due to imperfect Sensor Suite Flat-Fielding. This Error can be subtracted from the Bulk Velocity to obtain the corrected Velocity Vector.",
          "Cadence": "PT4.5S",
          "Units": "km/s",
          "UnitsConversion": "1.0e3>m/s",
          "CoordinateSystem": {
            "CoordinateRepresentation": "Cartesian",
            "CoordinateSystemName": "GSE"
          },
          "RenderingHints": {
            "DisplayType": "TimeSeries",
            "ValueFormat": "E12.2",
            "ScaleType": "LinearScale"
          },
          "Structure": {
            "Size": "3",
            "Element": [
              {
                "Name": "Vx_spintone_DBCS",
                "Index": "1"
              },
              {
                "Name": "Vy_spintone_DBCS",
                "Index": "2"
              },
              {
                "Name": "Vz_spintone_DBCS",
                "Index": "3"
              }
            ]
          },
          "ValidMin": "-2500.0",
          "ValidMax": "2500.0",
          "FillValue": "-1.0e+31",
          "Particle": {
            "ParticleType": "Ion",
            "Qualifier": [
              "Vector",
              "Moment"
            ],
            "ParticleQuantity": "FlowVelocity"
          }
        },
        {
          "Name": "Ion Bulk Velocity Vector, GSE",
          "Set": "Time Series defined by using: EPOCH",
          "ParameterKey": "mms3_dis_bulkv_gse_fast",
          "Description": "Ion Bulk Velocity Vector during this Survey in Geocentric Solar Ecliptic, GSE, Coordinates",
          "Cadence": "PT4.5S",
          "Units": "km/s",
          "UnitsConversion": "1.0e3>m/s",
          "CoordinateSystem": {
            "CoordinateRepresentation": "Cartesian",
            "CoordinateSystemName": "GSE"
          },
          "RenderingHints": {
            "DisplayType": "TimeSeries",
            "ValueFormat": "E12.2",
            "ScaleType": "LinearScale"
          },
          "Structure": {
            "Size": "3",
            "Element": [
              {
                "Name": "Vx_GSE",
                "Index": "1"
              },
              {
                "Name": "Vy_GSE",
                "Index": "2"
              },
              {
                "Name": "Vz_GSE",
                "Index": "3"
              }
            ]
          },
          "ValidMin": "-2500.0",
          "ValidMax": "2500.0",
          "FillValue": "-1.0e+31",
          "Particle": {
            "ParticleType": "Ion",
            "Qualifier": [
              "Vector",
              "Moment"
            ],
            "ParticleQuantity": "FlowVelocity"
          }
        },
        {
          "Name": "Ion Bulk Velocity Spintone Vector, GSE",
          "Set": "Time Series defined by using: EPOCH",
          "ParameterKey": "mms3_dis_bulkv_spintone_gse_fast",
          "Description": "Ion Bulk Velocity estimated Spintone Vector during this Survey in Geocentric Solar Ecliptic, GSE, Coordinates",
          "Caveats": "Estimated Systematic Error (Positive or Negative) in Spin Plane Bulk Velocity (km/s) due to imperfect Sensor Suite Flat-Fielding. This Error can be subtracted from the Bulk Velocity to obtain the corrected Velocity Vector.",
          "Cadence": "PT4.5S",
          "Units": "km/s",
          "UnitsConversion": "1.0e3>m/s",
          "CoordinateSystem": {
            "CoordinateRepresentation": "Cartesian",
            "CoordinateSystemName": "GSE"
          },
          "RenderingHints": {
            "DisplayType": "TimeSeries",
            "ValueFormat": "E12.2",
            "ScaleType": "LinearScale"
          },
          "Structure": {
            "Size": "3",
            "Element": [
              {
                "Name": "Vx_spintone_GSE",
                "Index": "1"
              },
              {
                "Name": "Vy_spintone_GSE",
                "Index": "2"
              },
              {
                "Name": "Vz_spintone_GSE",
                "Index": "3"
              }
            ]
          },
          "ValidMin": "-2500.0",
          "ValidMax": "2500.0",
          "FillValue": "-1.0e+31",
          "Particle": {
            "ParticleType": "Ion",
            "Qualifier": [
              "Vector",
              "Moment"
            ],
            "ParticleQuantity": "FlowVelocity"
          }
        },
        {
          "Name": "Ion Bulk Velocity Error Vector",
          "Set": "Time Series defined by using: EPOCH",
          "ParameterKey": "mms3_dis_bulkv_err_fast",
          "Description": "Ion Bulk Velocity Error Vector during this Survey",
          "Caveats": "The Error can be applied to Data expressed by using either DBCS or GSE Coordinates",
          "Cadence": "PT4.5S",
          "Units": "km/s",
          "UnitsConversion": "1.0e3>m/s",
          "CoordinateSystem": {
            "CoordinateRepresentation": "Cartesian",
            "CoordinateSystemName": "GSE"
          },
          "RenderingHints": {
            "DisplayType": "TimeSeries",
            "ValueFormat": "E12.2",
            "ScaleType": "LinearScale"
          },
          "Structure": {
            "Size": "3",
            "Element": [
              {
                "Name": "Vx_err",
                "Index": "1"
              },
              {
                "Name": "Vy_err",
                "Index": "2"
              },
              {
                "Name": "Vz_err",
                "Index": "3"
              }
            ]
          },
          "ValidMin": "0.0",
          "ValidMax": "5000.0",
          "FillValue": "-1.0e+31",
          "Particle": {
            "ParticleType": "Ion",
            "Qualifier": [
              "Vector",
              "Moment",
              "Uncertainty"
            ],
            "ParticleQuantity": "FlowVelocity"
          }
        },
        {
          "Name": "Ion Pressure Tensor, DBCS",
          "Set": "Time Series defined by using: EPOCH",
          "ParameterKey": "mms3_dis_prestensor_dbcs_fast",
          "Description": "Ion Pressure Tensor during this Survey, De-spun Body Spacecraft Coordinate System, DBCS. Column 1 Labels from : [\"x\",\"y\",\"z\"]. Column 2 Labels from : [\"x\",\"y\",\"z\"].",
          "Caveats": "The 3⨯3 Matrix is represented as: Row 1: Pxx Pxy Pxz, Row 2: Pyx Pyy Pyz, Row 3: Pzx Pzy Pzz. Note that Pij=Pji.",
          "Cadence": "PT4.5S",
          "Units": "nPa",
          "UnitsConversion": "1.0e-9>Pa",
          "CoordinateSystem": {
            "CoordinateRepresentation": "Cartesian",
            "CoordinateSystemName": "GSE"
          },
          "RenderingHints": {
            "DisplayType": "TimeSeries",
            "AxisLabel": "P_DBCS",
            "ValueFormat": "E12.2",
            "ScaleType": "LinearScale"
          },
          "Structure": {
            "Size": "3 3"
          },
          "FillValue": "-1.0e+31",
          "Particle": {
            "ParticleType": "Ion",
            "Qualifier": [
              "Tensor",
              "Moment"
            ],
            "ParticleQuantity": "Pressure"
          }
        },
        {
          "Name": "Ion Pressure Tensor, GSE",
          "Set": "Time Series defined by using: EPOCH",
          "ParameterKey": "mms3_dis_prestensor_gse_fast",
          "Description": "Ion Pressure Tensor during this Survey in Geocentric Solar Ecliptic, GSE, Coordinates. Column 1 Labels from : [\"x\",\"y\",\"z\"]. Column 2 Labels from : [\"x\",\"y\",\"z\"].",
          "Caveats": "The 3⨯3 Matrix is represented as: Row 1: Pxx Pxy Pxz, Row 2: Pyx Pyy Pyz, Row 3: Pzx Pzy Pzz. Note that Pij=Pji.",
          "Cadence": "PT4.5S",
          "Units": "nPa",
          "UnitsConversion": "1.0e-9>Pa",
          "CoordinateSystem": {
            "CoordinateRepresentation": "Cartesian",
            "CoordinateSystemName": "GSE"
          },
          "RenderingHints": {
            "DisplayType": "TimeSeries",
            "AxisLabel": "P_GSE",
            "ValueFormat": "E12.2",
            "ScaleType": "LinearScale"
          },
          "Structure": {
            "Size": "3 3"
          },
          "FillValue": "-1.0e+31",
          "Particle": {
            "ParticleType": "Ion",
            "Qualifier": [
              "Tensor",
              "Moment"
            ],
            "ParticleQuantity": "Pressure"
          }
        },
        {
          "Name": "Ion Pressure Tensor, Error",
          "Set": "Time Series defined by using: EPOCH",
          "ParameterKey": "mms3_dis_prestensor_err_fast",
          "Description": "Ion Pressure Tensor Error during this Survey. Column 1 Labels from : [\"x\",\"y\",\"z\"]. Column 2 Labels from : [\"x\",\"y\",\"z\"].",
          "Caveats": "The Error can be applied to Data expressed by using either DBCS or GSE Coordinates",
          "Cadence": "PT4.5S",
          "Units": "nPa",
          "UnitsConversion": "1.0e-9>Pa",
          "CoordinateSystem": {
            "CoordinateRepresentation": "Cartesian",
            "CoordinateSystemName": "GSE"
          },
          "RenderingHints": {
            "DisplayType": "TimeSeries",
            "AxisLabel": "P_Error",
            "ValueFormat": "E12.2",
            "ScaleType": "LinearScale"
          },
          "Structure": {
            "Size": "3 3"
          },
          "FillValue": "-1.0e+31",
          "Particle": {
            "ParticleType": "Ion",
            "Qualifier": [
              "Tensor",
              "Moment",
              "Uncertainty"
            ],
            "ParticleQuantity": "Pressure"
          }
        },
        {
          "Name": "Ion Pressure, Background",
          "Set": "Time Series defined by using: EPOCH",
          "ParameterKey": "mms3_dis_pres_bg_fast",
          "Description": "Ion Pressure Background during this Survey",
          "Cadence": "PT4.5S",
          "Units": "nPa",
          "UnitsConversion": "1.0e-9>Pa",
          "CoordinateSystem": {
            "CoordinateRepresentation": "Cartesian",
            "CoordinateSystemName": "GSE"
          },
          "RenderingHints": {
            "DisplayType": "TimeSeries",
            "AxisLabel": "DEF_Pres_BG",
            "ValueFormat": "E12.2",
            "ScaleType": "LinearScale"
          },
          "ValidMin": "-100000.0",
          "ValidMax": "100000.0",
          "FillValue": "-1.0e+31",
          "Particle": {
            "ParticleType": "Ion",
            "Qualifier": [
              "Scalar",
              "Moment"
            ],
            "ParticleQuantity": "Pressure"
          }
        },
        {
          "Name": "Ion Temperature Tensor, DBCS",
          "Set": "Time Series defined by using: EPOCH",
          "ParameterKey": "mms3_dis_temptensor_dbcs_fast",
          "Description": "Ion Temperature Tensor during this Survey, De-spun Body Spacecraft Coordinate System, DBCS. Column 1 Labels from : [\"x\",\"y\",\"z\"]. Column 2 Labels from : [\"x\",\"y\",\"z\"].",
          "Caveats": "The 3⨯3 Matrix is represented as: Row 1: Txx Txy Txz, Row 2: Tyx Tyy Tyz, Row 3: Tzx Tzy Tzz. Note that Tij=Tji.",
          "Cadence": "PT4.5S",
          "Units": "eV",
          "UnitsConversion": "1.602176565e-19>J",
          "CoordinateSystem": {
            "CoordinateRepresentation": "Cartesian",
            "CoordinateSystemName": "GSE"
          },
          "RenderingHints": {
            "DisplayType": "TimeSeries",
            "AxisLabel": "T_DBCS",
            "ValueFormat": "E12.2",
            "ScaleType": "LinearScale"
          },
          "Structure": {
            "Size": "3 3"
          },
          "FillValue": "-1.0e+31",
          "Particle": {
            "ParticleType": "Ion",
            "Qualifier": [
              "Tensor",
              "Moment"
            ],
            "ParticleQuantity": "Temperature"
          }
        },
        {
          "Name": "Ion Temperature Tensor, GSE",
          "Set": "Time Series defined by using: EPOCH",
          "ParameterKey": "mms3_dis_temptensor_gse_fast",
          "Description": "Ion Temperature Tensor during this Survey in Geocentric Solar Ecliptic, GSE, Coordinates. Column 1 Labels from : [\"x\",\"y\",\"z\"]. Column 2 Labels from : [\"x\",\"y\",\"z\"].",
          "Caveats": "The 3⨯3 Matrix is represented as: Row 1: Txx Txy Txz, Row 2: Tyx Tyy Tyz, Row 3: Tzx Tzy Tzz. Note that Tij=Tji.",
          "Cadence": "PT4.5S",
          "Units": "eV",
          "UnitsConversion": "1.602176565e-19>J",
          "CoordinateSystem": {
            "CoordinateRepresentation": "Cartesian",
            "CoordinateSystemName": "GSE"
          },
          "RenderingHints": {
            "DisplayType": "TimeSeries",
            "AxisLabel": "T_GSE",
            "ValueFormat": "E12.2",
            "ScaleType": "LinearScale"
          },
          "Structure": {
            "Size": "3 3"
          },
          "FillValue": "-1.0e+31",
          "Particle": {
            "ParticleType": "Ion",
            "Qualifier": [
              "Tensor",
              "Moment"
            ],
            "ParticleQuantity": "Temperature"
          }
        },
        {
          "Name": "Ion Temperature Tensor, Error, DBCS",
          "Set": "Time Series defined by using: EPOCH",
          "ParameterKey": "mms3_dis_temptensor_err_fast",
          "Description": "Ion Temperature Tensor Error during this Survey. Column 1 Labels from : [\"x\",\"y\",\"z\"]. Column 2 Labels from : [\"x\",\"y\",\"z\"].",
          "Caveats": "The Error can be applied to Data expressed by using either DBCS or GSE Coordinates",
          "Cadence": "PT4.5S",
          "Units": "eV",
          "UnitsConversion": "1.602176565e-19>J",
          "CoordinateSystem": {
            "CoordinateRepresentation": "Cartesian",
            "CoordinateSystemName": "GSE"
          },
          "RenderingHints": {
            "DisplayType": "TimeSeries",
            "AxisLabel": "T_Error",
            "ValueFormat": "E12.2",
            "ScaleType": "LinearScale"
          },
          "Structure": {
            "Size": "3 3"
          },
          "FillValue": "-1.0e+31",
          "Particle": {
            "ParticleType": "Ion",
            "Qualifier": [
              "Tensor",
              "Moment",
              "Uncertainty"
            ],
            "ParticleQuantity": "Temperature"
          }
        },
        {
          "Name": "Ion Heat Flux Vector, DBCS",
          "Set": "Time Series defined by using: EPOCH",
          "ParameterKey": "mms3_dis_heatq_dbcs_fast",
          "Description": "Ion Heat Flux Vector Vector during this Survey, De-spun Body Spacecraft Coordinate System, DBCS",
          "Cadence": "PT4.5S",
          "Units": "mW/m^2",
          "UnitsConversion": "1.0e-3>W/m^2",
          "CoordinateSystem": {
            "CoordinateRepresentation": "Cartesian",
            "CoordinateSystemName": "GSE"
          },
          "RenderingHints": {
            "DisplayType": "TimeSeries",
            "ValueFormat": "E12.2",
            "ScaleType": "LinearScale"
          },
          "Structure": {
            "Size": "3",
            "Element": [
              {
                "Name": "Qx_DBCS",
                "Index": "1"
              },
              {
                "Name": "Qy_DBCS",
                "Index": "2"
              },
              {
                "Name": "Qz_DBCS",
                "Index": "3"
              }
            ]
          },
          "ValidMin": "-2.5e+06",
          "ValidMax": "2.5e+06",
          "FillValue": "-1.0e+31",
          "Particle": {
            "ParticleType": "Ion",
            "Qualifier": [
              "Vector",
              "Moment"
            ],
            "ParticleQuantity": "HeatFlux"
          }
        },
        {
          "Name": "Ion Heat Flux Vector, GSE",
          "Set": "Time Series defined by using: EPOCH",
          "ParameterKey": "mms3_dis_heatq_gse_fast",
          "Description": "Ion Heat Flux Vector Vector during this Survey in Geocentric Solar Ecliptic, GSE, Coordinates",
          "Cadence": "PT4.5S",
          "Units": "mW/m^2",
          "UnitsConversion": "1.0e-3>W/m^2",
          "CoordinateSystem": {
            "CoordinateRepresentation": "Cartesian",
            "CoordinateSystemName": "GSE"
          },
          "RenderingHints": {
            "DisplayType": "TimeSeries",
            "ValueFormat": "E12.2",
            "ScaleType": "LinearScale"
          },
          "Structure": {
            "Size": "3",
            "Element": [
              {
                "Name": "Qx_GSE",
                "Index": "1"
              },
              {
                "Name": "Qy_GSE",
                "Index": "2"
              },
              {
                "Name": "Qz_GSE",
                "Index": "3"
              }
            ]
          },
          "ValidMin": "-2.5e+06",
          "ValidMax": "2.5e+06",
          "FillValue": "-1.0e+31",
          "Particle": {
            "ParticleType": "Ion",
            "Qualifier": [
              "Vector",
              "Moment"
            ],
            "ParticleQuantity": "HeatFlux"
          }
        },
        {
          "Name": "Ion Heat Flux Error Vector",
          "Set": "Time Series defined by using: EPOCH",
          "ParameterKey": "mms3_dis_heatq_err_fast",
          "Description": "Ion Heat Flux Error Vector during this Survey",
          "Caveats": "The Error can be applied to Data expressed by using either DBCS or GSE Coordinates",
          "Cadence": "PT4.5S",
          "Units": "mW/m^2",
          "UnitsConversion": "1.0e-3>W/m^2",
          "CoordinateSystem": {
            "CoordinateRepresentation": "Cartesian",
            "CoordinateSystemName": "GSE"
          },
          "RenderingHints": {
            "DisplayType": "TimeSeries",
            "ValueFormat": "E12.2",
            "ScaleType": "LinearScale"
          },
          "Structure": {
            "Size": "3",
            "Element": [
              {
                "Name": "Qx_err",
                "Index": "1"
              },
              {
                "Name": "Qy_err",
                "Index": "2"
              },
              {
                "Name": "Qz_err",
                "Index": "3"
              }
            ]
          },
          "ValidMin": "0.0",
          "ValidMax": "5.0e+06",
          "FillValue": "-1.0e+31",
          "Particle": {
            "ParticleType": "Ion",
            "Qualifier": [
              "Vector",
              "Moment",
              "Uncertainty"
            ],
            "ParticleQuantity": "HeatFlux"
          }
        },
        {
          "Name": "Ion Sky Map Energy",
          "Set": "Time Series defined by using: EPOCH",
          "ParameterKey": "mms3_dis_energy_fast",
          "Description": "Ion Fast Survey Sky Map Energy",
          "Caveats": "Geometric Mean of Parity 0 and Parity 1 Energies in the 64-step FPI Energy Table",
          "Cadence": "PT4.5S",
          "Units": "eV",
          "UnitsConversion": "1.602176565e-19>J",
          "RenderingHints": {
            "AxisLabel": "Energy",
            "ValueFormat": "E12.2",
            "ScaleType": "LogScale"
          },
          "Structure": {
            "Size": "32"
          },
          "ValidMin": "0.0",
          "ValidMax": "32000.0",
          "FillValue": "-1.0e+31",
          "Particle": {
            "ParticleType": "Ion",
            "Qualifier": "Array",
            "ParticleQuantity": "Energy"
          }
        },
        {
          "Name": "Ion Sky Map Energy, Delta Value",
          "Set": "Time Series defined by using: EPOCH",
          "ParameterKey": "mms3_dis_energy_delta_fast",
          "Description": "Ion Fast Survey Sky Map Energy, Delta Value",
          "Caveats": "Note that the Deltas are provided to indicate that the FPI is reporting the Energy Bin Centers. The Deltas do not necessarily reflect the Energy Bandwidth that is sampled by the FPI for a given Energy Step.",
          "Cadence": "PT4.5S",
          "Units": "eV",
          "UnitsConversion": "1.602176565e-19>J",
          "RenderingHints": {
            "AxisLabel": "Delta_Energy",
            "ValueFormat": "E12.2",
            "ScaleType": "LogScale"
          },
          "Structure": {
            "Size": "32"
          },
          "ValidMin": "0.0",
          "ValidMax": "5000.0",
          "FillValue": "-1.0e+31",
          "Particle": {
            "ParticleType": "Ion",
            "Qualifier": "Array",
            "ParticleQuantity": "Energy"
          }
        },
        {
          "Name": "Ion Parallel Temperature",
          "Set": "Time Series defined by using: EPOCH",
          "ParameterKey": "mms3_dis_temppara_fast",
          "Description": "Ion Parallel Temperature during this BP",
          "Cadence": "PT4.5S",
          "Units": "eV",
          "UnitsConversion": "1.602176565e-19>J",
          "RenderingHints": {
            "DisplayType": "TimeSeries",
            "AxisLabel": "eT_Para",
            "ValueFormat": "E12.2",
            "ScaleType": "LinearScale"
          },
          "ValidMin": "0.0",
          "ValidMax": "1.0e+30",
          "FillValue": "-1.0e+31",
          "Particle": {
            "ParticleType": "Ion",
            "Qualifier": [
              "Parallel",
              "FieldAligned",
              "Scalar"
            ],
            "ParticleQuantity": "Temperature"
          }
        },
        {
          "Name": "Ion Perpendicular Temperature",
          "Set": "Time Series defined by using: EPOCH",
          "ParameterKey": "mms3_dis_tempperp_fast",
          "Description": "Ion Perpendicular Temperature during this BP",
          "Cadence": "PT4.5S",
          "Units": "eV",
          "UnitsConversion": "1.602176565e-19>J",
          "RenderingHints": {
            "DisplayType": "TimeSeries",
            "AxisLabel": "eT_Perp",
            "ValueFormat": "E12.2",
            "ScaleType": "LinearScale"
          },
          "ValidMin": "0.0",
          "ValidMax": "1.0e+30",
          "FillValue": "-1.0e+31",
          "Particle": {
            "ParticleType": "Ion",
            "Qualifier": [
              "Parallel",
              "Scalar"
            ],
            "ParticleQuantity": "Temperature"
          }
        }
      ]
    }
  }
}