{
  "Spase": {
    "xmlns": "http://www.spase-group.org/data/schema",
    "xmlns:xsi": "http://www.w3.org/2001/XMLSchema-instance",
    "xsi:schemaLocation": "http://www.spase-group.org/data/schema  https://www.spase-group.org/data/schema/spase-2_3_2.xsd",
    "Version": "2.3.2",
    "NumericalData": {
      "ResourceID": "spase://NASA/NumericalData/DE1/SAI/PT3M",
      "ResourceHeader": {
        "ResourceName": "DE 1 Spin-Scan Auroral Imager UV Images",
        "AlternateName": [
          "Dynamics Explorer 1 Spin-Scan Auroral Imager UV Images",
          "DE-A Spin-Scan Auroral Imager UV Images"
        ],
        "ReleaseDate": "2021-04-27T15:38:11Z",
        "Description": "This data set contains ultraviolet images in quasi-logarithmically compressed counts from the vacuum ultraviolet imaging photometer of the Spin-Scan Auroral Imager (SAI) flown on DE 1.  The time resolution was 3 to 12 minutes per image.  Also included are the GCI position vector, velocity vector and spin axis of the spacecraft.  Data are available in CDF format from CDAWeb.",
        "Contact": [
          {
            "PersonID": "spase://SMWG/Person/Louis.A.Frank",
            "Role": "FormerPI"
          },
          {
            "PersonID": "spase://SMWG/Person/Robert.M.Candey",
            "Role": "GeneralContact"
          }
        ],
        "PriorID": [
          "spase://VSPO/NumericalData/DE1/SAI/UV",
          "spase://VSPO/NumericalData/DE1/SAI/PT3M"
        ]
      },
      "AccessInformation": [
        {
          "RepositoryID": "spase://SMWG/Repository/NASA/GSFC/SPDF",
          "Availability": "Online",
          "AccessRights": "Open",
          "AccessURL": [
            {
              "Name": "FTPS from SPDF (not with most browsers)",
              "URL": "ftps://spdf.gsfc.nasa.gov/pub/data/de/de1/images_sai/uv_sai_cdaweb/"
            },
            {
              "Name": "HTTPS from SPDF",
              "URL": "https://spdf.gsfc.nasa.gov/pub/data/de/de1/images_sai/uv_sai_cdaweb/",
              "Description": "In CDF via HTTP from CDAWeb"
            },
            {
              "Name": "CDAWeb",
              "URL": "https://cdaweb.gsfc.nasa.gov/cgi-bin/eval2.cgi?dataset=DE_UV_SAI&index=sp_phys",
              "ProductKey": "DE_UV_SAI",
              "Description": "For plots, numeric lists, and user specified files"
            }
          ],
          "Format": "CDF",
          "Acknowledgement": "Please acknowledge the SAI Principal Investigator, Dr. Louis A. Frank at the University of Iowa, and the Space Physics Data Facility at NASA/GSFC"
        },
        {
          "RepositoryID": "spase://SMWG/Repository/NASA/GSFC/SPDF",
          "Availability": "Online",
          "AccessRights": "Open",
          "AccessURL": {
            "Name": "CDAWeb HAPI Server",
            "URL": "https://cdaweb.gsfc.nasa.gov/hapi",
            "Style": "HAPI",
            "ProductKey": "DE_UV_SAI",
            "Description": "Web Service to this product using the HAPI interface."
          },
          "Format": "CSV",
          "Acknowledgement": "Please acknowledge the SAI Principal Investigator, Dr. Louis A. Frank at the University of Iowa, and the Space Physics Data Facility at NASA/GSFC"
        }
      ],
      "ProcessingLevel": "Calibrated",
      "InstrumentID": "spase://SMWG/Instrument/DynamicsExplorer1/SAI",
      "MeasurementType": "ImageIntensity",
      "TemporalDescription": {
        "TimeSpan": {
          "StartDate": "1981-09-23T00:00:00",
          "StopDate": "1991-02-18T00:00:00"
        },
        "Cadence": "PT3M"
      },
      "ObservedRegion": "Earth.NearSurface.Atmosphere"
    }
  }
}