{
  "Spase": {
    "xmlns:xsi": "http://www.w3.org/2001/XMLSchema-instance",
    "xmlns": "http://www.spase-group.org/data/schema",
    "xsi:schemaLocation": "http://www.spase-group.org/data/schema http://www.spase-group.org/data/schema/spase-2_3_1.xsd",
    "lang": "en",
    "Version": "2.3.2",
    "NumericalData": {
      "ResourceID": "spase://NASA/NumericalData/IMAGE/EUV/EquatorialMappedImages/ModifiedData/PT10M",
      "ResourceHeader": {
        "ResourceName": "IMAGE Extreme UltraViolet (EUV) Imager, Modified Data 2 (M2), 10 min Data",
        "ReleaseDate": "2021-04-27T15:38:11Z",
        "Description": "The IMAGE extreme ultraviolet (EUV) imager detects resonantly scattered solar EUV photons with a wavelength of 30.4 nm that have been resonantly scattered by singly ionized helium (Sandel et al., 2000). The sizeable database of IMAGE global snapshots from the extreme ultraviolet (EUV) imager provides revolutionary observations of spatial and temporal plasma distributions throughout the plasmasphere. In this study, the IMAGE EUV data have been mapped to the equator using the approach detailed in Gallagher et al. (2005). IMAGE EUV data have been used to create an automated method that locates and extracts the plasmapause. The plasmapause extraction technique searches a set range of possible plasmasphere densities for a maximum gradient in order to identify the magnetic local time, MLT, dependent plasmapause position as a function of time. This description has been adapted from text appearing in Katus et al. (2015).",
        "Acknowledgement": "Please acknowledge the Principal Investigator R.M. Katus for use of the Data",
        "Contact": [
          {
            "PersonID": "spase://SMWG/Person/Roxanne.M.Katus",
            "Role": "PrincipalInvestigator"
          },
          {
            "PersonID": "spase://SMWG/Person/Robert.M.Candey",
            "Role": "MetadataContact"
          },
          {
            "PersonID": "spase://SMWG/Person/Lee.Frost.Bargatze",
            "Role": "MetadataContact"
          }
        ],
        "InformationURL": [
          {
            "Name": "IMAGE Extreme Ultraviolet Imager web site, hosted by LPL, Univ. of Arizona",
            "URL": "http://euv.lpl.arizona.edu/euv/",
            "Description": "Imager for Magnetopause-to-Aurora Global Exploration, IMAGE, satellite Extreme Ultraviolet Imager, instrument information web site, hosted by the Lunar and Planetary Laboratory, University of Arizona"
          },
          {
            "Name": "NSSDC Master Catalog",
            "URL": "https://nssdc.gsfc.nasa.gov/nmc/experiment/display.action?id=2000-017A-06",
            "Description": "General information concerning the Imager for Magnetopause-to-Aurora Global Exploration, IMAGE, Extreme Ultraviolet, EUV, instrument"
          },
          {
            "Name": "Katus et al. (2015) IMAGE EUV storm time plasmapause position, Journal of Geophysical Research Space Physics publication",
            "URL": "https://doi.org/10.1002/2015JA021225",
            "Description": "Katus, R.M., D.L. Gallagher, M.W. Liemohn, A.M. Keesee, and L.K. Sarno-Smith, Statistical Storm Time Examination of MLT dependent Plasmapause Location derived from IMAGE EUV, J. Geophys. Res. Space Phys., 120, 5545-5559, 2015, DOI: 10.1002/2015JA021225"
          }
        ],
        "PriorID": "spase://VSPO/NumericalData/IMAGE/EUV/EquatorialMappedImages/ModifiedData/PT10M"
      },
      "AccessInformation": [
        {
          "RepositoryID": "spase://SMWG/Repository/NASA/GSFC/SPDF",
          "Availability": "Online",
          "AccessRights": "Open",
          "AccessURL": [
            {
              "Name": "FTPS from SPDF (not with most browsers)",
              "URL": "ftps://spdf.gsfc.nasa.gov/pub/data/image/fuv/euv_m2/",
              "Description": "Access to Data in CDF Format via ftp from SPDF"
            },
            {
              "Name": "HTTPS from SPDF",
              "URL": "https://spdf.gsfc.nasa.gov/pub/data/image/fuv/euv_m2/",
              "Description": "Access to Data in CDF Format via http from SPDF"
            },
            {
              "Name": "CDAWeb",
              "URL": "https://cdaweb.gsfc.nasa.gov/cgi-bin/eval2.cgi?dataset=IMAGE_M2_EUV&index=sp_phys",
              "ProductKey": "IMAGE_M2_EUV",
              "Description": "Access to ASCII, CDF, and Plots via NASA/GSFC CDAWeb"
            }
          ],
          "Format": "CDF",
          "Encoding": "None",
          "Acknowledgement": "Please acknowledge the Principal Investigator R.M. Katus. Please acknowledge the Data Providers and CDAWeb when using these Data."
        },
        {
          "RepositoryID": "spase://SMWG/Repository/NASA/GSFC/SPDF",
          "Availability": "Online",
          "AccessRights": "Open",
          "AccessURL": {
            "Name": "CDAWeb HAPI Server",
            "URL": "https://cdaweb.gsfc.nasa.gov/hapi",
            "Style": "HAPI",
            "ProductKey": "IMAGE_M2_EUV",
            "Description": "Web Service to this product using the HAPI interface."
          },
          "Format": "CSV",
          "Acknowledgement": "Please acknowledge the Principal Investigator R.M. Katus. Please acknowledge the Data Providers and CDAWeb when using these Data."
        }
      ],
      "ProcessingLevel": "Calibrated",
      "InstrumentID": "spase://SMWG/Instrument/IMAGE/EUV",
      "MeasurementType": "ImageIntensity",
      "TemporalDescription": {
        "TimeSpan": {
          "StartDate": "2000-05-04T00:00:00.000",
          "StopDate": "2005-12-17T23:59:59.999"
        },
        "Cadence": "PT10M"
      },
      "Parameter": [
        {
          "Name": "Epoch Time, TT2000",
          "ParameterKey": "Epoch",
          "Description": "Epoch Time Tags in Terrestrial Time 2000, TT2000",
          "Cadence": "PT10M",
          "Units": "ns",
          "UnitsConversion": "1.0e-9>s",
          "RenderingHints": {
            "AxisLabel": "Epoch",
            "ValueFormat": "F12.2"
          },
          "ValidMin": "1999-12-31T23:59:58.999995365",
          "ValidMax": "2006-01-01T00:00:00.000000000",
          "FillValue": "9999-12-31T23:59:59.999999999",
          "Support": {
            "SupportQuantity": "Temporal"
          }
        },
        {
          "Name": "Plasmapause L-shell gradient, spectrogram",
          "Set": "Time series defined by using: EPOCH",
          "ParameterKey": "Plasmapause_MLTbin",
          "Description": "Plasmapause L-shell, sharpest gradient from IMAGE EUV ion image data mapped to the equatorial plane, 48 MLT half hour bins, spectrogram format",
          "Cadence": "PT10M",
          "Units": "Re",
          "UnitsConversion": "6.3712e6>m",
          "CoordinateSystem": {
            "CoordinateRepresentation": "Cartesian",
            "CoordinateSystemName": "SM"
          },
          "RenderingHints": {
            "DisplayType": "Spectrogram",
            "AxisLabel": "Plasmapause [Lshell] @ 0.5:.5:24 MLT",
            "ValueFormat": "F12.2",
            "ScaleType": "LinearScale"
          },
          "Structure": {
            "Size": "48",
            "Element": [
              {
                "Name": "Element 1",
                "Index": "1",
                "RenderingHints": {
                  "AxisLabel": "0.500000"
                }
              },
              {
                "Name": "Element 2",
                "Index": "2",
                "RenderingHints": {
                  "AxisLabel": "1"
                }
              },
              {
                "Name": "Element 3",
                "Index": "3",
                "RenderingHints": {
                  "AxisLabel": "1.50000"
                }
              },
              {
                "Name": "Element 4",
                "Index": "4",
                "RenderingHints": {
                  "AxisLabel": "2"
                }
              },
              {
                "Name": "Element 5",
                "Index": "5",
                "RenderingHints": {
                  "AxisLabel": "2.50000"
                }
              },
              {
                "Name": "Element 6",
                "Index": "6",
                "RenderingHints": {
                  "AxisLabel": "3"
                }
              },
              {
                "Name": "Element 7",
                "Index": "7",
                "RenderingHints": {
                  "AxisLabel": "3.50000"
                }
              },
              {
                "Name": "Element 8",
                "Index": "8",
                "RenderingHints": {
                  "AxisLabel": "4"
                }
              },
              {
                "Name": "Element 9",
                "Index": "9",
                "RenderingHints": {
                  "AxisLabel": "4.50000"
                }
              },
              {
                "Name": "Element 10",
                "Index": "10",
                "RenderingHints": {
                  "AxisLabel": "5"
                }
              },
              {
                "Name": "Element 11",
                "Index": "11",
                "RenderingHints": {
                  "AxisLabel": "5.50000"
                }
              },
              {
                "Name": "Element 12",
                "Index": "12",
                "RenderingHints": {
                  "AxisLabel": "6"
                }
              },
              {
                "Name": "Element 13",
                "Index": "13",
                "RenderingHints": {
                  "AxisLabel": "6.50000"
                }
              },
              {
                "Name": "Element 14",
                "Index": "14",
                "RenderingHints": {
                  "AxisLabel": "7"
                }
              },
              {
                "Name": "Element 15",
                "Index": "15",
                "RenderingHints": {
                  "AxisLabel": "7.50000"
                }
              },
              {
                "Name": "Element 16",
                "Index": "16",
                "RenderingHints": {
                  "AxisLabel": "8"
                }
              },
              {
                "Name": "Element 17",
                "Index": "17",
                "RenderingHints": {
                  "AxisLabel": "8.50000"
                }
              },
              {
                "Name": "Element 18",
                "Index": "18",
                "RenderingHints": {
                  "AxisLabel": "9"
                }
              },
              {
                "Name": "Element 19",
                "Index": "19",
                "RenderingHints": {
                  "AxisLabel": "9.50000"
                }
              },
              {
                "Name": "Element 20",
                "Index": "20",
                "RenderingHints": {
                  "AxisLabel": "10"
                }
              },
              {
                "Name": "Element 21",
                "Index": "21",
                "RenderingHints": {
                  "AxisLabel": "10.5000"
                }
              },
              {
                "Name": "Element 22",
                "Index": "22",
                "RenderingHints": {
                  "AxisLabel": "11"
                }
              },
              {
                "Name": "Element 23",
                "Index": "23",
                "RenderingHints": {
                  "AxisLabel": "11.5000"
                }
              },
              {
                "Name": "Element 24",
                "Index": "24",
                "RenderingHints": {
                  "AxisLabel": "12"
                }
              },
              {
                "Name": "Element 25",
                "Index": "25",
                "RenderingHints": {
                  "AxisLabel": "12.5000"
                }
              },
              {
                "Name": "Element 26",
                "Index": "26",
                "RenderingHints": {
                  "AxisLabel": "13"
                }
              },
              {
                "Name": "Element 27",
                "Index": "27",
                "RenderingHints": {
                  "AxisLabel": "13.5000"
                }
              },
              {
                "Name": "Element 28",
                "Index": "28",
                "RenderingHints": {
                  "AxisLabel": "14"
                }
              },
              {
                "Name": "Element 29",
                "Index": "29",
                "RenderingHints": {
                  "AxisLabel": "14.5000"
                }
              },
              {
                "Name": "Element 30",
                "Index": "30",
                "RenderingHints": {
                  "AxisLabel": "15"
                }
              },
              {
                "Name": "Element 31",
                "Index": "31",
                "RenderingHints": {
                  "AxisLabel": "15.5000"
                }
              },
              {
                "Name": "Element 32",
                "Index": "32",
                "RenderingHints": {
                  "AxisLabel": "16"
                }
              },
              {
                "Name": "Element 33",
                "Index": "33",
                "RenderingHints": {
                  "AxisLabel": "16.5000"
                }
              },
              {
                "Name": "Element 34",
                "Index": "34",
                "RenderingHints": {
                  "AxisLabel": "17"
                }
              },
              {
                "Name": "Element 35",
                "Index": "35",
                "RenderingHints": {
                  "AxisLabel": "17.5000"
                }
              },
              {
                "Name": "Element 36",
                "Index": "36",
                "RenderingHints": {
                  "AxisLabel": "18"
                }
              },
              {
                "Name": "Element 37",
                "Index": "37",
                "RenderingHints": {
                  "AxisLabel": "18.5000"
                }
              },
              {
                "Name": "Element 38",
                "Index": "38",
                "RenderingHints": {
                  "AxisLabel": "19"
                }
              },
              {
                "Name": "Element 39",
                "Index": "39",
                "RenderingHints": {
                  "AxisLabel": "19.5000"
                }
              },
              {
                "Name": "Element 40",
                "Index": "40",
                "RenderingHints": {
                  "AxisLabel": "20"
                }
              },
              {
                "Name": "Element 41",
                "Index": "41",
                "RenderingHints": {
                  "AxisLabel": "20.5000"
                }
              },
              {
                "Name": "Element 42",
                "Index": "42",
                "RenderingHints": {
                  "AxisLabel": "21"
                }
              },
              {
                "Name": "Element 43",
                "Index": "43",
                "RenderingHints": {
                  "AxisLabel": "21.5000"
                }
              },
              {
                "Name": "Element 44",
                "Index": "44",
                "RenderingHints": {
                  "AxisLabel": "22"
                }
              },
              {
                "Name": "Element 45",
                "Index": "45",
                "RenderingHints": {
                  "AxisLabel": "22.5000"
                }
              },
              {
                "Name": "Element 46",
                "Index": "46",
                "RenderingHints": {
                  "AxisLabel": "23"
                }
              },
              {
                "Name": "Element 47",
                "Index": "47",
                "RenderingHints": {
                  "AxisLabel": "23.5000"
                }
              },
              {
                "Name": "Element 48",
                "Index": "48",
                "RenderingHints": {
                  "AxisLabel": "24"
                }
              }
            ]
          },
          "ValidMin": "0.0001",
          "ValidMax": "20.0",
          "FillValue": "-1.0e+31",
          "Support": {
            "Qualifier": [
              "Component.I",
              "Component.J"
            ],
            "SupportQuantity": "Positional"
          }
        },
        {
          "Name": "Plasmapause L-shell gradient, from equatorial IMAGE EUV ion images, MLT noon down, dawn right",
          "Set": "Time series defined by using: EPOCH",
          "ParameterKey": "Mapped_Plasmapause_Grid",
          "Description": "Plasmapause L-shell, sharpest gradient from IMAGE EUV ion image data mapped to the equatorial plane, MLT noon to the bottom, dawn to the right",
          "Cadence": "PT10M",
          "CoordinateSystem": {
            "CoordinateRepresentation": "Cartesian",
            "CoordinateSystemName": "SM"
          },
          "RenderingHints": {
            "AxisLabel": "Plasmapause",
            "ValueFormat": "I2"
          },
          "Structure": {
            "Size": "241 241"
          },
          "FillValue": "-32768",
          "Support": {
            "Qualifier": [
              "Component.I",
              "Component.J"
            ],
            "SupportQuantity": "Positional"
          }
        },
        {
          "Name": "Plasmapause L-shell gradient, from equatorial IMAGE EUV ion images, MLT noon down, dawn left",
          "Set": "Time series defined by using: EPOCH",
          "ParameterKey": "Mapped_Plasmapause_Grid_flip_vert",
          "Description": "Plasmapause L-shell, sharpest gradient from IMAGE EUV ion image data mapped to the equatorial plane, flipped, MLT noon to the bottom, dawn to the left",
          "Caveats": "This parameter is virtual. It is calculated by calling the function ALTERNATE_VIEW_FLIP_VERT with the following input parameters: Mapped_Plasmapause_Grid.",
          "Cadence": "PT10M",
          "CoordinateSystem": {
            "CoordinateRepresentation": "Cartesian",
            "CoordinateSystemName": "SM"
          },
          "RenderingHints": {
            "AxisLabel": "Plasmapause",
            "ValueFormat": "I2"
          },
          "Structure": {
            "Size": "241 241"
          },
          "FillValue": "-32768",
          "Support": {
            "Qualifier": [
              "Component.I",
              "Component.J"
            ],
            "SupportQuantity": "Positional"
          }
        },
        {
          "Name": "Plasmapause L-shell gradient, from equatorial IMAGE EUV ion images, Movie",
          "Set": "Time series defined by using: EPOCH",
          "ParameterKey": "Mapped_Plasmapause_Grid_Movie",
          "Description": "Plasmapause L-shell, sharpest gradient from IMAGE EUV ion image data mapped to the equatorial plane, flipped, MLT noon to the bottom, dawn to the left, Movie format",
          "Caveats": "This parameter is virtual. It is calculated by calling the function ALTERNATE_VIEW_FLIP_VERT with the following input parameters: Mapped_Plasmapause_Grid.",
          "Cadence": "PT10M",
          "CoordinateSystem": {
            "CoordinateRepresentation": "Cartesian",
            "CoordinateSystemName": "SM"
          },
          "RenderingHints": {
            "AxisLabel": "Plasmapause",
            "ValueFormat": "I2",
            "ScaleType": "LinearScale"
          },
          "Structure": {
            "Size": "241 241"
          },
          "FillValue": "-32768",
          "Support": {
            "Qualifier": [
              "Component.I",
              "Component.J"
            ],
            "SupportQuantity": "Positional"
          }
        },
        {
          "Name": "Plasmapause data quality index",
          "Set": "Time series defined by using: EPOCH",
          "ParameterKey": "Quality_Flag",
          "Description": "Plasmapause data quality rating index: 1=Low, 2=Medium, 3=High",
          "Cadence": "PT10M",
          "RenderingHints": {
            "DisplayType": "TimeSeries",
            "AxisLabel": "Quality Flag",
            "ValueFormat": "I2",
            "ScaleType": "LinearScale"
          },
          "ValidMin": "1",
          "ValidMax": "3",
          "FillValue": "-32768",
          "Support": {
            "SupportQuantity": "Velocity"
          }
        },
        {
          "Name": "Magnetic Local Time bins",
          "ParameterKey": "MLTbin",
          "Description": "Magnetic Local Time, MLT, 48 half hour bins",
          "Cadence": "PT10M",
          "Units": "h",
          "UnitsConversion": "3600>s",
          "RenderingHints": {
            "AxisLabel": "MLT [hours]",
            "ValueFormat": "F12.2",
            "ScaleType": "LinearScale"
          },
          "Structure": {
            "Size": "48"
          },
          "ValidMin": "0.0",
          "ValidMax": "100.0",
          "FillValue": "-1.0e+31",
          "Support": {
            "Qualifier": "DirectionAngle.AzimuthAngle",
            "SupportQuantity": "Other"
          }
        },
        {
          "Name": "X-axis coordinates on the equatorial plane",
          "ParameterKey": "X_Axis",
          "Description": "X-axis coordinates on the equatorial plane, used to define the dependent grid",
          "Cadence": "PT10M",
          "Units": "Re",
          "UnitsConversion": "6.3712e6>m",
          "RenderingHints": {
            "AxisLabel": "X Axis [Re]",
            "ValueFormat": "F12.2"
          },
          "Structure": {
            "Size": "241"
          },
          "FillValue": "-1.0e+31",
          "Support": {
            "Qualifier": "Component.I",
            "SupportQuantity": "Other"
          }
        },
        {
          "Name": "Y-axis coordinates on the equatorial plane",
          "ParameterKey": "Y_Axis",
          "Description": "Y-axis coordinates on the equatorial plane, used to define the dependent grid",
          "Cadence": "PT10M",
          "Units": "Re",
          "UnitsConversion": "6.3712e6>m",
          "RenderingHints": {
            "AxisLabel": "Y Axis [Re]",
            "ValueFormat": "F12.2"
          },
          "Structure": {
            "Size": "241"
          },
          "FillValue": "-1.0e+31",
          "Support": {
            "Qualifier": "Component.J",
            "SupportQuantity": "Other"
          }
        },
        {
          "Name": "IMAGE EUV images mapped to the equatorial plane, MLT noon down, dawn right",
          "Set": "Time series defined by using: EPOCH",
          "ParameterKey": "Equatorial_EUV_Grid",
          "Description": "IMAGE EUV images mapped to the equatorial plane, MLT noon to the bottom, dawn to the right",
          "Cadence": "PT10M",
          "Units": "cm^-3",
          "UnitsConversion": "1.0e6>m^-3",
          "CoordinateSystem": {
            "CoordinateRepresentation": "Cartesian",
            "CoordinateSystemName": "SM"
          },
          "RenderingHints": {
            "AxisLabel": "IMAGE EUV mapped to z=0",
            "ValueFormat": "F12.2",
            "ScaleType": "LinearScale"
          },
          "Structure": {
            "Size": "241 241"
          },
          "FillValue": "-1.0e+31",
          "Wave": {
            "WaveType": "Electromagnetic",
            "Qualifier": "Magnitude",
            "WaveQuantity": "Intensity"
          }
        },
        {
          "Name": "IMAGE EUV images mapped to the equatorial plane, MLT noon down, dawn left",
          "Set": "Time series defined by using: EPOCH",
          "ParameterKey": "Equatorial_EUV_Grid_flip_vert",
          "Description": "IMAGE EUV images mapped to the equatorial plane, flipped, MLT noon to the bottom, dawn to the left",
          "Caveats": "This parameter is virtual. It is calculated by calling the function ALTERNATE_VIEW_FLIP_VERT with the following input parameters: Equatorial_EUV_Grid.",
          "Cadence": "PT10M",
          "Units": "cm^-3",
          "UnitsConversion": "1.0e6>m^-3",
          "CoordinateSystem": {
            "CoordinateRepresentation": "Cartesian",
            "CoordinateSystemName": "SM"
          },
          "RenderingHints": {
            "AxisLabel": "IMAGE EUV mapped to z=0",
            "ValueFormat": "F12.2",
            "ScaleType": "LinearScale"
          },
          "Structure": {
            "Size": "241 241"
          },
          "FillValue": "-1.0e+31",
          "Wave": {
            "WaveType": "Electromagnetic",
            "Qualifier": "Magnitude",
            "WaveQuantity": "Intensity"
          }
        },
        {
          "Name": "IMAGE EUV images mapped to the equatorial plane, MLT noon down, dawn left, Movie",
          "Set": "Time series defined by using: EPOCH",
          "ParameterKey": "Equatorial_EUV_Grid_Movie",
          "Description": "IMAGE EUV images mapped to the equatorial plane, flipped, MLT noon to the bottom, dawn to the left, Movie format",
          "Caveats": "This parameter is virtual. It is calculated by calling the function ALTERNATE_VIEW_FLIP_VERT with the following input parameters: Equatorial_EUV_Grid.",
          "Cadence": "PT10M",
          "Units": "cm^-3",
          "UnitsConversion": "1.0e6>m^-3",
          "CoordinateSystem": {
            "CoordinateRepresentation": "Cartesian",
            "CoordinateSystemName": "SM"
          },
          "RenderingHints": {
            "AxisLabel": "IMAGE EUV mapped to z=0",
            "ValueFormat": "F12.2",
            "ScaleType": "LinearScale"
          },
          "Structure": {
            "Size": "241 241"
          },
          "FillValue": "-1.0e+31",
          "Wave": {
            "WaveType": "Electromagnetic",
            "Qualifier": "Magnitude",
            "WaveQuantity": "Intensity"
          }
        },
        {
          "Name": "IMAGE EUV images mapped to the equatorial plane, log scale, MLT noon down, dawn left",
          "Set": "Time series defined by using: EPOCH",
          "ParameterKey": "Equatorial_EUV_Grid_log",
          "Description": "IMAGE EUV images mapped to the equatorial plane, log scale, flipped, MLT noon to the bottom, dawn to the left",
          "Caveats": "This parameter is virtual. It is calculated by calling the function CONVERT_LOG10_FLIP_VERT with the following input parameters: Equatorial_EUV_Grid.",
          "Cadence": "PT10M",
          "Units": "log(cm^-3)",
          "UnitsConversion": "(log(cm^-3)+6)>log(m^-3)",
          "CoordinateSystem": {
            "CoordinateRepresentation": "Cartesian",
            "CoordinateSystemName": "SM"
          },
          "RenderingHints": {
            "AxisLabel": "IMAGE EUV mapped to z=0",
            "ValueFormat": "F12.2",
            "ScaleType": "LinearScale"
          },
          "Structure": {
            "Size": "241 241"
          },
          "FillValue": "-1.0e+31",
          "Wave": {
            "WaveType": "Electromagnetic",
            "Qualifier": "Magnitude",
            "WaveQuantity": "Intensity"
          }
        },
        {
          "Name": "IMAGE EUV images mapped to the equatorial plane, log scale, MLT noon down, dawn left, Movie",
          "Set": "Time series defined by using: EPOCH",
          "ParameterKey": "Equatorial_EUV_Grid_log_Movie",
          "Description": "IMAGE EUV images mapped to the equatorial plane, log scale, flipped, MLT noon to the bottom, dawn to the left, Movie format",
          "Caveats": "This parameter is virtual. It is calculated by calling the function CONVERT_LOG10_FLIP_VERT with the following input parameters: Equatorial_EUV_Grid.",
          "Cadence": "PT10M",
          "Units": "log(cm^-3)",
          "UnitsConversion": "(log(cm^-3)+6)>log(m^-3)",
          "CoordinateSystem": {
            "CoordinateRepresentation": "Cartesian",
            "CoordinateSystemName": "SM"
          },
          "RenderingHints": {
            "AxisLabel": "IMAGE EUV mapped to z=0",
            "ValueFormat": "F12.2",
            "ScaleType": "LinearScale"
          },
          "Structure": {
            "Size": "241 241"
          },
          "FillValue": "-1.0e+31",
          "Wave": {
            "WaveType": "Electromagnetic",
            "Qualifier": "Magnitude",
            "WaveQuantity": "Intensity"
          }
        }
      ]
    }
  }
}