{
  "Spase": {
    "xmlns": "http://www.spase-group.org/data/schema",
    "xmlns:xsi": "http://www.w3.org/2001/XMLSchema-instance",
    "xsi:schemaLocation": "http://www.spase-group.org/data/schema  https://www.spase-group.org/data/schema/spase-2_3_2.xsd",
    "Version": "2.3.2",
    "NumericalData": {
      "ResourceID": "spase://NASA/NumericalData/LANL/1994/MPA/PT86S",
      "ResourceHeader": {
        "ResourceName": "LANL1994Magnetospheric Plasma Analyzer (MPA) at 87 sec Resolution in Spacecraft Coordinates",
        "AlternateName": "LANL 084 MPA data",
        "ReleaseDate": "2021-04-27T15:38:11Z",
        "Description": "The LANL 1994-084 MPA data set contains various parameters in a variety of coordinates systems including GEI, spacecraft, polar geographic, and polar magnetic coordinates at about 87 s resolution. These parameters include universal time, denisty, velocity, and temperature for both low and high energy ions and electrons as well as position information and instrument status flags. ",
        "Acknowledgement": "Los Alamos National Laboratory; Dr. Michelle Thomsen; Dr. Michael G. Henderson",
        "Contact": [
          {
            "PersonID": "spase://SMWG/Person/Michelle.F.Thomsen",
            "Role": "PrincipalInvestigator"
          },
          {
            "PersonID": "spase://SMWG/Person/Michael.G.Henderson",
            "Role": "GeneralContact"
          },
          {
            "PersonID": "spase://SMWG/Person/James.M.Weygand",
            "Role": "MetadataContact"
          }
        ],
        "InformationURL": {
          "Name": "Los Alamos Nation Laboratory spacecraft Magnetospheric Plasma Analyzer",
          "URL": "https://agupubs.onlinelibrary.wiley.com/doi/10.1029/93JA00726",
          "Description": "Journal of Geophysical Research Article on the LANL MPA instrument."
        },
        "PriorID": [
          "spase://VMO/NumericalData/LANL/LANL1994/MPA/PT87S",
          "spase://VSPO/NumericalData/P_LANL1994_HDR_MPA_86S",
          "spase://VMO/NumericalData/LANL/1994/MPA/PT87S",
          "spase://VSPO/NumericalData/LANL/1994/MPA/PT86S"
        ]
      },
      "AccessInformation": [
        {
          "RepositoryID": "spase://SMWG/Repository/NASA/GSFC/SPDF",
          "Availability": "Online",
          "AccessRights": "Open",
          "AccessURL": [
            {
              "Name": "FTPS from SPDF (not with most browsers)",
              "URL": "ftps://spdf.gsfc.nasa.gov/pub/data/lanl/94_mpa/"
            },
            {
              "Name": "HTTPS from SPDF",
              "URL": "https://spdf.gsfc.nasa.gov/pub/data/lanl/94_mpa/",
              "Description": "In CDF via HTTP from CDAWeb"
            },
            {
              "Name": "CDAWeb",
              "URL": "https://cdaweb.gsfc.nasa.gov/cgi-bin/eval2.cgi?dataset=L4_K0_MPA&index=sp_phys",
              "ProductKey": "L4_K0_MPA"
            }
          ],
          "Format": "CDF",
          "Acknowledgement": "LANL; Dr. Michelle Thomsen; Dr. Michael G. Henderson"
        },
        {
          "RepositoryID": "spase://SMWG/Repository/NASA/GSFC/SPDF",
          "Availability": "Online",
          "AccessRights": "Open",
          "AccessURL": {
            "Name": "CDAWeb HAPI Server",
            "URL": "https://cdaweb.gsfc.nasa.gov/hapi",
            "Style": "HAPI",
            "ProductKey": "L4_K0_MPA",
            "Description": "Web Service to this product using the HAPI interface."
          },
          "Format": "CSV",
          "Acknowledgement": "LANL; Dr. Michelle Thomsen; Dr. Michael G. Henderson"
        }
      ],
      "ProcessingLevel": "Calibrated",
      "ProviderResourceName": "LANL 084 MPA",
      "ProviderProcessingLevel": " Numerical Data ",
      "InstrumentID": "spase://SMWG/Instrument/LANL/1994/MPA",
      "MeasurementType": "EnergeticParticles",
      "TemporalDescription": {
        "TimeSpan": {
          "StartDate": "1996-01-01T00:00:00",
          "StopDate": "2008-01-03T23:59:59",
          "Note": "Time format in data files is: day, month, year hour, min, seconds. Ex: '01-Jan-1981 00:00:00.000'"
        },
        "Cadence": "PT87S"
      },
      "Caveats": "Flags=-1.0e+31. The content of the LANL SOPA cdfs at CDAWeb has not been fully documented.",
      "Keyword": [
        "87 sec",
        "geosynchronus",
        "LANL",
        "Magnetospheric Plasma Analyzer",
        "MPA"
      ],
      "Parameter": [
        {
          "Name": "LANL 084 MPA Time of proton collection",
          "ParameterKey": "Epoch",
          "Description": "This is the time of the proton data collection (electrons 21.5 seconds later). Universal Time in data cell: day, month, year hour, min, seconds. Ex: '01-Jan-1981 00:00:00.000'.",
          "Caveats": "Interval centered time tag",
          "Units": "ms",
          "UnitsConversion": "'1.0e-3>s'",
          "RenderingHints": {
            "AxisLabel": "Epoch"
          },
          "ValidMin": "01-08-1992T00:00:00.000",
          "ValidMax": "31-12-2020T23:59:59.000",
          "FillValue": "-1.0000e+031",
          "Support": {
            "SupportQuantity": "Temporal"
          }
        },
        {
          "Name": "LANL 084 MPA Time of proton collection",
          "ParameterKey": "Time_PB5",
          "Description": "This is the time of the proton collection (electrons 21.5 seconds later). Time in the format: year, day of year, and second of the same day.",
          "Caveats": "Interval centered time tag",
          "RenderingHints": {
            "AxisLabel": "Epoch"
          },
          "Structure": {
            "Size": "3",
            "Description": "Date and Time Vector.",
            "Element": [
              {
                "Name": "Year",
                "Index": "1",
                "Units": "Years",
                "ValidMin": "1992",
                "ValidMax": "2020"
              },
              {
                "Name": "Day of Year",
                "Index": "2",
                "Units": "Days",
                "ValidMin": "0",
                "ValidMax": "366"
              },
              {
                "Name": "milliseconds of the day",
                "Index": "3",
                "Units": "ms",
                "ValidMin": "0",
                "ValidMax": "86399000"
              }
            ]
          },
          "FillValue": "-2147483648",
          "Support": {
            "SupportQuantity": "Temporal"
          }
        },
        {
          "Name": "LANL 084 MPA Partial Density of Low Energy Ions",
          "ParameterKey": "dens_lop",
          "Description": "Partial density of low energy ions (1-130 eV/e).",
          "Units": "cm^-3",
          "UnitsConversion": "1.0e6>m^-3",
          "RenderingHints": {
            "AxisLabel": "low p dens",
            "ScaleMin": "0.1",
            "ScaleMax": "1000.0"
          },
          "ValidMin": "0.0",
          "ValidMax": "100000.0",
          "FillValue": "-1.0000e+031",
          "Particle": {
            "ParticleType": "Ion",
            "Qualifier": "Scalar",
            "ParticleQuantity": "NumberDensity",
            "EnergyRange": {
              "Low": "1",
              "High": "130",
              "Units": "eV/e"
            }
          }
        },
        {
          "Name": "LANL 084 MPA Velocity Vector Low-Enery Ions",
          "ParameterKey": "vel_lop",
          "Description": "Velocity vector low-enery Ions (1-130 eV/e) in spacecraft Coordinates in units of km/s.",
          "Units": "km/s",
          "UnitsConversion": "1.0e3>m s^-1",
          "CoordinateSystem": {
            "CoordinateRepresentation": "Cartesian",
            "CoordinateSystemName": "SC"
          },
          "RenderingHints": {
            "ScaleMin": "-100",
            "ScaleMax": "100"
          },
          "Structure": {
            "Size": "3",
            "Element": [
              {
                "Name": "VX",
                "Qualifier": "Component.I",
                "Index": "1"
              },
              {
                "Name": "VY",
                "Qualifier": "Component.J",
                "Index": "2"
              },
              {
                "Name": "VZ",
                "Qualifier": "Component.K",
                "Index": "3"
              }
            ]
          },
          "ValidMin": "-2000",
          "ValidMax": "2000",
          "FillValue": "-1.0000e+031",
          "Particle": {
            "ParticleType": "Ion",
            "Qualifier": "Vector",
            "ParticleQuantity": "Velocity"
          }
        },
        {
          "Name": "LANL 084 MPA Temperature Low Energy Ions",
          "ParameterKey": "temp_lop",
          "Description": "Temperature of low energy ions (1-130 eV/e).",
          "Units": "eV",
          "RenderingHints": {
            "AxisLabel": "low p temp",
            "ScaleMin": "0.1",
            "ScaleMax": "100.0"
          },
          "ValidMin": "0.0",
          "ValidMax": "50000.0",
          "FillValue": "-1.0000e+031",
          "Particle": {
            "ParticleType": "Ion",
            "Qualifier": "Scalar",
            "ParticleQuantity": "Temperature",
            "EnergyRange": {
              "Low": "1",
              "High": "130",
              "Units": "eV/e"
            }
          }
        },
        {
          "Name": "LANL 084 MPA Ratio of Temperature Eigenvalues for Low-E Ions",
          "ParameterKey": "tratio_lop",
          "Description": "Ratio of temperature (Tperp/Tmid) of low energy ions (1-130 eV/e).",
          "RenderingHints": {
            "AxisLabel": "Tper/Tmid",
            "ScaleMin": "0.1",
            "ScaleMax": "10.0"
          },
          "ValidMin": "0.0",
          "ValidMax": "100.0",
          "FillValue": "-1.0000e+031",
          "Particle": {
            "ParticleType": "Ion",
            "Qualifier": "Ratio",
            "ParticleQuantity": "Temperature",
            "EnergyRange": {
              "Low": "1",
              "High": "130",
              "Units": "eV/e"
            }
          }
        },
        {
          "Name": "LANL 084 MPA Partial Density High-E Ions",
          "ParameterKey": "dens_hip",
          "Description": "Partial density of high energy ions (.13-45 keV/e).",
          "Units": "cm^-3",
          "RenderingHints": {
            "AxisLabel": "hi p dens",
            "ScaleMin": "0.01",
            "ScaleMax": "10.0"
          },
          "ValidMin": "0.0",
          "ValidMax": "10000.0",
          "FillValue": "-1.0000e+031",
          "Particle": {
            "ParticleType": "Ion",
            "Qualifier": "Scalar",
            "ParticleQuantity": "NumberDensity",
            "EnergyRange": {
              "Low": "0.13",
              "High": "45",
              "Units": "keV/e"
            }
          }
        },
        {
          "Name": "LANL 084 MPA Velocity Vector High-E Ions",
          "ParameterKey": "vel_hip",
          "Description": "Velocity vector high-enery protons (.13-45 keV/e) in spacecraft Coordinates in units of km/s.",
          "Units": "km/s",
          "UnitsConversion": "1.0e3>m s^-1",
          "CoordinateSystem": {
            "CoordinateRepresentation": "Cartesian",
            "CoordinateSystemName": "SC"
          },
          "RenderingHints": {
            "ScaleMin": "-200",
            "ScaleMax": "200"
          },
          "Structure": {
            "Size": "3",
            "Element": [
              {
                "Name": "VX",
                "Qualifier": "Component.I",
                "Index": "1"
              },
              {
                "Name": "VY",
                "Qualifier": "Component.J",
                "Index": "2"
              },
              {
                "Name": "VZ",
                "Qualifier": "Component.K",
                "Index": "3"
              }
            ]
          },
          "ValidMin": "-2000",
          "ValidMax": "2000",
          "FillValue": "-1.0000e+031",
          "Particle": {
            "ParticleType": "Ion",
            "Qualifier": "Vector",
            "ParticleQuantity": "Velocity"
          }
        },
        {
          "Name": "LANL 084 MPA Temperature High-E Ions",
          "ParameterKey": "temp_hip",
          "Description": "Temperature of high energy ions (.13-45 keV/e).",
          "Units": "eV",
          "RenderingHints": {
            "AxisLabel": "high p temp",
            "ScaleMin": "100",
            "ScaleMax": "100000.0"
          },
          "Structure": {
            "Size": "2",
            "Element": [
              {
                "Name": "Temp Parallel",
                "Qualifier": "Component.I",
                "Index": "1"
              },
              {
                "Name": "Temp Perpendicular",
                "Qualifier": "Component.J",
                "Index": "2"
              }
            ]
          },
          "ValidMin": "0.0",
          "ValidMax": "50000.0",
          "FillValue": "-1.0000e+031",
          "Particle": {
            "ParticleType": "Ion",
            "Qualifier": "Array",
            "ParticleQuantity": "Temperature",
            "EnergyRange": {
              "Low": "0.13",
              "High": "45",
              "Units": "keV/e"
            }
          }
        },
        {
          "Name": "LANL 084 MPA Polar, Azimuthal Angle High-E Proton Symmetry Axis",
          "ParameterKey": "theta_phi_hip",
          "Description": "Proton symmetry axis: polar angle relative to Earth direction, azimuthal angle from the north.",
          "Units": "deg",
          "CoordinateSystem": {
            "CoordinateRepresentation": "Spherical",
            "CoordinateSystemName": "SC"
          },
          "Structure": {
            "Size": "2",
            "Element": [
              {
                "Name": "Polar Angle",
                "Qualifier": "DirectionAngle.PolarAngle",
                "Index": "1",
                "Units": "degrees",
                "ValidMin": "0",
                "ValidMax": "180"
              },
              {
                "Name": "Azimuthal Angle",
                "Qualifier": "DirectionAngle.AzimuthAngle",
                "Index": "2",
                "Units": "degrees",
                "ValidMin": "-90",
                "ValidMax": "90"
              }
            ]
          },
          "FillValue": "-1.0000e+031",
          "Particle": {
            "ParticleType": "Ion",
            "Qualifier": "Array",
            "ParticleQuantity": "ArrivalDirection",
            "EnergyRange": {
              "Low": "0.13",
              "High": "45",
              "Units": "keV/e"
            }
          }
        },
        {
          "Name": "LANL 084 MPA Ratio of Temperature Eigenvalues for High-E Ions",
          "ParameterKey": "tratio_hip",
          "Description": "Ratio of temperature (Tperp/Tmid) of low energy ions (.13-45 keV/e).",
          "RenderingHints": {
            "AxisLabel": "Tper/Tmid",
            "ScaleMin": "0.1",
            "ScaleMax": "10.0"
          },
          "ValidMin": "0.0",
          "ValidMax": "100.0",
          "FillValue": "-1.0000e+031",
          "Particle": {
            "ParticleType": "Ion",
            "Qualifier": "Ratio",
            "ParticleQuantity": "Temperature",
            "EnergyRange": {
              "Low": "0.13",
              "High": "45",
              "Units": "keV/e"
            }
          }
        },
        {
          "Name": "LANL 084 MPA Partial Density Electrons",
          "ParameterKey": "dens_e",
          "Description": "Partial density of electrons (.03-45 keV/q).",
          "Units": "# cm^-3",
          "RenderingHints": {
            "AxisLabel": "elec dens",
            "ScaleMin": "0.01",
            "ScaleMax": "100.0"
          },
          "ValidMin": "0.0",
          "ValidMax": "100000.0",
          "FillValue": "-1.0000e+031",
          "Particle": {
            "ParticleType": "Electron",
            "Qualifier": "Scalar",
            "ParticleQuantity": "NumberDensity",
            "EnergyRange": {
              "Low": "0.03",
              "High": "45",
              "Units": "keV/e"
            }
          }
        },
        {
          "Name": "LANL 084 MPA Temperature Electrons",
          "ParameterKey": "temp_e",
          "Description": "Temperature of electrons (.03-45 keV/q).",
          "Units": "eV",
          "RenderingHints": {
            "AxisLabel": "Temperatures, parallel and perp. for electrons",
            "ScaleMin": "100",
            "ScaleMax": "100000.0"
          },
          "Structure": {
            "Size": "2",
            "Element": [
              {
                "Name": "Temp Parallel",
                "Qualifier": "Component.I",
                "Index": "1"
              },
              {
                "Name": "Temp Perpendicular",
                "Qualifier": "Component.J",
                "Index": "2"
              }
            ]
          },
          "ValidMin": "0.0",
          "ValidMax": "50000.0",
          "FillValue": "-1.0000e+031",
          "Particle": {
            "ParticleType": "Electron",
            "Qualifier": "Array",
            "ParticleQuantity": "Temperature",
            "EnergyRange": {
              "Low": "0.03",
              "High": "45",
              "Units": "keV/e"
            }
          }
        },
        {
          "Name": "LANL 084 MPA Polar, Azimuthal Angle Electron Symmetry Axis",
          "ParameterKey": "theta_phi_e",
          "Description": "Electron symmetry axis: polar angle relative to Earth direction, azimuthal angle from the north.",
          "CoordinateSystem": {
            "CoordinateRepresentation": "Spherical",
            "CoordinateSystemName": "SC"
          },
          "Structure": {
            "Size": "2",
            "Element": [
              {
                "Name": "Polar Angle",
                "Qualifier": "DirectionAngle.PolarAngle",
                "Index": "1",
                "Units": "degrees",
                "ValidMin": "0",
                "ValidMax": "180"
              },
              {
                "Name": "Azimuthal Angle",
                "Qualifier": "DirectionAngle.AzimuthAngle",
                "Index": "2",
                "Units": "degrees",
                "ValidMin": "-90",
                "ValidMax": "90"
              }
            ]
          },
          "FillValue": "-1.0000e+031",
          "Particle": {
            "ParticleType": "Electron",
            "Qualifier": "Array",
            "ParticleQuantity": "ArrivalDirection",
            "EnergyRange": {
              "Low": "0.03",
              "High": "45",
              "Units": "keV/e"
            }
          }
        },
        {
          "Name": "LANL 084 MPA Ratio of Temperature Eigenvalues for Electrons",
          "ParameterKey": "tratio_e",
          "Description": "Ratio of temperature (Tperp/Tmid) of electrons (.03-45 keV/q).",
          "RenderingHints": {
            "AxisLabel": "Tper/Tmid",
            "ScaleMin": "0.1",
            "ScaleMax": "10.0"
          },
          "ValidMin": "0.0",
          "ValidMax": "100.0",
          "FillValue": "-1.0000e+031",
          "Particle": {
            "ParticleType": "Electron",
            "Qualifier": "Ratio",
            "ParticleQuantity": "Temperature",
            "EnergyRange": {
              "Low": "0.03",
              "High": "45",
              "Units": "keV/e"
            }
          }
        },
        {
          "Name": "LANL 084 MPA Spacecraft Potential",
          "ParameterKey": "sc_pot",
          "Description": "Spacecraft potential in units of volts.",
          "Units": "volts",
          "RenderingHints": {
            "AxisLabel": "S/C poten.",
            "ScaleMin": "-10000.0",
            "ScaleMax": "0.0"
          },
          "ValidMin": "-20000.",
          "ValidMax": "0.0",
          "FillValue": "-1.0000e+031",
          "Field": {
            "Qualifier": "Scalar",
            "FieldQuantity": "Potential"
          }
        },
        {
          "Name": "LANL 084 MPA Background Count Rate (Not Clear what this is the background for)",
          "ParameterKey": "bkgd",
          "Description": "Background Count Rate.",
          "Units": "cts/9ms",
          "RenderingHints": {
            "AxisLabel": "Backgrd",
            "ScaleMin": "0.1",
            "ScaleMax": "1000.0"
          },
          "ValidMin": "0.0",
          "ValidMax": "1000.0",
          "FillValue": "-1.0000e+031",
          "Support": {
            "Qualifier": "Scalar",
            "SupportQuantity": "Other"
          }
        },
        {
          "Name": "LANL 084 MPA Spacecraft Position, Polar Geographic Coordinates",
          "ParameterKey": "sc_pos_geo",
          "Description": "Spacecraft position, polar geographic coordinates (radius,lat,long).",
          "CoordinateSystem": {
            "CoordinateRepresentation": "Spherical",
            "CoordinateSystemName": "GEO"
          },
          "Structure": {
            "Size": "3",
            "Description": "Polar Geographic Coordinates.",
            "Element": [
              {
                "Name": "Radius",
                "Qualifier": "Magnitude",
                "Index": "1",
                "Units": "EarthRadii",
                "ValidMin": "0",
                "ValidMax": "10"
              },
              {
                "Name": "Latitude",
                "Qualifier": "DirectionAngle.ElevationAngle",
                "Index": "2",
                "Units": "degrees",
                "ValidMin": "-90",
                "ValidMax": "90"
              },
              {
                "Name": "Longitude",
                "Qualifier": "DirectionAngle.AzimuthAngle",
                "Index": "3",
                "Units": "degrees",
                "ValidMin": "-180",
                "ValidMax": "180"
              }
            ]
          },
          "FillValue": "-1.0000e+031",
          "Support": {
            "Qualifier": "Vector",
            "SupportQuantity": "Positional"
          }
        },
        {
          "Name": "LANL 084 MPA Spacecraft Position, Cartesian Geocentric Celestial Inertial coordinates",
          "ParameterKey": "sc_pos_syngci",
          "Description": "Spacecraft position, cartesian coordinates (radius,lat,long). Geocentric Celestial Inertial, is earth centered, with the X-axis pointing from the Earth towards the first point of Aries (the position of the Sun at vernal equinox). This direction is the intersection of the Earth's equatorial plane and the ecliptic plane--thus the X-axis lies in both planes. The Z-axis is parallel to the rotation axis of the Earth, and the Y-axis completes a right-handed orthogonal coordinate system. The X-axis is the direction of the mean vernal equinox of J2000. This is a virtual variable generated by read_myCDF w/ useof the data in the sc_pos_geo variable and a conversion routinespecified in the function attribute, namely conv_pos. ",
          "CoordinateSystem": {
            "CoordinateRepresentation": "Cartesian",
            "CoordinateSystemName": "GEI"
          },
          "Structure": {
            "Size": "3",
            "Description": "Geocentric Celestial Inertial coordinates.",
            "Element": [
              {
                "Name": "X",
                "Qualifier": "Component.I",
                "Index": "1",
                "ValidMin": "-1000",
                "ValidMax": "1000"
              },
              {
                "Name": "Y",
                "Qualifier": "Component.J",
                "Index": "2",
                "ValidMin": "-1000",
                "ValidMax": "1000"
              },
              {
                "Name": "Z",
                "Qualifier": "Component.K",
                "Index": "3",
                "ValidMin": "-1000",
                "ValidMax": "1000"
              }
            ]
          },
          "FillValue": "-1.0000e+031",
          "Support": {
            "Qualifier": "Vector",
            "SupportQuantity": "Positional"
          }
        },
        {
          "Name": "LANL 084 MPA Spacecraft Position, Polar Magnetic Coordinates",
          "ParameterKey": "sc_pos_mag",
          "Description": "Spacecraft position, polar magnetic coordinates (radius,lat,long).",
          "CoordinateSystem": {
            "CoordinateRepresentation": "Spherical",
            "CoordinateSystemName": "MAG"
          },
          "Structure": {
            "Size": "3",
            "Description": "Polar Magnetic Coordinates.",
            "Element": [
              {
                "Name": "Radius",
                "Qualifier": "Magnitude",
                "Index": "1",
                "Units": "EarthRadii",
                "ValidMin": "0",
                "ValidMax": "10"
              },
              {
                "Name": "Latitude",
                "Qualifier": "DirectionAngle.ElevationAngle",
                "Index": "2",
                "Units": "degrees",
                "ValidMin": "-90",
                "ValidMax": "90"
              },
              {
                "Name": "Magnetic Local Time",
                "Qualifier": "DirectionAngle.AzimuthAngle",
                "Index": "3",
                "Units": "hours",
                "ValidMin": "0",
                "ValidMax": "24"
              }
            ]
          },
          "FillValue": "-1.0000e+031",
          "Support": {
            "Qualifier": "Vector",
            "SupportQuantity": "Positional"
          }
        },
        {
          "Name": "LANL 084 MPA Data Quality Flag",
          "ParameterKey": "qual_flag",
          "Description": "Data quality flag. Data quality flag, 0 = ok, 1 = Results unreliable.",
          "RenderingHints": {
            "AxisLabel": "Qual Flag",
            "ScaleMin": "0.0",
            "ScaleMax": "10.0"
          },
          "ValidMin": "0.0",
          "ValidMax": "10.0",
          "FillValue": "-2147483648",
          "Support": {
            "Qualifier": "Scalar",
            "SupportQuantity": "Other"
          }
        },
        {
          "Name": "LANL 084 MPA Data Gap Flag",
          "ParameterKey": "gap_flag",
          "Description": "Data gap flag. Data gap flag, 0 = No Gap, 10 = No data available.",
          "RenderingHints": {
            "AxisLabel": "Gap Flag",
            "ScaleMin": "0.0",
            "ScaleMax": "10.0"
          },
          "ValidMin": "0.0",
          "ValidMax": "10.0",
          "FillValue": "-2147483648",
          "Support": {
            "Qualifier": "Scalar",
            "SupportQuantity": "Other"
          }
        },
        {
          "Name": "LANL 084 MPA Time Offset for Electron Measurements",
          "ParameterKey": "offset_time",
          "Description": "Time offset for electron measurements. Electron sample time is 21.5 seconds after that of ions.",
          "Units": "ms",
          "RenderingHints": {
            "AxisLabel": "T offset",
            "ScaleMin": "21500.0",
            "ScaleMax": "21500.0"
          },
          "ValidMin": "21500.0",
          "ValidMax": "21500.0",
          "FillValue": "-1.0000e+031",
          "Support": {
            "Qualifier": "Scalar",
            "SupportQuantity": "Temporal"
          }
        }
      ]
    }
  }
}