{
  "Spase": {
    "xmlns": "http://www.spase-group.org/data/schema",
    "xmlns:xsi": "http://www.w3.org/2001/XMLSchema-instance",
    "xsi:schemaLocation": "http://www.spase-group.org/data/schema http://www.spase-group.org/data/schema/spase-2_2_9.xsd",
    "Version": "2.2.9",
    "NumericalData": {
      "ResourceID": "spase://NASA/NumericalData/Prognoz7/MAG/PT10S",
      "ResourceHeader": {
        "ResourceName": "Prognoz 7 Magnetic Field Data",
        "ReleaseDate": "2021-03-11T18:39:11Z",
        "Description": "Magnetic field data obtained in the outer magnetosphere and in the solar wind by Prognoz 7 between 1978/11/11 and 1979/05/31.\n            The data were obtained by an SG-70 fluxgate magnetometer provided by IZMIRAN's Space Magnetic Research Laboratory.  The magnetometer had a range of +/- 60 nT and an accuracy of about 0.3 nT. It made one vector measurement every 10.24 sec.",
        "Acknowledgement": "Use of these data in publications should be accompanied by acknowledgements of the National Space Science Data Center(NSSDC), Space Physics Data Facility(SPDF) and IZMIRAN at Moscow.",
        "Contact": [
          {
            "PersonID": "spase://SMWG/Person/Valery.G.Petrov",
            "Role": "DataProducer"
          },
          {
            "PersonID": "spase://SMWG/Person/Valery.A.Styazhkin",
            "Role": "GeneralContact"
          },
          {
            "PersonID": "spase://SMWG/Person/Natalia.E.Papitashvili",
            "Role": "TechnicalContact"
          },
          {
            "PersonID": "spase://SMWG/Person/Jan.Merka",
            "Role": "MetadataContact"
          }
        ],
        "InformationURL": {
          "Name": "Readme file at SPDF",
          "URL": "https://spdf.gsfc.nasa.gov/pub/data/prognoz/prognoz7/fluxgate_magnetometers/aareadme.txt"
        },
        "PriorID": [
          "spase://VMO/NumericalData/Prognoz7/MAG/PT10S",
          "spase://VSPO/NumericalData/Prognoz7/MAG/PT10S"
        ]
      },
      "AccessInformation": {
        "RepositoryID": "spase://SMWG/Repository/NASA/GSFC/SPDF",
        "Availability": "Online",
        "AccessRights": "Open",
        "AccessURL": [
          {
            "Name": "FTPS from SPDF (not with most browsers)",
            "URL": "ftps://spdf.gsfc.nasa.gov/pub/data/prognoz/prognoz7/",
            "Description": "FTP access to the Prognoz 7 data files at NSSDC."
          },
          {
            "Name": "HTTPS from SPDF",
            "URL": "https://spdf.gsfc.nasa.gov/pub/data/prognoz/prognoz7/",
            "Description": "In CDF via HTTP from SPDF"
          },
          {
            "Name": "FTPBrowser",
            "URL": "https://omniweb.sci.gsfc.nasa.gov/ftpbrowser/prognoz7.html",
            "Description": "Subset, plot and list Prognoz 7 data"
          }
        ],
        "Format": "Text.ASCII",
        "Encoding": "ASCII"
      },
      "InstrumentID": "spase://SMWG/Instrument/Prognoz7/MAG",
      "MeasurementType": [
        "MagneticField",
        "Ephemeris"
      ],
      "TemporalDescription": {
        "TimeSpan": {
          "StartDate": "1978-11-11T17:25:37Z",
          "StopDate": "1979-05-31T03:00:54Z"
        },
        "Cadence": "PT10.24S"
      },
      "ObservedRegion": [
        "Heliosphere.NearEarth",
        "Earth.Magnetosheath",
        "Earth.Magnetosphere"
      ],
      "Caveats": "Time stamps are given to full seconds, i.e. no fractional seconds are available.",
      "Parameter": [
        {
          "Name": "Year",
          "ParameterKey": "Column 1",
          "Description": "Time of observation (year)",
          "Support": {
            "SupportQuantity": "Temporal"
          }
        },
        {
          "Name": "Month",
          "ParameterKey": "Column 2",
          "Description": "Time of observation (month of year)",
          "Support": {
            "SupportQuantity": "Temporal"
          }
        },
        {
          "Name": "Day",
          "ParameterKey": "Column 3",
          "Description": "Time of observation (day of month)",
          "Support": {
            "SupportQuantity": "Temporal"
          }
        },
        {
          "Name": "Hour",
          "ParameterKey": "Column 4",
          "Description": "Time of observation (hour of day)",
          "Support": {
            "SupportQuantity": "Temporal"
          }
        },
        {
          "Name": "Minute",
          "ParameterKey": "Column 5",
          "Description": "Time of observation (minute)",
          "Support": {
            "SupportQuantity": "Temporal"
          }
        },
        {
          "Name": "Second",
          "ParameterKey": "Column 6",
          "Description": "Time of observation (second)",
          "Units": "s",
          "Support": {
            "SupportQuantity": "Temporal"
          }
        },
        {
          "Name": "Btotal",
          "ParameterKey": "Column 7",
          "Description": "Magnetic field magnitude in nT",
          "Units": "nT",
          "UnitsConversion": "1e-9>T",
          "Field": {
            "Qualifier": "Magnitude",
            "FieldQuantity": "Magnetic"
          }
        },
        {
          "Name": "Bx (GSE)",
          "ParameterKey": "Column 8",
          "Description": "Magnetic field vector X component in GSE coordinates",
          "Units": "nT",
          "UnitsConversion": "1e-9>T",
          "CoordinateSystem": {
            "CoordinateRepresentation": "Cartesian",
            "CoordinateSystemName": "GSE"
          },
          "Field": {
            "Qualifier": "Component.I",
            "FieldQuantity": "Magnetic"
          }
        },
        {
          "Name": "By (GSE)",
          "ParameterKey": "Column 9",
          "Description": "Magnetic field vector Y component in GSE coordinates",
          "Units": "nT",
          "UnitsConversion": "1e-9>T",
          "CoordinateSystem": {
            "CoordinateRepresentation": "Cartesian",
            "CoordinateSystemName": "GSE"
          },
          "Field": {
            "Qualifier": "Component.J",
            "FieldQuantity": "Magnetic"
          }
        },
        {
          "Name": "Bz (GSE)",
          "ParameterKey": "Column 10",
          "Description": "Magnetic field vector Z component in GSE coordinates",
          "Units": "nT",
          "UnitsConversion": "1e-9>T",
          "CoordinateSystem": {
            "CoordinateRepresentation": "Cartesian",
            "CoordinateSystemName": "GSE"
          },
          "Field": {
            "Qualifier": "Component.K",
            "FieldQuantity": "Magnetic"
          }
        },
        {
          "Name": "By (GSM)",
          "ParameterKey": "Column 11",
          "Description": "Magnetic field vector Y component in GSM coordinates",
          "Units": "nT",
          "UnitsConversion": "1e-9>T",
          "CoordinateSystem": {
            "CoordinateRepresentation": "Cartesian",
            "CoordinateSystemName": "GSM"
          },
          "Field": {
            "Qualifier": "Component.J",
            "FieldQuantity": "Magnetic"
          }
        },
        {
          "Name": "Bz (GSM)",
          "ParameterKey": "Column 12",
          "Description": "Magnetic field vector Z component in GSM coordinates",
          "Units": "nT",
          "UnitsConversion": "1e-9>T",
          "CoordinateSystem": {
            "CoordinateRepresentation": "Cartesian",
            "CoordinateSystemName": "GSM"
          },
          "Field": {
            "Qualifier": "Component.K",
            "FieldQuantity": "Magnetic"
          }
        },
        {
          "Name": "X (GSE)",
          "ParameterKey": "Column 13",
          "Description": "Satellite position in GSE, X component",
          "Units": "Re",
          "CoordinateSystem": {
            "CoordinateRepresentation": "Cartesian",
            "CoordinateSystemName": "GSE"
          },
          "Support": {
            "Qualifier": "Component.I",
            "SupportQuantity": "Positional"
          }
        },
        {
          "Name": "Y (GSE)",
          "ParameterKey": "Column 14",
          "Description": "Satellite position in GSE, Y component",
          "Units": "Re",
          "CoordinateSystem": {
            "CoordinateRepresentation": "Cartesian",
            "CoordinateSystemName": "GSE"
          },
          "Support": {
            "Qualifier": "Component.J",
            "SupportQuantity": "Positional"
          }
        },
        {
          "Name": "Z (GSE)",
          "ParameterKey": "Column 15",
          "Description": "Satellite position in GSE, Z component",
          "Units": "Re",
          "CoordinateSystem": {
            "CoordinateRepresentation": "Cartesian",
            "CoordinateSystemName": "GSE"
          },
          "Support": {
            "Qualifier": "Component.K",
            "SupportQuantity": "Positional"
          }
        },
        {
          "Name": "Y (GSM)",
          "ParameterKey": "Column 16",
          "Description": "Satellite position in GSM, Y component",
          "Units": "Re",
          "CoordinateSystem": {
            "CoordinateRepresentation": "Cartesian",
            "CoordinateSystemName": "GSM"
          },
          "Support": {
            "Qualifier": "Component.J",
            "SupportQuantity": "Positional"
          }
        },
        {
          "Name": "Z (GSM)",
          "ParameterKey": "Column 17",
          "Description": "Satellite position in GSM, Z component",
          "Units": "Re",
          "CoordinateSystem": {
            "CoordinateRepresentation": "Cartesian",
            "CoordinateSystemName": "GSM"
          },
          "Support": {
            "Qualifier": "Component.K",
            "SupportQuantity": "Positional"
          }
        }
      ]
    }
  }
}