{
  "Spase": {
    "xmlns": "http://www.spase-group.org/data/schema",
    "xmlns:xsi": "http://www.w3.org/2001/XMLSchema-instance",
    "xsi:schemaLocation": "http://www.spase-group.org/data/schema  https://www.spase-group.org/data/schema/spase-2_3_2.xsd",
    "Version": "2.3.2",
    "NumericalData": {
      "ResourceID": "spase://NASA/NumericalData/MMS/3/FIELDS/SCM/Burst/Level2/PT0.0001220703125S",
      "ResourceHeader": {
        "ResourceName": "MMS 3 Search Coil Magnetometer (SCM) AC Magnetic Field (8192 Samples/s), Level 2, Burst Survey",
        "AlternateName": "MMS3_SCM_BRST_L2_SCB",
        "ReleaseDate": "2021-04-27T15:38:11Z",
        "Description": "Search Coil Magnetometer (SCM) AC Magnetic Field (8192 samples/s), Level 2, Burst Survey Data. The tri-axial Search-Coil Magnetometer with its associated preamplifier measures three-dimensional magnetic field fluctuations. The analog magnetic waveforms measured by the SCM are digitized and processed inside the Digital Signal Processor (DSP), collected and stored by the Central Instrument Data Processor (CIDP) via the Fields Central Electronics Box (CEB). Prior to launch, all SCM Flight models were calibrated by LPP team members at the National Magnetic Observatory, Chambon-la-Foret (Orleans). Once per orbit, each SCM transfer function is checked thanks to the onboard calibration signal provided by the DSP. The SCM is operated for the entire MMS orbit in survey mode. Within scientific Regions Of Interest (ROI), burst mode data are also acquired as well as high burst mode data. This SCM data set corresponds to the AC magnetic field waveforms in nanoTesla and in the GSE frame. The instrument paper for SCM can be found at http://link.springer.com/article/10.1007/s11214-014-0096-9.",
        "Acknowledgement": "J. Burch, O. Le Contel, The French involvement (SCM instruments) on MMS is supported by CNES, CNRS-INSIS and CNRS-INSU",
        "Contact": [
          {
            "PersonID": "spase://SMWG/Person/James.L.Burch",
            "Role": "PrincipalInvestigator"
          },
          {
            "PersonID": "spase://SMWG/Person/Olivier.Le.Contel",
            "Role": "PrincipalInvestigator"
          },
          {
            "PersonID": "spase://SMWG/Person/Robert.E.McGuire",
            "Role": "MetadataContact"
          },
          {
            "PersonID": "spase://SMWG/Person/Lee.Frost.Bargatze",
            "Role": "MetadataContact"
          }
        ],
        "InformationURL": [
          {
            "Name": "at GFSC",
            "URL": "https://mms.gsfc.nasa.gov/",
            "Description": "The Magnetospheric Multiscale (MMS) Mission Home Page hosted by the Goddard Space Flight Center (GSFC)."
          },
          {
            "Name": "The MMS LPP SCM Team home page at LPP, UPMC",
            "URL": "https://magnum.lpp.polytechnique.fr/MMS-SCM-939?lang=en",
            "Description": "The Magnetospheric Multiscale (MMS) Search-Coil Magnetometer (FGM) home page hosted by the Laboratoire de Physique des Plasma (LPP), Universite Pierre et Marie Curie (UPMC)."
          }
        ],
        "PriorID": "spase://VSPO/NumericalData/MMS/3/FIELDS/SCM/Burst/Level2/PT0.0001220703125S"
      },
      "AccessInformation": [
        {
          "RepositoryID": "spase://SMWG/Repository/NASA/GSFC/SPDF",
          "Availability": "Online",
          "AccessRights": "Open",
          "AccessURL": [
            {
              "Name": "FTPS from SPDF (not with most browsers)",
              "URL": "ftps://spdf.gsfc.nasa.gov/pub/data/mms/mms3/scm/brst/l2/scb/",
              "Description": "In CDF via ftp from SPDF."
            },
            {
              "Name": "HTTPS from SPDF",
              "URL": "https://spdf.gsfc.nasa.gov/pub/data/mms/mms3/scm/brst/l2/scb/",
              "Description": "In CDF via http from SPDF."
            },
            {
              "Name": "CDAWeb",
              "URL": "https://cdaweb.gsfc.nasa.gov/cgi-bin/eval2.cgi?dataset=MMS3_SCM_BRST_L2_SCB&index=sp_phys",
              "ProductKey": "MMS3_SCM_BRST_L2_SCB",
              "Description": "Access to ASCII, CDF, and plots via NASA/GSFC CDAWeb"
            }
          ],
          "Format": "CDF",
          "Encoding": "None",
          "Acknowledgement": "J. Burch, O. Le Contel, The French involvement (SCM instruments) on MMS is supported by CNES, CNRS-INSIS and CNRS-INSU. Please acknowledge the data providers and CDAWeb when using these data."
        },
        {
          "RepositoryID": "spase://SMWG/Repository/NASA/GSFC/SPDF",
          "Availability": "Online",
          "AccessRights": "Open",
          "AccessURL": {
            "Name": "CDAWeb HAPI Server",
            "URL": "https://cdaweb.gsfc.nasa.gov/hapi",
            "Style": "HAPI",
            "ProductKey": "MMS3_SCM_BRST_L2_SCB",
            "Description": "Web Service to this product using the HAPI interface."
          },
          "Format": "CSV",
          "Acknowledgement": "J. Burch, O. Le Contel, The French involvement (SCM instruments) on MMS is supported by CNES, CNRS-INSIS and CNRS-INSU. Please acknowledge the data providers and CDAWeb when using these data."
        }
      ],
      "ProcessingLevel": "Calibrated",
      "InstrumentID": "spase://SMWG/Instrument/MMS/3/FIELDS/SCM",
      "MeasurementType": [
        "MagneticField",
        "Waves.Passive"
      ],
      "TemporalDescription": {
        "TimeSpan": {
          "StartDate": "2015-08-04T15:44:54",
          "RelativeStopDate": "-P2M"
        },
        "Cadence": "PT0.0001220703125S"
      },
      "ObservedRegion": [
        "Earth.Magnetosheath",
        "Earth.Magnetosphere",
        "Earth.Magnetosphere.Magnetotail",
        "Earth.Magnetosphere.Main",
        "Earth.Magnetosphere.RadiationBelt",
        "Earth.NearSurface.EquatorialRegion",
        "Earth.NearSurface.Plasmasphere",
        "Heliosphere.NearEarth"
      ],
      "Parameter": [
        {
          "Name": "AC Magnetic Field",
          "Set": "Time series defined by using:  EPOCH",
          "ParameterKey": "mms3_scm_acb_gse_scb_brst_l2",
          "Description": "Search Coil AC magnetic vector components in GSE coordinates.",
          "Caveats": "These calibrated (nT) AC magnetic field waveform data are sampled at 8192 samples/s. They are high-pass filtered above 1.0 Hz but not low-pass filtered. See global attributes for details. For more information, please have a look at the SCM Data Products Guide.",
          "Cadence": "PT0.0001220703125S",
          "Units": "nT",
          "UnitsConversion": "1.0e-9>T",
          "CoordinateSystem": {
            "CoordinateRepresentation": "Cartesian",
            "CoordinateSystemName": "GSE"
          },
          "RenderingHints": {
            "DisplayType": "TimeSeries",
            "ValueFormat": "e13.5",
            "ScaleType": "LinearScale"
          },
          "Structure": {
            "Size": "3",
            "Element": [
              {
                "Name": "Bx GSE",
                "Index": "1",
                "Units": "nT"
              },
              {
                "Name": "By GSE",
                "Index": "2",
                "Units": "nT"
              },
              {
                "Name": "Bz GSE",
                "Index": "3",
                "Units": "nT"
              }
            ]
          },
          "ValidMin": "-30000.0",
          "ValidMax": "30000.0",
          "FillValue": "NaN",
          "Wave": {
            "WaveType": "PlasmaWaves",
            "Qualifier": "Vector",
            "WaveQuantity": "ACMagneticField"
          }
        },
        {
          "Name": "Epoch",
          "ParameterKey": "Epoch",
          "Description": "Center time of the magnetic field sample",
          "Caveats": "This parameter exhibits an increasing monotonic progression.",
          "Cadence": "PT0.0001220703125S",
          "Units": "ns",
          "UnitsConversion": "1.0e-9>s",
          "RenderingHints": {
            "AxisLabel": "Time",
            "ValueFormat": "i20",
            "ScaleType": "LinearScale"
          },
          "ValidMin": "2010-01-01T00:00:00.000000000",
          "ValidMax": "2030-01-01T00:00:00.999999999",
          "FillValue": "9999-12-31T23:59:59.999999999",
          "Support": {
            "SupportQuantity": "Temporal"
          }
        },
        {
          "Name": "Epoch delta",
          "ParameterKey": "Epoch_delta",
          "Description": "Epoch_delta",
          "Units": "ns",
          "UnitsConversion": "1.0e-9>s",
          "RenderingHints": {
            "ValueFormat": "e13.5"
          },
          "ValidMin": "0.0",
          "ValidMax": "122070.0",
          "Support": {
            "SupportQuantity": "Temporal"
          }
        },
        {
          "Name": "Quality Factor",
          "Set": "Time series defined by using:  EPOCH",
          "ParameterKey": "mms3_scm_qf_scm123_scb_brst_l2",
          "Description": "Magnetic field vector component quality flags, three letter format.",
          "Caveats": "Each letter refers to one SCM physical antenna in the SCM123 order. G stands for good data, Z for data that are affected or set to zero by convolution boundary effect, S for saturated data, X for out of range data, B for fillvalue/bad data.",
          "Cadence": "PT0.0001220703125S",
          "RenderingHints": {
            "ValueFormat": "a3"
          },
          "FillValue": "XXX",
          "Support": {
            "SupportQuantity": "Other"
          }
        }
      ]
    }
  }
}