{
  "Spase": {
    "xmlns:xsi": "http://www.w3.org/2001/XMLSchema-instance",
    "xmlns": "http://www.spase-group.org/data/schema",
    "xsi:schemaLocation": "http://www.spase-group.org/data/schema http://www.spase-group.org/data/schema/spase-2_3_0.xsd",
    "Version": "2.3.2",
    "NumericalData": {
      "ResourceID": "spase://NASA/NumericalData/MMS/4/FastPlasmaInvestigation/DES/Burst/Level2/Moments/PT0.03S",
      "ResourceHeader": {
        "ResourceName": "MMS 4 Fast Plasma Investigation, Dual Electron Spectrometer (FPI, DES) Distribution Moments, Burst Survey, Level 2 (L2), 30 ms Data",
        "ReleaseDate": "2021-04-27T15:38:11Z",
        "Description": "The Fast Plasma Instrument (FPI) usually Operates in Fast Survey (FS) Mode in the MMS Region Of Interest (ROI) for the current Mission Phase. Data are taken at Burst (30/150 ms for DES/DIS) Resolution in this Mode. Data are also made available at Survey (4.5 s, etc.) Resolution. Per Mission Design, not all Burst Resolution Data are downlinked, but all Survey Data are downlinked. Planning around Calibration Activities, avoidance of Earth Radiation Belts, etc., when possible, FPI usually Operates in Slow Survey (SS) Mode outside of ROI, and then only the 60 s Resolution Survey Data are available. This Product contains Results from integrating the standard Moments of Phase Space Distributions formed from the indicated Data Type (DES/DIS Burst, FS or SS). For Convenience, some additional Parameters are included to augment those most commonly found in a Moments Product of this sort, plus Time Stamps and other Annotation characterizing the State of the Instrument System at the indicated Time.",
        "Acknowledgement": "J. Burch, B.L. Giles",
        "Contact": [
          {
            "PersonID": "spase://SMWG/Person/James.L.Burch",
            "Role": "PrincipalInvestigator"
          },
          {
            "PersonID": "spase://SMWG/Person/Barbara.L.Giles",
            "Role": "PrincipalInvestigator"
          },
          {
            "PersonID": "spase://SMWG/Person/Robert.E.McGuire",
            "Role": "MetadataContact"
          },
          {
            "PersonID": "spase://SMWG/Person/Lee.Frost.Bargatze",
            "Role": "MetadataContact"
          }
        ],
        "InformationURL": [
          {
            "Name": "The Magnetospheric Multiscale (MMS) Mission home page at Goddard Space Flight Center (GSFC)",
            "URL": "https://mms.gsfc.nasa.gov",
            "Description": "The Magnetospheric Multiscale (MMS) Mission Home Page hosted at the Goddard Space Flight Center (GSFC)"
          },
          {
            "Name": "The MMS Mission home page at the Science Data Center (SDC) LASP, UC Boulder",
            "URL": "https://lasp.colorado.edu/mms/sdc/public/",
            "Description": "The Magnetospheric Multiscale (MMS) Mission Home Page hosted by the Laboratory of Atmospheric and Space Physics, Science Data Center (LASP, SDC) at the University of Colorado, Boulder"
          },
          {
            "Name": "NASA Web Page providing Inforamtion for the Magnetospheric Multiscale (MMS) Fast Plasma Investigation (FPI) Instrument",
            "URL": "https://www.nasa.gov/mission_pages/mms/spacecraft/mms-instruments.html#fpi",
            "Description": "NASA Web Page providing an Overview of the Magnetospheric Multiscale (MMS) Fast Plasma Investigation (FPI) Instrument"
          }
        ],
        "PriorID": "spase://VSPO/NumericalData/MMS/4/FastPlasmaInvestigation/DES/Burst/Level2/Moments/PT0.03S"
      },
      "AccessInformation": [
        {
          "RepositoryID": "spase://SMWG/Repository/NASA/GSFC/SPDF",
          "Availability": "Online",
          "AccessRights": "Open",
          "AccessURL": [
            {
              "Name": "FTPS from SPDF (not with most browsers)",
              "URL": "ftps://spdf.gsfc.nasa.gov/pub/data/mms/mms4/fpi/brst/l2/des-moms/",
              "Description": "Access to Data in CDF Format via ftp from SPDF"
            },
            {
              "Name": "HTTPS from SPDF",
              "URL": "https://spdf.gsfc.nasa.gov/pub/data/mms/mms4/fpi/brst/l2/des-moms/",
              "Description": "Access to Data in CDF Format via http from SPDF"
            },
            {
              "Name": "CDAWeb",
              "URL": "https://cdaweb.gsfc.nasa.gov/index.html/",
              "ProductKey": "MMS4_FPI_BRST_L2_DES-MOMS",
              "Description": "Access to ASCII, CDF, and Plots via NASA/GSFC CDAWeb"
            }
          ],
          "Format": "CDF",
          "Encoding": "None",
          "Acknowledgement": "J. Burch, B.L. Giles. Please acknowledge the Data Providers and CDAWeb when using these Data."
        },
        {
          "RepositoryID": "spase://SMWG/Repository/NASA/GSFC/SPDF",
          "Availability": "Online",
          "AccessRights": "Open",
          "AccessURL": {
            "Name": "CDAWeb HAPI Server",
            "URL": "https://cdaweb.gsfc.nasa.gov/hapi",
            "Style": "HAPI",
            "ProductKey": "MMS4_FPI_BRST_L2_DES-MOMS",
            "Description": "Web Service to this product using the HAPI interface."
          },
          "Format": "CSV",
          "Acknowledgement": "J. Burch, B.L. Giles. Please acknowledge the Data Providers and CDAWeb when using these Data."
        },
        {
          "RepositoryID": "spase://SMWG/Repository/UCOLO/LASP/MMS_SDC",
          "Availability": "Online",
          "AccessRights": "Open",
          "AccessURL": {
            "Name": "HTTP access to files at the MMS Science Data Center, SDC, at the Laboratory for Atmospheric and Space Physics, LASP, University of Colorado, Boulder",
            "URL": "https://lasp.colorado.edu/mms/sdc/public/data/",
            "Description": "Access to MMS Data in CDF Format via http from the MMS SDC"
          },
          "Format": "CDF",
          "Encoding": "None",
          "Acknowledgement": "J. Burch, B.L. Giles. Please acknowledge the Data Providers and the MMS SDC when using these Data."
        }
      ],
      "ProcessingLevel": "Calibrated",
      "InstrumentID": "spase://SMWG/Instrument/MMS/1/FastPlasmaInstrument/DES",
      "MeasurementType": [
        "EnergeticParticles",
        "Spectrum",
        "ThermalPlasma"
      ],
      "TemporalDescription": {
        "TimeSpan": {
          "StartDate": "2015-07-27T00:00:00.000",
          "StopDate": "2018-06-07T23:59:59.999"
        },
        "Cadence": "PT0.03S"
      },
      "ObservedRegion": [
        "Earth.Magnetosheath",
        "Earth.Magnetosphere",
        "Earth.Magnetosphere.Magnetotail",
        "Earth.Magnetosphere.Main",
        "Earth.Magnetosphere.RadiationBelt",
        "Earth.NearSurface.EquatorialRegion",
        "Earth.NearSurface.Plasmasphere",
        "Heliosphere.NearEarth"
      ],
      "Caveats": "This SPASE Numerical Data Description is for the MMS4_FPI_BRST_L2_DES-MOMS Data Product. This Numerical Data Description has been written by utilizing the ADAPT Software Package. ADAPT can harvest Metadata that are embedded in Data Files stored in Common Data File Format that are then leveraged to populate corresponding SPASE Schema Text Fields. Typically, the CDF embedded Metadata are harvested from CDF Master Files, which contain no actual Data, in order to populate SPASE Documents. In this case, the Metadata were harvested from a \"Data\" CDF, which contains actual Data Observations from one of the four MMS FPI Instruments. The \"Data\" CDF used by ADAPT has the following Specifications: Data Product Version Number: 3.3.0, CDF Generation Date: 2018-07-07T07:13:03, CDF Skeleton Version Revision Number: 8703, and CDF Skeleton Version Revision Date: 2018-06-14T15:59:27.",
      "Parameter": [
        {
          "Name": "Epoch Time",
          "ParameterKey": "Epoch",
          "Description": "Epoch Time Tags in Terrestrial Time 2000 (TT2000), Nanoseconds since J2000",
          "Caveats": "Burst Data Begin Time, derived from the Burst Packet Time. This Parameter exhibits an increasing Monotonic Progression.",
          "Cadence": "PT0.03S",
          "Units": "ns",
          "UnitsConversion": "1.0e-9>s",
          "RenderingHints": {
            "AxisLabel": "Epoch",
            "ScaleType": "LinearScale"
          },
          "ValidMin": "1990-01-01T00:00:00.000000000",
          "ValidMax": "2100-01-01T00:00:01.000000000",
          "FillValue": "9999-12-31T23:59:59.999999999",
          "Support": {
            "SupportQuantity": "Temporal"
          }
        },
        {
          "Name": "Epoch Plus Var",
          "ParameterKey": "Epoch_plus_var",
          "Description": "Epoch Plus Var",
          "Cadence": "PT0.03S",
          "Units": "s",
          "UnitsConversion": "1.0>s",
          "RenderingHints": {
            "ValueFormat": "F4.2"
          },
          "ValidMin": "0.0",
          "ValidMax": "4.5",
          "Support": {
            "SupportQuantity": "Temporal"
          }
        },
        {
          "Name": "Epoch Minus Var",
          "ParameterKey": "Epoch_minus_var",
          "Description": "Epoch Minus Var",
          "Cadence": "PT0.03S",
          "Units": "s",
          "UnitsConversion": "1.0>s",
          "RenderingHints": {
            "ValueFormat": "F4.2"
          },
          "ValidMin": "0.0",
          "ValidMax": "4.5",
          "Support": {
            "SupportQuantity": "Temporal"
          }
        },
        {
          "Name": "Data Quality Error Flags",
          "Set": "Time Series defined by using: EPOCH",
          "ParameterKey": "mms4_des_errorflags_brst",
          "Description": "Vector of Data Quality Indicator Flag Flags at Burst Start Time",
          "Caveats": "A Value of Zero signifies no Quality Errors. For Non-Zero Values: Bit-0=Manually flagged Interval, Bit-1=Overcounting/Saturation Effects likely present in Sky Map, Bit-2=Reported Spacecraft Potential above 20 V, Bit-3=Invalid/Unavailable Spacecraft Potential, Bit-4=Significant (>10%) Cold Plasma (<10 eV) Component, Bit-5=Significant (>25%) Hot Plasma (>30 keV) Component, Bit-6=High Sonic Mach Number (V/Vth > 2.5), Bit-7=Low calculated Density (N_DES < 0.05 cm^-3), Bit-8=Bent Pipe Magnetic Field used instead of Burst l2pre Magnetic Field, Bit-9=Survey l2pre Magnetic Field used instead of Burst l2pre Magnetic Field, Bit-10=No internally generated Photoelectron Correction applied, Bit-11=Compression Pipeline Error, Bit-12=Spintone Calculation Error (DBCS only)",
          "Cadence": "PT0.03S",
          "RenderingHints": {
            "DisplayType": "TimeSeries",
            "AxisLabel": "Error_Flags",
            "ValueFormat": "I10",
            "ScaleType": "LinearScale"
          },
          "ValidMin": "0",
          "ValidMax": "4294967294",
          "FillValue": "4294967295",
          "Support": {
            "SupportQuantity": "Other"
          }
        },
        {
          "Name": "Compression Flag",
          "Set": "Time Series defined by using: EPOCH",
          "ParameterKey": "mms4_des_compressionloss_brst",
          "Description": "Compression Lossless/Lossy Indicator Flag at Survey Start Time",
          "Caveats": "Compression Loss Indicator, 0=Lossless, 1=Lossy",
          "Cadence": "PT0.03S",
          "RenderingHints": {
            "DisplayType": "TimeSeries",
            "AxisLabel": "Compress_Flag",
            "ValueFormat": "I1",
            "ScaleType": "LinearScale"
          },
          "ValidMin": "0",
          "ValidMax": "1",
          "FillValue": "255",
          "Support": {
            "SupportQuantity": "Other"
          }
        },
        {
          "Name": "Step Table Parity",
          "Set": "Time Series defined by using: EPOCH",
          "ParameterKey": "mms4_des_steptable_parity_brst",
          "Description": "Step Table Parity, this Burst",
          "Caveats": "The FPI/DES alternates between two Tables, designated \"even\" (0) and \"odd\" (1).",
          "Cadence": "PT0.03S",
          "RenderingHints": {
            "DisplayType": "TimeSeries",
            "AxisLabel": "Step_Table_Para",
            "ValueFormat": "I1",
            "ScaleType": "LinearScale"
          },
          "ValidMin": "0",
          "ValidMax": "1",
          "FillValue": "255",
          "Support": {
            "SupportQuantity": "Other"
          }
        },
        {
          "Name": "Start Del-Phi Count",
          "Set": "Time Series defined by using: EPOCH",
          "ParameterKey": "mms4_des_startdelphi_count_brst",
          "Description": "Del-Phi (Observatory Spin Phase) Count at Burst Start Time",
          "Caveats": "Nominally, the Spin Phase Counts range over [0000,5759] Counts. Each Count represents 1/16 of a Degree (0.0625°) of Observatory Spin Phase. Zero Spin Phase Angle indicates that the Observatory +X-axis is aligned with the Sun Sensor Axis.",
          "Cadence": "PT0.03S",
          "RenderingHints": {
            "DisplayType": "TimeSeries",
            "AxisLabel": "DelPhi_Count",
            "ValueFormat": "I4.4",
            "ScaleType": "LinearScale"
          },
          "ValidMin": "0",
          "ValidMax": "5761",
          "FillValue": "65535",
          "Support": {
            "SupportQuantity": "Other"
          }
        },
        {
          "Name": "Start Del-Phi Angle",
          "Set": "Time Series defined by using: EPOCH",
          "ParameterKey": "mms4_des_startdelphi_angle_brst",
          "Description": "Del-Phi (Observatory Spin Phase) Angle at Burst Start Time",
          "Caveats": "Nominally, the Spin Phase Angles range over [0°,360°). Each Count represents 1/16 of a Degree (0.0625°) of Observatory Spin Phase. Zero Spin Phase Angle indicates that the Observatory +X-axis is aligned with the Sun Sensor Axis.",
          "Cadence": "PT0.03S",
          "Units": "°",
          "UnitsConversion": "0.0174532925>rad",
          "RenderingHints": {
            "DisplayType": "TimeSeries",
            "AxisLabel": "DelPhi_Angle",
            "ValueFormat": "E12.2",
            "ScaleType": "LinearScale"
          },
          "ValidMin": "0.0",
          "ValidMax": "360.0",
          "FillValue": "-1.0e+31",
          "Support": {
            "Qualifier": [
              "DirectionAngle.AzimuthAngle",
              "PhaseAngle"
            ],
            "SupportQuantity": "Positional"
          }
        },
        {
          "Name": "Sector De-Spin P Value",
          "Set": "Time Series defined by using: EPOCH",
          "ParameterKey": "mms4_des_sector_despinp_brst",
          "Description": "Sector De-Spin P Value, this Burst",
          "Caveats": "This Variable records the P-Value used to De-Spin this Burst Sky Map onboard. See the FPI Documents for Details.",
          "Cadence": "PT0.03S",
          "RenderingHints": {
            "DisplayType": "TimeSeries",
            "AxisLabel": "DeSpin_P",
            "ValueFormat": "I2.2",
            "ScaleType": "LinearScale"
          },
          "ValidMin": "0",
          "ValidMax": "32",
          "FillValue": "255",
          "Support": {
            "SupportQuantity": "Other"
          }
        },
        {
          "Name": "Electron Pitch Angle Distribution, Low Energies",
          "Set": "Time Series defined by using: EPOCH",
          "ParameterKey": "mms4_des_pitchangdist_lowen_brst",
          "Description": "Electron Pitch Angle Distribution for Low Energies during this Burst",
          "Caveats": "Low Energy Bin: Energy Steps 00-10 (of Total Steps 00-31). Pitch Angle Bin Size: 6°. Note that the Pitch Angles are calculated in the Spacecraft Frame. Thus, these Angles are not shifted by the Bulk Velocity.",
          "Cadence": "PT0.03S",
          "Units": "keV/(cm^2 s sr keV)",
          "UnitsConversion": "1.0e4>J/(m^2 s sr J)",
          "RenderingHints": {
            "DisplayType": "Spectrogram",
            "AxisLabel": "PAD_Low",
            "ValueFormat": "E12.2",
            "ScaleType": "LinearScale"
          },
          "Structure": {
            "Size": "30",
            "Element": [
              {
                "Name": "Element 1",
                "Index": "1",
                "RenderingHints": {
                  "AxisLabel": "3.00000"
                }
              },
              {
                "Name": "Element 2",
                "Index": "2",
                "RenderingHints": {
                  "AxisLabel": "9.00000"
                }
              },
              {
                "Name": "Element 3",
                "Index": "3",
                "RenderingHints": {
                  "AxisLabel": "15.0000"
                }
              },
              {
                "Name": "Element 4",
                "Index": "4",
                "RenderingHints": {
                  "AxisLabel": "21.0000"
                }
              },
              {
                "Name": "Element 5",
                "Index": "5",
                "RenderingHints": {
                  "AxisLabel": "27.0000"
                }
              },
              {
                "Name": "Element 6",
                "Index": "6",
                "RenderingHints": {
                  "AxisLabel": "33.0000"
                }
              },
              {
                "Name": "Element 7",
                "Index": "7",
                "RenderingHints": {
                  "AxisLabel": "39.0000"
                }
              },
              {
                "Name": "Element 8",
                "Index": "8",
                "RenderingHints": {
                  "AxisLabel": "45.0000"
                }
              },
              {
                "Name": "Element 9",
                "Index": "9",
                "RenderingHints": {
                  "AxisLabel": "51.0000"
                }
              },
              {
                "Name": "Element 10",
                "Index": "10",
                "RenderingHints": {
                  "AxisLabel": "57.0000"
                }
              },
              {
                "Name": "Element 11",
                "Index": "11",
                "RenderingHints": {
                  "AxisLabel": "63.0000"
                }
              },
              {
                "Name": "Element 12",
                "Index": "12",
                "RenderingHints": {
                  "AxisLabel": "69.0000"
                }
              },
              {
                "Name": "Element 13",
                "Index": "13",
                "RenderingHints": {
                  "AxisLabel": "75.0000"
                }
              },
              {
                "Name": "Element 14",
                "Index": "14",
                "RenderingHints": {
                  "AxisLabel": "81.0000"
                }
              },
              {
                "Name": "Element 15",
                "Index": "15",
                "RenderingHints": {
                  "AxisLabel": "87.0000"
                }
              },
              {
                "Name": "Element 16",
                "Index": "16",
                "RenderingHints": {
                  "AxisLabel": "93.0000"
                }
              },
              {
                "Name": "Element 17",
                "Index": "17",
                "RenderingHints": {
                  "AxisLabel": "99.0000"
                }
              },
              {
                "Name": "Element 18",
                "Index": "18",
                "RenderingHints": {
                  "AxisLabel": "105.000"
                }
              },
              {
                "Name": "Element 19",
                "Index": "19",
                "RenderingHints": {
                  "AxisLabel": "111.000"
                }
              },
              {
                "Name": "Element 20",
                "Index": "20",
                "RenderingHints": {
                  "AxisLabel": "117.000"
                }
              },
              {
                "Name": "Element 21",
                "Index": "21",
                "RenderingHints": {
                  "AxisLabel": "123.000"
                }
              },
              {
                "Name": "Element 22",
                "Index": "22",
                "RenderingHints": {
                  "AxisLabel": "129.000"
                }
              },
              {
                "Name": "Element 23",
                "Index": "23",
                "RenderingHints": {
                  "AxisLabel": "135.000"
                }
              },
              {
                "Name": "Element 24",
                "Index": "24",
                "RenderingHints": {
                  "AxisLabel": "141.000"
                }
              },
              {
                "Name": "Element 25",
                "Index": "25",
                "RenderingHints": {
                  "AxisLabel": "147.000"
                }
              },
              {
                "Name": "Element 26",
                "Index": "26",
                "RenderingHints": {
                  "AxisLabel": "153.000"
                }
              },
              {
                "Name": "Element 27",
                "Index": "27",
                "RenderingHints": {
                  "AxisLabel": "159.000"
                }
              },
              {
                "Name": "Element 28",
                "Index": "28",
                "RenderingHints": {
                  "AxisLabel": "165.000"
                }
              },
              {
                "Name": "Element 29",
                "Index": "29",
                "RenderingHints": {
                  "AxisLabel": "171.000"
                }
              },
              {
                "Name": "Element 30",
                "Index": "30",
                "RenderingHints": {
                  "AxisLabel": "177.000"
                }
              }
            ]
          },
          "ValidMin": "0.0",
          "ValidMax": "1.0e+30",
          "FillValue": "-1.0e+31",
          "Particle": {
            "ParticleType": "Electron",
            "Qualifier": "Magnitude",
            "ParticleQuantity": "NumberFlux"
          }
        },
        {
          "Name": "Electron Pitch Angle Distribution, Mid Energies",
          "Set": "Time Series defined by using: EPOCH",
          "ParameterKey": "mms4_des_pitchangdist_miden_brst",
          "Description": "Electron Pitch Angle Distribution for Mid Energies during this Burst",
          "Caveats": "Mid Energy Bin: Energy Steps 11-20 (of Total Steps 00-31). Pitch Angle Bin Size: 6°. Note that the Pitch Angles are calculated in the Spacecraft Frame. Thus, these Angles are not shifted by the Bulk Velocity.",
          "Cadence": "PT0.03S",
          "Units": "keV/(cm^2 s sr keV)",
          "UnitsConversion": "1.0e4>J/(m^2 s sr J)",
          "RenderingHints": {
            "DisplayType": "Spectrogram",
            "AxisLabel": "PAD_Mid",
            "ValueFormat": "E12.2",
            "ScaleType": "LinearScale"
          },
          "Structure": {
            "Size": "30",
            "Element": [
              {
                "Name": "Element 1",
                "Index": "1",
                "RenderingHints": {
                  "AxisLabel": "3.00000"
                }
              },
              {
                "Name": "Element 2",
                "Index": "2",
                "RenderingHints": {
                  "AxisLabel": "9.00000"
                }
              },
              {
                "Name": "Element 3",
                "Index": "3",
                "RenderingHints": {
                  "AxisLabel": "15.0000"
                }
              },
              {
                "Name": "Element 4",
                "Index": "4",
                "RenderingHints": {
                  "AxisLabel": "21.0000"
                }
              },
              {
                "Name": "Element 5",
                "Index": "5",
                "RenderingHints": {
                  "AxisLabel": "27.0000"
                }
              },
              {
                "Name": "Element 6",
                "Index": "6",
                "RenderingHints": {
                  "AxisLabel": "33.0000"
                }
              },
              {
                "Name": "Element 7",
                "Index": "7",
                "RenderingHints": {
                  "AxisLabel": "39.0000"
                }
              },
              {
                "Name": "Element 8",
                "Index": "8",
                "RenderingHints": {
                  "AxisLabel": "45.0000"
                }
              },
              {
                "Name": "Element 9",
                "Index": "9",
                "RenderingHints": {
                  "AxisLabel": "51.0000"
                }
              },
              {
                "Name": "Element 10",
                "Index": "10",
                "RenderingHints": {
                  "AxisLabel": "57.0000"
                }
              },
              {
                "Name": "Element 11",
                "Index": "11",
                "RenderingHints": {
                  "AxisLabel": "63.0000"
                }
              },
              {
                "Name": "Element 12",
                "Index": "12",
                "RenderingHints": {
                  "AxisLabel": "69.0000"
                }
              },
              {
                "Name": "Element 13",
                "Index": "13",
                "RenderingHints": {
                  "AxisLabel": "75.0000"
                }
              },
              {
                "Name": "Element 14",
                "Index": "14",
                "RenderingHints": {
                  "AxisLabel": "81.0000"
                }
              },
              {
                "Name": "Element 15",
                "Index": "15",
                "RenderingHints": {
                  "AxisLabel": "87.0000"
                }
              },
              {
                "Name": "Element 16",
                "Index": "16",
                "RenderingHints": {
                  "AxisLabel": "93.0000"
                }
              },
              {
                "Name": "Element 17",
                "Index": "17",
                "RenderingHints": {
                  "AxisLabel": "99.0000"
                }
              },
              {
                "Name": "Element 18",
                "Index": "18",
                "RenderingHints": {
                  "AxisLabel": "105.000"
                }
              },
              {
                "Name": "Element 19",
                "Index": "19",
                "RenderingHints": {
                  "AxisLabel": "111.000"
                }
              },
              {
                "Name": "Element 20",
                "Index": "20",
                "RenderingHints": {
                  "AxisLabel": "117.000"
                }
              },
              {
                "Name": "Element 21",
                "Index": "21",
                "RenderingHints": {
                  "AxisLabel": "123.000"
                }
              },
              {
                "Name": "Element 22",
                "Index": "22",
                "RenderingHints": {
                  "AxisLabel": "129.000"
                }
              },
              {
                "Name": "Element 23",
                "Index": "23",
                "RenderingHints": {
                  "AxisLabel": "135.000"
                }
              },
              {
                "Name": "Element 24",
                "Index": "24",
                "RenderingHints": {
                  "AxisLabel": "141.000"
                }
              },
              {
                "Name": "Element 25",
                "Index": "25",
                "RenderingHints": {
                  "AxisLabel": "147.000"
                }
              },
              {
                "Name": "Element 26",
                "Index": "26",
                "RenderingHints": {
                  "AxisLabel": "153.000"
                }
              },
              {
                "Name": "Element 27",
                "Index": "27",
                "RenderingHints": {
                  "AxisLabel": "159.000"
                }
              },
              {
                "Name": "Element 28",
                "Index": "28",
                "RenderingHints": {
                  "AxisLabel": "165.000"
                }
              },
              {
                "Name": "Element 29",
                "Index": "29",
                "RenderingHints": {
                  "AxisLabel": "171.000"
                }
              },
              {
                "Name": "Element 30",
                "Index": "30",
                "RenderingHints": {
                  "AxisLabel": "177.000"
                }
              }
            ]
          },
          "ValidMin": "0.0",
          "ValidMax": "1.0e+30",
          "FillValue": "-1.0e+31",
          "Particle": {
            "ParticleType": "Electron",
            "Qualifier": "Magnitude",
            "ParticleQuantity": "NumberFlux"
          }
        },
        {
          "Name": "Electron Pitch Angle Distribution, High Energies",
          "Set": "Time Series defined by using: EPOCH",
          "ParameterKey": "mms4_des_pitchangdist_highen_brst",
          "Description": "Electron Pitch Angle Distribution for High Energies during this Burst",
          "Caveats": "High Energy Bin: Energy Steps 21-31 (of Total Steps 00-31). Pitch Angle Bin Size: 6°. Note that the Pitch Angles are calculated in the Spacecraft Frame. Thus, these Angles are not shifted by the Bulk Velocity.",
          "Cadence": "PT0.03S",
          "Units": "keV/(cm^2 s sr keV)",
          "UnitsConversion": "1.0e4>J/(m^2 s sr J)",
          "RenderingHints": {
            "DisplayType": "Spectrogram",
            "AxisLabel": "PAD_High",
            "ValueFormat": "E12.2",
            "ScaleType": "LinearScale"
          },
          "Structure": {
            "Size": "30",
            "Element": [
              {
                "Name": "Element 1",
                "Index": "1",
                "RenderingHints": {
                  "AxisLabel": "3.00000"
                }
              },
              {
                "Name": "Element 2",
                "Index": "2",
                "RenderingHints": {
                  "AxisLabel": "9.00000"
                }
              },
              {
                "Name": "Element 3",
                "Index": "3",
                "RenderingHints": {
                  "AxisLabel": "15.0000"
                }
              },
              {
                "Name": "Element 4",
                "Index": "4",
                "RenderingHints": {
                  "AxisLabel": "21.0000"
                }
              },
              {
                "Name": "Element 5",
                "Index": "5",
                "RenderingHints": {
                  "AxisLabel": "27.0000"
                }
              },
              {
                "Name": "Element 6",
                "Index": "6",
                "RenderingHints": {
                  "AxisLabel": "33.0000"
                }
              },
              {
                "Name": "Element 7",
                "Index": "7",
                "RenderingHints": {
                  "AxisLabel": "39.0000"
                }
              },
              {
                "Name": "Element 8",
                "Index": "8",
                "RenderingHints": {
                  "AxisLabel": "45.0000"
                }
              },
              {
                "Name": "Element 9",
                "Index": "9",
                "RenderingHints": {
                  "AxisLabel": "51.0000"
                }
              },
              {
                "Name": "Element 10",
                "Index": "10",
                "RenderingHints": {
                  "AxisLabel": "57.0000"
                }
              },
              {
                "Name": "Element 11",
                "Index": "11",
                "RenderingHints": {
                  "AxisLabel": "63.0000"
                }
              },
              {
                "Name": "Element 12",
                "Index": "12",
                "RenderingHints": {
                  "AxisLabel": "69.0000"
                }
              },
              {
                "Name": "Element 13",
                "Index": "13",
                "RenderingHints": {
                  "AxisLabel": "75.0000"
                }
              },
              {
                "Name": "Element 14",
                "Index": "14",
                "RenderingHints": {
                  "AxisLabel": "81.0000"
                }
              },
              {
                "Name": "Element 15",
                "Index": "15",
                "RenderingHints": {
                  "AxisLabel": "87.0000"
                }
              },
              {
                "Name": "Element 16",
                "Index": "16",
                "RenderingHints": {
                  "AxisLabel": "93.0000"
                }
              },
              {
                "Name": "Element 17",
                "Index": "17",
                "RenderingHints": {
                  "AxisLabel": "99.0000"
                }
              },
              {
                "Name": "Element 18",
                "Index": "18",
                "RenderingHints": {
                  "AxisLabel": "105.000"
                }
              },
              {
                "Name": "Element 19",
                "Index": "19",
                "RenderingHints": {
                  "AxisLabel": "111.000"
                }
              },
              {
                "Name": "Element 20",
                "Index": "20",
                "RenderingHints": {
                  "AxisLabel": "117.000"
                }
              },
              {
                "Name": "Element 21",
                "Index": "21",
                "RenderingHints": {
                  "AxisLabel": "123.000"
                }
              },
              {
                "Name": "Element 22",
                "Index": "22",
                "RenderingHints": {
                  "AxisLabel": "129.000"
                }
              },
              {
                "Name": "Element 23",
                "Index": "23",
                "RenderingHints": {
                  "AxisLabel": "135.000"
                }
              },
              {
                "Name": "Element 24",
                "Index": "24",
                "RenderingHints": {
                  "AxisLabel": "141.000"
                }
              },
              {
                "Name": "Element 25",
                "Index": "25",
                "RenderingHints": {
                  "AxisLabel": "147.000"
                }
              },
              {
                "Name": "Element 26",
                "Index": "26",
                "RenderingHints": {
                  "AxisLabel": "153.000"
                }
              },
              {
                "Name": "Element 27",
                "Index": "27",
                "RenderingHints": {
                  "AxisLabel": "159.000"
                }
              },
              {
                "Name": "Element 28",
                "Index": "28",
                "RenderingHints": {
                  "AxisLabel": "165.000"
                }
              },
              {
                "Name": "Element 29",
                "Index": "29",
                "RenderingHints": {
                  "AxisLabel": "171.000"
                }
              },
              {
                "Name": "Element 30",
                "Index": "30",
                "RenderingHints": {
                  "AxisLabel": "177.000"
                }
              }
            ]
          },
          "ValidMin": "0.0",
          "ValidMax": "1.0e+30",
          "FillValue": "-1.0e+31",
          "Particle": {
            "ParticleType": "Electron",
            "Qualifier": "Magnitude",
            "ParticleQuantity": "NumberFlux"
          }
        },
        {
          "Name": "Electron Energy Spectrum, DBCS +X Direction",
          "Set": "Time Series defined by using: EPOCH",
          "ParameterKey": "mms4_des_energyspectr_px_brst",
          "Description": "Electron Energy Spectrum \"near\" the De-spun Body Spacecraft Coordinate System, DBCS, +X Axis during this Burst",
          "Caveats": "Differential Energy Flux by Energy Bin, averaged (weighted by Solid Angle) over Particles whose DBCS Flow Direction is within 45° (Polar and Azimuthal) of the +X Axis (Instrument Look Angles: 45° ≤ Theta < 135° and 135° ≤ Phi < 225°).",
          "Cadence": "PT0.03S",
          "Units": "keV/(cm^2 s sr keV)",
          "UnitsConversion": "1.0e4>J/(m^2 s sr J)",
          "CoordinateSystem": {
            "CoordinateRepresentation": "Cartesian",
            "CoordinateSystemName": "GSE"
          },
          "RenderingHints": {
            "DisplayType": "Spectrogram",
            "AxisLabel": "DEF_px",
            "ValueFormat": "E12.2",
            "ScaleType": "LogScale"
          },
          "Structure": {
            "Size": "32"
          },
          "ValidMin": "0.0",
          "ValidMax": "1.0e+30",
          "FillValue": "-1.0e+31",
          "Particle": {
            "ParticleType": "Electron",
            "Qualifier": [
              "Array",
              "Component.I"
            ],
            "ParticleQuantity": "NumberFlux"
          }
        },
        {
          "Name": "Electron Energy Spectrum, DBCS -X Direction",
          "Set": "Time Series defined by using: EPOCH",
          "ParameterKey": "mms4_des_energyspectr_mx_brst",
          "Description": "Electron Energy Spectrum \"near\" the De-spun Body Spacecraft Coordinate System, DBCS, -X Axis during this Burst",
          "Caveats": "Differential Energy Flux by Energy Bin, averaged (weighted by Solid Angle) over Particles whose DBCS Flow Direction is within 45° (Polar and Azimuthal) of the -X Axis (Instrument Look Angles: 45° ≤ Theta < 135° and Phi ≥ 315° or Phi < 45°).",
          "Cadence": "PT0.03S",
          "Units": "keV/(cm^2 s sr keV)",
          "UnitsConversion": "1.0e4>J/(m^2 s sr J)",
          "CoordinateSystem": {
            "CoordinateRepresentation": "Cartesian",
            "CoordinateSystemName": "GSE"
          },
          "RenderingHints": {
            "DisplayType": "Spectrogram",
            "AxisLabel": "DEF_mx",
            "ValueFormat": "E12.2",
            "ScaleType": "LogScale"
          },
          "Structure": {
            "Size": "32"
          },
          "ValidMin": "0.0",
          "ValidMax": "1.0e+30",
          "FillValue": "-1.0e+31",
          "Particle": {
            "ParticleType": "Electron",
            "Qualifier": [
              "Array",
              "Component.I"
            ],
            "ParticleQuantity": "NumberFlux"
          }
        },
        {
          "Name": "Electron Energy Spectrum, DBCS +Y Direction",
          "Set": "Time Series defined by using: EPOCH",
          "ParameterKey": "mms4_des_energyspectr_py_brst",
          "Description": "Electron Energy Spectrum \"near\" the De-spun Body Spacecraft Coordinate System, DBCS, +Y Axis during this Burst",
          "Caveats": "Differential Energy Flux by Energy Bin, averaged (weighted by Solid Angle) over Particles whose DBCS Flow Direction is within 45° (Polar and Azimuthal) of the +Y Axis (Instrument Look Angles: 45° ≤ Theta < 135° and 225° ≤ Phi < 315°).",
          "Cadence": "PT0.03S",
          "Units": "keV/(cm^2 s sr keV)",
          "UnitsConversion": "1.0e4>J/(m^2 s sr J)",
          "CoordinateSystem": {
            "CoordinateRepresentation": "Cartesian",
            "CoordinateSystemName": "GSE"
          },
          "RenderingHints": {
            "DisplayType": "Spectrogram",
            "AxisLabel": "DEF_py",
            "ValueFormat": "E12.2",
            "ScaleType": "LogScale"
          },
          "Structure": {
            "Size": "32"
          },
          "ValidMin": "0.0",
          "ValidMax": "1.0e+30",
          "FillValue": "-1.0e+31",
          "Particle": {
            "ParticleType": "Electron",
            "Qualifier": [
              "Array",
              "Component.J"
            ],
            "ParticleQuantity": "NumberFlux"
          }
        },
        {
          "Name": "Electron Energy Spectrum, DBCS -Y Direction",
          "Set": "Time Series defined by using: EPOCH",
          "ParameterKey": "mms4_des_energyspectr_my_brst",
          "Description": "Electron Energy Spectrum \"near\" the De-spun Body Spacecraft Coordinate System, DBCS, -Y Axis during this Burst",
          "Caveats": "Differential Energy Flux by Energy Bin, averaged (weighted by Solid Angle) over Particles whose DBCS Flow Direction is within 45° (Polar and Azimuthal) of the -Y Axis (Instrument Look Angles: 45° ≤ Theta < 135° and 45° ≤ Phi < 135°).",
          "Cadence": "PT0.03S",
          "Units": "keV/(cm^2 s sr keV)",
          "UnitsConversion": "1.0e4>J/(m^2 s sr J)",
          "CoordinateSystem": {
            "CoordinateRepresentation": "Cartesian",
            "CoordinateSystemName": "GSE"
          },
          "RenderingHints": {
            "DisplayType": "Spectrogram",
            "AxisLabel": "DEF_my",
            "ValueFormat": "E12.2",
            "ScaleType": "LogScale"
          },
          "Structure": {
            "Size": "32"
          },
          "ValidMin": "0.0",
          "ValidMax": "1.0e+30",
          "FillValue": "-1.0e+31",
          "Particle": {
            "ParticleType": "Electron",
            "Qualifier": [
              "Array",
              "Component.J"
            ],
            "ParticleQuantity": "NumberFlux"
          }
        },
        {
          "Name": "Electron Energy Spectrum, DBCS +Z Direction",
          "Set": "Time Series defined by using: EPOCH",
          "ParameterKey": "mms4_des_energyspectr_pz_brst",
          "Description": "Electron Energy Spectrum \"near\" the De-spun Body Spacecraft Coordinate System, DBCS, +Z Axis during this Burst",
          "Caveats": "Differential Energy Flux by Energy Bin, averaged (weighted by Solid Angle) over Particles whose DBCS Flow Direction is within 45° (Polar and Azimuthal) of the +Z Axis (Instrument Look Angles: 135° ≤ Theta < 180° and 0° ≤ Phi < 360°).",
          "Cadence": "PT0.03S",
          "Units": "keV/(cm^2 s sr keV)",
          "UnitsConversion": "1.0e4>J/(m^2 s sr J)",
          "CoordinateSystem": {
            "CoordinateRepresentation": "Cartesian",
            "CoordinateSystemName": "GSE"
          },
          "RenderingHints": {
            "DisplayType": "Spectrogram",
            "AxisLabel": "DEF_pz",
            "ValueFormat": "E12.2",
            "ScaleType": "LogScale"
          },
          "Structure": {
            "Size": "32"
          },
          "ValidMin": "0.0",
          "ValidMax": "1.0e+30",
          "FillValue": "-1.0e+31",
          "Particle": {
            "ParticleType": "Electron",
            "Qualifier": [
              "Array",
              "Component.K"
            ],
            "ParticleQuantity": "NumberFlux"
          }
        },
        {
          "Name": "Electron Energy Spectrum, DBCS -Z Direction",
          "Set": "Time Series defined by using: EPOCH",
          "ParameterKey": "mms4_des_energyspectr_mz_brst",
          "Description": "Electron Energy Spectrum \"near\" the De-spun Body Spacecraft Coordinate System, DBCS, -Z Axis during this Burst",
          "Caveats": "Differential Energy Flux by Energy Bin, averaged (weighted by Solid Angle) over Particles whose DBCS Flow Direction is within 45° (Polar and Azimuthal) of the -Z Axis (Instrument Look Angles: 0° ≤ Theta < 45° and 0° ≤ Phi < 360°).",
          "Cadence": "PT0.03S",
          "Units": "keV/(cm^2 s sr keV)",
          "UnitsConversion": "1.0e4>J/(m^2 s sr J)",
          "CoordinateSystem": {
            "CoordinateRepresentation": "Cartesian",
            "CoordinateSystemName": "GSE"
          },
          "RenderingHints": {
            "DisplayType": "Spectrogram",
            "AxisLabel": "DEF_mz",
            "ValueFormat": "E12.2",
            "ScaleType": "LogScale"
          },
          "Structure": {
            "Size": "32"
          },
          "ValidMin": "0.0",
          "ValidMax": "1.0e+30",
          "FillValue": "-1.0e+31",
          "Particle": {
            "ParticleType": "Electron",
            "Qualifier": [
              "Array",
              "Component.K"
            ],
            "ParticleQuantity": "NumberFlux"
          }
        },
        {
          "Name": "Electron Energy Spectrum, B Parallel Direction",
          "Set": "Time Series defined by using: EPOCH",
          "ParameterKey": "mms4_des_energyspectr_par_brst",
          "Description": "Electron Energy Parallel to the Magnetic Field Direction during this Burst",
          "Caveats": "Differential Energy Flux by Energy Bin, averaged (weighted by Solid Angle) over Particles whose DBCS Flow Direction (not Instrument Look Direction) is within 30° of the Magnetic Field Direction.",
          "Cadence": "PT0.03S",
          "Units": "keV/(cm^2 s sr keV)",
          "UnitsConversion": "1.0e4>J/(m^2 s sr J)",
          "RenderingHints": {
            "DisplayType": "Spectrogram",
            "AxisLabel": "DEF_Para",
            "ValueFormat": "E12.2",
            "ScaleType": "LogScale"
          },
          "Structure": {
            "Size": "32"
          },
          "ValidMin": "0.0",
          "ValidMax": "1.0e+30",
          "FillValue": "-1.0e+31",
          "Particle": {
            "ParticleType": "Electron",
            "Qualifier": [
              "Array",
              "Parallel"
            ],
            "ParticleQuantity": "NumberFlux"
          }
        },
        {
          "Name": "Electron Energy Spectrum, B Anti-Parallel Direction",
          "Set": "Time Series defined by using: EPOCH",
          "ParameterKey": "mms4_des_energyspectr_anti_brst",
          "Description": "Electron Energy Anti-Parallel to the Magnetic Field Direction during this Burst",
          "Caveats": "Differential Energy Flux by Energy Bin, averaged (weighted by Solid Angle) over Particles whose DBCS Flow Direction (not Instrument Look Direction) is within 150° of the Magnetic Field Direction.",
          "Cadence": "PT0.03S",
          "Units": "keV/(cm^2 s sr keV)",
          "UnitsConversion": "1.0e4>J/(m^2 s sr J)",
          "RenderingHints": {
            "DisplayType": "Spectrogram",
            "AxisLabel": "DEF_Anti-Para",
            "ValueFormat": "E12.2",
            "ScaleType": "LogScale"
          },
          "Structure": {
            "Size": "32"
          },
          "ValidMin": "0.0",
          "ValidMax": "1.0e+30",
          "FillValue": "-1.0e+31",
          "Particle": {
            "ParticleType": "Electron",
            "Qualifier": "Array",
            "ParticleQuantity": "NumberFlux"
          }
        },
        {
          "Name": "Electron Energy Spectrum, B Perpendicular Direction",
          "Set": "Time Series defined by using: EPOCH",
          "ParameterKey": "mms4_des_energyspectr_perp_brst",
          "Description": "Electron Energy Perpendicular to the Magnetic Field Direction during this Burst",
          "Caveats": "Differential Energy Flux by Energy Bin, averaged (weighted by Solid Angle) over Particles whose DBCS Flow Direction (not Instrument Look Direction) is within 60° to 120° of the Magnetic Field Direction.",
          "Cadence": "PT0.03S",
          "Units": "keV/(cm^2 s sr keV)",
          "UnitsConversion": "1.0e4>J/(m^2 s sr J)",
          "RenderingHints": {
            "DisplayType": "Spectrogram",
            "AxisLabel": "DEF_Perp",
            "ValueFormat": "E12.2",
            "ScaleType": "LogScale"
          },
          "Structure": {
            "Size": "32"
          },
          "ValidMin": "0.0",
          "ValidMax": "1.0e+30",
          "FillValue": "-1.0e+31",
          "Particle": {
            "ParticleType": "Electron",
            "Qualifier": "Array",
            "ParticleQuantity": "NumberFlux"
          }
        },
        {
          "Name": "Electron Energy Spectrum, Omni-Directional",
          "Set": "Time Series defined by using: EPOCH",
          "ParameterKey": "mms4_des_energyspectr_omni_brst",
          "Description": "Omni-Directional Electron Energy Spectrum during this Burst",
          "Caveats": "Differential Energy Flux by Energy Bin, averaged (weighted by Solid Angle) over all Directions (Flow or Look).",
          "Cadence": "PT0.03S",
          "Units": "keV/(cm^2 s sr keV)",
          "UnitsConversion": "1.0e4>J/(m^2 s sr J)",
          "RenderingHints": {
            "DisplayType": "Spectrogram",
            "AxisLabel": "DEF_Omni",
            "ValueFormat": "E12.2",
            "ScaleType": "LogScale"
          },
          "Structure": {
            "Size": "32"
          },
          "ValidMin": "0.0",
          "ValidMax": "1.0e+30",
          "FillValue": "-1.0e+31",
          "Particle": {
            "ParticleType": "Electron",
            "Qualifier": "Array",
            "ParticleQuantity": "NumberFlux"
          }
        },
        {
          "Name": "Electron Number Density",
          "Set": "Time Series defined by using: EPOCH",
          "ParameterKey": "mms4_des_numberdensity_brst",
          "Description": "Electron Number Density during this Burst",
          "Cadence": "PT0.03S",
          "Units": "cm^-3",
          "UnitsConversion": "1.0e6>m^-3",
          "RenderingHints": {
            "DisplayType": "TimeSeries",
            "AxisLabel": "N",
            "ValueFormat": "E12.2",
            "ScaleType": "LogScale"
          },
          "ValidMin": "0.0",
          "ValidMax": "100000.0",
          "FillValue": "-1.0e+31",
          "Particle": {
            "ParticleType": "Electron",
            "Qualifier": [
              "Magnitude",
              "Moment"
            ],
            "ParticleQuantity": "NumberDensity"
          }
        },
        {
          "Name": "Electron Number Density, Error",
          "Set": "Time Series defined by using: EPOCH",
          "ParameterKey": "mms4_des_numberdensity_err_brst",
          "Description": "Electron Number Density Error during this Burst",
          "Cadence": "PT0.03S",
          "Units": "cm^-3",
          "UnitsConversion": "1.0e6>m^-3",
          "RenderingHints": {
            "DisplayType": "TimeSeries",
            "AxisLabel": "N_Error",
            "ValueFormat": "E12.2",
            "ScaleType": "LinearScale"
          },
          "ValidMin": "0.0",
          "ValidMax": "100000.0",
          "FillValue": "-1.0e+31",
          "Particle": {
            "ParticleType": "Electron",
            "Qualifier": [
              "Magnitude",
              "Moment"
            ],
            "ParticleQuantity": "NumberDensity"
          }
        },
        {
          "Name": "Electron Number Density, Extrapolation, Low",
          "Set": "Time Series defined by using: EPOCH",
          "ParameterKey": "mms4_des_densityextrapolation_low_brst",
          "Description": "Estimated Contribution (via Extrapolation to Zero) to the Electron Number Density Integral below 10 eV",
          "Cadence": "PT0.03S",
          "Units": "cm^-3",
          "UnitsConversion": "1.0e6>m^-3",
          "RenderingHints": {
            "DisplayType": "TimeSeries",
            "AxisLabel": "N",
            "ValueFormat": "E12.2",
            "ScaleType": "LogScale"
          },
          "ValidMin": "0.0",
          "ValidMax": "100000.0",
          "FillValue": "-1.0e+31",
          "Particle": {
            "ParticleType": "Electron",
            "Qualifier": [
              "Magnitude",
              "Moment"
            ],
            "ParticleQuantity": "NumberDensity"
          }
        },
        {
          "Name": "Electron Number Density, Extrapolation, High",
          "Set": "Time Series defined by using: EPOCH",
          "ParameterKey": "mms4_des_densityextrapolation_high_brst",
          "Description": "Estimated Contribution (via Extrapolation to Infinity) to the Electron Number Density Integral above 30 keV",
          "Cadence": "PT0.03S",
          "Units": "cm^-3",
          "UnitsConversion": "1.0e6>m^-3",
          "RenderingHints": {
            "DisplayType": "TimeSeries",
            "AxisLabel": "N",
            "ValueFormat": "E12.2",
            "ScaleType": "LogScale"
          },
          "ValidMin": "0.0",
          "ValidMax": "100000.0",
          "FillValue": "-1.0e+31",
          "Particle": {
            "ParticleType": "Electron",
            "Qualifier": [
              "Magnitude",
              "Moment"
            ],
            "ParticleQuantity": "NumberDensity"
          }
        },
        {
          "Name": "Electron Bulk Velocity Vector, DBCS",
          "Set": "Time Series defined by using: EPOCH",
          "ParameterKey": "mms4_des_bulkv_dbcs_brst",
          "Description": "Electron Bulk Velocity Vector during this Burst, De-spun Body Spacecraft Coordinate System, DBCS",
          "Cadence": "PT0.03S",
          "Units": "km/s",
          "UnitsConversion": "1.0e3>m/s",
          "CoordinateSystem": {
            "CoordinateRepresentation": "Cartesian",
            "CoordinateSystemName": "GSE"
          },
          "RenderingHints": {
            "DisplayType": "TimeSeries",
            "ValueFormat": "E12.2",
            "ScaleType": "LinearScale"
          },
          "Structure": {
            "Size": "3",
            "Element": [
              {
                "Name": "Vx_DBCS",
                "Index": "1"
              },
              {
                "Name": "Vy_DBCS",
                "Index": "2"
              },
              {
                "Name": "Vz_DBCS",
                "Index": "3"
              }
            ]
          },
          "ValidMin": "-110000.0",
          "ValidMax": "110000.0",
          "FillValue": "-1.0e+31",
          "Particle": {
            "ParticleType": "Electron",
            "Qualifier": [
              "Vector",
              "Moment"
            ],
            "ParticleQuantity": "FlowVelocity"
          }
        },
        {
          "Name": "Electron Bulk Velocity Spintone Vector, DBCS",
          "Set": "Time Series defined by using: EPOCH",
          "ParameterKey": "mms4_des_bulkv_spintone_dbcs_brst",
          "Description": "Electron Bulk Velocity estimated Spintone Vector during this Burst, De-spun Body Spacecraft Coordinate System, DBCS",
          "Caveats": "Estimated Systematic Error (Positive or Negative) in Spin Plane Bulk Velocity (km/s) due to imperfect Sensor Suite Flat-Fielding. This Error can be subtracted from the Bulk Velocity to obtain the corrected Velocity Vector.",
          "Cadence": "PT0.03S",
          "Units": "km/s",
          "UnitsConversion": "1.0e3>m/s",
          "CoordinateSystem": {
            "CoordinateRepresentation": "Cartesian",
            "CoordinateSystemName": "GSE"
          },
          "RenderingHints": {
            "DisplayType": "TimeSeries",
            "ValueFormat": "E12.2",
            "ScaleType": "LinearScale"
          },
          "Structure": {
            "Size": "3",
            "Element": [
              {
                "Name": "Vx_spintone_DBCS",
                "Index": "1"
              },
              {
                "Name": "Vy_spintone_DBCS",
                "Index": "2"
              },
              {
                "Name": "Vz_spintone_DBCS",
                "Index": "3"
              }
            ]
          },
          "ValidMin": "-110000.0",
          "ValidMax": "110000.0",
          "FillValue": "-1.0e+31",
          "Particle": {
            "ParticleType": "Electron",
            "Qualifier": [
              "Vector",
              "Moment"
            ],
            "ParticleQuantity": "FlowVelocity"
          }
        },
        {
          "Name": "Electron Bulk Velocity Vector, GSE",
          "Set": "Time Series defined by using: EPOCH",
          "ParameterKey": "mms4_des_bulkv_gse_brst",
          "Description": "Electron Bulk Velocity Vector during this Burst in Geocentric Solar Ecliptic, GSE, Coordinates",
          "Cadence": "PT0.03S",
          "Units": "km/s",
          "UnitsConversion": "1.0e3>m/s",
          "CoordinateSystem": {
            "CoordinateRepresentation": "Cartesian",
            "CoordinateSystemName": "GSE"
          },
          "RenderingHints": {
            "DisplayType": "TimeSeries",
            "ValueFormat": "E12.2",
            "ScaleType": "LinearScale"
          },
          "Structure": {
            "Size": "3",
            "Element": [
              {
                "Name": "Vx_GSE",
                "Index": "1"
              },
              {
                "Name": "Vy_GSE",
                "Index": "2"
              },
              {
                "Name": "Vz_GSE",
                "Index": "3"
              }
            ]
          },
          "ValidMin": "-110000.0",
          "ValidMax": "110000.0",
          "FillValue": "-1.0e+31",
          "Particle": {
            "ParticleType": "Electron",
            "Qualifier": [
              "Vector",
              "Moment"
            ],
            "ParticleQuantity": "FlowVelocity"
          }
        },
        {
          "Name": "Electron Bulk Velocity Spintone Vector, GSE",
          "Set": "Time Series defined by using: EPOCH",
          "ParameterKey": "mms4_des_bulkv_spintone_gse_brst",
          "Description": "Electron Bulk Velocity estimated Spintone Vector during this Burst in Geocentric Solar Ecliptic, GSE, Coordinates",
          "Caveats": "Estimated Systematic Error (Positive or Negative) in Spin Plane Bulk Velocity (km/s) due to imperfect Sensor Suite Flat-Fielding. This Error can be subtracted from the Bulk Velocity to obtain the corrected Velocity Vector.",
          "Cadence": "PT0.03S",
          "Units": "km/s",
          "UnitsConversion": "1.0e3>m/s",
          "CoordinateSystem": {
            "CoordinateRepresentation": "Cartesian",
            "CoordinateSystemName": "GSE"
          },
          "RenderingHints": {
            "DisplayType": "TimeSeries",
            "ValueFormat": "E12.2",
            "ScaleType": "LinearScale"
          },
          "Structure": {
            "Size": "3",
            "Element": [
              {
                "Name": "Vx_spintone_GSE",
                "Index": "1"
              },
              {
                "Name": "Vy_spintone_GSE",
                "Index": "2"
              },
              {
                "Name": "Vz_spintone_GSE",
                "Index": "3"
              }
            ]
          },
          "ValidMin": "-110000.0",
          "ValidMax": "110000.0",
          "FillValue": "-1.0e+31",
          "Particle": {
            "ParticleType": "Electron",
            "Qualifier": [
              "Vector",
              "Moment"
            ],
            "ParticleQuantity": "FlowVelocity"
          }
        },
        {
          "Name": "Electron Bulk Velocity Error Vector",
          "Set": "Time Series defined by using: EPOCH",
          "ParameterKey": "mms4_des_bulkv_err_brst",
          "Description": "Electron Bulk Velocity Error Vector during this Burst",
          "Caveats": "The Error can be applied to Data expressed by using either DBCS or GSE Coordinates",
          "Cadence": "PT0.03S",
          "Units": "km/s",
          "UnitsConversion": "1.0e3>m/s",
          "CoordinateSystem": {
            "CoordinateRepresentation": "Cartesian",
            "CoordinateSystemName": "GSE"
          },
          "RenderingHints": {
            "DisplayType": "TimeSeries",
            "ValueFormat": "E12.2",
            "ScaleType": "LinearScale"
          },
          "Structure": {
            "Size": "3",
            "Element": [
              {
                "Name": "Vx_err",
                "Index": "1"
              },
              {
                "Name": "Vy_err",
                "Index": "2"
              },
              {
                "Name": "Vz_err",
                "Index": "3"
              }
            ]
          },
          "ValidMin": "0.0",
          "ValidMax": "220000.0",
          "FillValue": "-1.0e+31",
          "Particle": {
            "ParticleType": "Electron",
            "Qualifier": [
              "Vector",
              "Moment",
              "Uncertainty"
            ],
            "ParticleQuantity": "FlowVelocity"
          }
        },
        {
          "Name": "Electron Pressure Tensor, DBCS",
          "Set": "Time Series defined by using: EPOCH",
          "ParameterKey": "mms4_des_prestensor_dbcs_brst",
          "Description": "Electron Pressure Tensor during this Burst, De-spun Body Spacecraft Coordinate System, DBCS. Column 1 Labels from : [\"x\",\"y\",\"z\"]. Column 2 Labels from : [\"x\",\"y\",\"z\"].",
          "Caveats": "The 3⨯3 Matrix is represented as: Row 1: Pxx Pxy Pxz, Row 2: Pyx Pyy Pyz, Row 3: Pzx Pzy Pzz. Note that Pij=Pji.",
          "Cadence": "PT0.03S",
          "Units": "nPa",
          "UnitsConversion": "1.0e-9>Pa",
          "CoordinateSystem": {
            "CoordinateRepresentation": "Cartesian",
            "CoordinateSystemName": "GSE"
          },
          "RenderingHints": {
            "DisplayType": "TimeSeries",
            "AxisLabel": "P_DBCS",
            "ValueFormat": "E12.2",
            "ScaleType": "LinearScale"
          },
          "Structure": {
            "Size": "3 3"
          },
          "FillValue": "-1.0e+31",
          "Particle": {
            "ParticleType": "Electron",
            "Qualifier": [
              "Tensor",
              "Moment"
            ],
            "ParticleQuantity": "Pressure"
          }
        },
        {
          "Name": "Electron Pressure Tensor, GSE",
          "Set": "Time Series defined by using: EPOCH",
          "ParameterKey": "mms4_des_prestensor_gse_brst",
          "Description": "Electron Pressure Tensor during this Burst in Geocentric Solar Ecliptic, GSE, Coordinates. Column 1 Labels from : [\"x\",\"y\",\"z\"]. Column 2 Labels from : [\"x\",\"y\",\"z\"].",
          "Caveats": "The 3⨯3 Matrix is represented as: Row 1: Pxx Pxy Pxz, Row 2: Pyx Pyy Pyz, Row 3: Pzx Pzy Pzz. Note that Pij=Pji.",
          "Cadence": "PT0.03S",
          "Units": "nPa",
          "UnitsConversion": "1.0e-9>Pa",
          "CoordinateSystem": {
            "CoordinateRepresentation": "Cartesian",
            "CoordinateSystemName": "GSE"
          },
          "RenderingHints": {
            "DisplayType": "TimeSeries",
            "AxisLabel": "P_GSE",
            "ValueFormat": "E12.2",
            "ScaleType": "LinearScale"
          },
          "Structure": {
            "Size": "3 3"
          },
          "FillValue": "-1.0e+31",
          "Particle": {
            "ParticleType": "Electron",
            "Qualifier": [
              "Tensor",
              "Moment"
            ],
            "ParticleQuantity": "Pressure"
          }
        },
        {
          "Name": "Electron Pressure Tensor, Error",
          "Set": "Time Series defined by using: EPOCH",
          "ParameterKey": "mms4_des_prestensor_err_brst",
          "Description": "Electron Pressure Tensor Error during this Burst. Column 1 Labels from : [\"x\",\"y\",\"z\"]. Column 2 Labels from : [\"x\",\"y\",\"z\"].",
          "Caveats": "The Error can be applied to Data expressed by using either DBCS or GSE Coordinates",
          "Cadence": "PT0.03S",
          "Units": "nPa",
          "UnitsConversion": "1.0e-9>Pa",
          "CoordinateSystem": {
            "CoordinateRepresentation": "Cartesian",
            "CoordinateSystemName": "GSE"
          },
          "RenderingHints": {
            "DisplayType": "TimeSeries",
            "AxisLabel": "P_Error",
            "ValueFormat": "E12.2",
            "ScaleType": "LinearScale"
          },
          "Structure": {
            "Size": "3 3"
          },
          "FillValue": "-1.0e+31",
          "Particle": {
            "ParticleType": "Electron",
            "Qualifier": [
              "Tensor",
              "Moment",
              "Uncertainty"
            ],
            "ParticleQuantity": "Pressure"
          }
        },
        {
          "Name": "Electron Temperature Tensor, DBCS",
          "Set": "Time Series defined by using: EPOCH",
          "ParameterKey": "mms4_des_temptensor_dbcs_brst",
          "Description": "Electron Temperature Tensor during this Burst, De-spun Body Spacecraft Coordinate System, DBCS. Column 1 Labels from : [\"x\",\"y\",\"z\"]. Column 2 Labels from : [\"x\",\"y\",\"z\"].",
          "Caveats": "The 3⨯3 Matrix is represented as: Row 1: Txx Txy Txz, Row 2: Tyx Tyy Tyz, Row 3: Tzx Tzy Tzz. Note that Tij=Tji.",
          "Cadence": "PT0.03S",
          "Units": "eV",
          "UnitsConversion": "1.602176565e-19>J",
          "CoordinateSystem": {
            "CoordinateRepresentation": "Cartesian",
            "CoordinateSystemName": "GSE"
          },
          "RenderingHints": {
            "DisplayType": "TimeSeries",
            "AxisLabel": "T_DBCS",
            "ValueFormat": "E12.2",
            "ScaleType": "LinearScale"
          },
          "Structure": {
            "Size": "3 3"
          },
          "FillValue": "-1.0e+31",
          "Particle": {
            "ParticleType": "Electron",
            "Qualifier": [
              "Tensor",
              "Moment"
            ],
            "ParticleQuantity": "Temperature"
          }
        },
        {
          "Name": "Electron Temperature Tensor, GSE",
          "Set": "Time Series defined by using: EPOCH",
          "ParameterKey": "mms4_des_temptensor_gse_brst",
          "Description": "Electron Temperature Tensor during this Burst in Geocentric Solar Ecliptic, GSE, Coordinates. Column 1 Labels from : [\"x\",\"y\",\"z\"]. Column 2 Labels from : [\"x\",\"y\",\"z\"].",
          "Caveats": "The 3⨯3 Matrix is represented as: Row 1: Txx Txy Txz, Row 2: Tyx Tyy Tyz, Row 3: Tzx Tzy Tzz. Note that Tij=Tji.",
          "Cadence": "PT0.03S",
          "Units": "eV",
          "UnitsConversion": "1.602176565e-19>J",
          "CoordinateSystem": {
            "CoordinateRepresentation": "Cartesian",
            "CoordinateSystemName": "GSE"
          },
          "RenderingHints": {
            "DisplayType": "TimeSeries",
            "AxisLabel": "T_GSE",
            "ValueFormat": "E12.2",
            "ScaleType": "LinearScale"
          },
          "Structure": {
            "Size": "3 3"
          },
          "FillValue": "-1.0e+31",
          "Particle": {
            "ParticleType": "Electron",
            "Qualifier": [
              "Tensor",
              "Moment"
            ],
            "ParticleQuantity": "Temperature"
          }
        },
        {
          "Name": "Electron Temperature Tensor, Error",
          "Set": "Time Series defined by using: EPOCH",
          "ParameterKey": "mms4_des_temptensor_err_brst",
          "Description": "Electron Temperature Tensor Error during this Burst. Column 1 Labels from : [\"x\",\"y\",\"z\"]. Column 2 Labels from : [\"x\",\"y\",\"z\"].",
          "Caveats": "The Error can be applied to Data expressed by using either DBCS or GSE Coordinates",
          "Cadence": "PT0.03S",
          "Units": "eV",
          "UnitsConversion": "1.602176565e-19>J",
          "CoordinateSystem": {
            "CoordinateRepresentation": "Cartesian",
            "CoordinateSystemName": "GSE"
          },
          "RenderingHints": {
            "DisplayType": "TimeSeries",
            "AxisLabel": "T_Error",
            "ValueFormat": "E12.2",
            "ScaleType": "LinearScale"
          },
          "Structure": {
            "Size": "3 3"
          },
          "FillValue": "-1.0e+31",
          "Particle": {
            "ParticleType": "Electron",
            "Qualifier": [
              "Tensor",
              "Moment",
              "Uncertainty"
            ],
            "ParticleQuantity": "Temperature"
          }
        },
        {
          "Name": "Electron Heat Flux Vector, DBCS",
          "Set": "Time Series defined by using: EPOCH",
          "ParameterKey": "mms4_des_heatq_dbcs_brst",
          "Description": "Electron Heat Flux Vector Vector during this Burst, De-spun Body Spacecraft Coordinate System, DBCS",
          "Cadence": "PT0.03S",
          "Units": "mW/m^2",
          "UnitsConversion": "1.0e-3>W/m^2",
          "CoordinateSystem": {
            "CoordinateRepresentation": "Cartesian",
            "CoordinateSystemName": "GSE"
          },
          "RenderingHints": {
            "DisplayType": "TimeSeries",
            "ValueFormat": "E12.2",
            "ScaleType": "LinearScale"
          },
          "Structure": {
            "Size": "3",
            "Element": [
              {
                "Name": "Qx_DBCS",
                "Index": "1"
              },
              {
                "Name": "Qy_DBCS",
                "Index": "2"
              },
              {
                "Name": "Qz_DBCS",
                "Index": "3"
              }
            ]
          },
          "ValidMin": "-1.0e+08",
          "ValidMax": "1.0e+08",
          "FillValue": "-1.0e+31",
          "Particle": {
            "ParticleType": "Electron",
            "Qualifier": [
              "Vector",
              "Moment"
            ],
            "ParticleQuantity": "HeatFlux"
          }
        },
        {
          "Name": "Electron Heat Flux Vector, GSE",
          "Set": "Time Series defined by using: EPOCH",
          "ParameterKey": "mms4_des_heatq_gse_brst",
          "Description": "Electron Heat Flux Vector Vector during this Burst in Geocentric Solar Ecliptic, GSE, Coordinates",
          "Cadence": "PT0.03S",
          "Units": "mW/m^2",
          "UnitsConversion": "1.0e-3>W/m^2",
          "CoordinateSystem": {
            "CoordinateRepresentation": "Cartesian",
            "CoordinateSystemName": "GSE"
          },
          "RenderingHints": {
            "DisplayType": "TimeSeries",
            "ValueFormat": "E12.2",
            "ScaleType": "LinearScale"
          },
          "Structure": {
            "Size": "3",
            "Element": [
              {
                "Name": "Qx_GSE",
                "Index": "1"
              },
              {
                "Name": "Qy_GSE",
                "Index": "2"
              },
              {
                "Name": "Qz_GSE",
                "Index": "3"
              }
            ]
          },
          "ValidMin": "-1.0e+08",
          "ValidMax": "1.0e+08",
          "FillValue": "-1.0e+31",
          "Particle": {
            "ParticleType": "Electron",
            "Qualifier": [
              "Vector",
              "Moment"
            ],
            "ParticleQuantity": "HeatFlux"
          }
        },
        {
          "Name": "Electron Heat Flux Error Vector",
          "Set": "Time Series defined by using: EPOCH",
          "ParameterKey": "mms4_des_heatq_err_brst",
          "Description": "Electron Heat Flux Error Vector during this Burst",
          "Caveats": "The Error can be applied to Data expressed by using either DBCS or GSE Coordinates",
          "Cadence": "PT0.03S",
          "Units": "mW/m^2",
          "UnitsConversion": "1.0e-3>W/m^2",
          "CoordinateSystem": {
            "CoordinateRepresentation": "Cartesian",
            "CoordinateSystemName": "GSE"
          },
          "RenderingHints": {
            "DisplayType": "TimeSeries",
            "ValueFormat": "E12.2",
            "ScaleType": "LinearScale"
          },
          "Structure": {
            "Size": "3",
            "Element": [
              {
                "Name": "Qx_err",
                "Index": "1"
              },
              {
                "Name": "Qy_err",
                "Index": "2"
              },
              {
                "Name": "Qz_err",
                "Index": "3"
              }
            ]
          },
          "ValidMin": "0.0",
          "ValidMax": "2.0e+08",
          "FillValue": "-1.0e+31",
          "Particle": {
            "ParticleType": "Electron",
            "Qualifier": [
              "Vector",
              "Moment",
              "Uncertainty"
            ],
            "ParticleQuantity": "HeatFlux"
          }
        },
        {
          "Name": "Electron Sky Map Pitch Angle, Alpha",
          "ParameterKey": "mms4_des_alpha_brst",
          "Description": "Electron Burst Survey Sky Map Pitch Angle, Alpha",
          "Caveats": "Pitch Angles Angles used in Pitch Angle Spectrograms (Bent Pipe Field)",
          "Cadence": "PT0.03S",
          "Units": "°",
          "UnitsConversion": "0.0174532925>rad",
          "RenderingHints": {
            "AxisLabel": "Pitch_Angle",
            "ValueFormat": "E12.2",
            "ScaleType": "LinearScale"
          },
          "Structure": {
            "Size": "30"
          },
          "ValidMin": "0.0",
          "ValidMax": "180.0",
          "FillValue": "-1.0e+31",
          "Support": {
            "Qualifier": "DirectionAngle.PolarAngle",
            "SupportQuantity": "Positional"
          }
        },
        {
          "Name": "Electron Sky Map Pitch Angle, Alpha, Delta Value",
          "ParameterKey": "mms4_des_alpha_delta_brst",
          "Description": "Electron Burst Survey Sky Map Pitch Angle, Alpha, Delta Value",
          "Caveats": "Pitch Angle Deltas",
          "Cadence": "PT0.03S",
          "Units": "°",
          "UnitsConversion": "0.0174532925>rad",
          "RenderingHints": {
            "AxisLabel": "Delta_Pitch_Angle",
            "ValueFormat": "E12.2",
            "ScaleType": "LinearScale"
          },
          "Structure": {
            "Size": "30"
          },
          "ValidMin": "0.0",
          "ValidMax": "10.0",
          "FillValue": "-1.0e+31",
          "Support": {
            "Qualifier": "DirectionAngle.PolarAngle",
            "SupportQuantity": "Positional"
          }
        },
        {
          "Name": "Electron Sky Map Energy",
          "Set": "Time Series defined by using: EPOCH",
          "ParameterKey": "mms4_des_energy_brst",
          "Description": "Electron Burst Survey Sky Map Parity 0/1 Energy",
          "Caveats": "Energies (Parity 0/1) in the 64-step FPI Energy Table",
          "Cadence": "PT0.03S",
          "Units": "eV",
          "UnitsConversion": "1.602176565e-19>J",
          "RenderingHints": {
            "AxisLabel": "Energy",
            "ValueFormat": "E12.2",
            "ScaleType": "LogScale"
          },
          "Structure": {
            "Size": "32"
          },
          "ValidMin": "0.0",
          "ValidMax": "32000.0",
          "FillValue": "-1.0e+31",
          "Particle": {
            "ParticleType": "Electron",
            "Qualifier": "Array",
            "ParticleQuantity": "Energy"
          }
        },
        {
          "Name": "Electron Sky Map Energy, Delta Value",
          "Set": "Time Series defined by using: EPOCH",
          "ParameterKey": "mms4_des_energy_delta_brst",
          "Description": "Electron Burst Survey Sky Map Energy, Delta Value",
          "Caveats": "Note that the Deltas are provided to indicate that the FPI is reporting the Energy Bin Centers. The Deltas do not necessarily reflect the Energy Bandwidth that is sampled by the FPI for a given Energy Step.",
          "Cadence": "PT0.03S",
          "Units": "eV",
          "UnitsConversion": "1.602176565e-19>J",
          "RenderingHints": {
            "AxisLabel": "Delta_Energy",
            "ValueFormat": "E12.2",
            "ScaleType": "LogScale"
          },
          "Structure": {
            "Size": "32"
          },
          "ValidMin": "0.0",
          "ValidMax": "5000.0",
          "FillValue": "-1.0e+31",
          "Particle": {
            "ParticleType": "Electron",
            "Qualifier": "Array",
            "ParticleQuantity": "Energy"
          }
        },
        {
          "Name": "Electron Parallel Temperature",
          "Set": "Time Series defined by using: EPOCH",
          "ParameterKey": "mms4_des_temppara_brst",
          "Description": "Electron Parallel Temperature during this BP",
          "Cadence": "PT0.03S",
          "Units": "eV",
          "UnitsConversion": "1.602176565e-19>J",
          "RenderingHints": {
            "DisplayType": "TimeSeries",
            "AxisLabel": "eT_Para",
            "ValueFormat": "E12.2",
            "ScaleType": "LinearScale"
          },
          "ValidMin": "0.0",
          "ValidMax": "1.0e+30",
          "FillValue": "-1.0e+31",
          "Particle": {
            "ParticleType": "Electron",
            "Qualifier": [
              "Parallel",
              "FieldAligned",
              "Scalar"
            ],
            "ParticleQuantity": "Temperature"
          }
        },
        {
          "Name": "Electron Perpendicular Temperature",
          "Set": "Time Series defined by using: EPOCH",
          "ParameterKey": "mms4_des_tempperp_brst",
          "Description": "Electron Perpendicular Temperature during this BP",
          "Cadence": "PT0.03S",
          "Units": "eV",
          "UnitsConversion": "1.602176565e-19>J",
          "RenderingHints": {
            "DisplayType": "TimeSeries",
            "AxisLabel": "eT_Perp",
            "ValueFormat": "E12.2",
            "ScaleType": "LinearScale"
          },
          "ValidMin": "0.0",
          "ValidMax": "1.0e+30",
          "FillValue": "-1.0e+31",
          "Particle": {
            "ParticleType": "Electron",
            "Qualifier": [
              "Parallel",
              "Scalar"
            ],
            "ParticleQuantity": "Temperature"
          }
        }
      ]
    }
  }
}