{
  "Spase": {
    "xmlns": "http://www.spase-group.org/data/schema",
    "xmlns:xsi": "http://www.w3.org/2001/XMLSchema-instance",
    "xsi:schemaLocation": "http://www.spase-group.org/data/schema  https://www.spase-group.org/data/schema/spase-2_3_2.xsd",
    "Version": "2.3.2",
    "NumericalData": {
      "ResourceID": "spase://NASA/NumericalData/IMP8/GME/PT30M",
      "ResourceHeader": {
        "ResourceName": "IMP 8 Goddard Medium Energy (GME) 30-min energetic particle rates and fluxes",
        "ReleaseDate": "2021-04-27T15:38:11Z",
        "Description": "This CDAWeb-accessible data set contains 30-minute,\nspin-averaged count rates and fluxes, and their statistical uncertainties,\nof energetic particles from the IMP8 GME experiment.  Included are fluxes\nof: protons in 30 energy bins from 0.88-1.15 to 327-485 MeV; alpha particles\nin 21 energy bins from 1.14-1.36 to 63.3-81.0 MeV/n; and 0.3-18 MeV electrons. \nAlso included are count rates for each of 7 sensors and for 11 multi-sensor\ncoincidence modes.  Proton and alpha particle fluxes, for every other energy bin, are given at the FTPBrowser and MSSP interfaces identified below.",
        "Acknowledgement": "Acknowledge Robert E. McGuire, the PI.",
        "Contact": {
          "PersonID": "spase://SMWG/Person/Robert.E.McGuire",
          "Role": "PrincipalInvestigator"
        },
        "InformationURL": [
          {
            "Name": "NSSDC Master Catalog",
            "URL": "https://nssdc.gsfc.nasa.gov/nmc/experiment/display.action?id=1973-078A-09"
          },
          {
            "Name": "CDAWeb Skeleton Table",
            "URL": "https://spdf.gsfc.nasa.gov/pub/software/cdawlib/0SKELTABLES/i8_h0_gme_00000000_v01.skt"
          }
        ],
        "PriorID": [
          "spase://VEPO/NumericalData/IMP8/GME/PT30M",
          "spase://VSPO/NumericalData/IMP8/GME/PT30M"
        ]
      },
      "AccessInformation": [
        {
          "RepositoryID": "spase://SMWG/Repository/NASA/GSFC/SPDF",
          "Availability": "Online",
          "AccessRights": "Open",
          "AccessURL": [
            {
              "Name": "FTPS from SPDF (not with most browsers)",
              "URL": "ftps://spdf.gsfc.nasa.gov/pub/data/imp/imp8/particles_gme/data/flux/gme_h0/",
              "Description": "ftp access to 6-month CDF files"
            },
            {
              "Name": "HTTPS from SPDF",
              "URL": "https://spdf.gsfc.nasa.gov/pub/data/imp/imp8/particles_gme/data/flux/gme_h0/",
              "Description": "In CDF via HTTP from SPDF"
            },
            {
              "Name": "CDAWeb",
              "URL": "https://cdaweb.gsfc.nasa.gov/cgi-bin/eval2.cgi?dataset=I8_H0_GME&index=sp_phys",
              "ProductKey": "I8_H0_GME",
              "Description": "Subset, plot and list via CDAWeb; ASCII output option"
            }
          ],
          "Format": "CDF",
          "DataExtent": {
            "Quantity": "200",
            "Units": "MB"
          },
          "Acknowledgement": "Acknowledge Robert E. McGuire, the PI, and CDAWeb"
        },
        {
          "RepositoryID": "spase://SMWG/Repository/NASA/GSFC/SPDF",
          "Availability": "Online",
          "AccessRights": "Open",
          "AccessURL": {
            "Name": "CDAWeb HAPI Server",
            "URL": "https://cdaweb.gsfc.nasa.gov/hapi",
            "Style": "HAPI",
            "ProductKey": "I8_H0_GME",
            "Description": "Web Service to this product using the HAPI interface."
          },
          "Format": "CSV",
          "Acknowledgement": "Acknowledge Robert E. McGuire, the PI, and CDAWeb"
        },
        {
          "RepositoryID": "spase://SMWG/Repository/NASA/GSFC/SPDF",
          "Availability": "Online",
          "AccessRights": "Open",
          "AccessURL": [
            {
              "Name": "FTPBrowser",
              "URL": "https://omniweb.sci.gsfc.nasa.gov/ftpbrowser/imp8_gme_30m.html",
              "Description": "Subset, plot and list H and He fluxes"
            },
            {
              "Name": "Multi-Source Spectral Plot",
              "URL": "https://omniweb.sci.gsfc.nasa.gov/ftpbrowser/flux_spectr_m.html",
              "Description": "Spectral plots and power law fits for arbitrary durations for H and He fluxes"
            }
          ],
          "Format": "Text",
          "Acknowledgement": "Acknowledge Robert E. McGuire, the PI, SPDF and the service used"
        }
      ],
      "InstrumentID": "spase://SMWG/Instrument/IMP8/MCGUIRE",
      "MeasurementType": "EnergeticParticles",
      "TemporalDescription": {
        "TimeSpan": {
          "StartDate": "1973-11-01T00:00:00",
          "StopDate": "2001-10-26T00:00:00"
        },
        "Cadence": "PT30M"
      },
      "ObservedRegion": "Heliosphere.NearEarth",
      "Parameter": [
        {
          "Name": "Proton fluxes",
          "Description": "Spin-integrated fluxes of protons, at 30-min resolution,\nin 30 energy bins ranging from 0.88-1.15 MeV to 327-485 MeV, and statistical\nuncertainties in these fluxes",
          "Cadence": "PT30M",
          "Units": "1/sec-cm**2-ster-MeV",
          "Structure": {
            "Size": "30 2",
            "Description": "Array of fluxes and corresponding uncertainties at 30\nenergy windows"
          },
          "Particle": {
            "ParticleType": "Proton",
            "ParticleQuantity": "NumberFlux",
            "AtomicNumber": "1",
            "EnergyRange": {
              "Low": "0.88",
              "High": "485",
              "Units": "MeV"
            }
          }
        },
        {
          "Name": "Alpha particle fluxes",
          "Description": "Spin-integrated fluxes of alpha particles, at 30-min\nresolution, in 21 energy bins ranging from 1.14-1.36 MeV/n to 63.3-81.0\nMeV/n, and statistical uncertainties in these fluxes",
          "Cadence": "PT30M",
          "Units": "1/sec-cm**2-ster-MeV/n",
          "Structure": {
            "Size": "21 2",
            "Description": "Array of fluxes and corresponding uncertainties at 21\nenergy windows"
          },
          "Particle": {
            "ParticleType": "AlphaParticle",
            "ParticleQuantity": "NumberFlux",
            "AtomicNumber": "2",
            "EnergyRange": {
              "Low": "1.14",
              "High": "81",
              "Units": "MeV/n"
            }
          }
        },
        {
          "Name": "Electron fluxes",
          "Description": "Spin-integrated fluxes of 3-18 MeV electrons, at\n30-min resolution, and statistical uncertainties in these fluxes",
          "Cadence": "PT30M",
          "Units": "1/sec-cm**2-ster-MeV",
          "Structure": {
            "Size": "2",
            "Description": "Array of one flux and its corresponding uncertainty"
          },
          "Particle": {
            "ParticleType": "Electron",
            "ParticleQuantity": "NumberFlux",
            "EnergyRange": {
              "Low": "3",
              "High": "18",
              "Units": "MeV"
            }
          }
        },
        {
          "Name": "Electron background fluxes",
          "Description": "Spin-integrated fluxes considered as background\nfor 3-18 MeV electron flux, at 30-min resolution, and statistical\nuncertainties in these fluxes",
          "Cadence": "PT30M",
          "Units": "1/sec-cm**2-ster-MeV",
          "Structure": {
            "Size": "2",
            "Description": "Array of one flux and its corresponding uncertainty"
          },
          "Particle": {
            "ParticleType": "Electron",
            "ParticleQuantity": "NumberFlux"
          }
        }
      ]
    }
  }
}