{
  "Spase": {
    "xmlns": "http://www.spase-group.org/data/schema",
    "xmlns:xsi": "http://www.w3.org/2001/XMLSchema-instance",
    "xsi:schemaLocation": "http://www.spase-group.org/data/schema   http://www.spase-group.org/data/schema/spase-2_3_0.xsd",
    "Version": "2.3.0",
    "NumericalData": {
      "ResourceID": "spase://GBO/NumericalData/Learmonth/GONG/PT86400S",
      "ResourceHeader": {
        "ResourceName": "GONG Solar Data from Learmonth",
        "ReleaseDate": "2021-04-23T18:51:26Z",
        "Description": "GONG (Global Oscillations Network Group) helioseismology data from Learmonth Observatory, LOS_velocity and LOS_magnetic field data, 6768 A.",
        "Contact": {
          "PersonID": "spase://SMWG/Person/Alexei.Pevtsov",
          "Role": "GeneralContact"
        },
        "PriorID": [
          "spase://VSPO/NumericalData/P_GONG_HDR_LEARMONTH",
          "spase://VSPO/NumericalData/Ground/Learmonth/GONG/PT86400S"
        ]
      },
      "AccessInformation": {
        "RepositoryID": "spase://SMWG/Repository/SHA",
        "Availability": "Online",
        "AccessRights": "Open",
        "AccessURL": [
          {
            "Name": "about GONG, from NSO",
            "URL": "https://gong.nso.edu/"
          },
          {
            "Name": "NISP Data Site",
            "URL": "https://nso.edu/data/nisp-data/"
          },
          {
            "Name": "Virtual Solar Observatory",
            "URL": "https://sdac.virtualsolar.org/cgi/search"
          }
        ],
        "Format": "FITS"
      },
      "ProviderProcessingLevel": "CALIBRATED",
      "InstrumentID": "spase://SMWG/Instrument/Ground/Learmonth/GONG",
      "MeasurementType": [
        "Dopplergram",
        "Magnetogram",
        "ImageIntensity"
      ],
      "TemporalDescription": {
        "TimeSpan": {
          "StartDate": "2001-04-30T00:00:00",
          "RelativeStopDate": "-P3M",
          "Note": "Data are several months behind current."
        },
        "Cadence": "PT86400S"
      },
      "ObservedRegion": [
        "Sun",
        "Sun.Photosphere"
      ]
    }
  }
}