{
  "Spase": {
    "xmlns": "http://www.spase-group.org/data/schema",
    "xmlns:xsi": "http://www.w3.org/2001/XMLSchema-instance",
    "xsi:schemaLocation": "http://www.spase-group.org/data/schema  https://www.spase-group.org/data/schema/spase-2_3_2.xsd",
    "Version": "2.3.2",
    "NumericalData": {
      "ResourceID": "spase://NASA/NumericalData/DE2/NACS/PT1S",
      "ResourceHeader": {
        "ResourceName": "DE 2 1-sec NACS Temperature and Composition data",
        "AlternateName": [
          "Dynamics Explorer 2 NACS data",
          "DE-B NACS data"
        ],
        "ReleaseDate": "2021-04-27T15:38:11Z",
        "Description": "This data set containss, at 1-sec resolution,\nthe neutral temperature and the densities (and % error) of O, N2,\nHe, N, and Ar from the Neutral Atmosphere Composition Spectrometer\n(NACS) flown on DE 2.  Composition data are most reliable at\naltitudes less than 500 km.  Data are available in ASCII from\nnssdcftp and in CDF format from CDAWeb (as well as CDAWeb plots\nand lists).",
        "Acknowledgement": "Please acknowledge the NACS Principal\nInvestigator, Dr. George Carignan",
        "Contact": [
          {
            "PersonID": "spase://SMWG/Person/George.R.Carignan",
            "Role": "PrincipalInvestigator"
          },
          {
            "PersonID": "spase://SMWG/Person/Robert.M.Candey",
            "Role": "GeneralContact"
          }
        ],
        "InformationURL": {
          "Name": "Readme file at SPDF",
          "URL": "https://spdf.gsfc.nasa.gov/pub/data/de/de2/neutral_gas_nacs/00readme.txt"
        },
        "PriorID": "spase://VSPO/NumericalData/DE2/NACS/PT1S"
      },
      "AccessInformation": [
        {
          "RepositoryID": "spase://SMWG/Repository/NASA/GSFC/SPDF",
          "Availability": "Online",
          "AccessRights": "Open",
          "AccessURL": [
            {
              "Name": "FTPS from SPDF (not with most browsers)",
              "URL": "ftps://spdf.gsfc.nasa.gov/pub/data/de/de2/neutral_gas_nacs/",
              "Description": "For ftp retrieval of daily CDF files"
            },
            {
              "Name": "HTTPS from SPDF",
              "URL": "https://spdf.gsfc.nasa.gov/pub/data/de/de2/neutral_gas_nacs/",
              "Description": "In CDF via HTTP from CDAWeb"
            }
          ],
          "Format": "CDF",
          "DataExtent": {
            "Quantity": "600",
            "Units": "KB",
            "Per": "P1D"
          },
          "Acknowledgement": "Please acknowledge the NACS Principal Investigator,\nDr. George Carignan and the Space Physics Data Facility at NASA/GSFC"
        },
        {
          "RepositoryID": "spase://SMWG/Repository/NASA/GSFC/SPDF",
          "Availability": "Online",
          "AccessRights": "Open",
          "AccessURL": {
            "Name": "CDAWeb",
            "URL": "https://cdaweb.gsfc.nasa.gov/cgi-bin/eval2.cgi?dataset=DE2_NEUTRAL1S_NACS&index=sp_phys",
            "ProductKey": "DE2_NEUTRAL1S_NACS",
            "Description": "For CDAWeb subset, plot and list capabilities"
          },
          "Format": "Text",
          "DataExtent": {
            "Quantity": "100",
            "Units": "KB",
            "Per": "PT1H"
          },
          "Acknowledgement": "Please acknowledge the NACS Principal Investigator,\nDr. George Carignan, and the Space Physics Data Facility at NASA/GSFC"
        },
        {
          "RepositoryID": "spase://SMWG/Repository/NASA/GSFC/SPDF",
          "Availability": "Online",
          "AccessRights": "Open",
          "AccessURL": {
            "Name": "CDAWeb HAPI Server",
            "URL": "https://cdaweb.gsfc.nasa.gov/hapi",
            "Style": "HAPI",
            "ProductKey": "DE2_NEUTRAL1S_NACS",
            "Description": "Web Service to this product using the HAPI interface."
          },
          "Format": "CSV",
          "Acknowledgement": "Please acknowledge the NACS Principal Investigator,\nDr. George Carignan, and the Space Physics Data Facility at NASA/GSFC"
        }
      ],
      "ProcessingLevel": "Calibrated",
      "InstrumentID": "spase://SMWG/Instrument/DynamicsExplorer2/NACS",
      "MeasurementType": "NeutralGas",
      "TemporalDescription": {
        "TimeSpan": {
          "StartDate": "1981-08-08T00:00:00",
          "StopDate": "1983-02-15T00:00:00"
        },
        "Cadence": "PT1S"
      },
      "ObservedRegion": "Earth.NearSurface.Atmosphere"
    }
  }
}